0xaa00 1 0 0 1
0x4000 1 0 0 1
0x5555 1 0 0 1
0x5555 1 0 0 1
0x5555 1 0 0 1
0x5555 1 1 0 1
0x01f4 1 0 0 1
0x01f4 1 0 0 1
0x01f4 1 0 0 1
0x01f4 1 0 0 1
0x01f4 1 0 0 1
0x01f4 1 0 0 1
0x01f4 1 0 0 1
0x01f4 1 0 0 1
0x01f4 1 0 0 1
0x01f4 1 0 0 1
0x01f4 1 0 0 1
0x01f4 1 0 0 1
0x01f4 1 0 0 1
0x01f4 1 0 0 1
0x01f4 1 0 0 1
0x01f4 1 0 0 1
0x01f4 1 0 0 1
0x01f4 1 0 0 1
0x01f4 1 0 0 1
0x01f4 1 0 0 1
0x01f4 1 0 0 1
0x01f4 1 0 0 1
0x01f4 1 0 0 1
0x01f4 1 0 0 1
0x01f4 1 0 0 1
0x01f4 1 0 0 1
0x01f4 1 0 0 1
0x01f4 1 0 0 1
0x01f4 1 0 0 1
0x01f4 1 0 0 1
0x01f4 1 0 0 1
0x01f4 1 0 0 1
0x01f4 1 0 0 1
0x01f4 1 0 0 1
0x01f4 1 0 0 1
0x01f4 1 0 0 1
0x01f4 1 0 0 1
0x01f4 1 0 0 1
0x01f4 1 0 0 1
0x01f4 1 0 0 1
0x01f4 1 0 0 1
0x01f4 1 0 0 1
0x01f5 1 0 0 1
0x01f6 1 0 0 1
0x01f8 1 0 0 1
0x01fa 1 0 0 1
0x01fd 1 0 0 1
0x0201 1 0 0 1
0x0206 1 0 0 1
0x020c 1 0 0 1
0x0212 1 0 0 1
0x0218 1 0 0 1
0x021d 1 0 0 1
0x0222 1 0 0 1
0x0225 1 0 0 1
0x0226 1 0 0 1
0x0225 1 0 0 1
0x0222 1 0 0 1
0x021d 1 0 0 1
0x0218 1 0 0 1
0x0212 1 0 0 1
0x020c 1 0 0 1
0x0206 1 0 0 1
0x0201 1 1 1 1
0xaa04 1 0 0 1
0x4000 1 0 0 1
0x5555 1 0 0 1
0x5555 1 0 0 1
0x5555 1 0 0 1
0x5555 1 1 0 1
0x01f4 1 0 0 1
0x01f4 1 0 0 1
0x01f4 1 0 0 1
0x01f4 1 0 0 1
0x01f4 1 0 0 1
0x01f4 1 0 0 1
0x01f4 1 0 0 1
0x01f4 1 0 0 1
0x01f4 1 0 0 1
0x01f4 1 0 0 1
0x01f4 1 0 0 1
0x01f4 1 0 0 1
0x01f4 1 0 0 1
0x01f4 1 0 0 1
0x01f4 1 0 0 1
0x01f4 1 0 0 1
0x01f4 1 0 0 1
0x01f4 1 0 0 1
0x01f4 1 0 0 1
0x01f4 1 0 0 1
0x01f4 1 0 0 1
0x01f4 1 0 0 1
0x01f4 1 0 0 1
0x01f4 1 0 0 1
0x01f4 1 0 0 1
0x01f4 1 0 0 1
0x01f4 1 0 0 1
0x01f4 1 0 0 1
0x01f4 1 0 0 1
0x01f4 1 0 0 1
0x01f4 1 0 0 1
0x01f4 1 0 0 1
0x01f4 1 0 0 1
0x01f4 1 0 0 1
0x01f4 1 0 0 1
0x01f4 1 0 0 1
0x01f4 1 0 0 1
0x01f4 1 0 0 1
0x01f4 1 0 0 1
0x01f4 1 0 0 1
0x01f4 1 0 0 1
0x01f4 1 0 0 1
0x01f5 1 0 0 1
0x01f6 1 0 0 1
0x01f8 1 0 0 1
0x01fa 1 0 0 1
0x01fd 1 0 0 1
0x0201 1 0 0 1
0x0206 1 0 0 1
0x020c 1 0 0 1
0x0212 1 0 0 1
0x0218 1 0 0 1
0x021d 1 0 0 1
0x0222 1 0 0 1
0x0225 1 0 0 1
0x0226 1 0 0 1
0x0225 1 0 0 1
0x0222 1 0 0 1
0x021d 1 0 0 1
0x0218 1 0 0 1
0x0212 1 0 0 1
0x020c 1 0 0 1
0x0206 1 0 0 1
0x0201 1 1 1 1
0xaa08 1 0 0 1
0x4000 1 0 0 1
0x5555 1 0 0 1
0x5555 1 0 0 1
0x5555 1 0 0 1
0x5555 1 1 0 1
0x01f4 1 0 0 1
0x01f4 1 0 0 1
0x01f4 1 0 0 1
0x01f4 1 0 0 1
0x01f4 1 0 0 1
0x01f4 1 0 0 1
0x01f4 1 0 0 1
0x01f4 1 0 0 1
0x01f4 1 0 0 1
0x01f4 1 0 0 1
0x01f4 1 0 0 1
0x01f4 1 0 0 1
0x01f4 1 0 0 1
0x01f4 1 0 0 1
0x01f4 1 0 0 1
0x01f4 1 0 0 1
0x01f4 1 0 0 1
0x01f4 1 0 0 1
0x01f4 1 0 0 1
0x01f4 1 0 0 1
0x01f4 1 0 0 1
0x01f4 1 0 0 1
0x01f4 1 0 0 1
0x01f4 1 0 0 1
0x01f4 1 0 0 1
0x01f4 1 0 0 1
0x01f4 1 0 0 1
0x01f4 1 0 0 1
0x01f4 1 0 0 1
0x01f4 1 0 0 1
0x01f4 1 0 0 1
0x01f4 1 0 0 1
0x01f4 1 0 0 1
0x01f4 1 0 0 1
0x01f4 1 0 0 1
0x01f4 1 0 0 1
0x01f4 1 0 0 1
0x01f4 1 0 0 1
0x01f4 1 0 0 1
0x01f4 1 0 0 1
0x01f4 1 0 0 1
0x01f4 1 0 0 1
0x01f5 1 0 0 1
0x01f6 1 0 0 1
0x01f8 1 0 0 1
0x01fa 1 0 0 1
0x01fd 1 0 0 1
0x0201 1 0 0 1
0x0206 1 0 0 1
0x020c 1 0 0 1
0x0212 1 0 0 1
0x0218 1 0 0 1
0x021d 1 0 0 1
0x0222 1 0 0 1
0x0225 1 0 0 1
0x0226 1 0 0 1
0x0225 1 0 0 1
0x0222 1 0 0 1
0x021d 1 0 0 1
0x0218 1 0 0 1
0x0212 1 0 0 1
0x020c 1 0 0 1
0x0206 1 0 0 1
0x0201 1 1 1 1
0xaa0c 1 0 0 1
0x4000 1 0 0 1
0x5555 1 0 0 1
0x5555 1 0 0 1
0x5555 1 0 0 1
0x5555 1 1 0 1
0x01f4 1 0 0 1
0x01f4 1 0 0 1
0x01f4 1 0 0 1
0x01f4 1 0 0 1
0x01f4 1 0 0 1
0x01f4 1 0 0 1
0x01f4 1 0 0 1
0x01f4 1 0 0 1
0x01f4 1 0 0 1
0x01f4 1 0 0 1
0x01f4 1 0 0 1
0x01f4 1 0 0 1
0x01f4 1 0 0 1
0x01f4 1 0 0 1
0x01f4 1 0 0 1
0x01f4 1 0 0 1
0x01f4 1 0 0 1
0x01f4 1 0 0 1
0x01f4 1 0 0 1
0x01f4 1 0 0 1
0x01f4 1 0 0 1
0x01f4 1 0 0 1
0x01f4 1 0 0 1
0x01f4 1 0 0 1
0x01f4 1 0 0 1
0x01f4 1 0 0 1
0x01f4 1 0 0 1
0x01f4 1 0 0 1
0x01f4 1 0 0 1
0x01f4 1 0 0 1
0x01f4 1 0 0 1
0x01f4 1 0 0 1
0x01f4 1 0 0 1
0x01f4 1 0 0 1
0x01f4 1 0 0 1
0x01f4 1 0 0 1
0x01f4 1 0 0 1
0x01f4 1 0 0 1
0x01f4 1 0 0 1
0x01f4 1 0 0 1
0x01f4 1 0 0 1
0x01f4 1 0 0 1
0x01f5 1 0 0 1
0x01f6 1 0 0 1
0x01f8 1 0 0 1
0x01fa 1 0 0 1
0x01fd 1 0 0 1
0x0201 1 0 0 1
0x0206 1 0 0 1
0x020c 1 0 0 1
0x0212 1 0 0 1
0x0218 1 0 0 1
0x021d 1 0 0 1
0x0222 1 0 0 1
0x0225 1 0 0 1
0x0226 1 0 0 1
0x0225 1 0 0 1
0x0222 1 0 0 1
0x021d 1 0 0 1
0x0218 1 0 0 1
0x0212 1 0 0 1
0x020c 1 0 0 1
0x0206 1 0 0 1
0x0201 1 1 1 1
0xaa10 1 0 0 1
0x4000 1 0 0 1
0x5555 1 0 0 1
0x5555 1 0 0 1
0x5555 1 0 0 1
0x5555 1 1 0 1
0x01f4 1 0 0 1
0x01f4 1 0 0 1
0x01f4 1 0 0 1
0x01f4 1 0 0 1
0x01f4 1 0 0 1
0x01f4 1 0 0 1
0x01f4 1 0 0 1
0x01f4 1 0 0 1
0x01f4 1 0 0 1
0x01f4 1 0 0 1
0x01f4 1 0 0 1
0x01f4 1 0 0 1
0x01f4 1 0 0 1
0x01f4 1 0 0 1
0x01f4 1 0 0 1
0x01f4 1 0 0 1
0x01f4 1 0 0 1
0x01f4 1 0 0 1
0x01f4 1 0 0 1
0x01f4 1 0 0 1
0x01f4 1 0 0 1
0x01f4 1 0 0 1
0x01f4 1 0 0 1
0x01f4 1 0 0 1
0x01f4 1 0 0 1
0x01f4 1 0 0 1
0x01f4 1 0 0 1
0x01f4 1 0 0 1
0x01f4 1 0 0 1
0x01f4 1 0 0 1
0x01f4 1 0 0 1
0x01f4 1 0 0 1
0x01f4 1 0 0 1
0x01f4 1 0 0 1
0x01f4 1 0 0 1
0x01f4 1 0 0 1
0x01f4 1 0 0 1
0x01f4 1 0 0 1
0x01f4 1 0 0 1
0x01f4 1 0 0 1
0x01f4 1 0 0 1
0x01f4 1 0 0 1
0x01f5 1 0 0 1
0x01f6 1 0 0 1
0x01f8 1 0 0 1
0x01fa 1 0 0 1
0x01fd 1 0 0 1
0x0201 1 0 0 1
0x0206 1 0 0 1
0x020c 1 0 0 1
0x0212 1 0 0 1
0x0218 1 0 0 1
0x021d 1 0 0 1
0x0222 1 0 0 1
0x0225 1 0 0 1
0x0226 1 0 0 1
0x0225 1 0 0 1
0x0222 1 0 0 1
0x021d 1 0 0 1
0x0218 1 0 0 1
0x0212 1 0 0 1
0x020c 1 0 0 1
0x0206 1 0 0 1
0x0201 1 1 1 1
0xaa14 1 0 0 1
0x4000 1 0 0 1
0x5555 1 0 0 1
0x5555 1 0 0 1
0x5555 1 0 0 1
0x5555 1 1 0 1
0x01f4 1 0 0 1
0x01f4 1 0 0 1
0x01f4 1 0 0 1
0x01f4 1 0 0 1
0x01f4 1 0 0 1
0x01f4 1 0 0 1
0x01f4 1 0 0 1
0x01f4 1 0 0 1
0x01f4 1 0 0 1
0x01f4 1 0 0 1
0x01f4 1 0 0 1
0x01f4 1 0 0 1
0x01f4 1 0 0 1
0x01f4 1 0 0 1
0x01f4 1 0 0 1
0x01f4 1 0 0 1
0x01f4 1 0 0 1
0x01f4 1 0 0 1
0x01f4 1 0 0 1
0x01f4 1 0 0 1
0x01f4 1 0 0 1
0x01f4 1 0 0 1
0x01f4 1 0 0 1
0x01f4 1 0 0 1
0x01f4 1 0 0 1
0x01f4 1 0 0 1
0x01f4 1 0 0 1
0x01f4 1 0 0 1
0x01f4 1 0 0 1
0x01f4 1 0 0 1
0x01f4 1 0 0 1
0x01f4 1 0 0 1
0x01f4 1 0 0 1
0x01f4 1 0 0 1
0x01f4 1 0 0 1
0x01f4 1 0 0 1
0x01f4 1 0 0 1
0x01f4 1 0 0 1
0x01f4 1 0 0 1
0x01f4 1 0 0 1
0x01f4 1 0 0 1
0x01f4 1 0 0 1
0x01f5 1 0 0 1
0x01f6 1 0 0 1
0x01f8 1 0 0 1
0x01fa 1 0 0 1
0x01fd 1 0 0 1
0x0201 1 0 0 1
0x0206 1 0 0 1
0x020c 1 0 0 1
0x0212 1 0 0 1
0x0218 1 0 0 1
0x021d 1 0 0 1
0x0222 1 0 0 1
0x0225 1 0 0 1
0x0226 1 0 0 1
0x0225 1 0 0 1
0x0222 1 0 0 1
0x021d 1 0 0 1
0x0218 1 0 0 1
0x0212 1 0 0 1
0x020c 1 0 0 1
0x0206 1 0 0 1
0x0201 1 1 1 1
0xaa18 1 0 0 1
0x4000 1 0 0 1
0x5555 1 0 0 1
0x5555 1 0 0 1
0x5555 1 0 0 1
0x5555 1 1 0 1
0x01f4 1 0 0 1
0x01f4 1 0 0 1
0x01f4 1 0 0 1
0x01f4 1 0 0 1
0x01f4 1 0 0 1
0x01f4 1 0 0 1
0x01f4 1 0 0 1
0x01f4 1 0 0 1
0x01f4 1 0 0 1
0x01f4 1 0 0 1
0x01f4 1 0 0 1
0x01f4 1 0 0 1
0x01f4 1 0 0 1
0x01f4 1 0 0 1
0x01f4 1 0 0 1
0x01f4 1 0 0 1
0x01f4 1 0 0 1
0x01f4 1 0 0 1
0x01f4 1 0 0 1
0x01f4 1 0 0 1
0x01f4 1 0 0 1
0x01f4 1 0 0 1
0x01f4 1 0 0 1
0x01f4 1 0 0 1
0x01f4 1 0 0 1
0x01f4 1 0 0 1
0x01f4 1 0 0 1
0x01f4 1 0 0 1
0x01f4 1 0 0 1
0x01f4 1 0 0 1
0x01f4 1 0 0 1
0x01f4 1 0 0 1
0x01f4 1 0 0 1
0x01f4 1 0 0 1
0x01f4 1 0 0 1
0x01f4 1 0 0 1
0x01f4 1 0 0 1
0x01f4 1 0 0 1
0x01f4 1 0 0 1
0x01f4 1 0 0 1
0x01f4 1 0 0 1
0x01f4 1 0 0 1
0x01f5 1 0 0 1
0x01f6 1 0 0 1
0x01f8 1 0 0 1
0x01fa 1 0 0 1
0x01fd 1 0 0 1
0x0201 1 0 0 1
0x0206 1 0 0 1
0x020c 1 0 0 1
0x0212 1 0 0 1
0x0218 1 0 0 1
0x021d 1 0 0 1
0x0222 1 0 0 1
0x0225 1 0 0 1
0x0226 1 0 0 1
0x0225 1 0 0 1
0x0222 1 0 0 1
0x021d 1 0 0 1
0x0218 1 0 0 1
0x0212 1 0 0 1
0x020c 1 0 0 1
0x0206 1 0 0 1
0x0201 1 1 1 1
0xaa1c 1 0 0 1
0x4000 1 0 0 1
0x5555 1 0 0 1
0x5555 1 0 0 1
0x5555 1 0 0 1
0x5555 1 1 0 1
0x01f4 1 0 0 1
0x01f4 1 0 0 1
0x01f4 1 0 0 1
0x01f4 1 0 0 1
0x01f4 1 0 0 1
0x01f4 1 0 0 1
0x01f4 1 0 0 1
0x01f4 1 0 0 1
0x01f4 1 0 0 1
0x01f4 1 0 0 1
0x01f4 1 0 0 1
0x01f4 1 0 0 1
0x01f4 1 0 0 1
0x01f4 1 0 0 1
0x01f4 1 0 0 1
0x01f4 1 0 0 1
0x01f4 1 0 0 1
0x01f4 1 0 0 1
0x01f4 1 0 0 1
0x01f4 1 0 0 1
0x01f4 1 0 0 1
0x01f4 1 0 0 1
0x01f4 1 0 0 1
0x01f4 1 0 0 1
0x01f4 1 0 0 1
0x01f4 1 0 0 1
0x01f4 1 0 0 1
0x01f4 1 0 0 1
0x01f4 1 0 0 1
0x01f4 1 0 0 1
0x01f4 1 0 0 1
0x01f4 1 0 0 1
0x01f4 1 0 0 1
0x01f4 1 0 0 1
0x01f4 1 0 0 1
0x01f4 1 0 0 1
0x01f4 1 0 0 1
0x01f4 1 0 0 1
0x01f4 1 0 0 1
0x01f4 1 0 0 1
0x01f4 1 0 0 1
0x01f4 1 0 0 1
0x01f5 1 0 0 1
0x01f6 1 0 0 1
0x01f8 1 0 0 1
0x01fa 1 0 0 1
0x01fd 1 0 0 1
0x0201 1 0 0 1
0x0206 1 0 0 1
0x020c 1 0 0 1
0x0212 1 0 0 1
0x0218 1 0 0 1
0x021d 1 0 0 1
0x0222 1 0 0 1
0x0225 1 0 0 1
0x0226 1 0 0 1
0x0225 1 0 0 1
0x0222 1 0 0 1
0x021d 1 0 0 1
0x0218 1 0 0 1
0x0212 1 0 0 1
0x020c 1 0 0 1
0x0206 1 0 0 1
0x0201 1 1 1 1
0xaa20 1 0 0 1
0x4000 1 0 0 1
0x5555 1 0 0 1
0x5555 1 0 0 1
0x5555 1 0 0 1
0x5555 1 1 0 1
0x01f4 1 0 0 1
0x01f4 1 0 0 1
0x01f4 1 0 0 1
0x01f4 1 0 0 1
0x01f4 1 0 0 1
0x01f4 1 0 0 1
0x01f4 1 0 0 1
0x01f4 1 0 0 1
0x01f4 1 0 0 1
0x01f4 1 0 0 1
0x01f4 1 0 0 1
0x01f4 1 0 0 1
0x01f4 1 0 0 1
0x01f4 1 0 0 1
0x01f4 1 0 0 1
0x01f4 1 0 0 1
0x01f4 1 0 0 1
0x01f4 1 0 0 1
0x01f4 1 0 0 1
0x01f4 1 0 0 1
0x01f4 1 0 0 1
0x01f4 1 0 0 1
0x01f4 1 0 0 1
0x01f4 1 0 0 1
0x01f4 1 0 0 1
0x01f4 1 0 0 1
0x01f4 1 0 0 1
0x01f4 1 0 0 1
0x01f4 1 0 0 1
0x01f4 1 0 0 1
0x01f4 1 0 0 1
0x01f4 1 0 0 1
0x01f4 1 0 0 1
0x01f4 1 0 0 1
0x01f4 1 0 0 1
0x01f4 1 0 0 1
0x01f4 1 0 0 1
0x01f4 1 0 0 1
0x01f4 1 0 0 1
0x01f4 1 0 0 1
0x01f4 1 0 0 1
0x01f4 1 0 0 1
0x01f5 1 0 0 1
0x01f6 1 0 0 1
0x01f8 1 0 0 1
0x01fa 1 0 0 1
0x01fd 1 0 0 1
0x0201 1 0 0 1
0x0206 1 0 0 1
0x020c 1 0 0 1
0x0212 1 0 0 1
0x0218 1 0 0 1
0x021d 1 0 0 1
0x0222 1 0 0 1
0x0225 1 0 0 1
0x0226 1 0 0 1
0x0225 1 0 0 1
0x0222 1 0 0 1
0x021d 1 0 0 1
0x0218 1 0 0 1
0x0212 1 0 0 1
0x020c 1 0 0 1
0x0206 1 0 0 1
0x0201 1 1 1 1
0xaa24 1 0 0 1
0x4000 1 0 0 1
0x5555 1 0 0 1
0x5555 1 0 0 1
0x5555 1 0 0 1
0x5555 1 1 0 1
0x01f4 1 0 0 1
0x01f4 1 0 0 1
0x01f4 1 0 0 1
0x01f4 1 0 0 1
0x01f4 1 0 0 1
0x01f4 1 0 0 1
0x01f4 1 0 0 1
0x01f4 1 0 0 1
0x01f4 1 0 0 1
0x01f4 1 0 0 1
0x01f4 1 0 0 1
0x01f4 1 0 0 1
0x01f4 1 0 0 1
0x01f4 1 0 0 1
0x01f4 1 0 0 1
0x01f4 1 0 0 1
0x01f4 1 0 0 1
0x01f4 1 0 0 1
0x01f4 1 0 0 1
0x01f4 1 0 0 1
0x01f4 1 0 0 1
0x01f4 1 0 0 1
0x01f4 1 0 0 1
0x01f4 1 0 0 1
0x01f4 1 0 0 1
0x01f4 1 0 0 1
0x01f4 1 0 0 1
0x01f4 1 0 0 1
0x01f4 1 0 0 1
0x01f4 1 0 0 1
0x01f4 1 0 0 1
0x01f4 1 0 0 1
0x01f4 1 0 0 1
0x01f4 1 0 0 1
0x01f4 1 0 0 1
0x01f4 1 0 0 1
0x01f4 1 0 0 1
0x01f4 1 0 0 1
0x01f4 1 0 0 1
0x01f4 1 0 0 1
0x01f4 1 0 0 1
0x01f4 1 0 0 1
0x01f5 1 0 0 1
0x01f6 1 0 0 1
0x01f8 1 0 0 1
0x01fa 1 0 0 1
0x01fd 1 0 0 1
0x0201 1 0 0 1
0x0206 1 0 0 1
0x020c 1 0 0 1
0x0212 1 0 0 1
0x0218 1 0 0 1
0x021d 1 0 0 1
0x0222 1 0 0 1
0x0225 1 0 0 1
0x0226 1 0 0 1
0x0225 1 0 0 1
0x0222 1 0 0 1
0x021d 1 0 0 1
0x0218 1 0 0 1
0x0212 1 0 0 1
0x020c 1 0 0 1
0x0206 1 0 0 1
0x0201 1 1 1 1
0xaa28 1 0 0 1
0x4000 1 0 0 1
0x5555 1 0 0 1
0x5555 1 0 0 1
0x5555 1 0 0 1
0x5555 1 1 0 1
0x01f4 1 0 0 1
0x01f4 1 0 0 1
0x01f4 1 0 0 1
0x01f4 1 0 0 1
0x01f4 1 0 0 1
0x01f4 1 0 0 1
0x01f4 1 0 0 1
0x01f4 1 0 0 1
0x01f4 1 0 0 1
0x01f4 1 0 0 1
0x01f4 1 0 0 1
0x01f4 1 0 0 1
0x01f4 1 0 0 1
0x01f4 1 0 0 1
0x01f4 1 0 0 1
0x01f4 1 0 0 1
0x01f4 1 0 0 1
0x01f4 1 0 0 1
0x01f4 1 0 0 1
0x01f4 1 0 0 1
0x01f4 1 0 0 1
0x01f4 1 0 0 1
0x01f4 1 0 0 1
0x01f4 1 0 0 1
0x01f4 1 0 0 1
0x01f4 1 0 0 1
0x01f4 1 0 0 1
0x01f4 1 0 0 1
0x01f4 1 0 0 1
0x01f4 1 0 0 1
0x01f4 1 0 0 1
0x01f4 1 0 0 1
0x01f4 1 0 0 1
0x01f4 1 0 0 1
0x01f4 1 0 0 1
0x01f4 1 0 0 1
0x01f4 1 0 0 1
0x01f4 1 0 0 1
0x01f4 1 0 0 1
0x01f4 1 0 0 1
0x01f4 1 0 0 1
0x01f4 1 0 0 1
0x01f5 1 0 0 1
0x01f6 1 0 0 1
0x01f8 1 0 0 1
0x01fa 1 0 0 1
0x01fd 1 0 0 1
0x0201 1 0 0 1
0x0206 1 0 0 1
0x020c 1 0 0 1
0x0212 1 0 0 1
0x0218 1 0 0 1
0x021d 1 0 0 1
0x0222 1 0 0 1
0x0225 1 0 0 1
0x0226 1 0 0 1
0x0225 1 0 0 1
0x0222 1 0 0 1
0x021d 1 0 0 1
0x0218 1 0 0 1
0x0212 1 0 0 1
0x020c 1 0 0 1
0x0206 1 0 0 1
0x0201 1 1 1 1
0xaa2c 1 0 0 1
0x4000 1 0 0 1
0x5555 1 0 0 1
0x5555 1 0 0 1
0x5555 1 0 0 1
0x5555 1 1 0 1
0x01f4 1 0 0 1
0x01f4 1 0 0 1
0x01f4 1 0 0 1
0x01f4 1 0 0 1
0x01f4 1 0 0 1
0x01f4 1 0 0 1
0x01f4 1 0 0 1
0x01f4 1 0 0 1
0x01f4 1 0 0 1
0x01f4 1 0 0 1
0x01f4 1 0 0 1
0x01f4 1 0 0 1
0x01f4 1 0 0 1
0x01f4 1 0 0 1
0x01f4 1 0 0 1
0x01f4 1 0 0 1
0x01f4 1 0 0 1
0x01f4 1 0 0 1
0x01f4 1 0 0 1
0x01f4 1 0 0 1
0x01f4 1 0 0 1
0x01f4 1 0 0 1
0x01f4 1 0 0 1
0x01f4 1 0 0 1
0x01f4 1 0 0 1
0x01f4 1 0 0 1
0x01f4 1 0 0 1
0x01f4 1 0 0 1
0x01f4 1 0 0 1
0x01f4 1 0 0 1
0x01f4 1 0 0 1
0x01f4 1 0 0 1
0x01f4 1 0 0 1
0x01f4 1 0 0 1
0x01f4 1 0 0 1
0x01f4 1 0 0 1
0x01f4 1 0 0 1
0x01f4 1 0 0 1
0x01f4 1 0 0 1
0x01f4 1 0 0 1
0x01f4 1 0 0 1
0x01f4 1 0 0 1
0x01f5 1 0 0 1
0x01f6 1 0 0 1
0x01f8 1 0 0 1
0x01fa 1 0 0 1
0x01fd 1 0 0 1
0x0201 1 0 0 1
0x0206 1 0 0 1
0x020c 1 0 0 1
0x0212 1 0 0 1
0x0218 1 0 0 1
0x021d 1 0 0 1
0x0222 1 0 0 1
0x0225 1 0 0 1
0x0226 1 0 0 1
0x0225 1 0 0 1
0x0222 1 0 0 1
0x021d 1 0 0 1
0x0218 1 0 0 1
0x0212 1 0 0 1
0x020c 1 0 0 1
0x0206 1 0 0 1
0x0201 1 1 1 1
0xaa30 1 0 0 1
0x4000 1 0 0 1
0x5555 1 0 0 1
0x5555 1 0 0 1
0x5555 1 0 0 1
0x5555 1 1 0 1
0x01f4 1 0 0 1
0x01f4 1 0 0 1
0x01f4 1 0 0 1
0x01f4 1 0 0 1
0x01f4 1 0 0 1
0x01f4 1 0 0 1
0x01f4 1 0 0 1
0x01f4 1 0 0 1
0x01f4 1 0 0 1
0x01f4 1 0 0 1
0x01f4 1 0 0 1
0x01f4 1 0 0 1
0x01f4 1 0 0 1
0x01f4 1 0 0 1
0x01f4 1 0 0 1
0x01f4 1 0 0 1
0x01f4 1 0 0 1
0x01f4 1 0 0 1
0x01f4 1 0 0 1
0x01f4 1 0 0 1
0x01f4 1 0 0 1
0x01f4 1 0 0 1
0x01f4 1 0 0 1
0x01f4 1 0 0 1
0x01f4 1 0 0 1
0x01f4 1 0 0 1
0x01f4 1 0 0 1
0x01f4 1 0 0 1
0x01f4 1 0 0 1
0x01f4 1 0 0 1
0x01f4 1 0 0 1
0x01f4 1 0 0 1
0x01f4 1 0 0 1
0x01f4 1 0 0 1
0x01f4 1 0 0 1
0x01f4 1 0 0 1
0x01f4 1 0 0 1
0x01f4 1 0 0 1
0x01f4 1 0 0 1
0x01f4 1 0 0 1
0x01f4 1 0 0 1
0x01f4 1 0 0 1
0x01f5 1 0 0 1
0x01f6 1 0 0 1
0x01f8 1 0 0 1
0x01fa 1 0 0 1
0x01fd 1 0 0 1
0x0201 1 0 0 1
0x0206 1 0 0 1
0x020c 1 0 0 1
0x0212 1 0 0 1
0x0218 1 0 0 1
0x021d 1 0 0 1
0x0222 1 0 0 1
0x0225 1 0 0 1
0x0226 1 0 0 1
0x0225 1 0 0 1
0x0222 1 0 0 1
0x021d 1 0 0 1
0x0218 1 0 0 1
0x0212 1 0 0 1
0x020c 1 0 0 1
0x0206 1 0 0 1
0x0201 1 1 1 1
0xaa34 1 0 0 1
0x4000 1 0 0 1
0x5555 1 0 0 1
0x5555 1 0 0 1
0x5555 1 0 0 1
0x5555 1 1 0 1
0x01f4 1 0 0 1
0x01f4 1 0 0 1
0x01f4 1 0 0 1
0x01f4 1 0 0 1
0x01f4 1 0 0 1
0x01f4 1 0 0 1
0x01f4 1 0 0 1
0x01f4 1 0 0 1
0x01f4 1 0 0 1
0x01f4 1 0 0 1
0x01f4 1 0 0 1
0x01f4 1 0 0 1
0x01f4 1 0 0 1
0x01f4 1 0 0 1
0x01f4 1 0 0 1
0x01f4 1 0 0 1
0x01f4 1 0 0 1
0x01f4 1 0 0 1
0x01f4 1 0 0 1
0x01f4 1 0 0 1
0x01f4 1 0 0 1
0x01f4 1 0 0 1
0x01f4 1 0 0 1
0x01f4 1 0 0 1
0x01f4 1 0 0 1
0x01f4 1 0 0 1
0x01f4 1 0 0 1
0x01f4 1 0 0 1
0x01f4 1 0 0 1
0x01f4 1 0 0 1
0x01f4 1 0 0 1
0x01f4 1 0 0 1
0x01f4 1 0 0 1
0x01f4 1 0 0 1
0x01f4 1 0 0 1
0x01f4 1 0 0 1
0x01f4 1 0 0 1
0x01f4 1 0 0 1
0x01f4 1 0 0 1
0x01f4 1 0 0 1
0x01f4 1 0 0 1
0x01f4 1 0 0 1
0x01f5 1 0 0 1
0x01f6 1 0 0 1
0x01f8 1 0 0 1
0x01fa 1 0 0 1
0x01fd 1 0 0 1
0x0201 1 0 0 1
0x0206 1 0 0 1
0x020c 1 0 0 1
0x0212 1 0 0 1
0x0218 1 0 0 1
0x021d 1 0 0 1
0x0222 1 0 0 1
0x0225 1 0 0 1
0x0226 1 0 0 1
0x0225 1 0 0 1
0x0222 1 0 0 1
0x021d 1 0 0 1
0x0218 1 0 0 1
0x0212 1 0 0 1
0x020c 1 0 0 1
0x0206 1 0 0 1
0x0201 1 1 1 1
0xaa38 1 0 0 1
0x4000 1 0 0 1
0x5555 1 0 0 1
0x5555 1 0 0 1
0x5555 1 0 0 1
0x5555 1 1 0 1
0x01f4 1 0 0 1
0x01f4 1 0 0 1
0x01f4 1 0 0 1
0x01f4 1 0 0 1
0x01f4 1 0 0 1
0x01f4 1 0 0 1
0x01f4 1 0 0 1
0x01f4 1 0 0 1
0x01f4 1 0 0 1
0x01f4 1 0 0 1
0x01f4 1 0 0 1
0x01f4 1 0 0 1
0x01f4 1 0 0 1
0x01f4 1 0 0 1
0x01f4 1 0 0 1
0x01f4 1 0 0 1
0x01f4 1 0 0 1
0x01f4 1 0 0 1
0x01f4 1 0 0 1
0x01f4 1 0 0 1
0x01f4 1 0 0 1
0x01f4 1 0 0 1
0x01f4 1 0 0 1
0x01f4 1 0 0 1
0x01f4 1 0 0 1
0x01f4 1 0 0 1
0x01f4 1 0 0 1
0x01f4 1 0 0 1
0x01f4 1 0 0 1
0x01f4 1 0 0 1
0x01f4 1 0 0 1
0x01f4 1 0 0 1
0x01f4 1 0 0 1
0x01f4 1 0 0 1
0x01f4 1 0 0 1
0x01f4 1 0 0 1
0x01f4 1 0 0 1
0x01f4 1 0 0 1
0x01f4 1 0 0 1
0x01f4 1 0 0 1
0x01f4 1 0 0 1
0x01f4 1 0 0 1
0x01f5 1 0 0 1
0x01f6 1 0 0 1
0x01f8 1 0 0 1
0x01fa 1 0 0 1
0x01fd 1 0 0 1
0x0201 1 0 0 1
0x0206 1 0 0 1
0x020c 1 0 0 1
0x0212 1 0 0 1
0x0218 1 0 0 1
0x021d 1 0 0 1
0x0222 1 0 0 1
0x0225 1 0 0 1
0x0226 1 0 0 1
0x0225 1 0 0 1
0x0222 1 0 0 1
0x021d 1 0 0 1
0x0218 1 0 0 1
0x0212 1 0 0 1
0x020c 1 0 0 1
0x0206 1 0 0 1
0x0201 1 1 1 1
0xaa3c 1 0 0 1
0x4000 1 0 0 1
0x5555 1 0 0 1
0x5555 1 0 0 1
0x5555 1 0 0 1
0x5555 1 1 0 1
0x01f4 1 0 0 1
0x01f4 1 0 0 1
0x01f4 1 0 0 1
0x01f4 1 0 0 1
0x01f4 1 0 0 1
0x01f4 1 0 0 1
0x01f4 1 0 0 1
0x01f4 1 0 0 1
0x01f4 1 0 0 1
0x01f4 1 0 0 1
0x01f4 1 0 0 1
0x01f4 1 0 0 1
0x01f4 1 0 0 1
0x01f4 1 0 0 1
0x01f4 1 0 0 1
0x01f4 1 0 0 1
0x01f4 1 0 0 1
0x01f4 1 0 0 1
0x01f4 1 0 0 1
0x01f4 1 0 0 1
0x01f4 1 0 0 1
0x01f4 1 0 0 1
0x01f4 1 0 0 1
0x01f4 1 0 0 1
0x01f4 1 0 0 1
0x01f4 1 0 0 1
0x01f4 1 0 0 1
0x01f4 1 0 0 1
0x01f4 1 0 0 1
0x01f4 1 0 0 1
0x01f4 1 0 0 1
0x01f4 1 0 0 1
0x01f4 1 0 0 1
0x01f4 1 0 0 1
0x01f4 1 0 0 1
0x01f4 1 0 0 1
0x01f4 1 0 0 1
0x01f4 1 0 0 1
0x01f4 1 0 0 1
0x01f4 1 0 0 1
0x01f4 1 0 0 1
0x01f4 1 0 0 1
0x01f5 1 0 0 1
0x01f6 1 0 0 1
0x01f8 1 0 0 1
0x01fa 1 0 0 1
0x01fd 1 0 0 1
0x0201 1 0 0 1
0x0206 1 0 0 1
0x020c 1 0 0 1
0x0212 1 0 0 1
0x0218 1 0 0 1
0x021d 1 0 0 1
0x0222 1 0 0 1
0x0225 1 0 0 1
0x0226 1 0 0 1
0x0225 1 0 0 1
0x0222 1 0 0 1
0x021d 1 0 0 1
0x0218 1 0 0 1
0x0212 1 0 0 1
0x020c 1 0 0 1
0x0206 1 0 0 1
0x0201 1 1 1 1
0xaa40 1 0 0 1
0x4000 1 0 0 1
0x5555 1 0 0 1
0x5555 1 0 0 1
0x5555 1 0 0 1
0x5555 1 1 0 1
0x01f4 1 0 0 1
0x01f4 1 0 0 1
0x01f4 1 0 0 1
0x01f4 1 0 0 1
0x01f4 1 0 0 1
0x01f4 1 0 0 1
0x01f4 1 0 0 1
0x01f4 1 0 0 1
0x01f4 1 0 0 1
0x01f4 1 0 0 1
0x01f4 1 0 0 1
0x01f4 1 0 0 1
0x01f4 1 0 0 1
0x01f4 1 0 0 1
0x01f4 1 0 0 1
0x01f4 1 0 0 1
0x01f4 1 0 0 1
0x01f4 1 0 0 1
0x01f4 1 0 0 1
0x01f4 1 0 0 1
0x01f4 1 0 0 1
0x01f4 1 0 0 1
0x01f4 1 0 0 1
0x01f4 1 0 0 1
0x01f4 1 0 0 1
0x01f4 1 0 0 1
0x01f4 1 0 0 1
0x01f4 1 0 0 1
0x01f4 1 0 0 1
0x01f4 1 0 0 1
0x01f4 1 0 0 1
0x01f4 1 0 0 1
0x01f4 1 0 0 1
0x01f4 1 0 0 1
0x01f4 1 0 0 1
0x01f4 1 0 0 1
0x01f4 1 0 0 1
0x01f4 1 0 0 1
0x01f4 1 0 0 1
0x01f4 1 0 0 1
0x01f4 1 0 0 1
0x01f4 1 0 0 1
0x01f5 1 0 0 1
0x01f6 1 0 0 1
0x01f8 1 0 0 1
0x01fa 1 0 0 1
0x01fd 1 0 0 1
0x0201 1 0 0 1
0x0206 1 0 0 1
0x020c 1 0 0 1
0x0212 1 0 0 1
0x0218 1 0 0 1
0x021d 1 0 0 1
0x0222 1 0 0 1
0x0225 1 0 0 1
0x0226 1 0 0 1
0x0225 1 0 0 1
0x0222 1 0 0 1
0x021d 1 0 0 1
0x0218 1 0 0 1
0x0212 1 0 0 1
0x020c 1 0 0 1
0x0206 1 0 0 1
0x0201 1 1 1 1
0xaa44 1 0 0 1
0x4000 1 0 0 1
0x5555 1 0 0 1
0x5555 1 0 0 1
0x5555 1 0 0 1
0x5555 1 1 0 1
0x01f4 1 0 0 1
0x01f4 1 0 0 1
0x01f4 1 0 0 1
0x01f4 1 0 0 1
0x01f4 1 0 0 1
0x01f4 1 0 0 1
0x01f4 1 0 0 1
0x01f4 1 0 0 1
0x01f4 1 0 0 1
0x01f4 1 0 0 1
0x01f4 1 0 0 1
0x01f4 1 0 0 1
0x01f4 1 0 0 1
0x01f4 1 0 0 1
0x01f4 1 0 0 1
0x01f4 1 0 0 1
0x01f4 1 0 0 1
0x01f4 1 0 0 1
0x01f4 1 0 0 1
0x01f4 1 0 0 1
0x01f4 1 0 0 1
0x01f4 1 0 0 1
0x01f4 1 0 0 1
0x01f4 1 0 0 1
0x01f4 1 0 0 1
0x01f4 1 0 0 1
0x01f4 1 0 0 1
0x01f4 1 0 0 1
0x01f4 1 0 0 1
0x01f4 1 0 0 1
0x01f4 1 0 0 1
0x01f4 1 0 0 1
0x01f4 1 0 0 1
0x01f4 1 0 0 1
0x01f4 1 0 0 1
0x01f4 1 0 0 1
0x01f4 1 0 0 1
0x01f4 1 0 0 1
0x01f4 1 0 0 1
0x01f4 1 0 0 1
0x01f4 1 0 0 1
0x01f4 1 0 0 1
0x01f5 1 0 0 1
0x01f6 1 0 0 1
0x01f8 1 0 0 1
0x01fa 1 0 0 1
0x01fd 1 0 0 1
0x0201 1 0 0 1
0x0206 1 0 0 1
0x020c 1 0 0 1
0x0212 1 0 0 1
0x0218 1 0 0 1
0x021d 1 0 0 1
0x0222 1 0 0 1
0x0225 1 0 0 1
0x0226 1 0 0 1
0x0225 1 0 0 1
0x0222 1 0 0 1
0x021d 1 0 0 1
0x0218 1 0 0 1
0x0212 1 0 0 1
0x020c 1 0 0 1
0x0206 1 0 0 1
0x0201 1 1 1 1
0xaa48 1 0 0 1
0x4000 1 0 0 1
0x5555 1 0 0 1
0x5555 1 0 0 1
0x5555 1 0 0 1
0x5555 1 1 0 1
0x01f4 1 0 0 1
0x01f4 1 0 0 1
0x01f4 1 0 0 1
0x01f4 1 0 0 1
0x01f4 1 0 0 1
0x01f4 1 0 0 1
0x01f4 1 0 0 1
0x01f4 1 0 0 1
0x01f4 1 0 0 1
0x01f4 1 0 0 1
0x01f4 1 0 0 1
0x01f4 1 0 0 1
0x01f4 1 0 0 1
0x01f4 1 0 0 1
0x01f4 1 0 0 1
0x01f4 1 0 0 1
0x01f4 1 0 0 1
0x01f4 1 0 0 1
0x01f4 1 0 0 1
0x01f4 1 0 0 1
0x01f4 1 0 0 1
0x01f4 1 0 0 1
0x01f4 1 0 0 1
0x01f4 1 0 0 1
0x01f4 1 0 0 1
0x01f4 1 0 0 1
0x01f4 1 0 0 1
0x01f4 1 0 0 1
0x01f4 1 0 0 1
0x01f4 1 0 0 1
0x01f4 1 0 0 1
0x01f4 1 0 0 1
0x01f4 1 0 0 1
0x01f4 1 0 0 1
0x01f4 1 0 0 1
0x01f4 1 0 0 1
0x01f4 1 0 0 1
0x01f4 1 0 0 1
0x01f4 1 0 0 1
0x01f4 1 0 0 1
0x01f4 1 0 0 1
0x01f4 1 0 0 1
0x01f5 1 0 0 1
0x01f6 1 0 0 1
0x01f8 1 0 0 1
0x01fa 1 0 0 1
0x01fd 1 0 0 1
0x0201 1 0 0 1
0x0206 1 0 0 1
0x020c 1 0 0 1
0x0212 1 0 0 1
0x0218 1 0 0 1
0x021d 1 0 0 1
0x0222 1 0 0 1
0x0225 1 0 0 1
0x0226 1 0 0 1
0x0225 1 0 0 1
0x0222 1 0 0 1
0x021d 1 0 0 1
0x0218 1 0 0 1
0x0212 1 0 0 1
0x020c 1 0 0 1
0x0206 1 0 0 1
0x0201 1 1 1 1
0xaa4c 1 0 0 1
0x4000 1 0 0 1
0x5555 1 0 0 1
0x5555 1 0 0 1
0x5555 1 0 0 1
0x5555 1 1 0 1
0x01f4 1 0 0 1
0x01f4 1 0 0 1
0x01f4 1 0 0 1
0x01f4 1 0 0 1
0x01f4 1 0 0 1
0x01f4 1 0 0 1
0x01f4 1 0 0 1
0x01f4 1 0 0 1
0x01f4 1 0 0 1
0x01f4 1 0 0 1
0x01f4 1 0 0 1
0x01f4 1 0 0 1
0x01f4 1 0 0 1
0x01f4 1 0 0 1
0x01f4 1 0 0 1
0x01f4 1 0 0 1
0x01f4 1 0 0 1
0x01f4 1 0 0 1
0x01f4 1 0 0 1
0x01f4 1 0 0 1
0x01f4 1 0 0 1
0x01f4 1 0 0 1
0x01f4 1 0 0 1
0x01f4 1 0 0 1
0x01f4 1 0 0 1
0x01f4 1 0 0 1
0x01f4 1 0 0 1
0x01f4 1 0 0 1
0x01f4 1 0 0 1
0x01f4 1 0 0 1
0x01f4 1 0 0 1
0x01f4 1 0 0 1
0x01f4 1 0 0 1
0x01f4 1 0 0 1
0x01f4 1 0 0 1
0x01f4 1 0 0 1
0x01f4 1 0 0 1
0x01f4 1 0 0 1
0x01f4 1 0 0 1
0x01f4 1 0 0 1
0x01f4 1 0 0 1
0x01f4 1 0 0 1
0x01f5 1 0 0 1
0x01f6 1 0 0 1
0x01f8 1 0 0 1
0x01fa 1 0 0 1
0x01fd 1 0 0 1
0x0201 1 0 0 1
0x0206 1 0 0 1
0x020c 1 0 0 1
0x0212 1 0 0 1
0x0218 1 0 0 1
0x021d 1 0 0 1
0x0222 1 0 0 1
0x0225 1 0 0 1
0x0226 1 0 0 1
0x0225 1 0 0 1
0x0222 1 0 0 1
0x021d 1 0 0 1
0x0218 1 0 0 1
0x0212 1 0 0 1
0x020c 1 0 0 1
0x0206 1 0 0 1
0x0201 1 1 1 1
0xaa50 1 0 0 1
0x4000 1 0 0 1
0x5555 1 0 0 1
0x5555 1 0 0 1
0x5555 1 0 0 1
0x5555 1 1 0 1
0x01f4 1 0 0 1
0x01f4 1 0 0 1
0x01f4 1 0 0 1
0x01f4 1 0 0 1
0x01f4 1 0 0 1
0x01f4 1 0 0 1
0x01f4 1 0 0 1
0x01f4 1 0 0 1
0x01f4 1 0 0 1
0x01f4 1 0 0 1
0x01f4 1 0 0 1
0x01f4 1 0 0 1
0x01f4 1 0 0 1
0x01f4 1 0 0 1
0x01f4 1 0 0 1
0x01f4 1 0 0 1
0x01f4 1 0 0 1
0x01f4 1 0 0 1
0x01f4 1 0 0 1
0x01f4 1 0 0 1
0x01f4 1 0 0 1
0x01f4 1 0 0 1
0x01f4 1 0 0 1
0x01f4 1 0 0 1
0x01f4 1 0 0 1
0x01f4 1 0 0 1
0x01f4 1 0 0 1
0x01f4 1 0 0 1
0x01f4 1 0 0 1
0x01f4 1 0 0 1
0x01f4 1 0 0 1
0x01f4 1 0 0 1
0x01f4 1 0 0 1
0x01f4 1 0 0 1
0x01f4 1 0 0 1
0x01f4 1 0 0 1
0x01f4 1 0 0 1
0x01f4 1 0 0 1
0x01f4 1 0 0 1
0x01f4 1 0 0 1
0x01f4 1 0 0 1
0x01f4 1 0 0 1
0x01f5 1 0 0 1
0x01f6 1 0 0 1
0x01f8 1 0 0 1
0x01fa 1 0 0 1
0x01fd 1 0 0 1
0x0201 1 0 0 1
0x0206 1 0 0 1
0x020c 1 0 0 1
0x0212 1 0 0 1
0x0218 1 0 0 1
0x021d 1 0 0 1
0x0222 1 0 0 1
0x0225 1 0 0 1
0x0226 1 0 0 1
0x0225 1 0 0 1
0x0222 1 0 0 1
0x021d 1 0 0 1
0x0218 1 0 0 1
0x0212 1 0 0 1
0x020c 1 0 0 1
0x0206 1 0 0 1
0x0201 1 1 1 1
0xaa54 1 0 0 1
0x4000 1 0 0 1
0x5555 1 0 0 1
0x5555 1 0 0 1
0x5555 1 0 0 1
0x5555 1 1 0 1
0x01f4 1 0 0 1
0x01f4 1 0 0 1
0x01f4 1 0 0 1
0x01f4 1 0 0 1
0x01f4 1 0 0 1
0x01f4 1 0 0 1
0x01f4 1 0 0 1
0x01f4 1 0 0 1
0x01f4 1 0 0 1
0x01f4 1 0 0 1
0x01f4 1 0 0 1
0x01f4 1 0 0 1
0x01f4 1 0 0 1
0x01f4 1 0 0 1
0x01f4 1 0 0 1
0x01f4 1 0 0 1
0x01f4 1 0 0 1
0x01f4 1 0 0 1
0x01f4 1 0 0 1
0x01f4 1 0 0 1
0x01f4 1 0 0 1
0x01f4 1 0 0 1
0x01f4 1 0 0 1
0x01f4 1 0 0 1
0x01f4 1 0 0 1
0x01f4 1 0 0 1
0x01f4 1 0 0 1
0x01f4 1 0 0 1
0x01f4 1 0 0 1
0x01f4 1 0 0 1
0x01f4 1 0 0 1
0x01f4 1 0 0 1
0x01f4 1 0 0 1
0x01f4 1 0 0 1
0x01f4 1 0 0 1
0x01f4 1 0 0 1
0x01f4 1 0 0 1
0x01f4 1 0 0 1
0x01f4 1 0 0 1
0x01f4 1 0 0 1
0x01f4 1 0 0 1
0x01f4 1 0 0 1
0x01f5 1 0 0 1
0x01f6 1 0 0 1
0x01f8 1 0 0 1
0x01fa 1 0 0 1
0x01fd 1 0 0 1
0x0201 1 0 0 1
0x0206 1 0 0 1
0x020c 1 0 0 1
0x0212 1 0 0 1
0x0218 1 0 0 1
0x021d 1 0 0 1
0x0222 1 0 0 1
0x0225 1 0 0 1
0x0226 1 0 0 1
0x0225 1 0 0 1
0x0222 1 0 0 1
0x021d 1 0 0 1
0x0218 1 0 0 1
0x0212 1 0 0 1
0x020c 1 0 0 1
0x0206 1 0 0 1
0x0201 1 1 1 1
0xaa58 1 0 0 1
0x4000 1 0 0 1
0x5555 1 0 0 1
0x5555 1 0 0 1
0x5555 1 0 0 1
0x5555 1 1 0 1
0x01f4 1 0 0 1
0x01f4 1 0 0 1
0x01f4 1 0 0 1
0x01f4 1 0 0 1
0x01f4 1 0 0 1
0x01f4 1 0 0 1
0x01f4 1 0 0 1
0x01f4 1 0 0 1
0x01f4 1 0 0 1
0x01f4 1 0 0 1
0x01f4 1 0 0 1
0x01f4 1 0 0 1
0x01f4 1 0 0 1
0x01f4 1 0 0 1
0x01f4 1 0 0 1
0x01f4 1 0 0 1
0x01f4 1 0 0 1
0x01f4 1 0 0 1
0x01f4 1 0 0 1
0x01f4 1 0 0 1
0x01f4 1 0 0 1
0x01f4 1 0 0 1
0x01f4 1 0 0 1
0x01f4 1 0 0 1
0x01f4 1 0 0 1
0x01f4 1 0 0 1
0x01f4 1 0 0 1
0x01f4 1 0 0 1
0x01f4 1 0 0 1
0x01f4 1 0 0 1
0x01f4 1 0 0 1
0x01f4 1 0 0 1
0x01f4 1 0 0 1
0x01f4 1 0 0 1
0x01f4 1 0 0 1
0x01f4 1 0 0 1
0x01f4 1 0 0 1
0x01f4 1 0 0 1
0x01f4 1 0 0 1
0x01f4 1 0 0 1
0x01f4 1 0 0 1
0x01f4 1 0 0 1
0x01f5 1 0 0 1
0x01f6 1 0 0 1
0x01f8 1 0 0 1
0x01fa 1 0 0 1
0x01fd 1 0 0 1
0x0201 1 0 0 1
0x0206 1 0 0 1
0x020c 1 0 0 1
0x0212 1 0 0 1
0x0218 1 0 0 1
0x021d 1 0 0 1
0x0222 1 0 0 1
0x0225 1 0 0 1
0x0226 1 0 0 1
0x0225 1 0 0 1
0x0222 1 0 0 1
0x021d 1 0 0 1
0x0218 1 0 0 1
0x0212 1 0 0 1
0x020c 1 0 0 1
0x0206 1 0 0 1
0x0201 1 1 1 1
0xaa5c 1 0 0 1
0x4000 1 0 0 1
0x5555 1 0 0 1
0x5555 1 0 0 1
0x5555 1 0 0 1
0x5555 1 1 0 1
0x01f4 1 0 0 1
0x01f4 1 0 0 1
0x01f4 1 0 0 1
0x01f4 1 0 0 1
0x01f4 1 0 0 1
0x01f4 1 0 0 1
0x01f4 1 0 0 1
0x01f4 1 0 0 1
0x01f4 1 0 0 1
0x01f4 1 0 0 1
0x01f4 1 0 0 1
0x01f4 1 0 0 1
0x01f4 1 0 0 1
0x01f4 1 0 0 1
0x01f4 1 0 0 1
0x01f4 1 0 0 1
0x01f4 1 0 0 1
0x01f4 1 0 0 1
0x01f4 1 0 0 1
0x01f4 1 0 0 1
0x01f4 1 0 0 1
0x01f4 1 0 0 1
0x01f4 1 0 0 1
0x01f4 1 0 0 1
0x01f4 1 0 0 1
0x01f4 1 0 0 1
0x01f4 1 0 0 1
0x01f4 1 0 0 1
0x01f4 1 0 0 1
0x01f4 1 0 0 1
0x01f4 1 0 0 1
0x01f4 1 0 0 1
0x01f4 1 0 0 1
0x01f4 1 0 0 1
0x01f4 1 0 0 1
0x01f4 1 0 0 1
0x01f4 1 0 0 1
0x01f4 1 0 0 1
0x01f4 1 0 0 1
0x01f4 1 0 0 1
0x01f4 1 0 0 1
0x01f4 1 0 0 1
0x01f5 1 0 0 1
0x01f6 1 0 0 1
0x01f8 1 0 0 1
0x01fa 1 0 0 1
0x01fd 1 0 0 1
0x0201 1 0 0 1
0x0206 1 0 0 1
0x020c 1 0 0 1
0x0212 1 0 0 1
0x0218 1 0 0 1
0x021d 1 0 0 1
0x0222 1 0 0 1
0x0225 1 0 0 1
0x0226 1 0 0 1
0x0225 1 0 0 1
0x0222 1 0 0 1
0x021d 1 0 0 1
0x0218 1 0 0 1
0x0212 1 0 0 1
0x020c 1 0 0 1
0x0206 1 0 0 1
0x0201 1 1 1 1
0xaa60 1 0 0 1
0x4000 1 0 0 1
0x5555 1 0 0 1
0x5555 1 0 0 1
0x5555 1 0 0 1
0x5555 1 1 0 1
0x01f4 1 0 0 1
0x01f4 1 0 0 1
0x01f4 1 0 0 1
0x01f4 1 0 0 1
0x01f4 1 0 0 1
0x01f4 1 0 0 1
0x01f4 1 0 0 1
0x01f4 1 0 0 1
0x01f4 1 0 0 1
0x01f4 1 0 0 1
0x01f4 1 0 0 1
0x01f4 1 0 0 1
0x01f4 1 0 0 1
0x01f4 1 0 0 1
0x01f4 1 0 0 1
0x01f4 1 0 0 1
0x01f4 1 0 0 1
0x01f4 1 0 0 1
0x01f4 1 0 0 1
0x01f4 1 0 0 1
0x01f4 1 0 0 1
0x01f4 1 0 0 1
0x01f4 1 0 0 1
0x01f4 1 0 0 1
0x01f4 1 0 0 1
0x01f4 1 0 0 1
0x01f4 1 0 0 1
0x01f4 1 0 0 1
0x01f4 1 0 0 1
0x01f4 1 0 0 1
0x01f4 1 0 0 1
0x01f4 1 0 0 1
0x01f4 1 0 0 1
0x01f4 1 0 0 1
0x01f4 1 0 0 1
0x01f4 1 0 0 1
0x01f4 1 0 0 1
0x01f4 1 0 0 1
0x01f4 1 0 0 1
0x01f4 1 0 0 1
0x01f4 1 0 0 1
0x01f4 1 0 0 1
0x01f5 1 0 0 1
0x01f6 1 0 0 1
0x01f8 1 0 0 1
0x01fa 1 0 0 1
0x01fd 1 0 0 1
0x0201 1 0 0 1
0x0206 1 0 0 1
0x020c 1 0 0 1
0x0212 1 0 0 1
0x0218 1 0 0 1
0x021d 1 0 0 1
0x0222 1 0 0 1
0x0225 1 0 0 1
0x0226 1 0 0 1
0x0225 1 0 0 1
0x0222 1 0 0 1
0x021d 1 0 0 1
0x0218 1 0 0 1
0x0212 1 0 0 1
0x020c 1 0 0 1
0x0206 1 0 0 1
0x0201 1 1 1 1
0xaa64 1 0 0 1
0x4000 1 0 0 1
0x5555 1 0 0 1
0x5555 1 0 0 1
0x5555 1 0 0 1
0x5555 1 1 0 1
0x01f4 1 0 0 1
0x01f4 1 0 0 1
0x01f4 1 0 0 1
0x01f4 1 0 0 1
0x01f4 1 0 0 1
0x01f4 1 0 0 1
0x01f4 1 0 0 1
0x01f4 1 0 0 1
0x01f4 1 0 0 1
0x01f4 1 0 0 1
0x01f4 1 0 0 1
0x01f4 1 0 0 1
0x01f4 1 0 0 1
0x01f4 1 0 0 1
0x01f4 1 0 0 1
0x01f4 1 0 0 1
0x01f4 1 0 0 1
0x01f4 1 0 0 1
0x01f4 1 0 0 1
0x01f4 1 0 0 1
0x01f4 1 0 0 1
0x01f4 1 0 0 1
0x01f4 1 0 0 1
0x01f4 1 0 0 1
0x01f4 1 0 0 1
0x01f4 1 0 0 1
0x01f4 1 0 0 1
0x01f4 1 0 0 1
0x01f4 1 0 0 1
0x01f4 1 0 0 1
0x01f4 1 0 0 1
0x01f4 1 0 0 1
0x01f4 1 0 0 1
0x01f4 1 0 0 1
0x01f4 1 0 0 1
0x01f4 1 0 0 1
0x01f4 1 0 0 1
0x01f4 1 0 0 1
0x01f4 1 0 0 1
0x01f4 1 0 0 1
0x01f4 1 0 0 1
0x01f4 1 0 0 1
0x01f5 1 0 0 1
0x01f6 1 0 0 1
0x01f8 1 0 0 1
0x01fa 1 0 0 1
0x01fd 1 0 0 1
0x0201 1 0 0 1
0x0206 1 0 0 1
0x020c 1 0 0 1
0x0212 1 0 0 1
0x0218 1 0 0 1
0x021d 1 0 0 1
0x0222 1 0 0 1
0x0225 1 0 0 1
0x0226 1 0 0 1
0x0225 1 0 0 1
0x0222 1 0 0 1
0x021d 1 0 0 1
0x0218 1 0 0 1
0x0212 1 0 0 1
0x020c 1 0 0 1
0x0206 1 0 0 1
0x0201 1 1 1 1
0xaa68 1 0 0 1
0x4000 1 0 0 1
0x5555 1 0 0 1
0x5555 1 0 0 1
0x5555 1 0 0 1
0x5555 1 1 0 1
0x01f4 1 0 0 1
0x01f4 1 0 0 1
0x01f4 1 0 0 1
0x01f4 1 0 0 1
0x01f4 1 0 0 1
0x01f4 1 0 0 1
0x01f4 1 0 0 1
0x01f4 1 0 0 1
0x01f4 1 0 0 1
0x01f4 1 0 0 1
0x01f4 1 0 0 1
0x01f4 1 0 0 1
0x01f4 1 0 0 1
0x01f4 1 0 0 1
0x01f4 1 0 0 1
0x01f4 1 0 0 1
0x01f4 1 0 0 1
0x01f4 1 0 0 1
0x01f4 1 0 0 1
0x01f4 1 0 0 1
0x01f4 1 0 0 1
0x01f4 1 0 0 1
0x01f4 1 0 0 1
0x01f4 1 0 0 1
0x01f4 1 0 0 1
0x01f4 1 0 0 1
0x01f4 1 0 0 1
0x01f4 1 0 0 1
0x01f4 1 0 0 1
0x01f4 1 0 0 1
0x01f4 1 0 0 1
0x01f4 1 0 0 1
0x01f4 1 0 0 1
0x01f4 1 0 0 1
0x01f4 1 0 0 1
0x01f4 1 0 0 1
0x01f4 1 0 0 1
0x01f4 1 0 0 1
0x01f4 1 0 0 1
0x01f4 1 0 0 1
0x01f4 1 0 0 1
0x01f4 1 0 0 1
0x01f5 1 0 0 1
0x01f6 1 0 0 1
0x01f8 1 0 0 1
0x01fa 1 0 0 1
0x01fd 1 0 0 1
0x0201 1 0 0 1
0x0206 1 0 0 1
0x020c 1 0 0 1
0x0212 1 0 0 1
0x0218 1 0 0 1
0x021d 1 0 0 1
0x0222 1 0 0 1
0x0225 1 0 0 1
0x0226 1 0 0 1
0x0225 1 0 0 1
0x0222 1 0 0 1
0x021d 1 0 0 1
0x0218 1 0 0 1
0x0212 1 0 0 1
0x020c 1 0 0 1
0x0206 1 0 0 1
0x0201 1 1 1 1
0xaa6c 1 0 0 1
0x4000 1 0 0 1
0x5555 1 0 0 1
0x5555 1 0 0 1
0x5555 1 0 0 1
0x5555 1 1 0 1
0x01f4 1 0 0 1
0x01f4 1 0 0 1
0x01f4 1 0 0 1
0x01f4 1 0 0 1
0x01f4 1 0 0 1
0x01f4 1 0 0 1
0x01f4 1 0 0 1
0x01f4 1 0 0 1
0x01f4 1 0 0 1
0x01f4 1 0 0 1
0x01f4 1 0 0 1
0x01f4 1 0 0 1
0x01f4 1 0 0 1
0x01f4 1 0 0 1
0x01f4 1 0 0 1
0x01f4 1 0 0 1
0x01f4 1 0 0 1
0x01f4 1 0 0 1
0x01f4 1 0 0 1
0x01f4 1 0 0 1
0x01f4 1 0 0 1
0x01f4 1 0 0 1
0x01f4 1 0 0 1
0x01f4 1 0 0 1
0x01f4 1 0 0 1
0x01f4 1 0 0 1
0x01f4 1 0 0 1
0x01f4 1 0 0 1
0x01f4 1 0 0 1
0x01f4 1 0 0 1
0x01f4 1 0 0 1
0x01f4 1 0 0 1
0x01f4 1 0 0 1
0x01f4 1 0 0 1
0x01f4 1 0 0 1
0x01f4 1 0 0 1
0x01f4 1 0 0 1
0x01f4 1 0 0 1
0x01f4 1 0 0 1
0x01f4 1 0 0 1
0x01f4 1 0 0 1
0x01f4 1 0 0 1
0x01f5 1 0 0 1
0x01f6 1 0 0 1
0x01f8 1 0 0 1
0x01fa 1 0 0 1
0x01fd 1 0 0 1
0x0201 1 0 0 1
0x0206 1 0 0 1
0x020c 1 0 0 1
0x0212 1 0 0 1
0x0218 1 0 0 1
0x021d 1 0 0 1
0x0222 1 0 0 1
0x0225 1 0 0 1
0x0226 1 0 0 1
0x0225 1 0 0 1
0x0222 1 0 0 1
0x021d 1 0 0 1
0x0218 1 0 0 1
0x0212 1 0 0 1
0x020c 1 0 0 1
0x0206 1 0 0 1
0x0201 1 1 1 1
0xaa70 1 0 0 1
0x4000 1 0 0 1
0x5555 1 0 0 1
0x5555 1 0 0 1
0x5555 1 0 0 1
0x5555 1 1 0 1
0x01f4 1 0 0 1
0x01f4 1 0 0 1
0x01f4 1 0 0 1
0x01f4 1 0 0 1
0x01f4 1 0 0 1
0x01f4 1 0 0 1
0x01f4 1 0 0 1
0x01f4 1 0 0 1
0x01f4 1 0 0 1
0x01f4 1 0 0 1
0x01f4 1 0 0 1
0x01f4 1 0 0 1
0x01f4 1 0 0 1
0x01f4 1 0 0 1
0x01f4 1 0 0 1
0x01f4 1 0 0 1
0x01f4 1 0 0 1
0x01f4 1 0 0 1
0x01f4 1 0 0 1
0x01f4 1 0 0 1
0x01f4 1 0 0 1
0x01f4 1 0 0 1
0x01f4 1 0 0 1
0x01f4 1 0 0 1
0x01f4 1 0 0 1
0x01f4 1 0 0 1
0x01f4 1 0 0 1
0x01f4 1 0 0 1
0x01f4 1 0 0 1
0x01f4 1 0 0 1
0x01f4 1 0 0 1
0x01f4 1 0 0 1
0x01f4 1 0 0 1
0x01f4 1 0 0 1
0x01f4 1 0 0 1
0x01f4 1 0 0 1
0x01f4 1 0 0 1
0x01f4 1 0 0 1
0x01f4 1 0 0 1
0x01f4 1 0 0 1
0x01f4 1 0 0 1
0x01f4 1 0 0 1
0x01f5 1 0 0 1
0x01f6 1 0 0 1
0x01f8 1 0 0 1
0x01fa 1 0 0 1
0x01fd 1 0 0 1
0x0201 1 0 0 1
0x0206 1 0 0 1
0x020c 1 0 0 1
0x0212 1 0 0 1
0x0218 1 0 0 1
0x021d 1 0 0 1
0x0222 1 0 0 1
0x0225 1 0 0 1
0x0226 1 0 0 1
0x0225 1 0 0 1
0x0222 1 0 0 1
0x021d 1 0 0 1
0x0218 1 0 0 1
0x0212 1 0 0 1
0x020c 1 0 0 1
0x0206 1 0 0 1
0x0201 1 1 1 1
0xaa74 1 0 0 1
0x4000 1 0 0 1
0x5555 1 0 0 1
0x5555 1 0 0 1
0x5555 1 0 0 1
0x5555 1 1 0 1
0x01f4 1 0 0 1
0x01f4 1 0 0 1
0x01f4 1 0 0 1
0x01f4 1 0 0 1
0x01f4 1 0 0 1
0x01f4 1 0 0 1
0x01f4 1 0 0 1
0x01f4 1 0 0 1
0x01f4 1 0 0 1
0x01f4 1 0 0 1
0x01f4 1 0 0 1
0x01f4 1 0 0 1
0x01f4 1 0 0 1
0x01f4 1 0 0 1
0x01f4 1 0 0 1
0x01f4 1 0 0 1
0x01f4 1 0 0 1
0x01f4 1 0 0 1
0x01f4 1 0 0 1
0x01f4 1 0 0 1
0x01f4 1 0 0 1
0x01f4 1 0 0 1
0x01f4 1 0 0 1
0x01f4 1 0 0 1
0x01f4 1 0 0 1
0x01f4 1 0 0 1
0x01f4 1 0 0 1
0x01f4 1 0 0 1
0x01f4 1 0 0 1
0x01f4 1 0 0 1
0x01f4 1 0 0 1
0x01f4 1 0 0 1
0x01f4 1 0 0 1
0x01f4 1 0 0 1
0x01f4 1 0 0 1
0x01f4 1 0 0 1
0x01f4 1 0 0 1
0x01f4 1 0 0 1
0x01f4 1 0 0 1
0x01f4 1 0 0 1
0x01f4 1 0 0 1
0x01f4 1 0 0 1
0x01f5 1 0 0 1
0x01f6 1 0 0 1
0x01f8 1 0 0 1
0x01fa 1 0 0 1
0x01fd 1 0 0 1
0x0201 1 0 0 1
0x0206 1 0 0 1
0x020c 1 0 0 1
0x0212 1 0 0 1
0x0218 1 0 0 1
0x021d 1 0 0 1
0x0222 1 0 0 1
0x0225 1 0 0 1
0x0226 1 0 0 1
0x0225 1 0 0 1
0x0222 1 0 0 1
0x021d 1 0 0 1
0x0218 1 0 0 1
0x0212 1 0 0 1
0x020c 1 0 0 1
0x0206 1 0 0 1
0x0201 1 1 1 1
0xaa78 1 0 0 1
0x4000 1 0 0 1
0x5555 1 0 0 1
0x5555 1 0 0 1
0x5555 1 0 0 1
0x5555 1 1 0 1
0x01f4 1 0 0 1
0x01f4 1 0 0 1
0x01f4 1 0 0 1
0x01f4 1 0 0 1
0x01f4 1 0 0 1
0x01f4 1 0 0 1
0x01f4 1 0 0 1
0x01f4 1 0 0 1
0x01f4 1 0 0 1
0x01f4 1 0 0 1
0x01f4 1 0 0 1
0x01f4 1 0 0 1
0x01f4 1 0 0 1
0x01f4 1 0 0 1
0x01f4 1 0 0 1
0x01f4 1 0 0 1
0x01f4 1 0 0 1
0x01f4 1 0 0 1
0x01f4 1 0 0 1
0x01f4 1 0 0 1
0x01f4 1 0 0 1
0x01f4 1 0 0 1
0x01f4 1 0 0 1
0x01f4 1 0 0 1
0x01f4 1 0 0 1
0x01f4 1 0 0 1
0x01f4 1 0 0 1
0x01f4 1 0 0 1
0x01f4 1 0 0 1
0x01f4 1 0 0 1
0x01f4 1 0 0 1
0x01f4 1 0 0 1
0x01f4 1 0 0 1
0x01f4 1 0 0 1
0x01f4 1 0 0 1
0x01f4 1 0 0 1
0x01f4 1 0 0 1
0x01f4 1 0 0 1
0x01f4 1 0 0 1
0x01f4 1 0 0 1
0x01f4 1 0 0 1
0x01f4 1 0 0 1
0x01f5 1 0 0 1
0x01f6 1 0 0 1
0x01f8 1 0 0 1
0x01fa 1 0 0 1
0x01fd 1 0 0 1
0x0201 1 0 0 1
0x0206 1 0 0 1
0x020c 1 0 0 1
0x0212 1 0 0 1
0x0218 1 0 0 1
0x021d 1 0 0 1
0x0222 1 0 0 1
0x0225 1 0 0 1
0x0226 1 0 0 1
0x0225 1 0 0 1
0x0222 1 0 0 1
0x021d 1 0 0 1
0x0218 1 0 0 1
0x0212 1 0 0 1
0x020c 1 0 0 1
0x0206 1 0 0 1
0x0201 1 1 1 1
0xaa7c 1 0 0 1
0x4000 1 0 0 1
0x5555 1 0 0 1
0x5555 1 0 0 1
0x5555 1 0 0 1
0x5555 1 1 0 1
0x01f4 1 0 0 1
0x01f4 1 0 0 1
0x01f4 1 0 0 1
0x01f4 1 0 0 1
0x01f4 1 0 0 1
0x01f4 1 0 0 1
0x01f4 1 0 0 1
0x01f4 1 0 0 1
0x01f4 1 0 0 1
0x01f4 1 0 0 1
0x01f4 1 0 0 1
0x01f4 1 0 0 1
0x01f4 1 0 0 1
0x01f4 1 0 0 1
0x01f4 1 0 0 1
0x01f4 1 0 0 1
0x01f4 1 0 0 1
0x01f4 1 0 0 1
0x01f4 1 0 0 1
0x01f4 1 0 0 1
0x01f4 1 0 0 1
0x01f4 1 0 0 1
0x01f4 1 0 0 1
0x01f4 1 0 0 1
0x01f4 1 0 0 1
0x01f4 1 0 0 1
0x01f4 1 0 0 1
0x01f4 1 0 0 1
0x01f4 1 0 0 1
0x01f4 1 0 0 1
0x01f4 1 0 0 1
0x01f4 1 0 0 1
0x01f4 1 0 0 1
0x01f4 1 0 0 1
0x01f4 1 0 0 1
0x01f4 1 0 0 1
0x01f4 1 0 0 1
0x01f4 1 0 0 1
0x01f4 1 0 0 1
0x01f4 1 0 0 1
0x01f4 1 0 0 1
0x01f4 1 0 0 1
0x01f5 1 0 0 1
0x01f6 1 0 0 1
0x01f8 1 0 0 1
0x01fa 1 0 0 1
0x01fd 1 0 0 1
0x0201 1 0 0 1
0x0206 1 0 0 1
0x020c 1 0 0 1
0x0212 1 0 0 1
0x0218 1 0 0 1
0x021d 1 0 0 1
0x0222 1 0 0 1
0x0225 1 0 0 1
0x0226 1 0 0 1
0x0225 1 0 0 1
0x0222 1 0 0 1
0x021d 1 0 0 1
0x0218 1 0 0 1
0x0212 1 0 0 1
0x020c 1 0 0 1
0x0206 1 0 0 1
0x0201 1 1 1 1
0xaa80 1 0 0 1
0x4000 1 0 0 1
0x5555 1 0 0 1
0x5555 1 0 0 1
0x5555 1 0 0 1
0x5555 1 1 0 1
0x01f4 1 0 0 1
0x01f4 1 0 0 1
0x01f4 1 0 0 1
0x01f4 1 0 0 1
0x01f4 1 0 0 1
0x01f4 1 0 0 1
0x01f4 1 0 0 1
0x01f4 1 0 0 1
0x01f4 1 0 0 1
0x01f4 1 0 0 1
0x01f4 1 0 0 1
0x01f4 1 0 0 1
0x01f4 1 0 0 1
0x01f4 1 0 0 1
0x01f4 1 0 0 1
0x01f4 1 0 0 1
0x01f4 1 0 0 1
0x01f4 1 0 0 1
0x01f4 1 0 0 1
0x01f4 1 0 0 1
0x01f4 1 0 0 1
0x01f4 1 0 0 1
0x01f4 1 0 0 1
0x01f4 1 0 0 1
0x01f4 1 0 0 1
0x01f4 1 0 0 1
0x01f4 1 0 0 1
0x01f4 1 0 0 1
0x01f4 1 0 0 1
0x01f4 1 0 0 1
0x01f4 1 0 0 1
0x01f4 1 0 0 1
0x01f4 1 0 0 1
0x01f4 1 0 0 1
0x01f4 1 0 0 1
0x01f4 1 0 0 1
0x01f4 1 0 0 1
0x01f4 1 0 0 1
0x01f4 1 0 0 1
0x01f4 1 0 0 1
0x01f4 1 0 0 1
0x01f4 1 0 0 1
0x01f5 1 0 0 1
0x01f6 1 0 0 1
0x01f8 1 0 0 1
0x01fa 1 0 0 1
0x01fd 1 0 0 1
0x0201 1 0 0 1
0x0206 1 0 0 1
0x020c 1 0 0 1
0x0212 1 0 0 1
0x0218 1 0 0 1
0x021d 1 0 0 1
0x0222 1 0 0 1
0x0225 1 0 0 1
0x0226 1 0 0 1
0x0225 1 0 0 1
0x0222 1 0 0 1
0x021d 1 0 0 1
0x0218 1 0 0 1
0x0212 1 0 0 1
0x020c 1 0 0 1
0x0206 1 0 0 1
0x0201 1 1 1 1
0xaa84 1 0 0 1
0x4000 1 0 0 1
0x5555 1 0 0 1
0x5555 1 0 0 1
0x5555 1 0 0 1
0x5555 1 1 0 1
0x01f4 1 0 0 1
0x01f4 1 0 0 1
0x01f4 1 0 0 1
0x01f4 1 0 0 1
0x01f4 1 0 0 1
0x01f4 1 0 0 1
0x01f4 1 0 0 1
0x01f4 1 0 0 1
0x01f4 1 0 0 1
0x01f4 1 0 0 1
0x01f4 1 0 0 1
0x01f4 1 0 0 1
0x01f4 1 0 0 1
0x01f4 1 0 0 1
0x01f4 1 0 0 1
0x01f4 1 0 0 1
0x01f4 1 0 0 1
0x01f4 1 0 0 1
0x01f4 1 0 0 1
0x01f4 1 0 0 1
0x01f4 1 0 0 1
0x01f4 1 0 0 1
0x01f4 1 0 0 1
0x01f4 1 0 0 1
0x01f4 1 0 0 1
0x01f4 1 0 0 1
0x01f4 1 0 0 1
0x01f4 1 0 0 1
0x01f4 1 0 0 1
0x01f4 1 0 0 1
0x01f4 1 0 0 1
0x01f4 1 0 0 1
0x01f4 1 0 0 1
0x01f4 1 0 0 1
0x01f4 1 0 0 1
0x01f4 1 0 0 1
0x01f4 1 0 0 1
0x01f4 1 0 0 1
0x01f4 1 0 0 1
0x01f4 1 0 0 1
0x01f4 1 0 0 1
0x01f4 1 0 0 1
0x01f5 1 0 0 1
0x01f6 1 0 0 1
0x01f8 1 0 0 1
0x01fa 1 0 0 1
0x01fd 1 0 0 1
0x0201 1 0 0 1
0x0206 1 0 0 1
0x020c 1 0 0 1
0x0212 1 0 0 1
0x0218 1 0 0 1
0x021d 1 0 0 1
0x0222 1 0 0 1
0x0225 1 0 0 1
0x0226 1 0 0 1
0x0225 1 0 0 1
0x0222 1 0 0 1
0x021d 1 0 0 1
0x0218 1 0 0 1
0x0212 1 0 0 1
0x020c 1 0 0 1
0x0206 1 0 0 1
0x0201 1 1 1 1
0xaa88 1 0 0 1
0x4000 1 0 0 1
0x5555 1 0 0 1
0x5555 1 0 0 1
0x5555 1 0 0 1
0x5555 1 1 0 1
0x01f4 1 0 0 1
0x01f4 1 0 0 1
0x01f4 1 0 0 1
0x01f4 1 0 0 1
0x01f4 1 0 0 1
0x01f4 1 0 0 1
0x01f4 1 0 0 1
0x01f4 1 0 0 1
0x01f4 1 0 0 1
0x01f4 1 0 0 1
0x01f4 1 0 0 1
0x01f4 1 0 0 1
0x01f4 1 0 0 1
0x01f4 1 0 0 1
0x01f4 1 0 0 1
0x01f4 1 0 0 1
0x01f4 1 0 0 1
0x01f4 1 0 0 1
0x01f4 1 0 0 1
0x01f4 1 0 0 1
0x01f4 1 0 0 1
0x01f4 1 0 0 1
0x01f4 1 0 0 1
0x01f4 1 0 0 1
0x01f4 1 0 0 1
0x01f4 1 0 0 1
0x01f4 1 0 0 1
0x01f4 1 0 0 1
0x01f4 1 0 0 1
0x01f4 1 0 0 1
0x01f4 1 0 0 1
0x01f4 1 0 0 1
0x01f4 1 0 0 1
0x01f4 1 0 0 1
0x01f4 1 0 0 1
0x01f4 1 0 0 1
0x01f4 1 0 0 1
0x01f4 1 0 0 1
0x01f4 1 0 0 1
0x01f4 1 0 0 1
0x01f4 1 0 0 1
0x01f4 1 0 0 1
0x01f5 1 0 0 1
0x01f6 1 0 0 1
0x01f8 1 0 0 1
0x01fa 1 0 0 1
0x01fd 1 0 0 1
0x0201 1 0 0 1
0x0206 1 0 0 1
0x020c 1 0 0 1
0x0212 1 0 0 1
0x0218 1 0 0 1
0x021d 1 0 0 1
0x0222 1 0 0 1
0x0225 1 0 0 1
0x0226 1 0 0 1
0x0225 1 0 0 1
0x0222 1 0 0 1
0x021d 1 0 0 1
0x0218 1 0 0 1
0x0212 1 0 0 1
0x020c 1 0 0 1
0x0206 1 0 0 1
0x0201 1 1 1 1
0xaa8c 1 0 0 1
0x4000 1 0 0 1
0x5555 1 0 0 1
0x5555 1 0 0 1
0x5555 1 0 0 1
0x5555 1 1 0 1
0x01f4 1 0 0 1
0x01f4 1 0 0 1
0x01f4 1 0 0 1
0x01f4 1 0 0 1
0x01f4 1 0 0 1
0x01f4 1 0 0 1
0x01f4 1 0 0 1
0x01f4 1 0 0 1
0x01f4 1 0 0 1
0x01f4 1 0 0 1
0x01f4 1 0 0 1
0x01f4 1 0 0 1
0x01f4 1 0 0 1
0x01f4 1 0 0 1
0x01f4 1 0 0 1
0x01f4 1 0 0 1
0x01f4 1 0 0 1
0x01f4 1 0 0 1
0x01f4 1 0 0 1
0x01f4 1 0 0 1
0x01f4 1 0 0 1
0x01f4 1 0 0 1
0x01f4 1 0 0 1
0x01f4 1 0 0 1
0x01f4 1 0 0 1
0x01f4 1 0 0 1
0x01f4 1 0 0 1
0x01f4 1 0 0 1
0x01f4 1 0 0 1
0x01f4 1 0 0 1
0x01f4 1 0 0 1
0x01f4 1 0 0 1
0x01f4 1 0 0 1
0x01f4 1 0 0 1
0x01f4 1 0 0 1
0x01f4 1 0 0 1
0x01f4 1 0 0 1
0x01f4 1 0 0 1
0x01f4 1 0 0 1
0x01f4 1 0 0 1
0x01f4 1 0 0 1
0x01f4 1 0 0 1
0x01f5 1 0 0 1
0x01f6 1 0 0 1
0x01f8 1 0 0 1
0x01fa 1 0 0 1
0x01fd 1 0 0 1
0x0201 1 0 0 1
0x0206 1 0 0 1
0x020c 1 0 0 1
0x0212 1 0 0 1
0x0218 1 0 0 1
0x021d 1 0 0 1
0x0222 1 0 0 1
0x0225 1 0 0 1
0x0226 1 0 0 1
0x0225 1 0 0 1
0x0222 1 0 0 1
0x021d 1 0 0 1
0x0218 1 0 0 1
0x0212 1 0 0 1
0x020c 1 0 0 1
0x0206 1 0 0 1
0x0201 1 1 1 1
0xaa90 1 0 0 1
0x4000 1 0 0 1
0x5555 1 0 0 1
0x5555 1 0 0 1
0x5555 1 0 0 1
0x5555 1 1 0 1
0x01f4 1 0 0 1
0x01f4 1 0 0 1
0x01f4 1 0 0 1
0x01f4 1 0 0 1
0x01f4 1 0 0 1
0x01f4 1 0 0 1
0x01f4 1 0 0 1
0x01f4 1 0 0 1
0x01f4 1 0 0 1
0x01f4 1 0 0 1
0x01f4 1 0 0 1
0x01f4 1 0 0 1
0x01f4 1 0 0 1
0x01f4 1 0 0 1
0x01f4 1 0 0 1
0x01f4 1 0 0 1
0x01f4 1 0 0 1
0x01f4 1 0 0 1
0x01f4 1 0 0 1
0x01f4 1 0 0 1
0x01f4 1 0 0 1
0x01f4 1 0 0 1
0x01f4 1 0 0 1
0x01f4 1 0 0 1
0x01f4 1 0 0 1
0x01f4 1 0 0 1
0x01f4 1 0 0 1
0x01f4 1 0 0 1
0x01f4 1 0 0 1
0x01f4 1 0 0 1
0x01f4 1 0 0 1
0x01f4 1 0 0 1
0x01f4 1 0 0 1
0x01f4 1 0 0 1
0x01f4 1 0 0 1
0x01f4 1 0 0 1
0x01f4 1 0 0 1
0x01f4 1 0 0 1
0x01f4 1 0 0 1
0x01f4 1 0 0 1
0x01f4 1 0 0 1
0x01f4 1 0 0 1
0x01f5 1 0 0 1
0x01f6 1 0 0 1
0x01f8 1 0 0 1
0x01fa 1 0 0 1
0x01fd 1 0 0 1
0x0201 1 0 0 1
0x0206 1 0 0 1
0x020c 1 0 0 1
0x0212 1 0 0 1
0x0218 1 0 0 1
0x021d 1 0 0 1
0x0222 1 0 0 1
0x0225 1 0 0 1
0x0226 1 0 0 1
0x0225 1 0 0 1
0x0222 1 0 0 1
0x021d 1 0 0 1
0x0218 1 0 0 1
0x0212 1 0 0 1
0x020c 1 0 0 1
0x0206 1 0 0 1
0x0201 1 1 1 1
0xaa94 1 0 0 1
0x4000 1 0 0 1
0x5555 1 0 0 1
0x5555 1 0 0 1
0x5555 1 0 0 1
0x5555 1 1 0 1
0x01f4 1 0 0 1
0x01f4 1 0 0 1
0x01f4 1 0 0 1
0x01f4 1 0 0 1
0x01f4 1 0 0 1
0x01f4 1 0 0 1
0x01f4 1 0 0 1
0x01f4 1 0 0 1
0x01f4 1 0 0 1
0x01f4 1 0 0 1
0x01f4 1 0 0 1
0x01f4 1 0 0 1
0x01f4 1 0 0 1
0x01f4 1 0 0 1
0x01f4 1 0 0 1
0x01f4 1 0 0 1
0x01f4 1 0 0 1
0x01f4 1 0 0 1
0x01f4 1 0 0 1
0x01f4 1 0 0 1
0x01f4 1 0 0 1
0x01f4 1 0 0 1
0x01f4 1 0 0 1
0x01f4 1 0 0 1
0x01f4 1 0 0 1
0x01f4 1 0 0 1
0x01f4 1 0 0 1
0x01f4 1 0 0 1
0x01f4 1 0 0 1
0x01f4 1 0 0 1
0x01f4 1 0 0 1
0x01f4 1 0 0 1
0x01f4 1 0 0 1
0x01f4 1 0 0 1
0x01f4 1 0 0 1
0x01f4 1 0 0 1
0x01f4 1 0 0 1
0x01f4 1 0 0 1
0x01f4 1 0 0 1
0x01f4 1 0 0 1
0x01f4 1 0 0 1
0x01f4 1 0 0 1
0x01f5 1 0 0 1
0x01f6 1 0 0 1
0x01f8 1 0 0 1
0x01fa 1 0 0 1
0x01fd 1 0 0 1
0x0201 1 0 0 1
0x0206 1 0 0 1
0x020c 1 0 0 1
0x0212 1 0 0 1
0x0218 1 0 0 1
0x021d 1 0 0 1
0x0222 1 0 0 1
0x0225 1 0 0 1
0x0226 1 0 0 1
0x0225 1 0 0 1
0x0222 1 0 0 1
0x021d 1 0 0 1
0x0218 1 0 0 1
0x0212 1 0 0 1
0x020c 1 0 0 1
0x0206 1 0 0 1
0x0201 1 1 1 1
0xaa98 1 0 0 1
0x4000 1 0 0 1
0x5555 1 0 0 1
0x5555 1 0 0 1
0x5555 1 0 0 1
0x5555 1 1 0 1
0x01f4 1 0 0 1
0x01f4 1 0 0 1
0x01f4 1 0 0 1
0x01f4 1 0 0 1
0x01f4 1 0 0 1
0x01f4 1 0 0 1
0x01f4 1 0 0 1
0x01f4 1 0 0 1
0x01f4 1 0 0 1
0x01f4 1 0 0 1
0x01f4 1 0 0 1
0x01f4 1 0 0 1
0x01f4 1 0 0 1
0x01f4 1 0 0 1
0x01f4 1 0 0 1
0x01f4 1 0 0 1
0x01f4 1 0 0 1
0x01f4 1 0 0 1
0x01f4 1 0 0 1
0x01f4 1 0 0 1
0x01f4 1 0 0 1
0x01f4 1 0 0 1
0x01f4 1 0 0 1
0x01f4 1 0 0 1
0x01f4 1 0 0 1
0x01f4 1 0 0 1
0x01f4 1 0 0 1
0x01f4 1 0 0 1
0x01f4 1 0 0 1
0x01f4 1 0 0 1
0x01f4 1 0 0 1
0x01f4 1 0 0 1
0x01f4 1 0 0 1
0x01f4 1 0 0 1
0x01f4 1 0 0 1
0x01f4 1 0 0 1
0x01f4 1 0 0 1
0x01f4 1 0 0 1
0x01f4 1 0 0 1
0x01f4 1 0 0 1
0x01f4 1 0 0 1
0x01f4 1 0 0 1
0x01f5 1 0 0 1
0x01f6 1 0 0 1
0x01f8 1 0 0 1
0x01fa 1 0 0 1
0x01fd 1 0 0 1
0x0201 1 0 0 1
0x0206 1 0 0 1
0x020c 1 0 0 1
0x0212 1 0 0 1
0x0218 1 0 0 1
0x021d 1 0 0 1
0x0222 1 0 0 1
0x0225 1 0 0 1
0x0226 1 0 0 1
0x0225 1 0 0 1
0x0222 1 0 0 1
0x021d 1 0 0 1
0x0218 1 0 0 1
0x0212 1 0 0 1
0x020c 1 0 0 1
0x0206 1 0 0 1
0x0201 1 1 1 1
0xaa9c 1 0 0 1
0x4000 1 0 0 1
0x5555 1 0 0 1
0x5555 1 0 0 1
0x5555 1 0 0 1
0x5555 1 1 0 1
0x01f4 1 0 0 1
0x01f4 1 0 0 1
0x01f4 1 0 0 1
0x01f4 1 0 0 1
0x01f4 1 0 0 1
0x01f4 1 0 0 1
0x01f4 1 0 0 1
0x01f4 1 0 0 1
0x01f4 1 0 0 1
0x01f4 1 0 0 1
0x01f4 1 0 0 1
0x01f4 1 0 0 1
0x01f4 1 0 0 1
0x01f4 1 0 0 1
0x01f4 1 0 0 1
0x01f4 1 0 0 1
0x01f4 1 0 0 1
0x01f4 1 0 0 1
0x01f4 1 0 0 1
0x01f4 1 0 0 1
0x01f4 1 0 0 1
0x01f4 1 0 0 1
0x01f4 1 0 0 1
0x01f4 1 0 0 1
0x01f4 1 0 0 1
0x01f4 1 0 0 1
0x01f4 1 0 0 1
0x01f4 1 0 0 1
0x01f4 1 0 0 1
0x01f4 1 0 0 1
0x01f4 1 0 0 1
0x01f4 1 0 0 1
0x01f4 1 0 0 1
0x01f4 1 0 0 1
0x01f4 1 0 0 1
0x01f4 1 0 0 1
0x01f4 1 0 0 1
0x01f4 1 0 0 1
0x01f4 1 0 0 1
0x01f4 1 0 0 1
0x01f4 1 0 0 1
0x01f4 1 0 0 1
0x01f5 1 0 0 1
0x01f6 1 0 0 1
0x01f8 1 0 0 1
0x01fa 1 0 0 1
0x01fd 1 0 0 1
0x0201 1 0 0 1
0x0206 1 0 0 1
0x020c 1 0 0 1
0x0212 1 0 0 1
0x0218 1 0 0 1
0x021d 1 0 0 1
0x0222 1 0 0 1
0x0225 1 0 0 1
0x0226 1 0 0 1
0x0225 1 0 0 1
0x0222 1 0 0 1
0x021d 1 0 0 1
0x0218 1 0 0 1
0x0212 1 0 0 1
0x020c 1 0 0 1
0x0206 1 0 0 1
0x0201 1 1 1 1
0xaaa0 1 0 0 1
0x4000 1 0 0 1
0x5555 1 0 0 1
0x5555 1 0 0 1
0x5555 1 0 0 1
0x5555 1 1 0 1
0x01f4 1 0 0 1
0x01f4 1 0 0 1
0x01f4 1 0 0 1
0x01f4 1 0 0 1
0x01f4 1 0 0 1
0x01f4 1 0 0 1
0x01f4 1 0 0 1
0x01f4 1 0 0 1
0x01f4 1 0 0 1
0x01f4 1 0 0 1
0x01f4 1 0 0 1
0x01f4 1 0 0 1
0x01f4 1 0 0 1
0x01f4 1 0 0 1
0x01f4 1 0 0 1
0x01f4 1 0 0 1
0x01f4 1 0 0 1
0x01f4 1 0 0 1
0x01f4 1 0 0 1
0x01f4 1 0 0 1
0x01f4 1 0 0 1
0x01f4 1 0 0 1
0x01f4 1 0 0 1
0x01f4 1 0 0 1
0x01f4 1 0 0 1
0x01f4 1 0 0 1
0x01f4 1 0 0 1
0x01f4 1 0 0 1
0x01f4 1 0 0 1
0x01f4 1 0 0 1
0x01f4 1 0 0 1
0x01f4 1 0 0 1
0x01f4 1 0 0 1
0x01f4 1 0 0 1
0x01f4 1 0 0 1
0x01f4 1 0 0 1
0x01f4 1 0 0 1
0x01f4 1 0 0 1
0x01f4 1 0 0 1
0x01f4 1 0 0 1
0x01f4 1 0 0 1
0x01f4 1 0 0 1
0x01f5 1 0 0 1
0x01f6 1 0 0 1
0x01f8 1 0 0 1
0x01fa 1 0 0 1
0x01fd 1 0 0 1
0x0201 1 0 0 1
0x0206 1 0 0 1
0x020c 1 0 0 1
0x0212 1 0 0 1
0x0218 1 0 0 1
0x021d 1 0 0 1
0x0222 1 0 0 1
0x0225 1 0 0 1
0x0226 1 0 0 1
0x0225 1 0 0 1
0x0222 1 0 0 1
0x021d 1 0 0 1
0x0218 1 0 0 1
0x0212 1 0 0 1
0x020c 1 0 0 1
0x0206 1 0 0 1
0x0201 1 1 1 1
0xaaa4 1 0 0 1
0x4000 1 0 0 1
0x5555 1 0 0 1
0x5555 1 0 0 1
0x5555 1 0 0 1
0x5555 1 1 0 1
0x01f4 1 0 0 1
0x01f4 1 0 0 1
0x01f4 1 0 0 1
0x01f4 1 0 0 1
0x01f4 1 0 0 1
0x01f4 1 0 0 1
0x01f4 1 0 0 1
0x01f4 1 0 0 1
0x01f4 1 0 0 1
0x01f4 1 0 0 1
0x01f4 1 0 0 1
0x01f4 1 0 0 1
0x01f4 1 0 0 1
0x01f4 1 0 0 1
0x01f4 1 0 0 1
0x01f4 1 0 0 1
0x01f4 1 0 0 1
0x01f4 1 0 0 1
0x01f4 1 0 0 1
0x01f4 1 0 0 1
0x01f4 1 0 0 1
0x01f4 1 0 0 1
0x01f4 1 0 0 1
0x01f4 1 0 0 1
0x01f4 1 0 0 1
0x01f4 1 0 0 1
0x01f4 1 0 0 1
0x01f4 1 0 0 1
0x01f4 1 0 0 1
0x01f4 1 0 0 1
0x01f4 1 0 0 1
0x01f4 1 0 0 1
0x01f4 1 0 0 1
0x01f4 1 0 0 1
0x01f4 1 0 0 1
0x01f4 1 0 0 1
0x01f4 1 0 0 1
0x01f4 1 0 0 1
0x01f4 1 0 0 1
0x01f4 1 0 0 1
0x01f4 1 0 0 1
0x01f4 1 0 0 1
0x01f5 1 0 0 1
0x01f6 1 0 0 1
0x01f8 1 0 0 1
0x01fa 1 0 0 1
0x01fd 1 0 0 1
0x0201 1 0 0 1
0x0206 1 0 0 1
0x020c 1 0 0 1
0x0212 1 0 0 1
0x0218 1 0 0 1
0x021d 1 0 0 1
0x0222 1 0 0 1
0x0225 1 0 0 1
0x0226 1 0 0 1
0x0225 1 0 0 1
0x0222 1 0 0 1
0x021d 1 0 0 1
0x0218 1 0 0 1
0x0212 1 0 0 1
0x020c 1 0 0 1
0x0206 1 0 0 1
0x0201 1 1 1 1
0xaaa8 1 0 0 1
0x4000 1 0 0 1
0x5555 1 0 0 1
0x5555 1 0 0 1
0x5555 1 0 0 1
0x5555 1 1 0 1
0x01f4 1 0 0 1
0x01f4 1 0 0 1
0x01f4 1 0 0 1
0x01f4 1 0 0 1
0x01f4 1 0 0 1
0x01f4 1 0 0 1
0x01f4 1 0 0 1
0x01f4 1 0 0 1
0x01f4 1 0 0 1
0x01f4 1 0 0 1
0x01f4 1 0 0 1
0x01f4 1 0 0 1
0x01f4 1 0 0 1
0x01f4 1 0 0 1
0x01f4 1 0 0 1
0x01f4 1 0 0 1
0x01f4 1 0 0 1
0x01f4 1 0 0 1
0x01f4 1 0 0 1
0x01f4 1 0 0 1
0x01f4 1 0 0 1
0x01f4 1 0 0 1
0x01f4 1 0 0 1
0x01f4 1 0 0 1
0x01f4 1 0 0 1
0x01f4 1 0 0 1
0x01f4 1 0 0 1
0x01f4 1 0 0 1
0x01f4 1 0 0 1
0x01f4 1 0 0 1
0x01f4 1 0 0 1
0x01f4 1 0 0 1
0x01f4 1 0 0 1
0x01f4 1 0 0 1
0x01f4 1 0 0 1
0x01f4 1 0 0 1
0x01f4 1 0 0 1
0x01f4 1 0 0 1
0x01f4 1 0 0 1
0x01f4 1 0 0 1
0x01f4 1 0 0 1
0x01f4 1 0 0 1
0x01f5 1 0 0 1
0x01f6 1 0 0 1
0x01f8 1 0 0 1
0x01fa 1 0 0 1
0x01fd 1 0 0 1
0x0201 1 0 0 1
0x0206 1 0 0 1
0x020c 1 0 0 1
0x0212 1 0 0 1
0x0218 1 0 0 1
0x021d 1 0 0 1
0x0222 1 0 0 1
0x0225 1 0 0 1
0x0226 1 0 0 1
0x0225 1 0 0 1
0x0222 1 0 0 1
0x021d 1 0 0 1
0x0218 1 0 0 1
0x0212 1 0 0 1
0x020c 1 0 0 1
0x0206 1 0 0 1
0x0201 1 1 1 1
0xaaac 1 0 0 1
0x4000 1 0 0 1
0x5555 1 0 0 1
0x5555 1 0 0 1
0x5555 1 0 0 1
0x5555 1 1 0 1
0x01f4 1 0 0 1
0x01f4 1 0 0 1
0x01f4 1 0 0 1
0x01f4 1 0 0 1
0x01f4 1 0 0 1
0x01f4 1 0 0 1
0x01f4 1 0 0 1
0x01f4 1 0 0 1
0x01f4 1 0 0 1
0x01f4 1 0 0 1
0x01f4 1 0 0 1
0x01f4 1 0 0 1
0x01f4 1 0 0 1
0x01f4 1 0 0 1
0x01f4 1 0 0 1
0x01f4 1 0 0 1
0x01f4 1 0 0 1
0x01f4 1 0 0 1
0x01f4 1 0 0 1
0x01f4 1 0 0 1
0x01f4 1 0 0 1
0x01f4 1 0 0 1
0x01f4 1 0 0 1
0x01f4 1 0 0 1
0x01f4 1 0 0 1
0x01f4 1 0 0 1
0x01f4 1 0 0 1
0x01f4 1 0 0 1
0x01f4 1 0 0 1
0x01f4 1 0 0 1
0x01f4 1 0 0 1
0x01f4 1 0 0 1
0x01f4 1 0 0 1
0x01f4 1 0 0 1
0x01f4 1 0 0 1
0x01f4 1 0 0 1
0x01f4 1 0 0 1
0x01f4 1 0 0 1
0x01f4 1 0 0 1
0x01f4 1 0 0 1
0x01f4 1 0 0 1
0x01f4 1 0 0 1
0x01f5 1 0 0 1
0x01f6 1 0 0 1
0x01f8 1 0 0 1
0x01fa 1 0 0 1
0x01fd 1 0 0 1
0x0201 1 0 0 1
0x0206 1 0 0 1
0x020c 1 0 0 1
0x0212 1 0 0 1
0x0218 1 0 0 1
0x021d 1 0 0 1
0x0222 1 0 0 1
0x0225 1 0 0 1
0x0226 1 0 0 1
0x0225 1 0 0 1
0x0222 1 0 0 1
0x021d 1 0 0 1
0x0218 1 0 0 1
0x0212 1 0 0 1
0x020c 1 0 0 1
0x0206 1 0 0 1
0x0201 1 1 1 1
0xaab0 1 0 0 1
0x4000 1 0 0 1
0x5555 1 0 0 1
0x5555 1 0 0 1
0x5555 1 0 0 1
0x5555 1 1 0 1
0x01f4 1 0 0 1
0x01f4 1 0 0 1
0x01f4 1 0 0 1
0x01f4 1 0 0 1
0x01f4 1 0 0 1
0x01f4 1 0 0 1
0x01f4 1 0 0 1
0x01f4 1 0 0 1
0x01f4 1 0 0 1
0x01f4 1 0 0 1
0x01f4 1 0 0 1
0x01f4 1 0 0 1
0x01f4 1 0 0 1
0x01f4 1 0 0 1
0x01f4 1 0 0 1
0x01f4 1 0 0 1
0x01f4 1 0 0 1
0x01f4 1 0 0 1
0x01f4 1 0 0 1
0x01f4 1 0 0 1
0x01f4 1 0 0 1
0x01f4 1 0 0 1
0x01f4 1 0 0 1
0x01f4 1 0 0 1
0x01f4 1 0 0 1
0x01f4 1 0 0 1
0x01f4 1 0 0 1
0x01f4 1 0 0 1
0x01f4 1 0 0 1
0x01f4 1 0 0 1
0x01f4 1 0 0 1
0x01f4 1 0 0 1
0x01f4 1 0 0 1
0x01f4 1 0 0 1
0x01f4 1 0 0 1
0x01f4 1 0 0 1
0x01f4 1 0 0 1
0x01f4 1 0 0 1
0x01f4 1 0 0 1
0x01f4 1 0 0 1
0x01f4 1 0 0 1
0x01f4 1 0 0 1
0x01f5 1 0 0 1
0x01f6 1 0 0 1
0x01f8 1 0 0 1
0x01fa 1 0 0 1
0x01fd 1 0 0 1
0x0201 1 0 0 1
0x0206 1 0 0 1
0x020c 1 0 0 1
0x0212 1 0 0 1
0x0218 1 0 0 1
0x021d 1 0 0 1
0x0222 1 0 0 1
0x0225 1 0 0 1
0x0226 1 0 0 1
0x0225 1 0 0 1
0x0222 1 0 0 1
0x021d 1 0 0 1
0x0218 1 0 0 1
0x0212 1 0 0 1
0x020c 1 0 0 1
0x0206 1 0 0 1
0x0201 1 1 1 1
0xaab4 1 0 0 1
0x4000 1 0 0 1
0x5555 1 0 0 1
0x5555 1 0 0 1
0x5555 1 0 0 1
0x5555 1 1 0 1
0x01f4 1 0 0 1
0x01f4 1 0 0 1
0x01f4 1 0 0 1
0x01f4 1 0 0 1
0x01f4 1 0 0 1
0x01f4 1 0 0 1
0x01f4 1 0 0 1
0x01f4 1 0 0 1
0x01f4 1 0 0 1
0x01f4 1 0 0 1
0x01f4 1 0 0 1
0x01f4 1 0 0 1
0x01f4 1 0 0 1
0x01f4 1 0 0 1
0x01f4 1 0 0 1
0x01f4 1 0 0 1
0x01f4 1 0 0 1
0x01f4 1 0 0 1
0x01f4 1 0 0 1
0x01f4 1 0 0 1
0x01f4 1 0 0 1
0x01f4 1 0 0 1
0x01f4 1 0 0 1
0x01f4 1 0 0 1
0x01f4 1 0 0 1
0x01f4 1 0 0 1
0x01f4 1 0 0 1
0x01f4 1 0 0 1
0x01f4 1 0 0 1
0x01f4 1 0 0 1
0x01f4 1 0 0 1
0x01f4 1 0 0 1
0x01f4 1 0 0 1
0x01f4 1 0 0 1
0x01f4 1 0 0 1
0x01f4 1 0 0 1
0x01f4 1 0 0 1
0x01f4 1 0 0 1
0x01f4 1 0 0 1
0x01f4 1 0 0 1
0x01f4 1 0 0 1
0x01f4 1 0 0 1
0x01f5 1 0 0 1
0x01f6 1 0 0 1
0x01f8 1 0 0 1
0x01fa 1 0 0 1
0x01fd 1 0 0 1
0x0201 1 0 0 1
0x0206 1 0 0 1
0x020c 1 0 0 1
0x0212 1 0 0 1
0x0218 1 0 0 1
0x021d 1 0 0 1
0x0222 1 0 0 1
0x0225 1 0 0 1
0x0226 1 0 0 1
0x0225 1 0 0 1
0x0222 1 0 0 1
0x021d 1 0 0 1
0x0218 1 0 0 1
0x0212 1 0 0 1
0x020c 1 0 0 1
0x0206 1 0 0 1
0x0201 1 1 1 1
0xaab8 1 0 0 1
0x4000 1 0 0 1
0x5555 1 0 0 1
0x5555 1 0 0 1
0x5555 1 0 0 1
0x5555 1 1 0 1
0x01f4 1 0 0 1
0x01f4 1 0 0 1
0x01f4 1 0 0 1
0x01f4 1 0 0 1
0x01f4 1 0 0 1
0x01f4 1 0 0 1
0x01f4 1 0 0 1
0x01f4 1 0 0 1
0x01f4 1 0 0 1
0x01f4 1 0 0 1
0x01f4 1 0 0 1
0x01f4 1 0 0 1
0x01f4 1 0 0 1
0x01f4 1 0 0 1
0x01f4 1 0 0 1
0x01f4 1 0 0 1
0x01f4 1 0 0 1
0x01f4 1 0 0 1
0x01f4 1 0 0 1
0x01f4 1 0 0 1
0x01f4 1 0 0 1
0x01f4 1 0 0 1
0x01f4 1 0 0 1
0x01f4 1 0 0 1
0x01f4 1 0 0 1
0x01f4 1 0 0 1
0x01f4 1 0 0 1
0x01f4 1 0 0 1
0x01f4 1 0 0 1
0x01f4 1 0 0 1
0x01f4 1 0 0 1
0x01f4 1 0 0 1
0x01f4 1 0 0 1
0x01f4 1 0 0 1
0x01f4 1 0 0 1
0x01f4 1 0 0 1
0x01f4 1 0 0 1
0x01f4 1 0 0 1
0x01f4 1 0 0 1
0x01f4 1 0 0 1
0x01f4 1 0 0 1
0x01f4 1 0 0 1
0x01f5 1 0 0 1
0x01f6 1 0 0 1
0x01f8 1 0 0 1
0x01fa 1 0 0 1
0x01fd 1 0 0 1
0x0201 1 0 0 1
0x0206 1 0 0 1
0x020c 1 0 0 1
0x0212 1 0 0 1
0x0218 1 0 0 1
0x021d 1 0 0 1
0x0222 1 0 0 1
0x0225 1 0 0 1
0x0226 1 0 0 1
0x0225 1 0 0 1
0x0222 1 0 0 1
0x021d 1 0 0 1
0x0218 1 0 0 1
0x0212 1 0 0 1
0x020c 1 0 0 1
0x0206 1 0 0 1
0x0201 1 1 1 1
0xaabc 1 0 0 1
0x4000 1 0 0 1
0x5555 1 0 0 1
0x5555 1 0 0 1
0x5555 1 0 0 1
0x5555 1 1 0 1
0x01f4 1 0 0 1
0x01f4 1 0 0 1
0x01f4 1 0 0 1
0x01f4 1 0 0 1
0x01f4 1 0 0 1
0x01f4 1 0 0 1
0x01f4 1 0 0 1
0x01f4 1 0 0 1
0x01f4 1 0 0 1
0x01f4 1 0 0 1
0x01f4 1 0 0 1
0x01f4 1 0 0 1
0x01f4 1 0 0 1
0x01f4 1 0 0 1
0x01f4 1 0 0 1
0x01f4 1 0 0 1
0x01f4 1 0 0 1
0x01f4 1 0 0 1
0x01f4 1 0 0 1
0x01f4 1 0 0 1
0x01f4 1 0 0 1
0x01f4 1 0 0 1
0x01f4 1 0 0 1
0x01f4 1 0 0 1
0x01f4 1 0 0 1
0x01f4 1 0 0 1
0x01f4 1 0 0 1
0x01f4 1 0 0 1
0x01f4 1 0 0 1
0x01f4 1 0 0 1
0x01f4 1 0 0 1
0x01f4 1 0 0 1
0x01f4 1 0 0 1
0x01f4 1 0 0 1
0x01f4 1 0 0 1
0x01f4 1 0 0 1
0x01f4 1 0 0 1
0x01f4 1 0 0 1
0x01f4 1 0 0 1
0x01f4 1 0 0 1
0x01f4 1 0 0 1
0x01f4 1 0 0 1
0x01f5 1 0 0 1
0x01f6 1 0 0 1
0x01f8 1 0 0 1
0x01fa 1 0 0 1
0x01fd 1 0 0 1
0x0201 1 0 0 1
0x0206 1 0 0 1
0x020c 1 0 0 1
0x0212 1 0 0 1
0x0218 1 0 0 1
0x021d 1 0 0 1
0x0222 1 0 0 1
0x0225 1 0 0 1
0x0226 1 0 0 1
0x0225 1 0 0 1
0x0222 1 0 0 1
0x021d 1 0 0 1
0x0218 1 0 0 1
0x0212 1 0 0 1
0x020c 1 0 0 1
0x0206 1 0 0 1
0x0201 1 1 1 1
0xaac0 1 0 0 1
0x4000 1 0 0 1
0x5555 1 0 0 1
0x5555 1 0 0 1
0x5555 1 0 0 1
0x5555 1 1 0 1
0x01f4 1 0 0 1
0x01f4 1 0 0 1
0x01f4 1 0 0 1
0x01f4 1 0 0 1
0x01f4 1 0 0 1
0x01f4 1 0 0 1
0x01f4 1 0 0 1
0x01f4 1 0 0 1
0x01f4 1 0 0 1
0x01f4 1 0 0 1
0x01f4 1 0 0 1
0x01f4 1 0 0 1
0x01f4 1 0 0 1
0x01f4 1 0 0 1
0x01f4 1 0 0 1
0x01f4 1 0 0 1
0x01f4 1 0 0 1
0x01f4 1 0 0 1
0x01f4 1 0 0 1
0x01f4 1 0 0 1
0x01f4 1 0 0 1
0x01f4 1 0 0 1
0x01f4 1 0 0 1
0x01f4 1 0 0 1
0x01f4 1 0 0 1
0x01f4 1 0 0 1
0x01f4 1 0 0 1
0x01f4 1 0 0 1
0x01f4 1 0 0 1
0x01f4 1 0 0 1
0x01f4 1 0 0 1
0x01f4 1 0 0 1
0x01f4 1 0 0 1
0x01f4 1 0 0 1
0x01f4 1 0 0 1
0x01f4 1 0 0 1
0x01f4 1 0 0 1
0x01f4 1 0 0 1
0x01f4 1 0 0 1
0x01f4 1 0 0 1
0x01f4 1 0 0 1
0x01f4 1 0 0 1
0x01f5 1 0 0 1
0x01f6 1 0 0 1
0x01f8 1 0 0 1
0x01fa 1 0 0 1
0x01fd 1 0 0 1
0x0201 1 0 0 1
0x0206 1 0 0 1
0x020c 1 0 0 1
0x0212 1 0 0 1
0x0218 1 0 0 1
0x021d 1 0 0 1
0x0222 1 0 0 1
0x0225 1 0 0 1
0x0226 1 0 0 1
0x0225 1 0 0 1
0x0222 1 0 0 1
0x021d 1 0 0 1
0x0218 1 0 0 1
0x0212 1 0 0 1
0x020c 1 0 0 1
0x0206 1 0 0 1
0x0201 1 1 1 1
0xaac4 1 0 0 1
0x4000 1 0 0 1
0x5555 1 0 0 1
0x5555 1 0 0 1
0x5555 1 0 0 1
0x5555 1 1 0 1
0x01f4 1 0 0 1
0x01f4 1 0 0 1
0x01f4 1 0 0 1
0x01f4 1 0 0 1
0x01f4 1 0 0 1
0x01f4 1 0 0 1
0x01f4 1 0 0 1
0x01f4 1 0 0 1
0x01f4 1 0 0 1
0x01f4 1 0 0 1
0x01f4 1 0 0 1
0x01f4 1 0 0 1
0x01f4 1 0 0 1
0x01f4 1 0 0 1
0x01f4 1 0 0 1
0x01f4 1 0 0 1
0x01f4 1 0 0 1
0x01f4 1 0 0 1
0x01f4 1 0 0 1
0x01f4 1 0 0 1
0x01f4 1 0 0 1
0x01f4 1 0 0 1
0x01f4 1 0 0 1
0x01f4 1 0 0 1
0x01f4 1 0 0 1
0x01f4 1 0 0 1
0x01f4 1 0 0 1
0x01f4 1 0 0 1
0x01f4 1 0 0 1
0x01f4 1 0 0 1
0x01f4 1 0 0 1
0x01f4 1 0 0 1
0x01f4 1 0 0 1
0x01f4 1 0 0 1
0x01f4 1 0 0 1
0x01f4 1 0 0 1
0x01f4 1 0 0 1
0x01f4 1 0 0 1
0x01f4 1 0 0 1
0x01f4 1 0 0 1
0x01f4 1 0 0 1
0x01f4 1 0 0 1
0x01f5 1 0 0 1
0x01f6 1 0 0 1
0x01f8 1 0 0 1
0x01fa 1 0 0 1
0x01fd 1 0 0 1
0x0201 1 0 0 1
0x0206 1 0 0 1
0x020c 1 0 0 1
0x0212 1 0 0 1
0x0218 1 0 0 1
0x021d 1 0 0 1
0x0222 1 0 0 1
0x0225 1 0 0 1
0x0226 1 0 0 1
0x0225 1 0 0 1
0x0222 1 0 0 1
0x021d 1 0 0 1
0x0218 1 0 0 1
0x0212 1 0 0 1
0x020c 1 0 0 1
0x0206 1 0 0 1
0x0201 1 1 1 1
0xaac8 1 0 0 1
0x4000 1 0 0 1
0x5555 1 0 0 1
0x5555 1 0 0 1
0x5555 1 0 0 1
0x5555 1 1 0 1
0x01f4 1 0 0 1
0x01f4 1 0 0 1
0x01f4 1 0 0 1
0x01f4 1 0 0 1
0x01f4 1 0 0 1
0x01f4 1 0 0 1
0x01f4 1 0 0 1
0x01f4 1 0 0 1
0x01f4 1 0 0 1
0x01f4 1 0 0 1
0x01f4 1 0 0 1
0x01f4 1 0 0 1
0x01f4 1 0 0 1
0x01f4 1 0 0 1
0x01f4 1 0 0 1
0x01f4 1 0 0 1
0x01f4 1 0 0 1
0x01f4 1 0 0 1
0x01f4 1 0 0 1
0x01f4 1 0 0 1
0x01f4 1 0 0 1
0x01f4 1 0 0 1
0x01f4 1 0 0 1
0x01f4 1 0 0 1
0x01f4 1 0 0 1
0x01f4 1 0 0 1
0x01f4 1 0 0 1
0x01f4 1 0 0 1
0x01f4 1 0 0 1
0x01f4 1 0 0 1
0x01f4 1 0 0 1
0x01f4 1 0 0 1
0x01f4 1 0 0 1
0x01f4 1 0 0 1
0x01f4 1 0 0 1
0x01f4 1 0 0 1
0x01f4 1 0 0 1
0x01f4 1 0 0 1
0x01f4 1 0 0 1
0x01f4 1 0 0 1
0x01f4 1 0 0 1
0x01f4 1 0 0 1
0x01f5 1 0 0 1
0x01f6 1 0 0 1
0x01f8 1 0 0 1
0x01fa 1 0 0 1
0x01fd 1 0 0 1
0x0201 1 0 0 1
0x0206 1 0 0 1
0x020c 1 0 0 1
0x0212 1 0 0 1
0x0218 1 0 0 1
0x021d 1 0 0 1
0x0222 1 0 0 1
0x0225 1 0 0 1
0x0226 1 0 0 1
0x0225 1 0 0 1
0x0222 1 0 0 1
0x021d 1 0 0 1
0x0218 1 0 0 1
0x0212 1 0 0 1
0x020c 1 0 0 1
0x0206 1 0 0 1
0x0201 1 1 1 1
0xaacc 1 0 0 1
0x4000 1 0 0 1
0x5555 1 0 0 1
0x5555 1 0 0 1
0x5555 1 0 0 1
0x5555 1 1 0 1
0x01f4 1 0 0 1
0x01f4 1 0 0 1
0x01f4 1 0 0 1
0x01f4 1 0 0 1
0x01f4 1 0 0 1
0x01f4 1 0 0 1
0x01f4 1 0 0 1
0x01f4 1 0 0 1
0x01f4 1 0 0 1
0x01f4 1 0 0 1
0x01f4 1 0 0 1
0x01f4 1 0 0 1
0x01f4 1 0 0 1
0x01f4 1 0 0 1
0x01f4 1 0 0 1
0x01f4 1 0 0 1
0x01f4 1 0 0 1
0x01f4 1 0 0 1
0x01f4 1 0 0 1
0x01f4 1 0 0 1
0x01f4 1 0 0 1
0x01f4 1 0 0 1
0x01f4 1 0 0 1
0x01f4 1 0 0 1
0x01f4 1 0 0 1
0x01f4 1 0 0 1
0x01f4 1 0 0 1
0x01f4 1 0 0 1
0x01f4 1 0 0 1
0x01f4 1 0 0 1
0x01f4 1 0 0 1
0x01f4 1 0 0 1
0x01f4 1 0 0 1
0x01f4 1 0 0 1
0x01f4 1 0 0 1
0x01f4 1 0 0 1
0x01f4 1 0 0 1
0x01f4 1 0 0 1
0x01f4 1 0 0 1
0x01f4 1 0 0 1
0x01f4 1 0 0 1
0x01f4 1 0 0 1
0x01f5 1 0 0 1
0x01f6 1 0 0 1
0x01f8 1 0 0 1
0x01fa 1 0 0 1
0x01fd 1 0 0 1
0x0201 1 0 0 1
0x0206 1 0 0 1
0x020c 1 0 0 1
0x0212 1 0 0 1
0x0218 1 0 0 1
0x021d 1 0 0 1
0x0222 1 0 0 1
0x0225 1 0 0 1
0x0226 1 0 0 1
0x0225 1 0 0 1
0x0222 1 0 0 1
0x021d 1 0 0 1
0x0218 1 0 0 1
0x0212 1 0 0 1
0x020c 1 0 0 1
0x0206 1 0 0 1
0x0201 1 1 1 1
0xaad0 1 0 0 1
0x4000 1 0 0 1
0x5555 1 0 0 1
0x5555 1 0 0 1
0x5555 1 0 0 1
0x5555 1 1 0 1
0x01f4 1 0 0 1
0x01f4 1 0 0 1
0x01f4 1 0 0 1
0x01f4 1 0 0 1
0x01f4 1 0 0 1
0x01f4 1 0 0 1
0x01f4 1 0 0 1
0x01f4 1 0 0 1
0x01f4 1 0 0 1
0x01f4 1 0 0 1
0x01f4 1 0 0 1
0x01f4 1 0 0 1
0x01f4 1 0 0 1
0x01f4 1 0 0 1
0x01f4 1 0 0 1
0x01f4 1 0 0 1
0x01f4 1 0 0 1
0x01f4 1 0 0 1
0x01f4 1 0 0 1
0x01f4 1 0 0 1
0x01f4 1 0 0 1
0x01f4 1 0 0 1
0x01f4 1 0 0 1
0x01f4 1 0 0 1
0x01f4 1 0 0 1
0x01f4 1 0 0 1
0x01f4 1 0 0 1
0x01f4 1 0 0 1
0x01f4 1 0 0 1
0x01f4 1 0 0 1
0x01f4 1 0 0 1
0x01f4 1 0 0 1
0x01f4 1 0 0 1
0x01f4 1 0 0 1
0x01f4 1 0 0 1
0x01f4 1 0 0 1
0x01f4 1 0 0 1
0x01f4 1 0 0 1
0x01f4 1 0 0 1
0x01f4 1 0 0 1
0x01f4 1 0 0 1
0x01f4 1 0 0 1
0x01f5 1 0 0 1
0x01f6 1 0 0 1
0x01f8 1 0 0 1
0x01fa 1 0 0 1
0x01fd 1 0 0 1
0x0201 1 0 0 1
0x0206 1 0 0 1
0x020c 1 0 0 1
0x0212 1 0 0 1
0x0218 1 0 0 1
0x021d 1 0 0 1
0x0222 1 0 0 1
0x0225 1 0 0 1
0x0226 1 0 0 1
0x0225 1 0 0 1
0x0222 1 0 0 1
0x021d 1 0 0 1
0x0218 1 0 0 1
0x0212 1 0 0 1
0x020c 1 0 0 1
0x0206 1 0 0 1
0x0201 1 1 1 1
0xaad4 1 0 0 1
0x4000 1 0 0 1
0x5555 1 0 0 1
0x5555 1 0 0 1
0x5555 1 0 0 1
0x5555 1 1 0 1
0x01f4 1 0 0 1
0x01f4 1 0 0 1
0x01f4 1 0 0 1
0x01f4 1 0 0 1
0x01f4 1 0 0 1
0x01f4 1 0 0 1
0x01f4 1 0 0 1
0x01f4 1 0 0 1
0x01f4 1 0 0 1
0x01f4 1 0 0 1
0x01f4 1 0 0 1
0x01f4 1 0 0 1
0x01f4 1 0 0 1
0x01f4 1 0 0 1
0x01f4 1 0 0 1
0x01f4 1 0 0 1
0x01f4 1 0 0 1
0x01f4 1 0 0 1
0x01f4 1 0 0 1
0x01f4 1 0 0 1
0x01f4 1 0 0 1
0x01f4 1 0 0 1
0x01f4 1 0 0 1
0x01f4 1 0 0 1
0x01f4 1 0 0 1
0x01f4 1 0 0 1
0x01f4 1 0 0 1
0x01f4 1 0 0 1
0x01f4 1 0 0 1
0x01f4 1 0 0 1
0x01f4 1 0 0 1
0x01f4 1 0 0 1
0x01f4 1 0 0 1
0x01f4 1 0 0 1
0x01f4 1 0 0 1
0x01f4 1 0 0 1
0x01f4 1 0 0 1
0x01f4 1 0 0 1
0x01f4 1 0 0 1
0x01f4 1 0 0 1
0x01f4 1 0 0 1
0x01f4 1 0 0 1
0x01f5 1 0 0 1
0x01f6 1 0 0 1
0x01f8 1 0 0 1
0x01fa 1 0 0 1
0x01fd 1 0 0 1
0x0201 1 0 0 1
0x0206 1 0 0 1
0x020c 1 0 0 1
0x0212 1 0 0 1
0x0218 1 0 0 1
0x021d 1 0 0 1
0x0222 1 0 0 1
0x0225 1 0 0 1
0x0226 1 0 0 1
0x0225 1 0 0 1
0x0222 1 0 0 1
0x021d 1 0 0 1
0x0218 1 0 0 1
0x0212 1 0 0 1
0x020c 1 0 0 1
0x0206 1 0 0 1
0x0201 1 1 1 1
0xaad8 1 0 0 1
0x4000 1 0 0 1
0x5555 1 0 0 1
0x5555 1 0 0 1
0x5555 1 0 0 1
0x5555 1 1 0 1
0x01f4 1 0 0 1
0x01f4 1 0 0 1
0x01f4 1 0 0 1
0x01f4 1 0 0 1
0x01f4 1 0 0 1
0x01f4 1 0 0 1
0x01f4 1 0 0 1
0x01f4 1 0 0 1
0x01f4 1 0 0 1
0x01f4 1 0 0 1
0x01f4 1 0 0 1
0x01f4 1 0 0 1
0x01f4 1 0 0 1
0x01f4 1 0 0 1
0x01f4 1 0 0 1
0x01f4 1 0 0 1
0x01f4 1 0 0 1
0x01f4 1 0 0 1
0x01f4 1 0 0 1
0x01f4 1 0 0 1
0x01f4 1 0 0 1
0x01f4 1 0 0 1
0x01f4 1 0 0 1
0x01f4 1 0 0 1
0x01f4 1 0 0 1
0x01f4 1 0 0 1
0x01f4 1 0 0 1
0x01f4 1 0 0 1
0x01f4 1 0 0 1
0x01f4 1 0 0 1
0x01f4 1 0 0 1
0x01f4 1 0 0 1
0x01f4 1 0 0 1
0x01f4 1 0 0 1
0x01f4 1 0 0 1
0x01f4 1 0 0 1
0x01f4 1 0 0 1
0x01f4 1 0 0 1
0x01f4 1 0 0 1
0x01f4 1 0 0 1
0x01f4 1 0 0 1
0x01f4 1 0 0 1
0x01f5 1 0 0 1
0x01f6 1 0 0 1
0x01f8 1 0 0 1
0x01fa 1 0 0 1
0x01fd 1 0 0 1
0x0201 1 0 0 1
0x0206 1 0 0 1
0x020c 1 0 0 1
0x0212 1 0 0 1
0x0218 1 0 0 1
0x021d 1 0 0 1
0x0222 1 0 0 1
0x0225 1 0 0 1
0x0226 1 0 0 1
0x0225 1 0 0 1
0x0222 1 0 0 1
0x021d 1 0 0 1
0x0218 1 0 0 1
0x0212 1 0 0 1
0x020c 1 0 0 1
0x0206 1 0 0 1
0x0201 1 1 1 1
0xaadc 1 0 0 1
0x4000 1 0 0 1
0x5555 1 0 0 1
0x5555 1 0 0 1
0x5555 1 0 0 1
0x5555 1 1 0 1
0x01f4 1 0 0 1
0x01f4 1 0 0 1
0x01f4 1 0 0 1
0x01f4 1 0 0 1
0x01f4 1 0 0 1
0x01f4 1 0 0 1
0x01f4 1 0 0 1
0x01f4 1 0 0 1
0x01f4 1 0 0 1
0x01f4 1 0 0 1
0x01f4 1 0 0 1
0x01f4 1 0 0 1
0x01f4 1 0 0 1
0x01f4 1 0 0 1
0x01f4 1 0 0 1
0x01f4 1 0 0 1
0x01f4 1 0 0 1
0x01f4 1 0 0 1
0x01f4 1 0 0 1
0x01f4 1 0 0 1
0x01f4 1 0 0 1
0x01f4 1 0 0 1
0x01f4 1 0 0 1
0x01f4 1 0 0 1
0x01f4 1 0 0 1
0x01f4 1 0 0 1
0x01f4 1 0 0 1
0x01f4 1 0 0 1
0x01f4 1 0 0 1
0x01f4 1 0 0 1
0x01f4 1 0 0 1
0x01f4 1 0 0 1
0x01f4 1 0 0 1
0x01f4 1 0 0 1
0x01f4 1 0 0 1
0x01f4 1 0 0 1
0x01f4 1 0 0 1
0x01f4 1 0 0 1
0x01f4 1 0 0 1
0x01f4 1 0 0 1
0x01f4 1 0 0 1
0x01f4 1 0 0 1
0x01f5 1 0 0 1
0x01f6 1 0 0 1
0x01f8 1 0 0 1
0x01fa 1 0 0 1
0x01fd 1 0 0 1
0x0201 1 0 0 1
0x0206 1 0 0 1
0x020c 1 0 0 1
0x0212 1 0 0 1
0x0218 1 0 0 1
0x021d 1 0 0 1
0x0222 1 0 0 1
0x0225 1 0 0 1
0x0226 1 0 0 1
0x0225 1 0 0 1
0x0222 1 0 0 1
0x021d 1 0 0 1
0x0218 1 0 0 1
0x0212 1 0 0 1
0x020c 1 0 0 1
0x0206 1 0 0 1
0x0201 1 1 1 1
0xaae0 1 0 0 1
0x4000 1 0 0 1
0x5555 1 0 0 1
0x5555 1 0 0 1
0x5555 1 0 0 1
0x5555 1 1 0 1
0x01f4 1 0 0 1
0x01f4 1 0 0 1
0x01f4 1 0 0 1
0x01f4 1 0 0 1
0x01f4 1 0 0 1
0x01f4 1 0 0 1
0x01f4 1 0 0 1
0x01f4 1 0 0 1
0x01f4 1 0 0 1
0x01f4 1 0 0 1
0x01f4 1 0 0 1
0x01f4 1 0 0 1
0x01f4 1 0 0 1
0x01f4 1 0 0 1
0x01f4 1 0 0 1
0x01f4 1 0 0 1
0x01f4 1 0 0 1
0x01f4 1 0 0 1
0x01f4 1 0 0 1
0x01f4 1 0 0 1
0x01f4 1 0 0 1
0x01f4 1 0 0 1
0x01f4 1 0 0 1
0x01f4 1 0 0 1
0x01f4 1 0 0 1
0x01f4 1 0 0 1
0x01f4 1 0 0 1
0x01f4 1 0 0 1
0x01f4 1 0 0 1
0x01f4 1 0 0 1
0x01f4 1 0 0 1
0x01f4 1 0 0 1
0x01f4 1 0 0 1
0x01f4 1 0 0 1
0x01f4 1 0 0 1
0x01f4 1 0 0 1
0x01f4 1 0 0 1
0x01f4 1 0 0 1
0x01f4 1 0 0 1
0x01f4 1 0 0 1
0x01f4 1 0 0 1
0x01f4 1 0 0 1
0x01f5 1 0 0 1
0x01f6 1 0 0 1
0x01f8 1 0 0 1
0x01fa 1 0 0 1
0x01fd 1 0 0 1
0x0201 1 0 0 1
0x0206 1 0 0 1
0x020c 1 0 0 1
0x0212 1 0 0 1
0x0218 1 0 0 1
0x021d 1 0 0 1
0x0222 1 0 0 1
0x0225 1 0 0 1
0x0226 1 0 0 1
0x0225 1 0 0 1
0x0222 1 0 0 1
0x021d 1 0 0 1
0x0218 1 0 0 1
0x0212 1 0 0 1
0x020c 1 0 0 1
0x0206 1 0 0 1
0x0201 1 1 1 1
0xaae4 1 0 0 1
0x4000 1 0 0 1
0x5555 1 0 0 1
0x5555 1 0 0 1
0x5555 1 0 0 1
0x5555 1 1 0 1
0x01f4 1 0 0 1
0x01f4 1 0 0 1
0x01f4 1 0 0 1
0x01f4 1 0 0 1
0x01f4 1 0 0 1
0x01f4 1 0 0 1
0x01f4 1 0 0 1
0x01f4 1 0 0 1
0x01f4 1 0 0 1
0x01f4 1 0 0 1
0x01f4 1 0 0 1
0x01f4 1 0 0 1
0x01f4 1 0 0 1
0x01f4 1 0 0 1
0x01f4 1 0 0 1
0x01f4 1 0 0 1
0x01f4 1 0 0 1
0x01f4 1 0 0 1
0x01f4 1 0 0 1
0x01f4 1 0 0 1
0x01f4 1 0 0 1
0x01f4 1 0 0 1
0x01f4 1 0 0 1
0x01f4 1 0 0 1
0x01f4 1 0 0 1
0x01f4 1 0 0 1
0x01f4 1 0 0 1
0x01f4 1 0 0 1
0x01f4 1 0 0 1
0x01f4 1 0 0 1
0x01f4 1 0 0 1
0x01f4 1 0 0 1
0x01f4 1 0 0 1
0x01f4 1 0 0 1
0x01f4 1 0 0 1
0x01f4 1 0 0 1
0x01f4 1 0 0 1
0x01f4 1 0 0 1
0x01f4 1 0 0 1
0x01f4 1 0 0 1
0x01f4 1 0 0 1
0x01f4 1 0 0 1
0x01f5 1 0 0 1
0x01f6 1 0 0 1
0x01f8 1 0 0 1
0x01fa 1 0 0 1
0x01fd 1 0 0 1
0x0201 1 0 0 1
0x0206 1 0 0 1
0x020c 1 0 0 1
0x0212 1 0 0 1
0x0218 1 0 0 1
0x021d 1 0 0 1
0x0222 1 0 0 1
0x0225 1 0 0 1
0x0226 1 0 0 1
0x0225 1 0 0 1
0x0222 1 0 0 1
0x021d 1 0 0 1
0x0218 1 0 0 1
0x0212 1 0 0 1
0x020c 1 0 0 1
0x0206 1 0 0 1
0x0201 1 1 1 1
0xaae8 1 0 0 1
0x4000 1 0 0 1
0x5555 1 0 0 1
0x5555 1 0 0 1
0x5555 1 0 0 1
0x5555 1 1 0 1
0x01f4 1 0 0 1
0x01f4 1 0 0 1
0x01f4 1 0 0 1
0x01f4 1 0 0 1
0x01f4 1 0 0 1
0x01f4 1 0 0 1
0x01f4 1 0 0 1
0x01f4 1 0 0 1
0x01f4 1 0 0 1
0x01f4 1 0 0 1
0x01f4 1 0 0 1
0x01f4 1 0 0 1
0x01f4 1 0 0 1
0x01f4 1 0 0 1
0x01f4 1 0 0 1
0x01f4 1 0 0 1
0x01f4 1 0 0 1
0x01f4 1 0 0 1
0x01f4 1 0 0 1
0x01f4 1 0 0 1
0x01f4 1 0 0 1
0x01f4 1 0 0 1
0x01f4 1 0 0 1
0x01f4 1 0 0 1
0x01f4 1 0 0 1
0x01f4 1 0 0 1
0x01f4 1 0 0 1
0x01f4 1 0 0 1
0x01f4 1 0 0 1
0x01f4 1 0 0 1
0x01f4 1 0 0 1
0x01f4 1 0 0 1
0x01f4 1 0 0 1
0x01f4 1 0 0 1
0x01f4 1 0 0 1
0x01f4 1 0 0 1
0x01f4 1 0 0 1
0x01f4 1 0 0 1
0x01f4 1 0 0 1
0x01f4 1 0 0 1
0x01f4 1 0 0 1
0x01f4 1 0 0 1
0x01f5 1 0 0 1
0x01f6 1 0 0 1
0x01f8 1 0 0 1
0x01fa 1 0 0 1
0x01fd 1 0 0 1
0x0201 1 0 0 1
0x0206 1 0 0 1
0x020c 1 0 0 1
0x0212 1 0 0 1
0x0218 1 0 0 1
0x021d 1 0 0 1
0x0222 1 0 0 1
0x0225 1 0 0 1
0x0226 1 0 0 1
0x0225 1 0 0 1
0x0222 1 0 0 1
0x021d 1 0 0 1
0x0218 1 0 0 1
0x0212 1 0 0 1
0x020c 1 0 0 1
0x0206 1 0 0 1
0x0201 1 1 1 1
0xaaec 1 0 0 1
0x4000 1 0 0 1
0x5555 1 0 0 1
0x5555 1 0 0 1
0x5555 1 0 0 1
0x5555 1 1 0 1
0x01f4 1 0 0 1
0x01f4 1 0 0 1
0x01f4 1 0 0 1
0x01f4 1 0 0 1
0x01f4 1 0 0 1
0x01f4 1 0 0 1
0x01f4 1 0 0 1
0x01f4 1 0 0 1
0x01f4 1 0 0 1
0x01f4 1 0 0 1
0x01f4 1 0 0 1
0x01f4 1 0 0 1
0x01f4 1 0 0 1
0x01f4 1 0 0 1
0x01f4 1 0 0 1
0x01f4 1 0 0 1
0x01f4 1 0 0 1
0x01f4 1 0 0 1
0x01f4 1 0 0 1
0x01f4 1 0 0 1
0x01f4 1 0 0 1
0x01f4 1 0 0 1
0x01f4 1 0 0 1
0x01f4 1 0 0 1
0x01f4 1 0 0 1
0x01f4 1 0 0 1
0x01f4 1 0 0 1
0x01f4 1 0 0 1
0x01f4 1 0 0 1
0x01f4 1 0 0 1
0x01f4 1 0 0 1
0x01f4 1 0 0 1
0x01f4 1 0 0 1
0x01f4 1 0 0 1
0x01f4 1 0 0 1
0x01f4 1 0 0 1
0x01f4 1 0 0 1
0x01f4 1 0 0 1
0x01f4 1 0 0 1
0x01f4 1 0 0 1
0x01f4 1 0 0 1
0x01f4 1 0 0 1
0x01f5 1 0 0 1
0x01f6 1 0 0 1
0x01f8 1 0 0 1
0x01fa 1 0 0 1
0x01fd 1 0 0 1
0x0201 1 0 0 1
0x0206 1 0 0 1
0x020c 1 0 0 1
0x0212 1 0 0 1
0x0218 1 0 0 1
0x021d 1 0 0 1
0x0222 1 0 0 1
0x0225 1 0 0 1
0x0226 1 0 0 1
0x0225 1 0 0 1
0x0222 1 0 0 1
0x021d 1 0 0 1
0x0218 1 0 0 1
0x0212 1 0 0 1
0x020c 1 0 0 1
0x0206 1 0 0 1
0x0201 1 1 1 1
0xaaf0 1 0 0 1
0x4000 1 0 0 1
0x5555 1 0 0 1
0x5555 1 0 0 1
0x5555 1 0 0 1
0x5555 1 1 0 1
0x01f4 1 0 0 1
0x01f4 1 0 0 1
0x01f4 1 0 0 1
0x01f4 1 0 0 1
0x01f4 1 0 0 1
0x01f4 1 0 0 1
0x01f4 1 0 0 1
0x01f4 1 0 0 1
0x01f4 1 0 0 1
0x01f4 1 0 0 1
0x01f4 1 0 0 1
0x01f4 1 0 0 1
0x01f4 1 0 0 1
0x01f4 1 0 0 1
0x01f4 1 0 0 1
0x01f4 1 0 0 1
0x01f4 1 0 0 1
0x01f4 1 0 0 1
0x01f4 1 0 0 1
0x01f4 1 0 0 1
0x01f4 1 0 0 1
0x01f4 1 0 0 1
0x01f4 1 0 0 1
0x01f4 1 0 0 1
0x01f4 1 0 0 1
0x01f4 1 0 0 1
0x01f4 1 0 0 1
0x01f4 1 0 0 1
0x01f4 1 0 0 1
0x01f4 1 0 0 1
0x01f4 1 0 0 1
0x01f4 1 0 0 1
0x01f4 1 0 0 1
0x01f4 1 0 0 1
0x01f4 1 0 0 1
0x01f4 1 0 0 1
0x01f4 1 0 0 1
0x01f4 1 0 0 1
0x01f4 1 0 0 1
0x01f4 1 0 0 1
0x01f4 1 0 0 1
0x01f4 1 0 0 1
0x01f5 1 0 0 1
0x01f6 1 0 0 1
0x01f8 1 0 0 1
0x01fa 1 0 0 1
0x01fd 1 0 0 1
0x0201 1 0 0 1
0x0206 1 0 0 1
0x020c 1 0 0 1
0x0212 1 0 0 1
0x0218 1 0 0 1
0x021d 1 0 0 1
0x0222 1 0 0 1
0x0225 1 0 0 1
0x0226 1 0 0 1
0x0225 1 0 0 1
0x0222 1 0 0 1
0x021d 1 0 0 1
0x0218 1 0 0 1
0x0212 1 0 0 1
0x020c 1 0 0 1
0x0206 1 0 0 1
0x0201 1 1 1 1
0xaaf4 1 0 0 1
0x4000 1 0 0 1
0x5555 1 0 0 1
0x5555 1 0 0 1
0x5555 1 0 0 1
0x5555 1 1 0 1
0x01f4 1 0 0 1
0x01f4 1 0 0 1
0x01f4 1 0 0 1
0x01f4 1 0 0 1
0x01f4 1 0 0 1
0x01f4 1 0 0 1
0x01f4 1 0 0 1
0x01f4 1 0 0 1
0x01f4 1 0 0 1
0x01f4 1 0 0 1
0x01f4 1 0 0 1
0x01f4 1 0 0 1
0x01f4 1 0 0 1
0x01f4 1 0 0 1
0x01f4 1 0 0 1
0x01f4 1 0 0 1
0x01f4 1 0 0 1
0x01f4 1 0 0 1
0x01f4 1 0 0 1
0x01f4 1 0 0 1
0x01f4 1 0 0 1
0x01f4 1 0 0 1
0x01f4 1 0 0 1
0x01f4 1 0 0 1
0x01f4 1 0 0 1
0x01f4 1 0 0 1
0x01f4 1 0 0 1
0x01f4 1 0 0 1
0x01f4 1 0 0 1
0x01f4 1 0 0 1
0x01f4 1 0 0 1
0x01f4 1 0 0 1
0x01f4 1 0 0 1
0x01f4 1 0 0 1
0x01f4 1 0 0 1
0x01f4 1 0 0 1
0x01f4 1 0 0 1
0x01f4 1 0 0 1
0x01f4 1 0 0 1
0x01f4 1 0 0 1
0x01f4 1 0 0 1
0x01f4 1 0 0 1
0x01f5 1 0 0 1
0x01f6 1 0 0 1
0x01f8 1 0 0 1
0x01fa 1 0 0 1
0x01fd 1 0 0 1
0x0201 1 0 0 1
0x0206 1 0 0 1
0x020c 1 0 0 1
0x0212 1 0 0 1
0x0218 1 0 0 1
0x021d 1 0 0 1
0x0222 1 0 0 1
0x0225 1 0 0 1
0x0226 1 0 0 1
0x0225 1 0 0 1
0x0222 1 0 0 1
0x021d 1 0 0 1
0x0218 1 0 0 1
0x0212 1 0 0 1
0x020c 1 0 0 1
0x0206 1 0 0 1
0x0201 1 1 1 1
0xaaf8 1 0 0 1
0x4000 1 0 0 1
0x5555 1 0 0 1
0x5555 1 0 0 1
0x5555 1 0 0 1
0x5555 1 1 0 1
0x01f4 1 0 0 1
0x01f4 1 0 0 1
0x01f4 1 0 0 1
0x01f4 1 0 0 1
0x01f4 1 0 0 1
0x01f4 1 0 0 1
0x01f4 1 0 0 1
0x01f4 1 0 0 1
0x01f4 1 0 0 1
0x01f4 1 0 0 1
0x01f4 1 0 0 1
0x01f4 1 0 0 1
0x01f4 1 0 0 1
0x01f4 1 0 0 1
0x01f4 1 0 0 1
0x01f4 1 0 0 1
0x01f4 1 0 0 1
0x01f4 1 0 0 1
0x01f4 1 0 0 1
0x01f4 1 0 0 1
0x01f4 1 0 0 1
0x01f4 1 0 0 1
0x01f4 1 0 0 1
0x01f4 1 0 0 1
0x01f4 1 0 0 1
0x01f4 1 0 0 1
0x01f4 1 0 0 1
0x01f4 1 0 0 1
0x01f4 1 0 0 1
0x01f4 1 0 0 1
0x01f4 1 0 0 1
0x01f4 1 0 0 1
0x01f4 1 0 0 1
0x01f4 1 0 0 1
0x01f4 1 0 0 1
0x01f4 1 0 0 1
0x01f4 1 0 0 1
0x01f4 1 0 0 1
0x01f4 1 0 0 1
0x01f4 1 0 0 1
0x01f4 1 0 0 1
0x01f4 1 0 0 1
0x01f5 1 0 0 1
0x01f6 1 0 0 1
0x01f8 1 0 0 1
0x01fa 1 0 0 1
0x01fd 1 0 0 1
0x0201 1 0 0 1
0x0206 1 0 0 1
0x020c 1 0 0 1
0x0212 1 0 0 1
0x0218 1 0 0 1
0x021d 1 0 0 1
0x0222 1 0 0 1
0x0225 1 0 0 1
0x0226 1 0 0 1
0x0225 1 0 0 1
0x0222 1 0 0 1
0x021d 1 0 0 1
0x0218 1 0 0 1
0x0212 1 0 0 1
0x020c 1 0 0 1
0x0206 1 0 0 1
0x0201 1 1 1 1
0xaafc 1 0 0 1
0x4000 1 0 0 1
0x5555 1 0 0 1
0x5555 1 0 0 1
0x5555 1 0 0 1
0x5555 1 1 0 1
0x01f4 1 0 0 1
0x01f4 1 0 0 1
0x01f4 1 0 0 1
0x01f4 1 0 0 1
0x01f4 1 0 0 1
0x01f4 1 0 0 1
0x01f4 1 0 0 1
0x01f4 1 0 0 1
0x01f4 1 0 0 1
0x01f4 1 0 0 1
0x01f4 1 0 0 1
0x01f4 1 0 0 1
0x01f4 1 0 0 1
0x01f4 1 0 0 1
0x01f4 1 0 0 1
0x01f4 1 0 0 1
0x01f4 1 0 0 1
0x01f4 1 0 0 1
0x01f4 1 0 0 1
0x01f4 1 0 0 1
0x01f4 1 0 0 1
0x01f4 1 0 0 1
0x01f4 1 0 0 1
0x01f4 1 0 0 1
0x01f4 1 0 0 1
0x01f4 1 0 0 1
0x01f4 1 0 0 1
0x01f4 1 0 0 1
0x01f4 1 0 0 1
0x01f4 1 0 0 1
0x01f4 1 0 0 1
0x01f4 1 0 0 1
0x01f4 1 0 0 1
0x01f4 1 0 0 1
0x01f4 1 0 0 1
0x01f4 1 0 0 1
0x01f4 1 0 0 1
0x01f4 1 0 0 1
0x01f4 1 0 0 1
0x01f4 1 0 0 1
0x01f4 1 0 0 1
0x01f4 1 0 0 1
0x01f5 1 0 0 1
0x01f6 1 0 0 1
0x01f8 1 0 0 1
0x01fa 1 0 0 1
0x01fd 1 0 0 1
0x0201 1 0 0 1
0x0206 1 0 0 1
0x020c 1 0 0 1
0x0212 1 0 0 1
0x0218 1 0 0 1
0x021d 1 0 0 1
0x0222 1 0 0 1
0x0225 1 0 0 1
0x0226 1 0 0 1
0x0225 1 0 0 1
0x0222 1 0 0 1
0x021d 1 0 0 1
0x0218 1 0 0 1
0x0212 1 0 0 1
0x020c 1 0 0 1
0x0206 1 0 0 1
0x0201 1 1 1 1