0xaa03 1 0 0 1
0x4000 1 0 0 1
0x5555 1 0 0 1
0x5555 1 0 0 1
0x5555 1 0 0 1
0x5555 1 1 0 1
0x0384 1 0 0 1
0x0384 1 0 0 1
0x0384 1 0 0 1
0x0384 1 0 0 1
0x0384 1 0 0 1
0x0384 1 0 0 1
0x0384 1 0 0 1
0x0384 1 0 0 1
0x0384 1 0 0 1
0x0384 1 0 0 1
0x0384 1 0 0 1
0x0384 1 0 0 1
0x0384 1 0 0 1
0x0384 1 0 0 1
0x0384 1 0 0 1
0x0384 1 0 0 1
0x0384 1 0 0 1
0x0384 1 0 0 1
0x0384 1 0 0 1
0x0384 1 0 0 1
0x0384 1 0 0 1
0x0384 1 0 0 1
0x0384 1 0 0 1
0x0384 1 0 0 1
0x0384 1 0 0 1
0x0384 1 0 0 1
0x0384 1 0 0 1
0x0384 1 0 0 1
0x0384 1 0 0 1
0x0384 1 0 0 1
0x0384 1 0 0 1
0x0384 1 0 0 1
0x0384 1 0 0 1
0x0384 1 0 0 1
0x0384 1 0 0 1
0x0384 1 0 0 1
0x0384 1 0 0 1
0x0384 1 0 0 1
0x0384 1 0 0 1
0x0384 1 0 0 1
0x0384 1 0 0 1
0x0384 1 0 0 1
0x0384 1 0 0 1
0x0384 1 0 0 1
0x0384 1 0 0 1
0x0384 1 0 0 1
0x0384 1 0 0 1
0x0384 1 0 0 1
0x0384 1 0 0 1
0x0384 1 0 0 1
0x0384 1 0 0 1
0x0384 1 0 0 1
0x0384 1 0 0 1
0x0384 1 0 0 1
0x0384 1 0 0 1
0x0384 1 0 0 1
0x0384 1 0 0 1
0x0384 1 0 0 1
0x0384 1 0 0 1
0x0384 1 0 0 1
0x0384 1 0 0 1
0x0384 1 0 0 1
0x0384 1 0 0 1
0x0384 1 1 1 1
0xaa07 1 0 0 1
0x4000 1 0 0 1
0x5555 1 0 0 1
0x5555 1 0 0 1
0x5555 1 0 0 1
0x5555 1 1 0 1
0x0384 1 0 0 1
0x0384 1 0 0 1
0x0384 1 0 0 1
0x0384 1 0 0 1
0x0384 1 0 0 1
0x0384 1 0 0 1
0x0384 1 0 0 1
0x0384 1 0 0 1
0x0384 1 0 0 1
0x0384 1 0 0 1
0x0384 1 0 0 1
0x0384 1 0 0 1
0x0384 1 0 0 1
0x0384 1 0 0 1
0x0384 1 0 0 1
0x0384 1 0 0 1
0x0384 1 0 0 1
0x0384 1 0 0 1
0x0384 1 0 0 1
0x0384 1 0 0 1
0x0384 1 0 0 1
0x0384 1 0 0 1
0x0384 1 0 0 1
0x0384 1 0 0 1
0x0384 1 0 0 1
0x0384 1 0 0 1
0x0384 1 0 0 1
0x0384 1 0 0 1
0x0384 1 0 0 1
0x0384 1 0 0 1
0x0384 1 0 0 1
0x0384 1 0 0 1
0x0384 1 0 0 1
0x0384 1 0 0 1
0x0384 1 0 0 1
0x0384 1 0 0 1
0x0384 1 0 0 1
0x0384 1 0 0 1
0x0384 1 0 0 1
0x0384 1 0 0 1
0x0384 1 0 0 1
0x0384 1 0 0 1
0x0384 1 0 0 1
0x0384 1 0 0 1
0x0384 1 0 0 1
0x0384 1 0 0 1
0x0384 1 0 0 1
0x0384 1 0 0 1
0x0384 1 0 0 1
0x0384 1 0 0 1
0x0384 1 0 0 1
0x0384 1 0 0 1
0x0384 1 0 0 1
0x0384 1 0 0 1
0x0384 1 0 0 1
0x0384 1 0 0 1
0x0384 1 0 0 1
0x0384 1 0 0 1
0x0384 1 0 0 1
0x0384 1 0 0 1
0x0384 1 0 0 1
0x0384 1 0 0 1
0x0384 1 0 0 1
0x0384 1 1 1 1
0xaa0b 1 0 0 1
0x4000 1 0 0 1
0x5555 1 0 0 1
0x5555 1 0 0 1
0x5555 1 0 0 1
0x5555 1 1 0 1
0x0384 1 0 0 1
0x0384 1 0 0 1
0x0384 1 0 0 1
0x0384 1 0 0 1
0x0384 1 0 0 1
0x0384 1 0 0 1
0x0384 1 0 0 1
0x0384 1 0 0 1
0x0384 1 0 0 1
0x0384 1 0 0 1
0x0384 1 0 0 1
0x0384 1 0 0 1
0x0384 1 0 0 1
0x0384 1 0 0 1
0x0384 1 0 0 1
0x0384 1 0 0 1
0x0384 1 0 0 1
0x0384 1 0 0 1
0x0384 1 0 0 1
0x0384 1 0 0 1
0x0384 1 0 0 1
0x0384 1 0 0 1
0x0384 1 0 0 1
0x0384 1 0 0 1
0x0384 1 0 0 1
0x0384 1 0 0 1
0x0384 1 0 0 1
0x0384 1 0 0 1
0x0384 1 0 0 1
0x0384 1 0 0 1
0x0384 1 0 0 1
0x0384 1 0 0 1
0x0384 1 0 0 1
0x0384 1 0 0 1
0x0384 1 0 0 1
0x0384 1 0 0 1
0x0384 1 0 0 1
0x0384 1 0 0 1
0x0384 1 0 0 1
0x0384 1 0 0 1
0x0384 1 0 0 1
0x0384 1 0 0 1
0x0384 1 0 0 1
0x0384 1 0 0 1
0x0384 1 0 0 1
0x0384 1 0 0 1
0x0384 1 0 0 1
0x0384 1 0 0 1
0x0384 1 0 0 1
0x0384 1 0 0 1
0x0384 1 0 0 1
0x0384 1 0 0 1
0x0384 1 0 0 1
0x0384 1 0 0 1
0x0384 1 0 0 1
0x0384 1 0 0 1
0x0384 1 0 0 1
0x0384 1 0 0 1
0x0384 1 0 0 1
0x0384 1 0 0 1
0x0384 1 0 0 1
0x0384 1 0 0 1
0x0384 1 0 0 1
0x0384 1 1 1 1
0xaa0f 1 0 0 1
0x4000 1 0 0 1
0x5555 1 0 0 1
0x5555 1 0 0 1
0x5555 1 0 0 1
0x5555 1 1 0 1
0x0384 1 0 0 1
0x0384 1 0 0 1
0x0384 1 0 0 1
0x0384 1 0 0 1
0x0384 1 0 0 1
0x0384 1 0 0 1
0x0384 1 0 0 1
0x0384 1 0 0 1
0x0384 1 0 0 1
0x0384 1 0 0 1
0x0384 1 0 0 1
0x0384 1 0 0 1
0x0384 1 0 0 1
0x0384 1 0 0 1
0x0384 1 0 0 1
0x0384 1 0 0 1
0x0384 1 0 0 1
0x0384 1 0 0 1
0x0384 1 0 0 1
0x0384 1 0 0 1
0x0384 1 0 0 1
0x0384 1 0 0 1
0x0384 1 0 0 1
0x0384 1 0 0 1
0x0384 1 0 0 1
0x0384 1 0 0 1
0x0384 1 0 0 1
0x0384 1 0 0 1
0x0384 1 0 0 1
0x0384 1 0 0 1
0x0384 1 0 0 1
0x0384 1 0 0 1
0x0384 1 0 0 1
0x0384 1 0 0 1
0x0384 1 0 0 1
0x0384 1 0 0 1
0x0384 1 0 0 1
0x0384 1 0 0 1
0x0384 1 0 0 1
0x0384 1 0 0 1
0x0384 1 0 0 1
0x0384 1 0 0 1
0x0384 1 0 0 1
0x0384 1 0 0 1
0x0384 1 0 0 1
0x0384 1 0 0 1
0x0384 1 0 0 1
0x0384 1 0 0 1
0x0384 1 0 0 1
0x0384 1 0 0 1
0x0384 1 0 0 1
0x0384 1 0 0 1
0x0384 1 0 0 1
0x0384 1 0 0 1
0x0384 1 0 0 1
0x0384 1 0 0 1
0x0384 1 0 0 1
0x0384 1 0 0 1
0x0384 1 0 0 1
0x0384 1 0 0 1
0x0384 1 0 0 1
0x0384 1 0 0 1
0x0384 1 0 0 1
0x0384 1 1 1 1
0xaa13 1 0 0 1
0x4000 1 0 0 1
0x5555 1 0 0 1
0x5555 1 0 0 1
0x5555 1 0 0 1
0x5555 1 1 0 1
0x0384 1 0 0 1
0x0384 1 0 0 1
0x0384 1 0 0 1
0x0384 1 0 0 1
0x0384 1 0 0 1
0x0384 1 0 0 1
0x0384 1 0 0 1
0x0384 1 0 0 1
0x0384 1 0 0 1
0x0384 1 0 0 1
0x0384 1 0 0 1
0x0384 1 0 0 1
0x0384 1 0 0 1
0x0384 1 0 0 1
0x0384 1 0 0 1
0x0384 1 0 0 1
0x0384 1 0 0 1
0x0384 1 0 0 1
0x0384 1 0 0 1
0x0384 1 0 0 1
0x0384 1 0 0 1
0x0384 1 0 0 1
0x0384 1 0 0 1
0x0384 1 0 0 1
0x0384 1 0 0 1
0x0384 1 0 0 1
0x0384 1 0 0 1
0x0384 1 0 0 1
0x0384 1 0 0 1
0x0384 1 0 0 1
0x0384 1 0 0 1
0x0384 1 0 0 1
0x0384 1 0 0 1
0x0384 1 0 0 1
0x0384 1 0 0 1
0x0384 1 0 0 1
0x0384 1 0 0 1
0x0384 1 0 0 1
0x0384 1 0 0 1
0x0384 1 0 0 1
0x0384 1 0 0 1
0x0384 1 0 0 1
0x0384 1 0 0 1
0x0384 1 0 0 1
0x0384 1 0 0 1
0x0384 1 0 0 1
0x0384 1 0 0 1
0x0384 1 0 0 1
0x0384 1 0 0 1
0x0384 1 0 0 1
0x0384 1 0 0 1
0x0384 1 0 0 1
0x0384 1 0 0 1
0x0384 1 0 0 1
0x0384 1 0 0 1
0x0384 1 0 0 1
0x0384 1 0 0 1
0x0384 1 0 0 1
0x0384 1 0 0 1
0x0384 1 0 0 1
0x0384 1 0 0 1
0x0384 1 0 0 1
0x0384 1 0 0 1
0x0384 1 1 1 1
0xaa17 1 0 0 1
0x4000 1 0 0 1
0x5555 1 0 0 1
0x5555 1 0 0 1
0x5555 1 0 0 1
0x5555 1 1 0 1
0x0384 1 0 0 1
0x0384 1 0 0 1
0x0384 1 0 0 1
0x0384 1 0 0 1
0x0384 1 0 0 1
0x0384 1 0 0 1
0x0384 1 0 0 1
0x0384 1 0 0 1
0x0384 1 0 0 1
0x0384 1 0 0 1
0x0384 1 0 0 1
0x0384 1 0 0 1
0x0384 1 0 0 1
0x0384 1 0 0 1
0x0384 1 0 0 1
0x0384 1 0 0 1
0x0384 1 0 0 1
0x0384 1 0 0 1
0x0384 1 0 0 1
0x0384 1 0 0 1
0x0384 1 0 0 1
0x0384 1 0 0 1
0x0384 1 0 0 1
0x0384 1 0 0 1
0x0384 1 0 0 1
0x0384 1 0 0 1
0x0384 1 0 0 1
0x0384 1 0 0 1
0x0384 1 0 0 1
0x0384 1 0 0 1
0x0384 1 0 0 1
0x0384 1 0 0 1
0x0384 1 0 0 1
0x0384 1 0 0 1
0x0384 1 0 0 1
0x0384 1 0 0 1
0x0384 1 0 0 1
0x0384 1 0 0 1
0x0384 1 0 0 1
0x0384 1 0 0 1
0x0384 1 0 0 1
0x0384 1 0 0 1
0x0384 1 0 0 1
0x0384 1 0 0 1
0x0384 1 0 0 1
0x0384 1 0 0 1
0x0384 1 0 0 1
0x0384 1 0 0 1
0x0384 1 0 0 1
0x0384 1 0 0 1
0x0384 1 0 0 1
0x0384 1 0 0 1
0x0384 1 0 0 1
0x0384 1 0 0 1
0x0384 1 0 0 1
0x0384 1 0 0 1
0x0384 1 0 0 1
0x0384 1 0 0 1
0x0384 1 0 0 1
0x0384 1 0 0 1
0x0384 1 0 0 1
0x0384 1 0 0 1
0x0384 1 0 0 1
0x0384 1 1 1 1
0xaa1b 1 0 0 1
0x4000 1 0 0 1
0x5555 1 0 0 1
0x5555 1 0 0 1
0x5555 1 0 0 1
0x5555 1 1 0 1
0x0384 1 0 0 1
0x0384 1 0 0 1
0x0384 1 0 0 1
0x0384 1 0 0 1
0x0384 1 0 0 1
0x0384 1 0 0 1
0x0384 1 0 0 1
0x0384 1 0 0 1
0x0384 1 0 0 1
0x0384 1 0 0 1
0x0384 1 0 0 1
0x0384 1 0 0 1
0x0384 1 0 0 1
0x0384 1 0 0 1
0x0384 1 0 0 1
0x0384 1 0 0 1
0x0384 1 0 0 1
0x0384 1 0 0 1
0x0384 1 0 0 1
0x0384 1 0 0 1
0x0384 1 0 0 1
0x0384 1 0 0 1
0x0384 1 0 0 1
0x0384 1 0 0 1
0x0384 1 0 0 1
0x0384 1 0 0 1
0x0384 1 0 0 1
0x0384 1 0 0 1
0x0384 1 0 0 1
0x0384 1 0 0 1
0x0384 1 0 0 1
0x0384 1 0 0 1
0x0384 1 0 0 1
0x0384 1 0 0 1
0x0384 1 0 0 1
0x0384 1 0 0 1
0x0384 1 0 0 1
0x0384 1 0 0 1
0x0384 1 0 0 1
0x0384 1 0 0 1
0x0384 1 0 0 1
0x0384 1 0 0 1
0x0384 1 0 0 1
0x0384 1 0 0 1
0x0384 1 0 0 1
0x0384 1 0 0 1
0x0384 1 0 0 1
0x0384 1 0 0 1
0x0384 1 0 0 1
0x0384 1 0 0 1
0x0384 1 0 0 1
0x0384 1 0 0 1
0x0384 1 0 0 1
0x0384 1 0 0 1
0x0384 1 0 0 1
0x0384 1 0 0 1
0x0384 1 0 0 1
0x0384 1 0 0 1
0x0384 1 0 0 1
0x0384 1 0 0 1
0x0384 1 0 0 1
0x0384 1 0 0 1
0x0384 1 0 0 1
0x0384 1 1 1 1
0xaa1f 1 0 0 1
0x4000 1 0 0 1
0x5555 1 0 0 1
0x5555 1 0 0 1
0x5555 1 0 0 1
0x5555 1 1 0 1
0x0384 1 0 0 1
0x0384 1 0 0 1
0x0384 1 0 0 1
0x0384 1 0 0 1
0x0384 1 0 0 1
0x0384 1 0 0 1
0x0384 1 0 0 1
0x0384 1 0 0 1
0x0384 1 0 0 1
0x0384 1 0 0 1
0x0384 1 0 0 1
0x0384 1 0 0 1
0x0384 1 0 0 1
0x0384 1 0 0 1
0x0384 1 0 0 1
0x0384 1 0 0 1
0x0384 1 0 0 1
0x0384 1 0 0 1
0x0384 1 0 0 1
0x0384 1 0 0 1
0x0384 1 0 0 1
0x0384 1 0 0 1
0x0384 1 0 0 1
0x0384 1 0 0 1
0x0384 1 0 0 1
0x0384 1 0 0 1
0x0384 1 0 0 1
0x0384 1 0 0 1
0x0384 1 0 0 1
0x0384 1 0 0 1
0x0384 1 0 0 1
0x0384 1 0 0 1
0x0384 1 0 0 1
0x0384 1 0 0 1
0x0384 1 0 0 1
0x0384 1 0 0 1
0x0384 1 0 0 1
0x0384 1 0 0 1
0x0384 1 0 0 1
0x0384 1 0 0 1
0x0384 1 0 0 1
0x0384 1 0 0 1
0x0384 1 0 0 1
0x0384 1 0 0 1
0x0384 1 0 0 1
0x0384 1 0 0 1
0x0384 1 0 0 1
0x0384 1 0 0 1
0x0384 1 0 0 1
0x0384 1 0 0 1
0x0384 1 0 0 1
0x0384 1 0 0 1
0x0384 1 0 0 1
0x0384 1 0 0 1
0x0384 1 0 0 1
0x0384 1 0 0 1
0x0384 1 0 0 1
0x0384 1 0 0 1
0x0384 1 0 0 1
0x0384 1 0 0 1
0x0384 1 0 0 1
0x0384 1 0 0 1
0x0384 1 0 0 1
0x0384 1 1 1 1
0xaa23 1 0 0 1
0x4000 1 0 0 1
0x5555 1 0 0 1
0x5555 1 0 0 1
0x5555 1 0 0 1
0x5555 1 1 0 1
0x0384 1 0 0 1
0x0384 1 0 0 1
0x0384 1 0 0 1
0x0384 1 0 0 1
0x0384 1 0 0 1
0x0384 1 0 0 1
0x0384 1 0 0 1
0x0384 1 0 0 1
0x0384 1 0 0 1
0x0384 1 0 0 1
0x0384 1 0 0 1
0x0384 1 0 0 1
0x0384 1 0 0 1
0x0384 1 0 0 1
0x0384 1 0 0 1
0x0384 1 0 0 1
0x0384 1 0 0 1
0x0384 1 0 0 1
0x0384 1 0 0 1
0x0384 1 0 0 1
0x0384 1 0 0 1
0x0384 1 0 0 1
0x0384 1 0 0 1
0x0384 1 0 0 1
0x0384 1 0 0 1
0x0384 1 0 0 1
0x0384 1 0 0 1
0x0384 1 0 0 1
0x0384 1 0 0 1
0x0384 1 0 0 1
0x0384 1 0 0 1
0x0384 1 0 0 1
0x0384 1 0 0 1
0x0384 1 0 0 1
0x0384 1 0 0 1
0x0384 1 0 0 1
0x0384 1 0 0 1
0x0384 1 0 0 1
0x0384 1 0 0 1
0x0384 1 0 0 1
0x0384 1 0 0 1
0x0384 1 0 0 1
0x0384 1 0 0 1
0x0384 1 0 0 1
0x0384 1 0 0 1
0x0384 1 0 0 1
0x0384 1 0 0 1
0x0384 1 0 0 1
0x0384 1 0 0 1
0x0384 1 0 0 1
0x0384 1 0 0 1
0x0384 1 0 0 1
0x0384 1 0 0 1
0x0384 1 0 0 1
0x0384 1 0 0 1
0x0384 1 0 0 1
0x0384 1 0 0 1
0x0384 1 0 0 1
0x0384 1 0 0 1
0x0384 1 0 0 1
0x0384 1 0 0 1
0x0384 1 0 0 1
0x0384 1 0 0 1
0x0384 1 1 1 1
0xaa27 1 0 0 1
0x4000 1 0 0 1
0x5555 1 0 0 1
0x5555 1 0 0 1
0x5555 1 0 0 1
0x5555 1 1 0 1
0x0384 1 0 0 1
0x0384 1 0 0 1
0x0384 1 0 0 1
0x0384 1 0 0 1
0x0384 1 0 0 1
0x0384 1 0 0 1
0x0384 1 0 0 1
0x0384 1 0 0 1
0x0384 1 0 0 1
0x0384 1 0 0 1
0x0384 1 0 0 1
0x0384 1 0 0 1
0x0384 1 0 0 1
0x0384 1 0 0 1
0x0384 1 0 0 1
0x0384 1 0 0 1
0x0384 1 0 0 1
0x0384 1 0 0 1
0x0384 1 0 0 1
0x0384 1 0 0 1
0x0384 1 0 0 1
0x0384 1 0 0 1
0x0384 1 0 0 1
0x0384 1 0 0 1
0x0384 1 0 0 1
0x0384 1 0 0 1
0x0384 1 0 0 1
0x0384 1 0 0 1
0x0384 1 0 0 1
0x0384 1 0 0 1
0x0384 1 0 0 1
0x0384 1 0 0 1
0x0384 1 0 0 1
0x0384 1 0 0 1
0x0384 1 0 0 1
0x0384 1 0 0 1
0x0384 1 0 0 1
0x0384 1 0 0 1
0x0384 1 0 0 1
0x0384 1 0 0 1
0x0384 1 0 0 1
0x0384 1 0 0 1
0x0384 1 0 0 1
0x0384 1 0 0 1
0x0384 1 0 0 1
0x0384 1 0 0 1
0x0384 1 0 0 1
0x0384 1 0 0 1
0x0384 1 0 0 1
0x0384 1 0 0 1
0x0384 1 0 0 1
0x0384 1 0 0 1
0x0384 1 0 0 1
0x0384 1 0 0 1
0x0384 1 0 0 1
0x0384 1 0 0 1
0x0384 1 0 0 1
0x0384 1 0 0 1
0x0384 1 0 0 1
0x0384 1 0 0 1
0x0384 1 0 0 1
0x0384 1 0 0 1
0x0384 1 0 0 1
0x0384 1 1 1 1
0xaa2b 1 0 0 1
0x4000 1 0 0 1
0x5555 1 0 0 1
0x5555 1 0 0 1
0x5555 1 0 0 1
0x5555 1 1 0 1
0x0384 1 0 0 1
0x0384 1 0 0 1
0x0384 1 0 0 1
0x0384 1 0 0 1
0x0384 1 0 0 1
0x0384 1 0 0 1
0x0384 1 0 0 1
0x0384 1 0 0 1
0x0384 1 0 0 1
0x0384 1 0 0 1
0x0384 1 0 0 1
0x0384 1 0 0 1
0x0384 1 0 0 1
0x0384 1 0 0 1
0x0384 1 0 0 1
0x0384 1 0 0 1
0x0384 1 0 0 1
0x0384 1 0 0 1
0x0384 1 0 0 1
0x0384 1 0 0 1
0x0384 1 0 0 1
0x0384 1 0 0 1
0x0384 1 0 0 1
0x0384 1 0 0 1
0x0384 1 0 0 1
0x0384 1 0 0 1
0x0384 1 0 0 1
0x0384 1 0 0 1
0x0384 1 0 0 1
0x0384 1 0 0 1
0x0384 1 0 0 1
0x0384 1 0 0 1
0x0384 1 0 0 1
0x0384 1 0 0 1
0x0384 1 0 0 1
0x0384 1 0 0 1
0x0384 1 0 0 1
0x0384 1 0 0 1
0x0384 1 0 0 1
0x0384 1 0 0 1
0x0384 1 0 0 1
0x0384 1 0 0 1
0x0384 1 0 0 1
0x0384 1 0 0 1
0x0384 1 0 0 1
0x0384 1 0 0 1
0x0384 1 0 0 1
0x0384 1 0 0 1
0x0384 1 0 0 1
0x0384 1 0 0 1
0x0384 1 0 0 1
0x0384 1 0 0 1
0x0384 1 0 0 1
0x0384 1 0 0 1
0x0384 1 0 0 1
0x0384 1 0 0 1
0x0384 1 0 0 1
0x0384 1 0 0 1
0x0384 1 0 0 1
0x0384 1 0 0 1
0x0384 1 0 0 1
0x0384 1 0 0 1
0x0384 1 0 0 1
0x0384 1 1 1 1
0xaa2f 1 0 0 1
0x4000 1 0 0 1
0x5555 1 0 0 1
0x5555 1 0 0 1
0x5555 1 0 0 1
0x5555 1 1 0 1
0x0384 1 0 0 1
0x0384 1 0 0 1
0x0384 1 0 0 1
0x0384 1 0 0 1
0x0384 1 0 0 1
0x0384 1 0 0 1
0x0384 1 0 0 1
0x0384 1 0 0 1
0x0384 1 0 0 1
0x0384 1 0 0 1
0x0384 1 0 0 1
0x0384 1 0 0 1
0x0384 1 0 0 1
0x0384 1 0 0 1
0x0384 1 0 0 1
0x0384 1 0 0 1
0x0384 1 0 0 1
0x0384 1 0 0 1
0x0384 1 0 0 1
0x0384 1 0 0 1
0x0384 1 0 0 1
0x0384 1 0 0 1
0x0384 1 0 0 1
0x0384 1 0 0 1
0x0384 1 0 0 1
0x0384 1 0 0 1
0x0384 1 0 0 1
0x0384 1 0 0 1
0x0384 1 0 0 1
0x0384 1 0 0 1
0x0384 1 0 0 1
0x0384 1 0 0 1
0x0384 1 0 0 1
0x0384 1 0 0 1
0x0384 1 0 0 1
0x0384 1 0 0 1
0x0384 1 0 0 1
0x0384 1 0 0 1
0x0384 1 0 0 1
0x0384 1 0 0 1
0x0384 1 0 0 1
0x0384 1 0 0 1
0x0384 1 0 0 1
0x0384 1 0 0 1
0x0384 1 0 0 1
0x0384 1 0 0 1
0x0384 1 0 0 1
0x0384 1 0 0 1
0x0384 1 0 0 1
0x0384 1 0 0 1
0x0384 1 0 0 1
0x0384 1 0 0 1
0x0384 1 0 0 1
0x0384 1 0 0 1
0x0384 1 0 0 1
0x0384 1 0 0 1
0x0384 1 0 0 1
0x0384 1 0 0 1
0x0384 1 0 0 1
0x0384 1 0 0 1
0x0384 1 0 0 1
0x0384 1 0 0 1
0x0384 1 0 0 1
0x0384 1 1 1 1
0xaa33 1 0 0 1
0x4000 1 0 0 1
0x5555 1 0 0 1
0x5555 1 0 0 1
0x5555 1 0 0 1
0x5555 1 1 0 1
0x0384 1 0 0 1
0x0384 1 0 0 1
0x0384 1 0 0 1
0x0384 1 0 0 1
0x0384 1 0 0 1
0x0384 1 0 0 1
0x0384 1 0 0 1
0x0384 1 0 0 1
0x0384 1 0 0 1
0x0384 1 0 0 1
0x0384 1 0 0 1
0x0384 1 0 0 1
0x0384 1 0 0 1
0x0384 1 0 0 1
0x0384 1 0 0 1
0x0384 1 0 0 1
0x0384 1 0 0 1
0x0384 1 0 0 1
0x0384 1 0 0 1
0x0384 1 0 0 1
0x0384 1 0 0 1
0x0384 1 0 0 1
0x0384 1 0 0 1
0x0384 1 0 0 1
0x0384 1 0 0 1
0x0384 1 0 0 1
0x0384 1 0 0 1
0x0384 1 0 0 1
0x0384 1 0 0 1
0x0384 1 0 0 1
0x0384 1 0 0 1
0x0384 1 0 0 1
0x0384 1 0 0 1
0x0384 1 0 0 1
0x0384 1 0 0 1
0x0384 1 0 0 1
0x0384 1 0 0 1
0x0384 1 0 0 1
0x0384 1 0 0 1
0x0384 1 0 0 1
0x0384 1 0 0 1
0x0384 1 0 0 1
0x0384 1 0 0 1
0x0384 1 0 0 1
0x0384 1 0 0 1
0x0384 1 0 0 1
0x0384 1 0 0 1
0x0384 1 0 0 1
0x0384 1 0 0 1
0x0384 1 0 0 1
0x0384 1 0 0 1
0x0384 1 0 0 1
0x0384 1 0 0 1
0x0384 1 0 0 1
0x0384 1 0 0 1
0x0384 1 0 0 1
0x0384 1 0 0 1
0x0384 1 0 0 1
0x0384 1 0 0 1
0x0384 1 0 0 1
0x0384 1 0 0 1
0x0384 1 0 0 1
0x0384 1 0 0 1
0x0384 1 1 1 1
0xaa37 1 0 0 1
0x4000 1 0 0 1
0x5555 1 0 0 1
0x5555 1 0 0 1
0x5555 1 0 0 1
0x5555 1 1 0 1
0x0384 1 0 0 1
0x0384 1 0 0 1
0x0384 1 0 0 1
0x0384 1 0 0 1
0x0384 1 0 0 1
0x0384 1 0 0 1
0x0384 1 0 0 1
0x0384 1 0 0 1
0x0384 1 0 0 1
0x0384 1 0 0 1
0x0384 1 0 0 1
0x0384 1 0 0 1
0x0384 1 0 0 1
0x0384 1 0 0 1
0x0384 1 0 0 1
0x0384 1 0 0 1
0x0384 1 0 0 1
0x0384 1 0 0 1
0x0384 1 0 0 1
0x0384 1 0 0 1
0x0384 1 0 0 1
0x0384 1 0 0 1
0x0384 1 0 0 1
0x0384 1 0 0 1
0x0384 1 0 0 1
0x0384 1 0 0 1
0x0384 1 0 0 1
0x0384 1 0 0 1
0x0384 1 0 0 1
0x0384 1 0 0 1
0x0384 1 0 0 1
0x0384 1 0 0 1
0x0384 1 0 0 1
0x0384 1 0 0 1
0x0384 1 0 0 1
0x0384 1 0 0 1
0x0384 1 0 0 1
0x0384 1 0 0 1
0x0384 1 0 0 1
0x0384 1 0 0 1
0x0384 1 0 0 1
0x0384 1 0 0 1
0x0384 1 0 0 1
0x0384 1 0 0 1
0x0384 1 0 0 1
0x0384 1 0 0 1
0x0384 1 0 0 1
0x0384 1 0 0 1
0x0384 1 0 0 1
0x0384 1 0 0 1
0x0384 1 0 0 1
0x0384 1 0 0 1
0x0384 1 0 0 1
0x0384 1 0 0 1
0x0384 1 0 0 1
0x0384 1 0 0 1
0x0384 1 0 0 1
0x0384 1 0 0 1
0x0384 1 0 0 1
0x0384 1 0 0 1
0x0384 1 0 0 1
0x0384 1 0 0 1
0x0384 1 0 0 1
0x0384 1 1 1 1
0xaa3b 1 0 0 1
0x4000 1 0 0 1
0x5555 1 0 0 1
0x5555 1 0 0 1
0x5555 1 0 0 1
0x5555 1 1 0 1
0x0384 1 0 0 1
0x0384 1 0 0 1
0x0384 1 0 0 1
0x0384 1 0 0 1
0x0384 1 0 0 1
0x0384 1 0 0 1
0x0384 1 0 0 1
0x0384 1 0 0 1
0x0384 1 0 0 1
0x0384 1 0 0 1
0x0384 1 0 0 1
0x0384 1 0 0 1
0x0384 1 0 0 1
0x0384 1 0 0 1
0x0384 1 0 0 1
0x0384 1 0 0 1
0x0384 1 0 0 1
0x0384 1 0 0 1
0x0384 1 0 0 1
0x0384 1 0 0 1
0x0384 1 0 0 1
0x0384 1 0 0 1
0x0384 1 0 0 1
0x0384 1 0 0 1
0x0384 1 0 0 1
0x0384 1 0 0 1
0x0384 1 0 0 1
0x0384 1 0 0 1
0x0384 1 0 0 1
0x0384 1 0 0 1
0x0384 1 0 0 1
0x0384 1 0 0 1
0x0384 1 0 0 1
0x0384 1 0 0 1
0x0384 1 0 0 1
0x0384 1 0 0 1
0x0384 1 0 0 1
0x0384 1 0 0 1
0x0384 1 0 0 1
0x0384 1 0 0 1
0x0384 1 0 0 1
0x0384 1 0 0 1
0x0384 1 0 0 1
0x0384 1 0 0 1
0x0384 1 0 0 1
0x0384 1 0 0 1
0x0384 1 0 0 1
0x0384 1 0 0 1
0x0384 1 0 0 1
0x0384 1 0 0 1
0x0384 1 0 0 1
0x0384 1 0 0 1
0x0384 1 0 0 1
0x0384 1 0 0 1
0x0384 1 0 0 1
0x0384 1 0 0 1
0x0384 1 0 0 1
0x0384 1 0 0 1
0x0384 1 0 0 1
0x0384 1 0 0 1
0x0384 1 0 0 1
0x0384 1 0 0 1
0x0384 1 0 0 1
0x0384 1 1 1 1
0xaa3f 1 0 0 1
0x4000 1 0 0 1
0x5555 1 0 0 1
0x5555 1 0 0 1
0x5555 1 0 0 1
0x5555 1 1 0 1
0x0384 1 0 0 1
0x0384 1 0 0 1
0x0384 1 0 0 1
0x0384 1 0 0 1
0x0384 1 0 0 1
0x0384 1 0 0 1
0x0384 1 0 0 1
0x0384 1 0 0 1
0x0384 1 0 0 1
0x0384 1 0 0 1
0x0384 1 0 0 1
0x0384 1 0 0 1
0x0384 1 0 0 1
0x0384 1 0 0 1
0x0384 1 0 0 1
0x0384 1 0 0 1
0x0384 1 0 0 1
0x0384 1 0 0 1
0x0384 1 0 0 1
0x0384 1 0 0 1
0x0384 1 0 0 1
0x0384 1 0 0 1
0x0384 1 0 0 1
0x0384 1 0 0 1
0x0384 1 0 0 1
0x0384 1 0 0 1
0x0384 1 0 0 1
0x0384 1 0 0 1
0x0384 1 0 0 1
0x0384 1 0 0 1
0x0384 1 0 0 1
0x0384 1 0 0 1
0x0384 1 0 0 1
0x0384 1 0 0 1
0x0384 1 0 0 1
0x0384 1 0 0 1
0x0384 1 0 0 1
0x0384 1 0 0 1
0x0384 1 0 0 1
0x0384 1 0 0 1
0x0384 1 0 0 1
0x0384 1 0 0 1
0x0384 1 0 0 1
0x0384 1 0 0 1
0x0384 1 0 0 1
0x0384 1 0 0 1
0x0384 1 0 0 1
0x0384 1 0 0 1
0x0384 1 0 0 1
0x0384 1 0 0 1
0x0384 1 0 0 1
0x0384 1 0 0 1
0x0384 1 0 0 1
0x0384 1 0 0 1
0x0384 1 0 0 1
0x0384 1 0 0 1
0x0384 1 0 0 1
0x0384 1 0 0 1
0x0384 1 0 0 1
0x0384 1 0 0 1
0x0384 1 0 0 1
0x0384 1 0 0 1
0x0384 1 0 0 1
0x0384 1 1 1 1
0xaa43 1 0 0 1
0x4000 1 0 0 1
0x5555 1 0 0 1
0x5555 1 0 0 1
0x5555 1 0 0 1
0x5555 1 1 0 1
0x08fc 1 0 0 1
0x08fc 1 0 0 1
0x08fc 1 0 0 1
0x08fc 1 0 0 1
0x08fc 1 0 0 1
0x08fc 1 0 0 1
0x08fc 1 0 0 1
0x08fc 1 0 0 1
0x08fc 1 0 0 1
0x08fc 1 0 0 1
0x08fc 1 0 0 1
0x08fc 1 0 0 1
0x08fc 1 0 0 1
0x08fc 1 0 0 1
0x08fc 1 0 0 1
0x08fc 1 0 0 1
0x08fc 1 0 0 1
0x08fc 1 0 0 1
0x08fc 1 0 0 1
0x08fc 1 0 0 1
0x08fc 1 0 0 1
0x08fc 1 0 0 1
0x08fc 1 0 0 1
0x08fc 1 0 0 1
0x08fc 1 0 0 1
0x08fc 1 0 0 1
0x08fc 1 0 0 1
0x08fc 1 0 0 1
0x08fc 1 0 0 1
0x08fc 1 0 0 1
0x08fc 1 0 0 1
0x08fc 1 0 0 1
0x08fc 1 0 0 1
0x08fc 1 0 0 1
0x08fc 1 0 0 1
0x08fc 1 0 0 1
0x08fc 1 0 0 1
0x08fc 1 0 0 1
0x08fc 1 0 0 1
0x08fc 1 0 0 1
0x08fc 1 0 0 1
0x08fc 1 0 0 1
0x08fc 1 0 0 1
0x08fc 1 0 0 1
0x08fc 1 0 0 1
0x08fc 1 0 0 1
0x08fc 1 0 0 1
0x08fc 1 0 0 1
0x08fc 1 0 0 1
0x08fc 1 0 0 1
0x08fc 1 0 0 1
0x08fc 1 0 0 1
0x08fc 1 0 0 1
0x08fc 1 0 0 1
0x08fc 1 0 0 1
0x08fc 1 0 0 1
0x08fc 1 0 0 1
0x08fc 1 0 0 1
0x08fc 1 0 0 1
0x08fc 1 0 0 1
0x08fc 1 0 0 1
0x08fc 1 0 0 1
0x08fc 1 0 0 1
0x08fc 1 1 1 1
0xaa47 1 0 0 1
0x4000 1 0 0 1
0x5555 1 0 0 1
0x5555 1 0 0 1
0x5555 1 0 0 1
0x5555 1 1 0 1
0x08fc 1 0 0 1
0x08fc 1 0 0 1
0x08fc 1 0 0 1
0x08fc 1 0 0 1
0x08fc 1 0 0 1
0x08fc 1 0 0 1
0x08fc 1 0 0 1
0x08fc 1 0 0 1
0x08fc 1 0 0 1
0x08fc 1 0 0 1
0x08fc 1 0 0 1
0x08fc 1 0 0 1
0x08fc 1 0 0 1
0x08fc 1 0 0 1
0x08fc 1 0 0 1
0x08fc 1 0 0 1
0x08fc 1 0 0 1
0x08fc 1 0 0 1
0x08fc 1 0 0 1
0x08fc 1 0 0 1
0x08fc 1 0 0 1
0x08fc 1 0 0 1
0x08fc 1 0 0 1
0x08fc 1 0 0 1
0x08fc 1 0 0 1
0x08fc 1 0 0 1
0x08fc 1 0 0 1
0x08fc 1 0 0 1
0x08fc 1 0 0 1
0x08fc 1 0 0 1
0x08fc 1 0 0 1
0x08fc 1 0 0 1
0x08fc 1 0 0 1
0x08fc 1 0 0 1
0x08fc 1 0 0 1
0x08fc 1 0 0 1
0x08fc 1 0 0 1
0x08fc 1 0 0 1
0x08fc 1 0 0 1
0x08fc 1 0 0 1
0x08fc 1 0 0 1
0x08fc 1 0 0 1
0x08fc 1 0 0 1
0x08fc 1 0 0 1
0x08fc 1 0 0 1
0x08fc 1 0 0 1
0x08fc 1 0 0 1
0x08fc 1 0 0 1
0x08fc 1 0 0 1
0x08fc 1 0 0 1
0x08fc 1 0 0 1
0x08fc 1 0 0 1
0x08fc 1 0 0 1
0x08fc 1 0 0 1
0x08fc 1 0 0 1
0x08fc 1 0 0 1
0x08fc 1 0 0 1
0x08fc 1 0 0 1
0x08fc 1 0 0 1
0x08fc 1 0 0 1
0x08fc 1 0 0 1
0x08fc 1 0 0 1
0x08fc 1 0 0 1
0x08fc 1 1 1 1
0xaa4b 1 0 0 1
0x4000 1 0 0 1
0x5555 1 0 0 1
0x5555 1 0 0 1
0x5555 1 0 0 1
0x5555 1 1 0 1
0x08fc 1 0 0 1
0x08fc 1 0 0 1
0x08fc 1 0 0 1
0x08fc 1 0 0 1
0x08fc 1 0 0 1
0x08fc 1 0 0 1
0x08fc 1 0 0 1
0x08fc 1 0 0 1
0x08fc 1 0 0 1
0x08fc 1 0 0 1
0x08fc 1 0 0 1
0x08fc 1 0 0 1
0x08fc 1 0 0 1
0x08fc 1 0 0 1
0x08fc 1 0 0 1
0x08fc 1 0 0 1
0x08fc 1 0 0 1
0x08fc 1 0 0 1
0x08fc 1 0 0 1
0x08fc 1 0 0 1
0x08fc 1 0 0 1
0x08fc 1 0 0 1
0x08fc 1 0 0 1
0x08fc 1 0 0 1
0x08fc 1 0 0 1
0x08fc 1 0 0 1
0x08fc 1 0 0 1
0x08fc 1 0 0 1
0x08fc 1 0 0 1
0x08fc 1 0 0 1
0x08fc 1 0 0 1
0x08fc 1 0 0 1
0x08fc 1 0 0 1
0x08fc 1 0 0 1
0x08fc 1 0 0 1
0x08fc 1 0 0 1
0x08fc 1 0 0 1
0x08fc 1 0 0 1
0x08fc 1 0 0 1
0x08fc 1 0 0 1
0x08fc 1 0 0 1
0x08fc 1 0 0 1
0x08fc 1 0 0 1
0x08fc 1 0 0 1
0x08fc 1 0 0 1
0x08fc 1 0 0 1
0x08fc 1 0 0 1
0x08fc 1 0 0 1
0x08fc 1 0 0 1
0x08fc 1 0 0 1
0x08fc 1 0 0 1
0x08fc 1 0 0 1
0x08fc 1 0 0 1
0x08fc 1 0 0 1
0x08fc 1 0 0 1
0x08fc 1 0 0 1
0x08fc 1 0 0 1
0x08fc 1 0 0 1
0x08fc 1 0 0 1
0x08fc 1 0 0 1
0x08fc 1 0 0 1
0x08fc 1 0 0 1
0x08fc 1 0 0 1
0x08fc 1 1 1 1
0xaa4f 1 0 0 1
0x4000 1 0 0 1
0x5555 1 0 0 1
0x5555 1 0 0 1
0x5555 1 0 0 1
0x5555 1 1 0 1
0x08fc 1 0 0 1
0x08fc 1 0 0 1
0x08fc 1 0 0 1
0x08fc 1 0 0 1
0x08fc 1 0 0 1
0x08fc 1 0 0 1
0x08fc 1 0 0 1
0x08fc 1 0 0 1
0x08fc 1 0 0 1
0x08fc 1 0 0 1
0x08fc 1 0 0 1
0x08fc 1 0 0 1
0x08fc 1 0 0 1
0x08fc 1 0 0 1
0x08fc 1 0 0 1
0x08fc 1 0 0 1
0x08fc 1 0 0 1
0x08fc 1 0 0 1
0x08fc 1 0 0 1
0x08fc 1 0 0 1
0x08fc 1 0 0 1
0x08fc 1 0 0 1
0x08fc 1 0 0 1
0x08fc 1 0 0 1
0x08fc 1 0 0 1
0x08fc 1 0 0 1
0x08fc 1 0 0 1
0x08fc 1 0 0 1
0x08fc 1 0 0 1
0x08fc 1 0 0 1
0x08fc 1 0 0 1
0x08fc 1 0 0 1
0x08fc 1 0 0 1
0x08fc 1 0 0 1
0x08fc 1 0 0 1
0x08fc 1 0 0 1
0x08fc 1 0 0 1
0x08fc 1 0 0 1
0x08fc 1 0 0 1
0x08fc 1 0 0 1
0x08fc 1 0 0 1
0x08fc 1 0 0 1
0x08fc 1 0 0 1
0x08fc 1 0 0 1
0x08fc 1 0 0 1
0x08fc 1 0 0 1
0x08fc 1 0 0 1
0x08fc 1 0 0 1
0x08fc 1 0 0 1
0x08fc 1 0 0 1
0x08fc 1 0 0 1
0x08fc 1 0 0 1
0x08fc 1 0 0 1
0x08fc 1 0 0 1
0x08fc 1 0 0 1
0x08fc 1 0 0 1
0x08fc 1 0 0 1
0x08fc 1 0 0 1
0x08fc 1 0 0 1
0x08fc 1 0 0 1
0x08fc 1 0 0 1
0x08fc 1 0 0 1
0x08fc 1 0 0 1
0x08fc 1 1 1 1
0xaa53 1 0 0 1
0x4000 1 0 0 1
0x5555 1 0 0 1
0x5555 1 0 0 1
0x5555 1 0 0 1
0x5555 1 1 0 1
0x08fc 1 0 0 1
0x08fc 1 0 0 1
0x08fc 1 0 0 1
0x08fc 1 0 0 1
0x08fc 1 0 0 1
0x08fc 1 0 0 1
0x08fc 1 0 0 1
0x08fc 1 0 0 1
0x08fc 1 0 0 1
0x08fc 1 0 0 1
0x08fc 1 0 0 1
0x08fc 1 0 0 1
0x08fc 1 0 0 1
0x08fc 1 0 0 1
0x08fc 1 0 0 1
0x08fc 1 0 0 1
0x08fc 1 0 0 1
0x08fc 1 0 0 1
0x08fc 1 0 0 1
0x08fc 1 0 0 1
0x08fc 1 0 0 1
0x08fc 1 0 0 1
0x08fc 1 0 0 1
0x08fc 1 0 0 1
0x08fc 1 0 0 1
0x08fc 1 0 0 1
0x08fc 1 0 0 1
0x08fc 1 0 0 1
0x08fc 1 0 0 1
0x08fc 1 0 0 1
0x08fc 1 0 0 1
0x08fc 1 0 0 1
0x08fc 1 0 0 1
0x08fc 1 0 0 1
0x08fc 1 0 0 1
0x08fc 1 0 0 1
0x08fc 1 0 0 1
0x08fc 1 0 0 1
0x08fc 1 0 0 1
0x08fc 1 0 0 1
0x08fc 1 0 0 1
0x08fc 1 0 0 1
0x08fc 1 0 0 1
0x08fc 1 0 0 1
0x08fc 1 0 0 1
0x08fc 1 0 0 1
0x08fc 1 0 0 1
0x08fc 1 0 0 1
0x08fc 1 0 0 1
0x08fc 1 0 0 1
0x08fc 1 0 0 1
0x08fc 1 0 0 1
0x08fc 1 0 0 1
0x08fc 1 0 0 1
0x08fc 1 0 0 1
0x08fc 1 0 0 1
0x08fc 1 0 0 1
0x08fc 1 0 0 1
0x08fc 1 0 0 1
0x08fc 1 0 0 1
0x08fc 1 0 0 1
0x08fc 1 0 0 1
0x08fc 1 0 0 1
0x08fc 1 1 1 1
0xaa57 1 0 0 1
0x4000 1 0 0 1
0x5555 1 0 0 1
0x5555 1 0 0 1
0x5555 1 0 0 1
0x5555 1 1 0 1
0x08fc 1 0 0 1
0x08fc 1 0 0 1
0x08fc 1 0 0 1
0x08fc 1 0 0 1
0x08fc 1 0 0 1
0x08fc 1 0 0 1
0x08fc 1 0 0 1
0x08fc 1 0 0 1
0x08fc 1 0 0 1
0x08fc 1 0 0 1
0x08fc 1 0 0 1
0x08fc 1 0 0 1
0x08fc 1 0 0 1
0x08fc 1 0 0 1
0x08fc 1 0 0 1
0x08fc 1 0 0 1
0x08fc 1 0 0 1
0x08fc 1 0 0 1
0x08fc 1 0 0 1
0x08fc 1 0 0 1
0x08fc 1 0 0 1
0x08fc 1 0 0 1
0x08fc 1 0 0 1
0x08fc 1 0 0 1
0x08fc 1 0 0 1
0x08fc 1 0 0 1
0x08fc 1 0 0 1
0x08fc 1 0 0 1
0x08fc 1 0 0 1
0x08fc 1 0 0 1
0x08fc 1 0 0 1
0x08fc 1 0 0 1
0x08fc 1 0 0 1
0x08fc 1 0 0 1
0x08fc 1 0 0 1
0x08fc 1 0 0 1
0x08fc 1 0 0 1
0x08fc 1 0 0 1
0x08fc 1 0 0 1
0x08fc 1 0 0 1
0x08fc 1 0 0 1
0x08fc 1 0 0 1
0x08fc 1 0 0 1
0x08fc 1 0 0 1
0x08fc 1 0 0 1
0x08fc 1 0 0 1
0x08fc 1 0 0 1
0x08fc 1 0 0 1
0x08fc 1 0 0 1
0x08fc 1 0 0 1
0x08fc 1 0 0 1
0x08fc 1 0 0 1
0x08fc 1 0 0 1
0x08fc 1 0 0 1
0x08fc 1 0 0 1
0x08fc 1 0 0 1
0x08fc 1 0 0 1
0x08fc 1 0 0 1
0x08fc 1 0 0 1
0x08fc 1 0 0 1
0x08fc 1 0 0 1
0x08fc 1 0 0 1
0x08fc 1 0 0 1
0x08fc 1 1 1 1
0xaa5b 1 0 0 1
0x4000 1 0 0 1
0x5555 1 0 0 1
0x5555 1 0 0 1
0x5555 1 0 0 1
0x5555 1 1 0 1
0x08fc 1 0 0 1
0x08fc 1 0 0 1
0x08fc 1 0 0 1
0x08fc 1 0 0 1
0x08fc 1 0 0 1
0x08fc 1 0 0 1
0x08fc 1 0 0 1
0x08fc 1 0 0 1
0x08fc 1 0 0 1
0x08fc 1 0 0 1
0x08fc 1 0 0 1
0x08fc 1 0 0 1
0x08fc 1 0 0 1
0x08fc 1 0 0 1
0x08fc 1 0 0 1
0x08fc 1 0 0 1
0x08fc 1 0 0 1
0x08fc 1 0 0 1
0x08fc 1 0 0 1
0x08fc 1 0 0 1
0x08fc 1 0 0 1
0x08fc 1 0 0 1
0x08fc 1 0 0 1
0x08fc 1 0 0 1
0x08fc 1 0 0 1
0x08fc 1 0 0 1
0x08fc 1 0 0 1
0x08fc 1 0 0 1
0x08fc 1 0 0 1
0x08fc 1 0 0 1
0x08fc 1 0 0 1
0x08fc 1 0 0 1
0x08fc 1 0 0 1
0x08fc 1 0 0 1
0x08fc 1 0 0 1
0x08fc 1 0 0 1
0x08fc 1 0 0 1
0x08fc 1 0 0 1
0x08fc 1 0 0 1
0x08fc 1 0 0 1
0x08fc 1 0 0 1
0x08fc 1 0 0 1
0x08fc 1 0 0 1
0x08fc 1 0 0 1
0x08fc 1 0 0 1
0x08fc 1 0 0 1
0x08fc 1 0 0 1
0x08fc 1 0 0 1
0x08fc 1 0 0 1
0x08fc 1 0 0 1
0x08fc 1 0 0 1
0x08fc 1 0 0 1
0x08fc 1 0 0 1
0x08fc 1 0 0 1
0x08fc 1 0 0 1
0x08fc 1 0 0 1
0x08fc 1 0 0 1
0x08fc 1 0 0 1
0x08fc 1 0 0 1
0x08fc 1 0 0 1
0x08fc 1 0 0 1
0x08fc 1 0 0 1
0x08fc 1 0 0 1
0x08fc 1 1 1 1
0xaa5f 1 0 0 1
0x4000 1 0 0 1
0x5555 1 0 0 1
0x5555 1 0 0 1
0x5555 1 0 0 1
0x5555 1 1 0 1
0x08fc 1 0 0 1
0x08fc 1 0 0 1
0x08fc 1 0 0 1
0x08fc 1 0 0 1
0x08fc 1 0 0 1
0x08fc 1 0 0 1
0x08fc 1 0 0 1
0x08fc 1 0 0 1
0x08fc 1 0 0 1
0x08fc 1 0 0 1
0x08fc 1 0 0 1
0x08fc 1 0 0 1
0x08fc 1 0 0 1
0x08fc 1 0 0 1
0x08fc 1 0 0 1
0x08fc 1 0 0 1
0x08fc 1 0 0 1
0x08fc 1 0 0 1
0x08fc 1 0 0 1
0x08fc 1 0 0 1
0x08fc 1 0 0 1
0x08fc 1 0 0 1
0x08fc 1 0 0 1
0x08fc 1 0 0 1
0x08fc 1 0 0 1
0x08fc 1 0 0 1
0x08fc 1 0 0 1
0x08fc 1 0 0 1
0x08fc 1 0 0 1
0x08fc 1 0 0 1
0x08fc 1 0 0 1
0x08fc 1 0 0 1
0x08fc 1 0 0 1
0x08fc 1 0 0 1
0x08fc 1 0 0 1
0x08fc 1 0 0 1
0x08fc 1 0 0 1
0x08fc 1 0 0 1
0x08fc 1 0 0 1
0x08fc 1 0 0 1
0x08fc 1 0 0 1
0x08fc 1 0 0 1
0x08fc 1 0 0 1
0x08fc 1 0 0 1
0x08fc 1 0 0 1
0x08fc 1 0 0 1
0x08fc 1 0 0 1
0x08fc 1 0 0 1
0x08fc 1 0 0 1
0x08fc 1 0 0 1
0x08fc 1 0 0 1
0x08fc 1 0 0 1
0x08fc 1 0 0 1
0x08fc 1 0 0 1
0x08fc 1 0 0 1
0x08fc 1 0 0 1
0x08fc 1 0 0 1
0x08fc 1 0 0 1
0x08fc 1 0 0 1
0x08fc 1 0 0 1
0x08fc 1 0 0 1
0x08fc 1 0 0 1
0x08fc 1 0 0 1
0x08fc 1 1 1 1
0xaa63 1 0 0 1
0x4000 1 0 0 1
0x5555 1 0 0 1
0x5555 1 0 0 1
0x5555 1 0 0 1
0x5555 1 1 0 1
0x08fc 1 0 0 1
0x08fc 1 0 0 1
0x08fc 1 0 0 1
0x08fc 1 0 0 1
0x08fc 1 0 0 1
0x08fc 1 0 0 1
0x08fc 1 0 0 1
0x08fc 1 0 0 1
0x08fc 1 0 0 1
0x08fc 1 0 0 1
0x08fc 1 0 0 1
0x08fc 1 0 0 1
0x08fc 1 0 0 1
0x08fc 1 0 0 1
0x08fc 1 0 0 1
0x08fc 1 0 0 1
0x08fc 1 0 0 1
0x08fc 1 0 0 1
0x08fc 1 0 0 1
0x08fc 1 0 0 1
0x08fc 1 0 0 1
0x08fc 1 0 0 1
0x08fc 1 0 0 1
0x08fc 1 0 0 1
0x08fc 1 0 0 1
0x08fc 1 0 0 1
0x08fc 1 0 0 1
0x08fc 1 0 0 1
0x08fc 1 0 0 1
0x08fc 1 0 0 1
0x08fc 1 0 0 1
0x08fc 1 0 0 1
0x08fc 1 0 0 1
0x08fc 1 0 0 1
0x08fc 1 0 0 1
0x08fc 1 0 0 1
0x08fc 1 0 0 1
0x08fc 1 0 0 1
0x08fc 1 0 0 1
0x08fc 1 0 0 1
0x08fc 1 0 0 1
0x08fc 1 0 0 1
0x08fc 1 0 0 1
0x08fc 1 0 0 1
0x08fc 1 0 0 1
0x08fc 1 0 0 1
0x08fc 1 0 0 1
0x08fc 1 0 0 1
0x08fc 1 0 0 1
0x08fc 1 0 0 1
0x08fc 1 0 0 1
0x08fc 1 0 0 1
0x08fc 1 0 0 1
0x08fc 1 0 0 1
0x08fc 1 0 0 1
0x08fc 1 0 0 1
0x08fc 1 0 0 1
0x08fc 1 0 0 1
0x08fc 1 0 0 1
0x08fc 1 0 0 1
0x08fc 1 0 0 1
0x08fc 1 0 0 1
0x08fc 1 0 0 1
0x08fc 1 1 1 1
0xaa67 1 0 0 1
0x4000 1 0 0 1
0x5555 1 0 0 1
0x5555 1 0 0 1
0x5555 1 0 0 1
0x5555 1 1 0 1
0x08fc 1 0 0 1
0x08fc 1 0 0 1
0x08fc 1 0 0 1
0x08fc 1 0 0 1
0x08fc 1 0 0 1
0x08fc 1 0 0 1
0x08fc 1 0 0 1
0x08fc 1 0 0 1
0x08fc 1 0 0 1
0x08fc 1 0 0 1
0x08fc 1 0 0 1
0x08fc 1 0 0 1
0x08fc 1 0 0 1
0x08fc 1 0 0 1
0x08fc 1 0 0 1
0x08fc 1 0 0 1
0x08fc 1 0 0 1
0x08fc 1 0 0 1
0x08fc 1 0 0 1
0x08fc 1 0 0 1
0x08fc 1 0 0 1
0x08fc 1 0 0 1
0x08fc 1 0 0 1
0x08fc 1 0 0 1
0x08fc 1 0 0 1
0x08fc 1 0 0 1
0x08fc 1 0 0 1
0x08fc 1 0 0 1
0x08fc 1 0 0 1
0x08fc 1 0 0 1
0x08fc 1 0 0 1
0x08fc 1 0 0 1
0x08fc 1 0 0 1
0x08fc 1 0 0 1
0x08fc 1 0 0 1
0x08fc 1 0 0 1
0x08fc 1 0 0 1
0x08fc 1 0 0 1
0x08fc 1 0 0 1
0x08fc 1 0 0 1
0x08fc 1 0 0 1
0x08fc 1 0 0 1
0x08fc 1 0 0 1
0x08fc 1 0 0 1
0x08fc 1 0 0 1
0x08fc 1 0 0 1
0x08fc 1 0 0 1
0x08fc 1 0 0 1
0x08fc 1 0 0 1
0x08fc 1 0 0 1
0x08fc 1 0 0 1
0x08fc 1 0 0 1
0x08fc 1 0 0 1
0x08fc 1 0 0 1
0x08fc 1 0 0 1
0x08fc 1 0 0 1
0x08fc 1 0 0 1
0x08fc 1 0 0 1
0x08fc 1 0 0 1
0x08fc 1 0 0 1
0x08fc 1 0 0 1
0x08fc 1 0 0 1
0x08fc 1 0 0 1
0x08fc 1 1 1 1
0xaa6b 1 0 0 1
0x4000 1 0 0 1
0x5555 1 0 0 1
0x5555 1 0 0 1
0x5555 1 0 0 1
0x5555 1 1 0 1
0x08fc 1 0 0 1
0x08fc 1 0 0 1
0x08fc 1 0 0 1
0x08fc 1 0 0 1
0x08fc 1 0 0 1
0x08fc 1 0 0 1
0x08fc 1 0 0 1
0x08fc 1 0 0 1
0x08fc 1 0 0 1
0x08fc 1 0 0 1
0x08fc 1 0 0 1
0x08fc 1 0 0 1
0x08fc 1 0 0 1
0x08fc 1 0 0 1
0x08fc 1 0 0 1
0x08fc 1 0 0 1
0x08fc 1 0 0 1
0x08fc 1 0 0 1
0x08fc 1 0 0 1
0x08fc 1 0 0 1
0x08fc 1 0 0 1
0x08fc 1 0 0 1
0x08fc 1 0 0 1
0x08fc 1 0 0 1
0x08fc 1 0 0 1
0x08fc 1 0 0 1
0x08fc 1 0 0 1
0x08fc 1 0 0 1
0x08fc 1 0 0 1
0x08fc 1 0 0 1
0x08fc 1 0 0 1
0x08fc 1 0 0 1
0x08fc 1 0 0 1
0x08fc 1 0 0 1
0x08fc 1 0 0 1
0x08fc 1 0 0 1
0x08fc 1 0 0 1
0x08fc 1 0 0 1
0x08fc 1 0 0 1
0x08fc 1 0 0 1
0x08fc 1 0 0 1
0x08fc 1 0 0 1
0x08fc 1 0 0 1
0x08fc 1 0 0 1
0x08fc 1 0 0 1
0x08fc 1 0 0 1
0x08fc 1 0 0 1
0x08fc 1 0 0 1
0x08fc 1 0 0 1
0x08fc 1 0 0 1
0x08fc 1 0 0 1
0x08fc 1 0 0 1
0x08fc 1 0 0 1
0x08fc 1 0 0 1
0x08fc 1 0 0 1
0x08fc 1 0 0 1
0x08fc 1 0 0 1
0x08fc 1 0 0 1
0x08fc 1 0 0 1
0x08fc 1 0 0 1
0x08fc 1 0 0 1
0x08fc 1 0 0 1
0x08fc 1 0 0 1
0x08fc 1 1 1 1
0xaa6f 1 0 0 1
0x4000 1 0 0 1
0x5555 1 0 0 1
0x5555 1 0 0 1
0x5555 1 0 0 1
0x5555 1 1 0 1
0x08fc 1 0 0 1
0x08fc 1 0 0 1
0x08fc 1 0 0 1
0x08fc 1 0 0 1
0x08fc 1 0 0 1
0x08fc 1 0 0 1
0x08fc 1 0 0 1
0x08fc 1 0 0 1
0x08fc 1 0 0 1
0x08fc 1 0 0 1
0x08fc 1 0 0 1
0x08fc 1 0 0 1
0x08fc 1 0 0 1
0x08fc 1 0 0 1
0x08fc 1 0 0 1
0x08fc 1 0 0 1
0x08fc 1 0 0 1
0x08fc 1 0 0 1
0x08fc 1 0 0 1
0x08fc 1 0 0 1
0x08fc 1 0 0 1
0x08fc 1 0 0 1
0x08fc 1 0 0 1
0x08fc 1 0 0 1
0x08fc 1 0 0 1
0x08fc 1 0 0 1
0x08fc 1 0 0 1
0x08fc 1 0 0 1
0x08fc 1 0 0 1
0x08fc 1 0 0 1
0x08fc 1 0 0 1
0x08fc 1 0 0 1
0x08fc 1 0 0 1
0x08fc 1 0 0 1
0x08fc 1 0 0 1
0x08fc 1 0 0 1
0x08fc 1 0 0 1
0x08fc 1 0 0 1
0x08fc 1 0 0 1
0x08fc 1 0 0 1
0x08fc 1 0 0 1
0x08fc 1 0 0 1
0x08fc 1 0 0 1
0x08fc 1 0 0 1
0x08fc 1 0 0 1
0x08fc 1 0 0 1
0x08fc 1 0 0 1
0x08fc 1 0 0 1
0x08fc 1 0 0 1
0x08fc 1 0 0 1
0x08fc 1 0 0 1
0x08fc 1 0 0 1
0x08fc 1 0 0 1
0x08fc 1 0 0 1
0x08fc 1 0 0 1
0x08fc 1 0 0 1
0x08fc 1 0 0 1
0x08fc 1 0 0 1
0x08fc 1 0 0 1
0x08fc 1 0 0 1
0x08fc 1 0 0 1
0x08fc 1 0 0 1
0x08fc 1 0 0 1
0x08fc 1 1 1 1
0xaa73 1 0 0 1
0x4000 1 0 0 1
0x5555 1 0 0 1
0x5555 1 0 0 1
0x5555 1 0 0 1
0x5555 1 1 0 1
0x08fc 1 0 0 1
0x08fc 1 0 0 1
0x08fc 1 0 0 1
0x08fc 1 0 0 1
0x08fc 1 0 0 1
0x08fc 1 0 0 1
0x08fc 1 0 0 1
0x08fc 1 0 0 1
0x08fc 1 0 0 1
0x08fc 1 0 0 1
0x08fc 1 0 0 1
0x08fc 1 0 0 1
0x08fc 1 0 0 1
0x08fc 1 0 0 1
0x08fc 1 0 0 1
0x08fc 1 0 0 1
0x08fc 1 0 0 1
0x08fc 1 0 0 1
0x08fc 1 0 0 1
0x08fc 1 0 0 1
0x08fc 1 0 0 1
0x08fc 1 0 0 1
0x08fc 1 0 0 1
0x08fc 1 0 0 1
0x08fc 1 0 0 1
0x08fc 1 0 0 1
0x08fc 1 0 0 1
0x08fc 1 0 0 1
0x08fc 1 0 0 1
0x08fc 1 0 0 1
0x08fc 1 0 0 1
0x08fc 1 0 0 1
0x08fc 1 0 0 1
0x08fc 1 0 0 1
0x08fc 1 0 0 1
0x08fc 1 0 0 1
0x08fc 1 0 0 1
0x08fc 1 0 0 1
0x08fc 1 0 0 1
0x08fc 1 0 0 1
0x08fc 1 0 0 1
0x08fc 1 0 0 1
0x08fc 1 0 0 1
0x08fc 1 0 0 1
0x08fc 1 0 0 1
0x08fc 1 0 0 1
0x08fc 1 0 0 1
0x08fc 1 0 0 1
0x08fc 1 0 0 1
0x08fc 1 0 0 1
0x08fc 1 0 0 1
0x08fc 1 0 0 1
0x08fc 1 0 0 1
0x08fc 1 0 0 1
0x08fc 1 0 0 1
0x08fc 1 0 0 1
0x08fc 1 0 0 1
0x08fc 1 0 0 1
0x08fc 1 0 0 1
0x08fc 1 0 0 1
0x08fc 1 0 0 1
0x08fc 1 0 0 1
0x08fc 1 0 0 1
0x08fc 1 1 1 1
0xaa77 1 0 0 1
0x4000 1 0 0 1
0x5555 1 0 0 1
0x5555 1 0 0 1
0x5555 1 0 0 1
0x5555 1 1 0 1
0x08fc 1 0 0 1
0x08fc 1 0 0 1
0x08fc 1 0 0 1
0x08fc 1 0 0 1
0x08fc 1 0 0 1
0x08fc 1 0 0 1
0x08fc 1 0 0 1
0x08fc 1 0 0 1
0x08fc 1 0 0 1
0x08fc 1 0 0 1
0x08fc 1 0 0 1
0x08fc 1 0 0 1
0x08fc 1 0 0 1
0x08fc 1 0 0 1
0x08fc 1 0 0 1
0x08fc 1 0 0 1
0x08fc 1 0 0 1
0x08fc 1 0 0 1
0x08fc 1 0 0 1
0x08fc 1 0 0 1
0x08fc 1 0 0 1
0x08fc 1 0 0 1
0x08fc 1 0 0 1
0x08fc 1 0 0 1
0x08fc 1 0 0 1
0x08fc 1 0 0 1
0x08fc 1 0 0 1
0x08fc 1 0 0 1
0x08fc 1 0 0 1
0x08fc 1 0 0 1
0x08fc 1 0 0 1
0x08fc 1 0 0 1
0x08fc 1 0 0 1
0x08fc 1 0 0 1
0x08fc 1 0 0 1
0x08fc 1 0 0 1
0x08fc 1 0 0 1
0x08fc 1 0 0 1
0x08fc 1 0 0 1
0x08fc 1 0 0 1
0x08fc 1 0 0 1
0x08fc 1 0 0 1
0x08fc 1 0 0 1
0x08fc 1 0 0 1
0x08fc 1 0 0 1
0x08fc 1 0 0 1
0x08fc 1 0 0 1
0x08fc 1 0 0 1
0x08fc 1 0 0 1
0x08fc 1 0 0 1
0x08fc 1 0 0 1
0x08fc 1 0 0 1
0x08fc 1 0 0 1
0x08fc 1 0 0 1
0x08fc 1 0 0 1
0x08fc 1 0 0 1
0x08fc 1 0 0 1
0x08fc 1 0 0 1
0x08fc 1 0 0 1
0x08fc 1 0 0 1
0x08fc 1 0 0 1
0x08fc 1 0 0 1
0x08fc 1 0 0 1
0x08fc 1 1 1 1
0xaa7b 1 0 0 1
0x4000 1 0 0 1
0x5555 1 0 0 1
0x5555 1 0 0 1
0x5555 1 0 0 1
0x5555 1 1 0 1
0x08fc 1 0 0 1
0x08fc 1 0 0 1
0x08fc 1 0 0 1
0x08fc 1 0 0 1
0x08fc 1 0 0 1
0x08fc 1 0 0 1
0x08fc 1 0 0 1
0x08fc 1 0 0 1
0x08fc 1 0 0 1
0x08fc 1 0 0 1
0x08fc 1 0 0 1
0x08fc 1 0 0 1
0x08fc 1 0 0 1
0x08fc 1 0 0 1
0x08fc 1 0 0 1
0x08fc 1 0 0 1
0x08fc 1 0 0 1
0x08fc 1 0 0 1
0x08fc 1 0 0 1
0x08fc 1 0 0 1
0x08fc 1 0 0 1
0x08fc 1 0 0 1
0x08fc 1 0 0 1
0x08fc 1 0 0 1
0x08fc 1 0 0 1
0x08fc 1 0 0 1
0x08fc 1 0 0 1
0x08fc 1 0 0 1
0x08fc 1 0 0 1
0x08fc 1 0 0 1
0x08fc 1 0 0 1
0x08fc 1 0 0 1
0x08fc 1 0 0 1
0x08fc 1 0 0 1
0x08fc 1 0 0 1
0x08fc 1 0 0 1
0x08fc 1 0 0 1
0x08fc 1 0 0 1
0x08fc 1 0 0 1
0x08fc 1 0 0 1
0x08fc 1 0 0 1
0x08fc 1 0 0 1
0x08fc 1 0 0 1
0x08fc 1 0 0 1
0x08fc 1 0 0 1
0x08fc 1 0 0 1
0x08fc 1 0 0 1
0x08fc 1 0 0 1
0x08fc 1 0 0 1
0x08fc 1 0 0 1
0x08fc 1 0 0 1
0x08fc 1 0 0 1
0x08fc 1 0 0 1
0x08fc 1 0 0 1
0x08fc 1 0 0 1
0x08fc 1 0 0 1
0x08fc 1 0 0 1
0x08fc 1 0 0 1
0x08fc 1 0 0 1
0x08fc 1 0 0 1
0x08fc 1 0 0 1
0x08fc 1 0 0 1
0x08fc 1 0 0 1
0x08fc 1 1 1 1
0xaa7f 1 0 0 1
0x4000 1 0 0 1
0x5555 1 0 0 1
0x5555 1 0 0 1
0x5555 1 0 0 1
0x5555 1 1 0 1
0x08fc 1 0 0 1
0x08fc 1 0 0 1
0x08fc 1 0 0 1
0x08fc 1 0 0 1
0x08fc 1 0 0 1
0x08fc 1 0 0 1
0x08fc 1 0 0 1
0x08fc 1 0 0 1
0x08fc 1 0 0 1
0x08fc 1 0 0 1
0x08fc 1 0 0 1
0x08fc 1 0 0 1
0x08fc 1 0 0 1
0x08fc 1 0 0 1
0x08fc 1 0 0 1
0x08fc 1 0 0 1
0x08fc 1 0 0 1
0x08fc 1 0 0 1
0x08fc 1 0 0 1
0x08fc 1 0 0 1
0x08fc 1 0 0 1
0x08fc 1 0 0 1
0x08fc 1 0 0 1
0x08fc 1 0 0 1
0x08fc 1 0 0 1
0x08fc 1 0 0 1
0x08fc 1 0 0 1
0x08fc 1 0 0 1
0x08fc 1 0 0 1
0x08fc 1 0 0 1
0x08fc 1 0 0 1
0x08fc 1 0 0 1
0x08fc 1 0 0 1
0x08fc 1 0 0 1
0x08fc 1 0 0 1
0x08fc 1 0 0 1
0x08fc 1 0 0 1
0x08fc 1 0 0 1
0x08fc 1 0 0 1
0x08fc 1 0 0 1
0x08fc 1 0 0 1
0x08fc 1 0 0 1
0x08fc 1 0 0 1
0x08fc 1 0 0 1
0x08fc 1 0 0 1
0x08fc 1 0 0 1
0x08fc 1 0 0 1
0x08fc 1 0 0 1
0x08fc 1 0 0 1
0x08fc 1 0 0 1
0x08fc 1 0 0 1
0x08fc 1 0 0 1
0x08fc 1 0 0 1
0x08fc 1 0 0 1
0x08fc 1 0 0 1
0x08fc 1 0 0 1
0x08fc 1 0 0 1
0x08fc 1 0 0 1
0x08fc 1 0 0 1
0x08fc 1 0 0 1
0x08fc 1 0 0 1
0x08fc 1 0 0 1
0x08fc 1 0 0 1
0x08fc 1 1 1 1
0xaa83 1 0 0 1
0x4000 1 0 0 1
0x5555 1 0 0 1
0x5555 1 0 0 1
0x5555 1 0 0 1
0x5555 1 1 0 1
0x08fc 1 0 0 1
0x08fc 1 0 0 1
0x08fc 1 0 0 1
0x08fc 1 0 0 1
0x08fc 1 0 0 1
0x08fc 1 0 0 1
0x08fc 1 0 0 1
0x08fc 1 0 0 1
0x08fc 1 0 0 1
0x08fc 1 0 0 1
0x08fc 1 0 0 1
0x08fc 1 0 0 1
0x08fc 1 0 0 1
0x08fc 1 0 0 1
0x08fc 1 0 0 1
0x08fc 1 0 0 1
0x08fc 1 0 0 1
0x08fc 1 0 0 1
0x08fc 1 0 0 1
0x08fc 1 0 0 1
0x08fc 1 0 0 1
0x08fc 1 0 0 1
0x08fc 1 0 0 1
0x08fc 1 0 0 1
0x08fc 1 0 0 1
0x08fc 1 0 0 1
0x08fc 1 0 0 1
0x08fc 1 0 0 1
0x08fc 1 0 0 1
0x08fc 1 0 0 1
0x08fc 1 0 0 1
0x08fc 1 0 0 1
0x08fc 1 0 0 1
0x08fc 1 0 0 1
0x08fc 1 0 0 1
0x08fc 1 0 0 1
0x08fc 1 0 0 1
0x08fc 1 0 0 1
0x08fc 1 0 0 1
0x08fc 1 0 0 1
0x08fc 1 0 0 1
0x08fc 1 0 0 1
0x08fc 1 0 0 1
0x08fc 1 0 0 1
0x08fc 1 0 0 1
0x08fc 1 0 0 1
0x08fc 1 0 0 1
0x08fc 1 0 0 1
0x08fc 1 0 0 1
0x08fc 1 0 0 1
0x08fc 1 0 0 1
0x08fc 1 0 0 1
0x08fc 1 0 0 1
0x08fc 1 0 0 1
0x08fc 1 0 0 1
0x08fc 1 0 0 1
0x08fc 1 0 0 1
0x08fc 1 0 0 1
0x08fc 1 0 0 1
0x08fc 1 0 0 1
0x08fc 1 0 0 1
0x08fc 1 0 0 1
0x08fc 1 0 0 1
0x08fc 1 1 1 1
0xaa87 1 0 0 1
0x4000 1 0 0 1
0x5555 1 0 0 1
0x5555 1 0 0 1
0x5555 1 0 0 1
0x5555 1 1 0 1
0x08fc 1 0 0 1
0x08fc 1 0 0 1
0x08fc 1 0 0 1
0x08fc 1 0 0 1
0x08fc 1 0 0 1
0x08fc 1 0 0 1
0x08fc 1 0 0 1
0x08fc 1 0 0 1
0x08fc 1 0 0 1
0x08fc 1 0 0 1
0x08fc 1 0 0 1
0x08fc 1 0 0 1
0x08fc 1 0 0 1
0x08fc 1 0 0 1
0x08fc 1 0 0 1
0x08fc 1 0 0 1
0x08fc 1 0 0 1
0x08fc 1 0 0 1
0x08fc 1 0 0 1
0x08fc 1 0 0 1
0x08fc 1 0 0 1
0x08fc 1 0 0 1
0x08fc 1 0 0 1
0x08fc 1 0 0 1
0x08fc 1 0 0 1
0x08fc 1 0 0 1
0x08fc 1 0 0 1
0x08fc 1 0 0 1
0x08fc 1 0 0 1
0x08fc 1 0 0 1
0x08fc 1 0 0 1
0x08fc 1 0 0 1
0x08fc 1 0 0 1
0x08fc 1 0 0 1
0x08fc 1 0 0 1
0x08fc 1 0 0 1
0x08fc 1 0 0 1
0x08fc 1 0 0 1
0x08fc 1 0 0 1
0x08fc 1 0 0 1
0x08fc 1 0 0 1
0x08fc 1 0 0 1
0x08fc 1 0 0 1
0x08fc 1 0 0 1
0x08fc 1 0 0 1
0x08fc 1 0 0 1
0x08fc 1 0 0 1
0x08fc 1 0 0 1
0x08fc 1 0 0 1
0x08fc 1 0 0 1
0x08fc 1 0 0 1
0x08fc 1 0 0 1
0x08fc 1 0 0 1
0x08fc 1 0 0 1
0x08fc 1 0 0 1
0x08fc 1 0 0 1
0x08fc 1 0 0 1
0x08fc 1 0 0 1
0x08fc 1 0 0 1
0x08fc 1 0 0 1
0x08fc 1 0 0 1
0x08fc 1 0 0 1
0x08fc 1 0 0 1
0x08fc 1 1 1 1
0xaa8b 1 0 0 1
0x4000 1 0 0 1
0x5555 1 0 0 1
0x5555 1 0 0 1
0x5555 1 0 0 1
0x5555 1 1 0 1
0x08fc 1 0 0 1
0x08fc 1 0 0 1
0x08fc 1 0 0 1
0x08fc 1 0 0 1
0x08fc 1 0 0 1
0x08fc 1 0 0 1
0x08fc 1 0 0 1
0x08fc 1 0 0 1
0x08fc 1 0 0 1
0x08fc 1 0 0 1
0x08fc 1 0 0 1
0x08fc 1 0 0 1
0x08fc 1 0 0 1
0x08fc 1 0 0 1
0x08fc 1 0 0 1
0x08fc 1 0 0 1
0x08fc 1 0 0 1
0x08fc 1 0 0 1
0x08fc 1 0 0 1
0x08fc 1 0 0 1
0x08fc 1 0 0 1
0x08fc 1 0 0 1
0x08fc 1 0 0 1
0x08fc 1 0 0 1
0x08fc 1 0 0 1
0x08fc 1 0 0 1
0x08fc 1 0 0 1
0x08fc 1 0 0 1
0x08fc 1 0 0 1
0x08fc 1 0 0 1
0x08fc 1 0 0 1
0x08fc 1 0 0 1
0x08fc 1 0 0 1
0x08fc 1 0 0 1
0x08fc 1 0 0 1
0x08fc 1 0 0 1
0x08fc 1 0 0 1
0x08fc 1 0 0 1
0x08fc 1 0 0 1
0x08fc 1 0 0 1
0x08fc 1 0 0 1
0x08fc 1 0 0 1
0x08fc 1 0 0 1
0x08fc 1 0 0 1
0x08fc 1 0 0 1
0x08fc 1 0 0 1
0x08fc 1 0 0 1
0x08fc 1 0 0 1
0x08fc 1 0 0 1
0x08fc 1 0 0 1
0x08fc 1 0 0 1
0x08fc 1 0 0 1
0x08fc 1 0 0 1
0x08fc 1 0 0 1
0x08fc 1 0 0 1
0x08fc 1 0 0 1
0x08fc 1 0 0 1
0x08fc 1 0 0 1
0x08fc 1 0 0 1
0x08fc 1 0 0 1
0x08fc 1 0 0 1
0x08fc 1 0 0 1
0x08fc 1 0 0 1
0x08fc 1 1 1 1
0xaa8f 1 0 0 1
0x4000 1 0 0 1
0x5555 1 0 0 1
0x5555 1 0 0 1
0x5555 1 0 0 1
0x5555 1 1 0 1
0x08fc 1 0 0 1
0x08fc 1 0 0 1
0x08fc 1 0 0 1
0x08fc 1 0 0 1
0x08fc 1 0 0 1
0x08fc 1 0 0 1
0x08fc 1 0 0 1
0x08fc 1 0 0 1
0x08fc 1 0 0 1
0x08fc 1 0 0 1
0x08fc 1 0 0 1
0x08fc 1 0 0 1
0x08fc 1 0 0 1
0x08fc 1 0 0 1
0x08fc 1 0 0 1
0x08fc 1 0 0 1
0x08fc 1 0 0 1
0x08fc 1 0 0 1
0x08fc 1 0 0 1
0x08fc 1 0 0 1
0x08fc 1 0 0 1
0x08fc 1 0 0 1
0x08fc 1 0 0 1
0x08fc 1 0 0 1
0x08fc 1 0 0 1
0x08fc 1 0 0 1
0x08fc 1 0 0 1
0x08fc 1 0 0 1
0x08fc 1 0 0 1
0x08fc 1 0 0 1
0x08fc 1 0 0 1
0x08fc 1 0 0 1
0x08fc 1 0 0 1
0x08fc 1 0 0 1
0x08fc 1 0 0 1
0x08fc 1 0 0 1
0x08fc 1 0 0 1
0x08fc 1 0 0 1
0x08fc 1 0 0 1
0x08fc 1 0 0 1
0x08fc 1 0 0 1
0x08fc 1 0 0 1
0x08fc 1 0 0 1
0x08fc 1 0 0 1
0x08fc 1 0 0 1
0x08fc 1 0 0 1
0x08fc 1 0 0 1
0x08fc 1 0 0 1
0x08fc 1 0 0 1
0x08fc 1 0 0 1
0x08fc 1 0 0 1
0x08fc 1 0 0 1
0x08fc 1 0 0 1
0x08fc 1 0 0 1
0x08fc 1 0 0 1
0x08fc 1 0 0 1
0x08fc 1 0 0 1
0x08fc 1 0 0 1
0x08fc 1 0 0 1
0x08fc 1 0 0 1
0x08fc 1 0 0 1
0x08fc 1 0 0 1
0x08fc 1 0 0 1
0x08fc 1 1 1 1
0xaa93 1 0 0 1
0x4000 1 0 0 1
0x5555 1 0 0 1
0x5555 1 0 0 1
0x5555 1 0 0 1
0x5555 1 1 0 1
0x08fc 1 0 0 1
0x08fc 1 0 0 1
0x08fc 1 0 0 1
0x08fc 1 0 0 1
0x08fc 1 0 0 1
0x08fc 1 0 0 1
0x08fc 1 0 0 1
0x08fc 1 0 0 1
0x08fc 1 0 0 1
0x08fc 1 0 0 1
0x08fc 1 0 0 1
0x08fc 1 0 0 1
0x08fc 1 0 0 1
0x08fc 1 0 0 1
0x08fc 1 0 0 1
0x08fc 1 0 0 1
0x08fc 1 0 0 1
0x08fc 1 0 0 1
0x08fc 1 0 0 1
0x08fc 1 0 0 1
0x08fc 1 0 0 1
0x08fc 1 0 0 1
0x08fc 1 0 0 1
0x08fc 1 0 0 1
0x08fc 1 0 0 1
0x08fc 1 0 0 1
0x08fc 1 0 0 1
0x08fc 1 0 0 1
0x08fc 1 0 0 1
0x08fc 1 0 0 1
0x08fc 1 0 0 1
0x08fc 1 0 0 1
0x08fc 1 0 0 1
0x08fc 1 0 0 1
0x08fc 1 0 0 1
0x08fc 1 0 0 1
0x08fc 1 0 0 1
0x08fc 1 0 0 1
0x08fc 1 0 0 1
0x08fc 1 0 0 1
0x08fc 1 0 0 1
0x08fc 1 0 0 1
0x08fc 1 0 0 1
0x08fc 1 0 0 1
0x08fc 1 0 0 1
0x08fc 1 0 0 1
0x08fc 1 0 0 1
0x08fc 1 0 0 1
0x08fc 1 0 0 1
0x08fc 1 0 0 1
0x08fc 1 0 0 1
0x08fc 1 0 0 1
0x08fc 1 0 0 1
0x08fc 1 0 0 1
0x08fc 1 0 0 1
0x08fc 1 0 0 1
0x08fc 1 0 0 1
0x08fc 1 0 0 1
0x08fc 1 0 0 1
0x08fc 1 0 0 1
0x08fc 1 0 0 1
0x08fc 1 0 0 1
0x08fc 1 0 0 1
0x08fc 1 1 1 1
0xaa97 1 0 0 1
0x4000 1 0 0 1
0x5555 1 0 0 1
0x5555 1 0 0 1
0x5555 1 0 0 1
0x5555 1 1 0 1
0x08fc 1 0 0 1
0x08fc 1 0 0 1
0x08fc 1 0 0 1
0x08fc 1 0 0 1
0x08fc 1 0 0 1
0x08fc 1 0 0 1
0x08fc 1 0 0 1
0x08fc 1 0 0 1
0x08fc 1 0 0 1
0x08fc 1 0 0 1
0x08fc 1 0 0 1
0x08fc 1 0 0 1
0x08fc 1 0 0 1
0x08fc 1 0 0 1
0x08fc 1 0 0 1
0x08fc 1 0 0 1
0x08fc 1 0 0 1
0x08fc 1 0 0 1
0x08fc 1 0 0 1
0x08fc 1 0 0 1
0x08fc 1 0 0 1
0x08fc 1 0 0 1
0x08fc 1 0 0 1
0x08fc 1 0 0 1
0x08fc 1 0 0 1
0x08fc 1 0 0 1
0x08fc 1 0 0 1
0x08fc 1 0 0 1
0x08fc 1 0 0 1
0x08fc 1 0 0 1
0x08fc 1 0 0 1
0x08fc 1 0 0 1
0x08fc 1 0 0 1
0x08fc 1 0 0 1
0x08fc 1 0 0 1
0x08fc 1 0 0 1
0x08fc 1 0 0 1
0x08fc 1 0 0 1
0x08fc 1 0 0 1
0x08fc 1 0 0 1
0x08fc 1 0 0 1
0x08fc 1 0 0 1
0x08fc 1 0 0 1
0x08fc 1 0 0 1
0x08fc 1 0 0 1
0x08fc 1 0 0 1
0x08fc 1 0 0 1
0x08fc 1 0 0 1
0x08fc 1 0 0 1
0x08fc 1 0 0 1
0x08fc 1 0 0 1
0x08fc 1 0 0 1
0x08fc 1 0 0 1
0x08fc 1 0 0 1
0x08fc 1 0 0 1
0x08fc 1 0 0 1
0x08fc 1 0 0 1
0x08fc 1 0 0 1
0x08fc 1 0 0 1
0x08fc 1 0 0 1
0x08fc 1 0 0 1
0x08fc 1 0 0 1
0x08fc 1 0 0 1
0x08fc 1 1 1 1
0xaa9b 1 0 0 1
0x4000 1 0 0 1
0x5555 1 0 0 1
0x5555 1 0 0 1
0x5555 1 0 0 1
0x5555 1 1 0 1
0x08fc 1 0 0 1
0x08fc 1 0 0 1
0x08fc 1 0 0 1
0x08fc 1 0 0 1
0x08fc 1 0 0 1
0x08fc 1 0 0 1
0x08fc 1 0 0 1
0x08fc 1 0 0 1
0x08fc 1 0 0 1
0x08fc 1 0 0 1
0x08fc 1 0 0 1
0x08fc 1 0 0 1
0x08fc 1 0 0 1
0x08fc 1 0 0 1
0x08fc 1 0 0 1
0x08fc 1 0 0 1
0x08fc 1 0 0 1
0x08fc 1 0 0 1
0x08fc 1 0 0 1
0x08fc 1 0 0 1
0x08fc 1 0 0 1
0x08fc 1 0 0 1
0x08fc 1 0 0 1
0x08fc 1 0 0 1
0x08fc 1 0 0 1
0x08fc 1 0 0 1
0x08fc 1 0 0 1
0x08fc 1 0 0 1
0x08fc 1 0 0 1
0x08fc 1 0 0 1
0x08fc 1 0 0 1
0x08fc 1 0 0 1
0x08fc 1 0 0 1
0x08fc 1 0 0 1
0x08fc 1 0 0 1
0x08fc 1 0 0 1
0x08fc 1 0 0 1
0x08fc 1 0 0 1
0x08fc 1 0 0 1
0x08fc 1 0 0 1
0x08fc 1 0 0 1
0x08fc 1 0 0 1
0x08fc 1 0 0 1
0x08fc 1 0 0 1
0x08fc 1 0 0 1
0x08fc 1 0 0 1
0x08fc 1 0 0 1
0x08fc 1 0 0 1
0x08fc 1 0 0 1
0x08fc 1 0 0 1
0x08fc 1 0 0 1
0x08fc 1 0 0 1
0x08fc 1 0 0 1
0x08fc 1 0 0 1
0x08fc 1 0 0 1
0x08fc 1 0 0 1
0x08fc 1 0 0 1
0x08fc 1 0 0 1
0x08fc 1 0 0 1
0x08fc 1 0 0 1
0x08fc 1 0 0 1
0x08fc 1 0 0 1
0x08fc 1 0 0 1
0x08fc 1 1 1 1
0xaa9f 1 0 0 1
0x4000 1 0 0 1
0x5555 1 0 0 1
0x5555 1 0 0 1
0x5555 1 0 0 1
0x5555 1 1 0 1
0x08fc 1 0 0 1
0x08fc 1 0 0 1
0x08fc 1 0 0 1
0x08fc 1 0 0 1
0x08fc 1 0 0 1
0x08fc 1 0 0 1
0x08fc 1 0 0 1
0x08fc 1 0 0 1
0x08fc 1 0 0 1
0x08fc 1 0 0 1
0x08fc 1 0 0 1
0x08fc 1 0 0 1
0x08fc 1 0 0 1
0x08fc 1 0 0 1
0x08fc 1 0 0 1
0x08fc 1 0 0 1
0x08fc 1 0 0 1
0x08fc 1 0 0 1
0x08fc 1 0 0 1
0x08fc 1 0 0 1
0x08fc 1 0 0 1
0x08fc 1 0 0 1
0x08fc 1 0 0 1
0x08fc 1 0 0 1
0x08fc 1 0 0 1
0x08fc 1 0 0 1
0x08fc 1 0 0 1
0x08fc 1 0 0 1
0x08fc 1 0 0 1
0x08fc 1 0 0 1
0x08fc 1 0 0 1
0x08fc 1 0 0 1
0x08fc 1 0 0 1
0x08fc 1 0 0 1
0x08fc 1 0 0 1
0x08fc 1 0 0 1
0x08fc 1 0 0 1
0x08fc 1 0 0 1
0x08fc 1 0 0 1
0x08fc 1 0 0 1
0x08fc 1 0 0 1
0x08fc 1 0 0 1
0x08fc 1 0 0 1
0x08fc 1 0 0 1
0x08fc 1 0 0 1
0x08fc 1 0 0 1
0x08fc 1 0 0 1
0x08fc 1 0 0 1
0x08fc 1 0 0 1
0x08fc 1 0 0 1
0x08fc 1 0 0 1
0x08fc 1 0 0 1
0x08fc 1 0 0 1
0x08fc 1 0 0 1
0x08fc 1 0 0 1
0x08fc 1 0 0 1
0x08fc 1 0 0 1
0x08fc 1 0 0 1
0x08fc 1 0 0 1
0x08fc 1 0 0 1
0x08fc 1 0 0 1
0x08fc 1 0 0 1
0x08fc 1 0 0 1
0x08fc 1 1 1 1
0xaaa3 1 0 0 1
0x4000 1 0 0 1
0x5555 1 0 0 1
0x5555 1 0 0 1
0x5555 1 0 0 1
0x5555 1 1 0 1
0x08fc 1 0 0 1
0x08fc 1 0 0 1
0x08fc 1 0 0 1
0x08fc 1 0 0 1
0x08fc 1 0 0 1
0x08fc 1 0 0 1
0x08fc 1 0 0 1
0x08fc 1 0 0 1
0x08fc 1 0 0 1
0x08fc 1 0 0 1
0x08fc 1 0 0 1
0x08fc 1 0 0 1
0x08fc 1 0 0 1
0x08fc 1 0 0 1
0x08fc 1 0 0 1
0x08fc 1 0 0 1
0x08fc 1 0 0 1
0x08fc 1 0 0 1
0x08fc 1 0 0 1
0x08fc 1 0 0 1
0x08fc 1 0 0 1
0x08fc 1 0 0 1
0x08fc 1 0 0 1
0x08fc 1 0 0 1
0x08fc 1 0 0 1
0x08fc 1 0 0 1
0x08fc 1 0 0 1
0x08fc 1 0 0 1
0x08fc 1 0 0 1
0x08fc 1 0 0 1
0x08fc 1 0 0 1
0x08fc 1 0 0 1
0x08fc 1 0 0 1
0x08fc 1 0 0 1
0x08fc 1 0 0 1
0x08fc 1 0 0 1
0x08fc 1 0 0 1
0x08fc 1 0 0 1
0x08fc 1 0 0 1
0x08fc 1 0 0 1
0x08fc 1 0 0 1
0x08fc 1 0 0 1
0x08fc 1 0 0 1
0x08fc 1 0 0 1
0x08fc 1 0 0 1
0x08fc 1 0 0 1
0x08fc 1 0 0 1
0x08fc 1 0 0 1
0x08fc 1 0 0 1
0x08fc 1 0 0 1
0x08fc 1 0 0 1
0x08fc 1 0 0 1
0x08fc 1 0 0 1
0x08fc 1 0 0 1
0x08fc 1 0 0 1
0x08fc 1 0 0 1
0x08fc 1 0 0 1
0x08fc 1 0 0 1
0x08fc 1 0 0 1
0x08fc 1 0 0 1
0x08fc 1 0 0 1
0x08fc 1 0 0 1
0x08fc 1 0 0 1
0x08fc 1 1 1 1
0xaaa7 1 0 0 1
0x4000 1 0 0 1
0x5555 1 0 0 1
0x5555 1 0 0 1
0x5555 1 0 0 1
0x5555 1 1 0 1
0x08fc 1 0 0 1
0x08fc 1 0 0 1
0x08fc 1 0 0 1
0x08fc 1 0 0 1
0x08fc 1 0 0 1
0x08fc 1 0 0 1
0x08fc 1 0 0 1
0x08fc 1 0 0 1
0x08fc 1 0 0 1
0x08fc 1 0 0 1
0x08fc 1 0 0 1
0x08fc 1 0 0 1
0x08fc 1 0 0 1
0x08fc 1 0 0 1
0x08fc 1 0 0 1
0x08fc 1 0 0 1
0x08fc 1 0 0 1
0x08fc 1 0 0 1
0x08fc 1 0 0 1
0x08fc 1 0 0 1
0x08fc 1 0 0 1
0x08fc 1 0 0 1
0x08fc 1 0 0 1
0x08fc 1 0 0 1
0x08fc 1 0 0 1
0x08fc 1 0 0 1
0x08fc 1 0 0 1
0x08fc 1 0 0 1
0x08fc 1 0 0 1
0x08fc 1 0 0 1
0x08fc 1 0 0 1
0x08fc 1 0 0 1
0x08fc 1 0 0 1
0x08fc 1 0 0 1
0x08fc 1 0 0 1
0x08fc 1 0 0 1
0x08fc 1 0 0 1
0x08fc 1 0 0 1
0x08fc 1 0 0 1
0x08fc 1 0 0 1
0x08fc 1 0 0 1
0x08fc 1 0 0 1
0x08fc 1 0 0 1
0x08fc 1 0 0 1
0x08fc 1 0 0 1
0x08fc 1 0 0 1
0x08fc 1 0 0 1
0x08fc 1 0 0 1
0x08fc 1 0 0 1
0x08fc 1 0 0 1
0x08fc 1 0 0 1
0x08fc 1 0 0 1
0x08fc 1 0 0 1
0x08fc 1 0 0 1
0x08fc 1 0 0 1
0x08fc 1 0 0 1
0x08fc 1 0 0 1
0x08fc 1 0 0 1
0x08fc 1 0 0 1
0x08fc 1 0 0 1
0x08fc 1 0 0 1
0x08fc 1 0 0 1
0x08fc 1 0 0 1
0x08fc 1 1 1 1
0xaaab 1 0 0 1
0x4000 1 0 0 1
0x5555 1 0 0 1
0x5555 1 0 0 1
0x5555 1 0 0 1
0x5555 1 1 0 1
0x08fc 1 0 0 1
0x08fc 1 0 0 1
0x08fc 1 0 0 1
0x08fc 1 0 0 1
0x08fc 1 0 0 1
0x08fc 1 0 0 1
0x08fc 1 0 0 1
0x08fc 1 0 0 1
0x08fc 1 0 0 1
0x08fc 1 0 0 1
0x08fc 1 0 0 1
0x08fc 1 0 0 1
0x08fc 1 0 0 1
0x08fc 1 0 0 1
0x08fc 1 0 0 1
0x08fc 1 0 0 1
0x08fc 1 0 0 1
0x08fc 1 0 0 1
0x08fc 1 0 0 1
0x08fc 1 0 0 1
0x08fc 1 0 0 1
0x08fc 1 0 0 1
0x08fc 1 0 0 1
0x08fc 1 0 0 1
0x08fc 1 0 0 1
0x08fc 1 0 0 1
0x08fc 1 0 0 1
0x08fc 1 0 0 1
0x08fc 1 0 0 1
0x08fc 1 0 0 1
0x08fc 1 0 0 1
0x08fc 1 0 0 1
0x08fc 1 0 0 1
0x08fc 1 0 0 1
0x08fc 1 0 0 1
0x08fc 1 0 0 1
0x08fc 1 0 0 1
0x08fc 1 0 0 1
0x08fc 1 0 0 1
0x08fc 1 0 0 1
0x08fc 1 0 0 1
0x08fc 1 0 0 1
0x08fc 1 0 0 1
0x08fc 1 0 0 1
0x08fc 1 0 0 1
0x08fc 1 0 0 1
0x08fc 1 0 0 1
0x08fc 1 0 0 1
0x08fc 1 0 0 1
0x08fc 1 0 0 1
0x08fc 1 0 0 1
0x08fc 1 0 0 1
0x08fc 1 0 0 1
0x08fc 1 0 0 1
0x08fc 1 0 0 1
0x08fc 1 0 0 1
0x08fc 1 0 0 1
0x08fc 1 0 0 1
0x08fc 1 0 0 1
0x08fc 1 0 0 1
0x08fc 1 0 0 1
0x08fc 1 0 0 1
0x08fc 1 0 0 1
0x08fc 1 1 1 1
0xaaaf 1 0 0 1
0x4000 1 0 0 1
0x5555 1 0 0 1
0x5555 1 0 0 1
0x5555 1 0 0 1
0x5555 1 1 0 1
0x08fc 1 0 0 1
0x08fc 1 0 0 1
0x08fc 1 0 0 1
0x08fc 1 0 0 1
0x08fc 1 0 0 1
0x08fc 1 0 0 1
0x08fc 1 0 0 1
0x08fc 1 0 0 1
0x08fc 1 0 0 1
0x08fc 1 0 0 1
0x08fc 1 0 0 1
0x08fc 1 0 0 1
0x08fc 1 0 0 1
0x08fc 1 0 0 1
0x08fc 1 0 0 1
0x08fc 1 0 0 1
0x08fc 1 0 0 1
0x08fc 1 0 0 1
0x08fc 1 0 0 1
0x08fc 1 0 0 1
0x08fc 1 0 0 1
0x08fc 1 0 0 1
0x08fc 1 0 0 1
0x08fc 1 0 0 1
0x08fc 1 0 0 1
0x08fc 1 0 0 1
0x08fc 1 0 0 1
0x08fc 1 0 0 1
0x08fc 1 0 0 1
0x08fc 1 0 0 1
0x08fc 1 0 0 1
0x08fc 1 0 0 1
0x08fc 1 0 0 1
0x08fc 1 0 0 1
0x08fc 1 0 0 1
0x08fc 1 0 0 1
0x08fc 1 0 0 1
0x08fc 1 0 0 1
0x08fc 1 0 0 1
0x08fc 1 0 0 1
0x08fc 1 0 0 1
0x08fc 1 0 0 1
0x08fc 1 0 0 1
0x08fc 1 0 0 1
0x08fc 1 0 0 1
0x08fc 1 0 0 1
0x08fc 1 0 0 1
0x08fc 1 0 0 1
0x08fc 1 0 0 1
0x08fc 1 0 0 1
0x08fc 1 0 0 1
0x08fc 1 0 0 1
0x08fc 1 0 0 1
0x08fc 1 0 0 1
0x08fc 1 0 0 1
0x08fc 1 0 0 1
0x08fc 1 0 0 1
0x08fc 1 0 0 1
0x08fc 1 0 0 1
0x08fc 1 0 0 1
0x08fc 1 0 0 1
0x08fc 1 0 0 1
0x08fc 1 0 0 1
0x08fc 1 1 1 1
0xaab3 1 0 0 1
0x4000 1 0 0 1
0x5555 1 0 0 1
0x5555 1 0 0 1
0x5555 1 0 0 1
0x5555 1 1 0 1
0x08fc 1 0 0 1
0x08fc 1 0 0 1
0x08fc 1 0 0 1
0x08fc 1 0 0 1
0x08fc 1 0 0 1
0x08fc 1 0 0 1
0x08fc 1 0 0 1
0x08fc 1 0 0 1
0x08fc 1 0 0 1
0x08fc 1 0 0 1
0x08fc 1 0 0 1
0x08fc 1 0 0 1
0x08fc 1 0 0 1
0x08fc 1 0 0 1
0x08fc 1 0 0 1
0x08fc 1 0 0 1
0x08fc 1 0 0 1
0x08fc 1 0 0 1
0x08fc 1 0 0 1
0x08fc 1 0 0 1
0x08fc 1 0 0 1
0x08fc 1 0 0 1
0x08fc 1 0 0 1
0x08fc 1 0 0 1
0x08fc 1 0 0 1
0x08fc 1 0 0 1
0x08fc 1 0 0 1
0x08fc 1 0 0 1
0x08fc 1 0 0 1
0x08fc 1 0 0 1
0x08fc 1 0 0 1
0x08fc 1 0 0 1
0x08fc 1 0 0 1
0x08fc 1 0 0 1
0x08fc 1 0 0 1
0x08fc 1 0 0 1
0x08fc 1 0 0 1
0x08fc 1 0 0 1
0x08fc 1 0 0 1
0x08fc 1 0 0 1
0x08fc 1 0 0 1
0x08fc 1 0 0 1
0x08fc 1 0 0 1
0x08fc 1 0 0 1
0x08fc 1 0 0 1
0x08fc 1 0 0 1
0x08fc 1 0 0 1
0x08fc 1 0 0 1
0x08fc 1 0 0 1
0x08fc 1 0 0 1
0x08fc 1 0 0 1
0x08fc 1 0 0 1
0x08fc 1 0 0 1
0x08fc 1 0 0 1
0x08fc 1 0 0 1
0x08fc 1 0 0 1
0x08fc 1 0 0 1
0x08fc 1 0 0 1
0x08fc 1 0 0 1
0x08fc 1 0 0 1
0x08fc 1 0 0 1
0x08fc 1 0 0 1
0x08fc 1 0 0 1
0x08fc 1 1 1 1
0xaab7 1 0 0 1
0x4000 1 0 0 1
0x5555 1 0 0 1
0x5555 1 0 0 1
0x5555 1 0 0 1
0x5555 1 1 0 1
0x08fc 1 0 0 1
0x08fc 1 0 0 1
0x08fc 1 0 0 1
0x08fc 1 0 0 1
0x08fc 1 0 0 1
0x08fc 1 0 0 1
0x08fc 1 0 0 1
0x08fc 1 0 0 1
0x08fc 1 0 0 1
0x08fc 1 0 0 1
0x08fc 1 0 0 1
0x08fc 1 0 0 1
0x08fc 1 0 0 1
0x08fc 1 0 0 1
0x08fc 1 0 0 1
0x08fc 1 0 0 1
0x08fc 1 0 0 1
0x08fc 1 0 0 1
0x08fc 1 0 0 1
0x08fc 1 0 0 1
0x08fc 1 0 0 1
0x08fc 1 0 0 1
0x08fc 1 0 0 1
0x08fc 1 0 0 1
0x08fc 1 0 0 1
0x08fc 1 0 0 1
0x08fc 1 0 0 1
0x08fc 1 0 0 1
0x08fc 1 0 0 1
0x08fc 1 0 0 1
0x08fc 1 0 0 1
0x08fc 1 0 0 1
0x08fc 1 0 0 1
0x08fc 1 0 0 1
0x08fc 1 0 0 1
0x08fc 1 0 0 1
0x08fc 1 0 0 1
0x08fc 1 0 0 1
0x08fc 1 0 0 1
0x08fc 1 0 0 1
0x08fc 1 0 0 1
0x08fc 1 0 0 1
0x08fc 1 0 0 1
0x08fc 1 0 0 1
0x08fc 1 0 0 1
0x08fc 1 0 0 1
0x08fc 1 0 0 1
0x08fc 1 0 0 1
0x08fc 1 0 0 1
0x08fc 1 0 0 1
0x08fc 1 0 0 1
0x08fc 1 0 0 1
0x08fc 1 0 0 1
0x08fc 1 0 0 1
0x08fc 1 0 0 1
0x08fc 1 0 0 1
0x08fc 1 0 0 1
0x08fc 1 0 0 1
0x08fc 1 0 0 1
0x08fc 1 0 0 1
0x08fc 1 0 0 1
0x08fc 1 0 0 1
0x08fc 1 0 0 1
0x08fc 1 1 1 1
0xaabb 1 0 0 1
0x4000 1 0 0 1
0x5555 1 0 0 1
0x5555 1 0 0 1
0x5555 1 0 0 1
0x5555 1 1 0 1
0x08fc 1 0 0 1
0x08fc 1 0 0 1
0x08fc 1 0 0 1
0x08fc 1 0 0 1
0x08fc 1 0 0 1
0x08fc 1 0 0 1
0x08fc 1 0 0 1
0x08fc 1 0 0 1
0x08fc 1 0 0 1
0x08fc 1 0 0 1
0x08fc 1 0 0 1
0x08fc 1 0 0 1
0x08fc 1 0 0 1
0x08fc 1 0 0 1
0x08fc 1 0 0 1
0x08fc 1 0 0 1
0x08fc 1 0 0 1
0x08fc 1 0 0 1
0x08fc 1 0 0 1
0x08fc 1 0 0 1
0x08fc 1 0 0 1
0x08fc 1 0 0 1
0x08fc 1 0 0 1
0x08fc 1 0 0 1
0x08fc 1 0 0 1
0x08fc 1 0 0 1
0x08fc 1 0 0 1
0x08fc 1 0 0 1
0x08fc 1 0 0 1
0x08fc 1 0 0 1
0x08fc 1 0 0 1
0x08fc 1 0 0 1
0x08fc 1 0 0 1
0x08fc 1 0 0 1
0x08fc 1 0 0 1
0x08fc 1 0 0 1
0x08fc 1 0 0 1
0x08fc 1 0 0 1
0x08fc 1 0 0 1
0x08fc 1 0 0 1
0x08fc 1 0 0 1
0x08fc 1 0 0 1
0x08fc 1 0 0 1
0x08fc 1 0 0 1
0x08fc 1 0 0 1
0x08fc 1 0 0 1
0x08fc 1 0 0 1
0x08fc 1 0 0 1
0x08fc 1 0 0 1
0x08fc 1 0 0 1
0x08fc 1 0 0 1
0x08fc 1 0 0 1
0x08fc 1 0 0 1
0x08fc 1 0 0 1
0x08fc 1 0 0 1
0x08fc 1 0 0 1
0x08fc 1 0 0 1
0x08fc 1 0 0 1
0x08fc 1 0 0 1
0x08fc 1 0 0 1
0x08fc 1 0 0 1
0x08fc 1 0 0 1
0x08fc 1 0 0 1
0x08fc 1 1 1 1
0xaabf 1 0 0 1
0x4000 1 0 0 1
0x5555 1 0 0 1
0x5555 1 0 0 1
0x5555 1 0 0 1
0x5555 1 1 0 1
0x08fc 1 0 0 1
0x08fc 1 0 0 1
0x08fc 1 0 0 1
0x08fc 1 0 0 1
0x08fc 1 0 0 1
0x08fc 1 0 0 1
0x08fc 1 0 0 1
0x08fc 1 0 0 1
0x08fc 1 0 0 1
0x08fc 1 0 0 1
0x08fc 1 0 0 1
0x08fc 1 0 0 1
0x08fc 1 0 0 1
0x08fc 1 0 0 1
0x08fc 1 0 0 1
0x08fc 1 0 0 1
0x08fc 1 0 0 1
0x08fc 1 0 0 1
0x08fc 1 0 0 1
0x08fc 1 0 0 1
0x08fc 1 0 0 1
0x08fc 1 0 0 1
0x08fc 1 0 0 1
0x08fc 1 0 0 1
0x08fc 1 0 0 1
0x08fc 1 0 0 1
0x08fc 1 0 0 1
0x08fc 1 0 0 1
0x08fc 1 0 0 1
0x08fc 1 0 0 1
0x08fc 1 0 0 1
0x08fc 1 0 0 1
0x08fc 1 0 0 1
0x08fc 1 0 0 1
0x08fc 1 0 0 1
0x08fc 1 0 0 1
0x08fc 1 0 0 1
0x08fc 1 0 0 1
0x08fc 1 0 0 1
0x08fc 1 0 0 1
0x08fc 1 0 0 1
0x08fc 1 0 0 1
0x08fc 1 0 0 1
0x08fc 1 0 0 1
0x08fc 1 0 0 1
0x08fc 1 0 0 1
0x08fc 1 0 0 1
0x08fc 1 0 0 1
0x08fc 1 0 0 1
0x08fc 1 0 0 1
0x08fc 1 0 0 1
0x08fc 1 0 0 1
0x08fc 1 0 0 1
0x08fc 1 0 0 1
0x08fc 1 0 0 1
0x08fc 1 0 0 1
0x08fc 1 0 0 1
0x08fc 1 0 0 1
0x08fc 1 0 0 1
0x08fc 1 0 0 1
0x08fc 1 0 0 1
0x08fc 1 0 0 1
0x08fc 1 0 0 1
0x08fc 1 1 1 1
0xaac3 1 0 0 1
0x4000 1 0 0 1
0x5555 1 0 0 1
0x5555 1 0 0 1
0x5555 1 0 0 1
0x5555 1 1 0 1
0x08fc 1 0 0 1
0x08fc 1 0 0 1
0x08fc 1 0 0 1
0x08fc 1 0 0 1
0x08fc 1 0 0 1
0x08fc 1 0 0 1
0x08fc 1 0 0 1
0x08fc 1 0 0 1
0x08fc 1 0 0 1
0x08fc 1 0 0 1
0x08fc 1 0 0 1
0x08fc 1 0 0 1
0x08fc 1 0 0 1
0x08fc 1 0 0 1
0x08fc 1 0 0 1
0x08fc 1 0 0 1
0x08fc 1 0 0 1
0x08fc 1 0 0 1
0x08fc 1 0 0 1
0x08fc 1 0 0 1
0x08fc 1 0 0 1
0x08fc 1 0 0 1
0x08fc 1 0 0 1
0x08fc 1 0 0 1
0x08fc 1 0 0 1
0x08fc 1 0 0 1
0x08fc 1 0 0 1
0x08fc 1 0 0 1
0x08fc 1 0 0 1
0x08fc 1 0 0 1
0x08fc 1 0 0 1
0x08fc 1 0 0 1
0x08fc 1 0 0 1
0x08fc 1 0 0 1
0x08fc 1 0 0 1
0x08fc 1 0 0 1
0x08fc 1 0 0 1
0x08fc 1 0 0 1
0x08fc 1 0 0 1
0x08fc 1 0 0 1
0x08fc 1 0 0 1
0x08fc 1 0 0 1
0x08fc 1 0 0 1
0x08fc 1 0 0 1
0x08fc 1 0 0 1
0x08fc 1 0 0 1
0x08fc 1 0 0 1
0x08fc 1 0 0 1
0x08fc 1 0 0 1
0x08fc 1 0 0 1
0x08fc 1 0 0 1
0x08fc 1 0 0 1
0x08fc 1 0 0 1
0x08fc 1 0 0 1
0x08fc 1 0 0 1
0x08fc 1 0 0 1
0x08fc 1 0 0 1
0x08fc 1 0 0 1
0x08fc 1 0 0 1
0x08fc 1 0 0 1
0x08fc 1 0 0 1
0x08fc 1 0 0 1
0x08fc 1 0 0 1
0x08fc 1 1 1 1
0xaac7 1 0 0 1
0x4000 1 0 0 1
0x5555 1 0 0 1
0x5555 1 0 0 1
0x5555 1 0 0 1
0x5555 1 1 0 1
0x08fc 1 0 0 1
0x08fc 1 0 0 1
0x08fc 1 0 0 1
0x08fc 1 0 0 1
0x08fc 1 0 0 1
0x08fc 1 0 0 1
0x08fc 1 0 0 1
0x08fc 1 0 0 1
0x08fc 1 0 0 1
0x08fc 1 0 0 1
0x08fc 1 0 0 1
0x08fc 1 0 0 1
0x08fc 1 0 0 1
0x08fc 1 0 0 1
0x08fc 1 0 0 1
0x08fc 1 0 0 1
0x08fc 1 0 0 1
0x08fc 1 0 0 1
0x08fc 1 0 0 1
0x08fc 1 0 0 1
0x08fc 1 0 0 1
0x08fc 1 0 0 1
0x08fc 1 0 0 1
0x08fc 1 0 0 1
0x08fc 1 0 0 1
0x08fc 1 0 0 1
0x08fc 1 0 0 1
0x08fc 1 0 0 1
0x08fc 1 0 0 1
0x08fc 1 0 0 1
0x08fc 1 0 0 1
0x08fc 1 0 0 1
0x08fc 1 0 0 1
0x08fc 1 0 0 1
0x08fc 1 0 0 1
0x08fc 1 0 0 1
0x08fc 1 0 0 1
0x08fc 1 0 0 1
0x08fc 1 0 0 1
0x08fc 1 0 0 1
0x08fc 1 0 0 1
0x08fc 1 0 0 1
0x08fc 1 0 0 1
0x08fc 1 0 0 1
0x08fc 1 0 0 1
0x08fc 1 0 0 1
0x08fc 1 0 0 1
0x08fc 1 0 0 1
0x08fc 1 0 0 1
0x08fc 1 0 0 1
0x08fc 1 0 0 1
0x08fc 1 0 0 1
0x08fc 1 0 0 1
0x08fc 1 0 0 1
0x08fc 1 0 0 1
0x08fc 1 0 0 1
0x08fc 1 0 0 1
0x08fc 1 0 0 1
0x08fc 1 0 0 1
0x08fc 1 0 0 1
0x08fc 1 0 0 1
0x08fc 1 0 0 1
0x08fc 1 0 0 1
0x08fc 1 1 1 1
0xaacb 1 0 0 1
0x4000 1 0 0 1
0x5555 1 0 0 1
0x5555 1 0 0 1
0x5555 1 0 0 1
0x5555 1 1 0 1
0x08fc 1 0 0 1
0x08fc 1 0 0 1
0x08fc 1 0 0 1
0x08fc 1 0 0 1
0x08fc 1 0 0 1
0x08fc 1 0 0 1
0x08fc 1 0 0 1
0x08fc 1 0 0 1
0x08fc 1 0 0 1
0x08fc 1 0 0 1
0x08fc 1 0 0 1
0x08fc 1 0 0 1
0x08fc 1 0 0 1
0x08fc 1 0 0 1
0x08fc 1 0 0 1
0x08fc 1 0 0 1
0x08fc 1 0 0 1
0x08fc 1 0 0 1
0x08fc 1 0 0 1
0x08fc 1 0 0 1
0x08fc 1 0 0 1
0x08fc 1 0 0 1
0x08fc 1 0 0 1
0x08fc 1 0 0 1
0x08fc 1 0 0 1
0x08fc 1 0 0 1
0x08fc 1 0 0 1
0x08fc 1 0 0 1
0x08fc 1 0 0 1
0x08fc 1 0 0 1
0x08fc 1 0 0 1
0x08fc 1 0 0 1
0x08fc 1 0 0 1
0x08fc 1 0 0 1
0x08fc 1 0 0 1
0x08fc 1 0 0 1
0x08fc 1 0 0 1
0x08fc 1 0 0 1
0x08fc 1 0 0 1
0x08fc 1 0 0 1
0x08fc 1 0 0 1
0x08fc 1 0 0 1
0x08fc 1 0 0 1
0x08fc 1 0 0 1
0x08fc 1 0 0 1
0x08fc 1 0 0 1
0x08fc 1 0 0 1
0x08fc 1 0 0 1
0x08fc 1 0 0 1
0x08fc 1 0 0 1
0x08fc 1 0 0 1
0x08fc 1 0 0 1
0x08fc 1 0 0 1
0x08fc 1 0 0 1
0x08fc 1 0 0 1
0x08fc 1 0 0 1
0x08fc 1 0 0 1
0x08fc 1 0 0 1
0x08fc 1 0 0 1
0x08fc 1 0 0 1
0x08fc 1 0 0 1
0x08fc 1 0 0 1
0x08fc 1 0 0 1
0x08fc 1 1 1 1
0xaacf 1 0 0 1
0x4000 1 0 0 1
0x5555 1 0 0 1
0x5555 1 0 0 1
0x5555 1 0 0 1
0x5555 1 1 0 1
0x08fc 1 0 0 1
0x08fc 1 0 0 1
0x08fc 1 0 0 1
0x08fc 1 0 0 1
0x08fc 1 0 0 1
0x08fc 1 0 0 1
0x08fc 1 0 0 1
0x08fc 1 0 0 1
0x08fc 1 0 0 1
0x08fc 1 0 0 1
0x08fc 1 0 0 1
0x08fc 1 0 0 1
0x08fc 1 0 0 1
0x08fc 1 0 0 1
0x08fc 1 0 0 1
0x08fc 1 0 0 1
0x08fc 1 0 0 1
0x08fc 1 0 0 1
0x08fc 1 0 0 1
0x08fc 1 0 0 1
0x08fc 1 0 0 1
0x08fc 1 0 0 1
0x08fc 1 0 0 1
0x08fc 1 0 0 1
0x08fc 1 0 0 1
0x08fc 1 0 0 1
0x08fc 1 0 0 1
0x08fc 1 0 0 1
0x08fc 1 0 0 1
0x08fc 1 0 0 1
0x08fc 1 0 0 1
0x08fc 1 0 0 1
0x08fc 1 0 0 1
0x08fc 1 0 0 1
0x08fc 1 0 0 1
0x08fc 1 0 0 1
0x08fc 1 0 0 1
0x08fc 1 0 0 1
0x08fc 1 0 0 1
0x08fc 1 0 0 1
0x08fc 1 0 0 1
0x08fc 1 0 0 1
0x08fc 1 0 0 1
0x08fc 1 0 0 1
0x08fc 1 0 0 1
0x08fc 1 0 0 1
0x08fc 1 0 0 1
0x08fc 1 0 0 1
0x08fc 1 0 0 1
0x08fc 1 0 0 1
0x08fc 1 0 0 1
0x08fc 1 0 0 1
0x08fc 1 0 0 1
0x08fc 1 0 0 1
0x08fc 1 0 0 1
0x08fc 1 0 0 1
0x08fc 1 0 0 1
0x08fc 1 0 0 1
0x08fc 1 0 0 1
0x08fc 1 0 0 1
0x08fc 1 0 0 1
0x08fc 1 0 0 1
0x08fc 1 0 0 1
0x08fc 1 1 1 1
0xaad3 1 0 0 1
0x4000 1 0 0 1
0x5555 1 0 0 1
0x5555 1 0 0 1
0x5555 1 0 0 1
0x5555 1 1 0 1
0x08fc 1 0 0 1
0x08fc 1 0 0 1
0x08fc 1 0 0 1
0x08fc 1 0 0 1
0x08fc 1 0 0 1
0x08fc 1 0 0 1
0x08fc 1 0 0 1
0x08fc 1 0 0 1
0x08fc 1 0 0 1
0x08fc 1 0 0 1
0x08fc 1 0 0 1
0x08fc 1 0 0 1
0x08fc 1 0 0 1
0x08fc 1 0 0 1
0x08fc 1 0 0 1
0x08fc 1 0 0 1
0x08fc 1 0 0 1
0x08fc 1 0 0 1
0x08fc 1 0 0 1
0x08fc 1 0 0 1
0x08fc 1 0 0 1
0x08fc 1 0 0 1
0x08fc 1 0 0 1
0x08fc 1 0 0 1
0x08fc 1 0 0 1
0x08fc 1 0 0 1
0x08fc 1 0 0 1
0x08fc 1 0 0 1
0x08fc 1 0 0 1
0x08fc 1 0 0 1
0x08fc 1 0 0 1
0x08fc 1 0 0 1
0x08fc 1 0 0 1
0x08fc 1 0 0 1
0x08fc 1 0 0 1
0x08fc 1 0 0 1
0x08fc 1 0 0 1
0x08fc 1 0 0 1
0x08fc 1 0 0 1
0x08fc 1 0 0 1
0x08fc 1 0 0 1
0x08fc 1 0 0 1
0x08fc 1 0 0 1
0x08fc 1 0 0 1
0x08fc 1 0 0 1
0x08fc 1 0 0 1
0x08fc 1 0 0 1
0x08fc 1 0 0 1
0x08fc 1 0 0 1
0x08fc 1 0 0 1
0x08fc 1 0 0 1
0x08fc 1 0 0 1
0x08fc 1 0 0 1
0x08fc 1 0 0 1
0x08fc 1 0 0 1
0x08fc 1 0 0 1
0x08fc 1 0 0 1
0x08fc 1 0 0 1
0x08fc 1 0 0 1
0x08fc 1 0 0 1
0x08fc 1 0 0 1
0x08fc 1 0 0 1
0x08fc 1 0 0 1
0x08fc 1 1 1 1
0xaad7 1 0 0 1
0x4000 1 0 0 1
0x5555 1 0 0 1
0x5555 1 0 0 1
0x5555 1 0 0 1
0x5555 1 1 0 1
0x08fc 1 0 0 1
0x08fc 1 0 0 1
0x08fc 1 0 0 1
0x08fc 1 0 0 1
0x08fc 1 0 0 1
0x08fc 1 0 0 1
0x08fc 1 0 0 1
0x08fc 1 0 0 1
0x08fc 1 0 0 1
0x08fc 1 0 0 1
0x08fc 1 0 0 1
0x08fc 1 0 0 1
0x08fc 1 0 0 1
0x08fc 1 0 0 1
0x08fc 1 0 0 1
0x08fc 1 0 0 1
0x08fc 1 0 0 1
0x08fc 1 0 0 1
0x08fc 1 0 0 1
0x08fc 1 0 0 1
0x08fc 1 0 0 1
0x08fc 1 0 0 1
0x08fc 1 0 0 1
0x08fc 1 0 0 1
0x08fc 1 0 0 1
0x08fc 1 0 0 1
0x08fc 1 0 0 1
0x08fc 1 0 0 1
0x08fc 1 0 0 1
0x08fc 1 0 0 1
0x08fc 1 0 0 1
0x08fc 1 0 0 1
0x08fc 1 0 0 1
0x08fc 1 0 0 1
0x08fc 1 0 0 1
0x08fc 1 0 0 1
0x08fc 1 0 0 1
0x08fc 1 0 0 1
0x08fc 1 0 0 1
0x08fc 1 0 0 1
0x08fc 1 0 0 1
0x08fc 1 0 0 1
0x08fc 1 0 0 1
0x08fc 1 0 0 1
0x08fc 1 0 0 1
0x08fc 1 0 0 1
0x08fc 1 0 0 1
0x08fc 1 0 0 1
0x08fc 1 0 0 1
0x08fc 1 0 0 1
0x08fc 1 0 0 1
0x08fc 1 0 0 1
0x08fc 1 0 0 1
0x08fc 1 0 0 1
0x08fc 1 0 0 1
0x08fc 1 0 0 1
0x08fc 1 0 0 1
0x08fc 1 0 0 1
0x08fc 1 0 0 1
0x08fc 1 0 0 1
0x08fc 1 0 0 1
0x08fc 1 0 0 1
0x08fc 1 0 0 1
0x08fc 1 1 1 1
0xaadb 1 0 0 1
0x4000 1 0 0 1
0x5555 1 0 0 1
0x5555 1 0 0 1
0x5555 1 0 0 1
0x5555 1 1 0 1
0x08fc 1 0 0 1
0x08fc 1 0 0 1
0x08fc 1 0 0 1
0x08fc 1 0 0 1
0x08fc 1 0 0 1
0x08fc 1 0 0 1
0x08fc 1 0 0 1
0x08fc 1 0 0 1
0x08fc 1 0 0 1
0x08fc 1 0 0 1
0x08fc 1 0 0 1
0x08fc 1 0 0 1
0x08fc 1 0 0 1
0x08fc 1 0 0 1
0x08fc 1 0 0 1
0x08fc 1 0 0 1
0x08fc 1 0 0 1
0x08fc 1 0 0 1
0x08fc 1 0 0 1
0x08fc 1 0 0 1
0x08fc 1 0 0 1
0x08fc 1 0 0 1
0x08fc 1 0 0 1
0x08fc 1 0 0 1
0x08fc 1 0 0 1
0x08fc 1 0 0 1
0x08fc 1 0 0 1
0x08fc 1 0 0 1
0x08fc 1 0 0 1
0x08fc 1 0 0 1
0x08fc 1 0 0 1
0x08fc 1 0 0 1
0x08fc 1 0 0 1
0x08fc 1 0 0 1
0x08fc 1 0 0 1
0x08fc 1 0 0 1
0x08fc 1 0 0 1
0x08fc 1 0 0 1
0x08fc 1 0 0 1
0x08fc 1 0 0 1
0x08fc 1 0 0 1
0x08fc 1 0 0 1
0x08fc 1 0 0 1
0x08fc 1 0 0 1
0x08fc 1 0 0 1
0x08fc 1 0 0 1
0x08fc 1 0 0 1
0x08fc 1 0 0 1
0x08fc 1 0 0 1
0x08fc 1 0 0 1
0x08fc 1 0 0 1
0x08fc 1 0 0 1
0x08fc 1 0 0 1
0x08fc 1 0 0 1
0x08fc 1 0 0 1
0x08fc 1 0 0 1
0x08fc 1 0 0 1
0x08fc 1 0 0 1
0x08fc 1 0 0 1
0x08fc 1 0 0 1
0x08fc 1 0 0 1
0x08fc 1 0 0 1
0x08fc 1 0 0 1
0x08fc 1 1 1 1
0xaadf 1 0 0 1
0x4000 1 0 0 1
0x5555 1 0 0 1
0x5555 1 0 0 1
0x5555 1 0 0 1
0x5555 1 1 0 1
0x08fc 1 0 0 1
0x08fc 1 0 0 1
0x08fc 1 0 0 1
0x08fc 1 0 0 1
0x08fc 1 0 0 1
0x08fc 1 0 0 1
0x08fc 1 0 0 1
0x08fc 1 0 0 1
0x08fc 1 0 0 1
0x08fc 1 0 0 1
0x08fc 1 0 0 1
0x08fc 1 0 0 1
0x08fc 1 0 0 1
0x08fc 1 0 0 1
0x08fc 1 0 0 1
0x08fc 1 0 0 1
0x08fc 1 0 0 1
0x08fc 1 0 0 1
0x08fc 1 0 0 1
0x08fc 1 0 0 1
0x08fc 1 0 0 1
0x08fc 1 0 0 1
0x08fc 1 0 0 1
0x08fc 1 0 0 1
0x08fc 1 0 0 1
0x08fc 1 0 0 1
0x08fc 1 0 0 1
0x08fc 1 0 0 1
0x08fc 1 0 0 1
0x08fc 1 0 0 1
0x08fc 1 0 0 1
0x08fc 1 0 0 1
0x08fc 1 0 0 1
0x08fc 1 0 0 1
0x08fc 1 0 0 1
0x08fc 1 0 0 1
0x08fc 1 0 0 1
0x08fc 1 0 0 1
0x08fc 1 0 0 1
0x08fc 1 0 0 1
0x08fc 1 0 0 1
0x08fc 1 0 0 1
0x08fc 1 0 0 1
0x08fc 1 0 0 1
0x08fc 1 0 0 1
0x08fc 1 0 0 1
0x08fc 1 0 0 1
0x08fc 1 0 0 1
0x08fc 1 0 0 1
0x08fc 1 0 0 1
0x08fc 1 0 0 1
0x08fc 1 0 0 1
0x08fc 1 0 0 1
0x08fc 1 0 0 1
0x08fc 1 0 0 1
0x08fc 1 0 0 1
0x08fc 1 0 0 1
0x08fc 1 0 0 1
0x08fc 1 0 0 1
0x08fc 1 0 0 1
0x08fc 1 0 0 1
0x08fc 1 0 0 1
0x08fc 1 0 0 1
0x08fc 1 1 1 1
0xaae3 1 0 0 1
0x4000 1 0 0 1
0x5555 1 0 0 1
0x5555 1 0 0 1
0x5555 1 0 0 1
0x5555 1 1 0 1
0x08fc 1 0 0 1
0x08fc 1 0 0 1
0x08fc 1 0 0 1
0x08fc 1 0 0 1
0x08fc 1 0 0 1
0x08fc 1 0 0 1
0x08fc 1 0 0 1
0x08fc 1 0 0 1
0x08fc 1 0 0 1
0x08fc 1 0 0 1
0x08fc 1 0 0 1
0x08fc 1 0 0 1
0x08fc 1 0 0 1
0x08fc 1 0 0 1
0x08fc 1 0 0 1
0x08fc 1 0 0 1
0x08fc 1 0 0 1
0x08fc 1 0 0 1
0x08fc 1 0 0 1
0x08fc 1 0 0 1
0x08fc 1 0 0 1
0x08fc 1 0 0 1
0x08fc 1 0 0 1
0x08fc 1 0 0 1
0x08fc 1 0 0 1
0x08fc 1 0 0 1
0x08fc 1 0 0 1
0x08fc 1 0 0 1
0x08fc 1 0 0 1
0x08fc 1 0 0 1
0x08fc 1 0 0 1
0x08fc 1 0 0 1
0x08fc 1 0 0 1
0x08fc 1 0 0 1
0x08fc 1 0 0 1
0x08fc 1 0 0 1
0x08fc 1 0 0 1
0x08fc 1 0 0 1
0x08fc 1 0 0 1
0x08fc 1 0 0 1
0x08fc 1 0 0 1
0x08fc 1 0 0 1
0x08fc 1 0 0 1
0x08fc 1 0 0 1
0x08fc 1 0 0 1
0x08fc 1 0 0 1
0x08fc 1 0 0 1
0x08fc 1 0 0 1
0x08fc 1 0 0 1
0x08fc 1 0 0 1
0x08fc 1 0 0 1
0x08fc 1 0 0 1
0x08fc 1 0 0 1
0x08fc 1 0 0 1
0x08fc 1 0 0 1
0x08fc 1 0 0 1
0x08fc 1 0 0 1
0x08fc 1 0 0 1
0x08fc 1 0 0 1
0x08fc 1 0 0 1
0x08fc 1 0 0 1
0x08fc 1 0 0 1
0x08fc 1 0 0 1
0x08fc 1 1 1 1
0xaae7 1 0 0 1
0x4000 1 0 0 1
0x5555 1 0 0 1
0x5555 1 0 0 1
0x5555 1 0 0 1
0x5555 1 1 0 1
0x08fc 1 0 0 1
0x08fc 1 0 0 1
0x08fc 1 0 0 1
0x08fc 1 0 0 1
0x08fc 1 0 0 1
0x08fc 1 0 0 1
0x08fc 1 0 0 1
0x08fc 1 0 0 1
0x08fc 1 0 0 1
0x08fc 1 0 0 1
0x08fc 1 0 0 1
0x08fc 1 0 0 1
0x08fc 1 0 0 1
0x08fc 1 0 0 1
0x08fc 1 0 0 1
0x08fc 1 0 0 1
0x08fc 1 0 0 1
0x08fc 1 0 0 1
0x08fc 1 0 0 1
0x08fc 1 0 0 1
0x08fc 1 0 0 1
0x08fc 1 0 0 1
0x08fc 1 0 0 1
0x08fc 1 0 0 1
0x08fc 1 0 0 1
0x08fc 1 0 0 1
0x08fc 1 0 0 1
0x08fc 1 0 0 1
0x08fc 1 0 0 1
0x08fc 1 0 0 1
0x08fc 1 0 0 1
0x08fc 1 0 0 1
0x08fc 1 0 0 1
0x08fc 1 0 0 1
0x08fc 1 0 0 1
0x08fc 1 0 0 1
0x08fc 1 0 0 1
0x08fc 1 0 0 1
0x08fc 1 0 0 1
0x08fc 1 0 0 1
0x08fc 1 0 0 1
0x08fc 1 0 0 1
0x08fc 1 0 0 1
0x08fc 1 0 0 1
0x08fc 1 0 0 1
0x08fc 1 0 0 1
0x08fc 1 0 0 1
0x08fc 1 0 0 1
0x08fc 1 0 0 1
0x08fc 1 0 0 1
0x08fc 1 0 0 1
0x08fc 1 0 0 1
0x08fc 1 0 0 1
0x08fc 1 0 0 1
0x08fc 1 0 0 1
0x08fc 1 0 0 1
0x08fc 1 0 0 1
0x08fc 1 0 0 1
0x08fc 1 0 0 1
0x08fc 1 0 0 1
0x08fc 1 0 0 1
0x08fc 1 0 0 1
0x08fc 1 0 0 1
0x08fc 1 1 1 1
0xaaeb 1 0 0 1
0x4000 1 0 0 1
0x5555 1 0 0 1
0x5555 1 0 0 1
0x5555 1 0 0 1
0x5555 1 1 0 1
0x08fc 1 0 0 1
0x08fc 1 0 0 1
0x08fc 1 0 0 1
0x08fc 1 0 0 1
0x08fc 1 0 0 1
0x08fc 1 0 0 1
0x08fc 1 0 0 1
0x08fc 1 0 0 1
0x08fc 1 0 0 1
0x08fc 1 0 0 1
0x08fc 1 0 0 1
0x08fc 1 0 0 1
0x08fc 1 0 0 1
0x08fc 1 0 0 1
0x08fc 1 0 0 1
0x08fc 1 0 0 1
0x08fc 1 0 0 1
0x08fc 1 0 0 1
0x08fc 1 0 0 1
0x08fc 1 0 0 1
0x08fc 1 0 0 1
0x08fc 1 0 0 1
0x08fc 1 0 0 1
0x08fc 1 0 0 1
0x08fc 1 0 0 1
0x08fc 1 0 0 1
0x08fc 1 0 0 1
0x08fc 1 0 0 1
0x08fc 1 0 0 1
0x08fc 1 0 0 1
0x08fc 1 0 0 1
0x08fc 1 0 0 1
0x08fc 1 0 0 1
0x08fc 1 0 0 1
0x08fc 1 0 0 1
0x08fc 1 0 0 1
0x08fc 1 0 0 1
0x08fc 1 0 0 1
0x08fc 1 0 0 1
0x08fc 1 0 0 1
0x08fc 1 0 0 1
0x08fc 1 0 0 1
0x08fc 1 0 0 1
0x08fc 1 0 0 1
0x08fc 1 0 0 1
0x08fc 1 0 0 1
0x08fc 1 0 0 1
0x08fc 1 0 0 1
0x08fc 1 0 0 1
0x08fc 1 0 0 1
0x08fc 1 0 0 1
0x08fc 1 0 0 1
0x08fc 1 0 0 1
0x08fc 1 0 0 1
0x08fc 1 0 0 1
0x08fc 1 0 0 1
0x08fc 1 0 0 1
0x08fc 1 0 0 1
0x08fc 1 0 0 1
0x08fc 1 0 0 1
0x08fc 1 0 0 1
0x08fc 1 0 0 1
0x08fc 1 0 0 1
0x08fc 1 1 1 1
0xaaef 1 0 0 1
0x4000 1 0 0 1
0x5555 1 0 0 1
0x5555 1 0 0 1
0x5555 1 0 0 1
0x5555 1 1 0 1
0x08fc 1 0 0 1
0x08fc 1 0 0 1
0x08fc 1 0 0 1
0x08fc 1 0 0 1
0x08fc 1 0 0 1
0x08fc 1 0 0 1
0x08fc 1 0 0 1
0x08fc 1 0 0 1
0x08fc 1 0 0 1
0x08fc 1 0 0 1
0x08fc 1 0 0 1
0x08fc 1 0 0 1
0x08fc 1 0 0 1
0x08fc 1 0 0 1
0x08fc 1 0 0 1
0x08fc 1 0 0 1
0x08fc 1 0 0 1
0x08fc 1 0 0 1
0x08fc 1 0 0 1
0x08fc 1 0 0 1
0x08fc 1 0 0 1
0x08fc 1 0 0 1
0x08fc 1 0 0 1
0x08fc 1 0 0 1
0x08fc 1 0 0 1
0x08fc 1 0 0 1
0x08fc 1 0 0 1
0x08fc 1 0 0 1
0x08fc 1 0 0 1
0x08fc 1 0 0 1
0x08fc 1 0 0 1
0x08fc 1 0 0 1
0x08fc 1 0 0 1
0x08fc 1 0 0 1
0x08fc 1 0 0 1
0x08fc 1 0 0 1
0x08fc 1 0 0 1
0x08fc 1 0 0 1
0x08fc 1 0 0 1
0x08fc 1 0 0 1
0x08fc 1 0 0 1
0x08fc 1 0 0 1
0x08fc 1 0 0 1
0x08fc 1 0 0 1
0x08fc 1 0 0 1
0x08fc 1 0 0 1
0x08fc 1 0 0 1
0x08fc 1 0 0 1
0x08fc 1 0 0 1
0x08fc 1 0 0 1
0x08fc 1 0 0 1
0x08fc 1 0 0 1
0x08fc 1 0 0 1
0x08fc 1 0 0 1
0x08fc 1 0 0 1
0x08fc 1 0 0 1
0x08fc 1 0 0 1
0x08fc 1 0 0 1
0x08fc 1 0 0 1
0x08fc 1 0 0 1
0x08fc 1 0 0 1
0x08fc 1 0 0 1
0x08fc 1 0 0 1
0x08fc 1 1 1 1
0xaaf3 1 0 0 1
0x4000 1 0 0 1
0x5555 1 0 0 1
0x5555 1 0 0 1
0x5555 1 0 0 1
0x5555 1 1 0 1
0x08fc 1 0 0 1
0x08fc 1 0 0 1
0x08fc 1 0 0 1
0x08fc 1 0 0 1
0x08fc 1 0 0 1
0x08fc 1 0 0 1
0x08fc 1 0 0 1
0x08fc 1 0 0 1
0x08fc 1 0 0 1
0x08fc 1 0 0 1
0x08fc 1 0 0 1
0x08fc 1 0 0 1
0x08fc 1 0 0 1
0x08fc 1 0 0 1
0x08fc 1 0 0 1
0x08fc 1 0 0 1
0x08fc 1 0 0 1
0x08fc 1 0 0 1
0x08fc 1 0 0 1
0x08fc 1 0 0 1
0x08fc 1 0 0 1
0x08fc 1 0 0 1
0x08fc 1 0 0 1
0x08fc 1 0 0 1
0x08fc 1 0 0 1
0x08fc 1 0 0 1
0x08fc 1 0 0 1
0x08fc 1 0 0 1
0x08fc 1 0 0 1
0x08fc 1 0 0 1
0x08fc 1 0 0 1
0x08fc 1 0 0 1
0x08fc 1 0 0 1
0x08fc 1 0 0 1
0x08fc 1 0 0 1
0x08fc 1 0 0 1
0x08fc 1 0 0 1
0x08fc 1 0 0 1
0x08fc 1 0 0 1
0x08fc 1 0 0 1
0x08fc 1 0 0 1
0x08fc 1 0 0 1
0x08fc 1 0 0 1
0x08fc 1 0 0 1
0x08fc 1 0 0 1
0x08fc 1 0 0 1
0x08fc 1 0 0 1
0x08fc 1 0 0 1
0x08fc 1 0 0 1
0x08fc 1 0 0 1
0x08fc 1 0 0 1
0x08fc 1 0 0 1
0x08fc 1 0 0 1
0x08fc 1 0 0 1
0x08fc 1 0 0 1
0x08fc 1 0 0 1
0x08fc 1 0 0 1
0x08fc 1 0 0 1
0x08fc 1 0 0 1
0x08fc 1 0 0 1
0x08fc 1 0 0 1
0x08fc 1 0 0 1
0x08fc 1 0 0 1
0x08fc 1 1 1 1
0xaaf7 1 0 0 1
0x4000 1 0 0 1
0x5555 1 0 0 1
0x5555 1 0 0 1
0x5555 1 0 0 1
0x5555 1 1 0 1
0x08fc 1 0 0 1
0x08fc 1 0 0 1
0x08fc 1 0 0 1
0x08fc 1 0 0 1
0x08fc 1 0 0 1
0x08fc 1 0 0 1
0x08fc 1 0 0 1
0x08fc 1 0 0 1
0x08fc 1 0 0 1
0x08fc 1 0 0 1
0x08fc 1 0 0 1
0x08fc 1 0 0 1
0x08fc 1 0 0 1
0x08fc 1 0 0 1
0x08fc 1 0 0 1
0x08fc 1 0 0 1
0x08fc 1 0 0 1
0x08fc 1 0 0 1
0x08fc 1 0 0 1
0x08fc 1 0 0 1
0x08fc 1 0 0 1
0x08fc 1 0 0 1
0x08fc 1 0 0 1
0x08fc 1 0 0 1
0x08fc 1 0 0 1
0x08fc 1 0 0 1
0x08fc 1 0 0 1
0x08fc 1 0 0 1
0x08fc 1 0 0 1
0x08fc 1 0 0 1
0x08fc 1 0 0 1
0x08fc 1 0 0 1
0x08fc 1 0 0 1
0x08fc 1 0 0 1
0x08fc 1 0 0 1
0x08fc 1 0 0 1
0x08fc 1 0 0 1
0x08fc 1 0 0 1
0x08fc 1 0 0 1
0x08fc 1 0 0 1
0x08fc 1 0 0 1
0x08fc 1 0 0 1
0x08fc 1 0 0 1
0x08fc 1 0 0 1
0x08fc 1 0 0 1
0x08fc 1 0 0 1
0x08fc 1 0 0 1
0x08fc 1 0 0 1
0x08fc 1 0 0 1
0x08fc 1 0 0 1
0x08fc 1 0 0 1
0x08fc 1 0 0 1
0x08fc 1 0 0 1
0x08fc 1 0 0 1
0x08fc 1 0 0 1
0x08fc 1 0 0 1
0x08fc 1 0 0 1
0x08fc 1 0 0 1
0x08fc 1 0 0 1
0x08fc 1 0 0 1
0x08fc 1 0 0 1
0x08fc 1 0 0 1
0x08fc 1 0 0 1
0x08fc 1 1 1 1
0xaafb 1 0 0 1
0x4000 1 0 0 1
0x5555 1 0 0 1
0x5555 1 0 0 1
0x5555 1 0 0 1
0x5555 1 1 0 1
0x08fc 1 0 0 1
0x08fc 1 0 0 1
0x08fc 1 0 0 1
0x08fc 1 0 0 1
0x08fc 1 0 0 1
0x08fc 1 0 0 1
0x08fc 1 0 0 1
0x08fc 1 0 0 1
0x08fc 1 0 0 1
0x08fc 1 0 0 1
0x08fc 1 0 0 1
0x08fc 1 0 0 1
0x08fc 1 0 0 1
0x08fc 1 0 0 1
0x08fc 1 0 0 1
0x08fc 1 0 0 1
0x08fc 1 0 0 1
0x08fc 1 0 0 1
0x08fc 1 0 0 1
0x08fc 1 0 0 1
0x08fc 1 0 0 1
0x08fc 1 0 0 1
0x08fc 1 0 0 1
0x08fc 1 0 0 1
0x08fc 1 0 0 1
0x08fc 1 0 0 1
0x08fc 1 0 0 1
0x08fc 1 0 0 1
0x08fc 1 0 0 1
0x08fc 1 0 0 1
0x08fc 1 0 0 1
0x08fc 1 0 0 1
0x08fc 1 0 0 1
0x08fc 1 0 0 1
0x08fc 1 0 0 1
0x08fc 1 0 0 1
0x08fc 1 0 0 1
0x08fc 1 0 0 1
0x08fc 1 0 0 1
0x08fc 1 0 0 1
0x08fc 1 0 0 1
0x08fc 1 0 0 1
0x08fc 1 0 0 1
0x08fc 1 0 0 1
0x08fc 1 0 0 1
0x08fc 1 0 0 1
0x08fc 1 0 0 1
0x08fc 1 0 0 1
0x08fc 1 0 0 1
0x08fc 1 0 0 1
0x08fc 1 0 0 1
0x08fc 1 0 0 1
0x08fc 1 0 0 1
0x08fc 1 0 0 1
0x08fc 1 0 0 1
0x08fc 1 0 0 1
0x08fc 1 0 0 1
0x08fc 1 0 0 1
0x08fc 1 0 0 1
0x08fc 1 0 0 1
0x08fc 1 0 0 1
0x08fc 1 0 0 1
0x08fc 1 0 0 1
0x08fc 1 1 1 1
0xaaff 1 0 0 1
0x4000 1 0 0 1
0x5555 1 0 0 1
0x5555 1 0 0 1
0x5555 1 0 0 1
0x5555 1 1 0 1
0x08fc 1 0 0 1
0x08fc 1 0 0 1
0x08fc 1 0 0 1
0x08fc 1 0 0 1
0x08fc 1 0 0 1
0x08fc 1 0 0 1
0x08fc 1 0 0 1
0x08fc 1 0 0 1
0x08fc 1 0 0 1
0x08fc 1 0 0 1
0x08fc 1 0 0 1
0x08fc 1 0 0 1
0x08fc 1 0 0 1
0x08fc 1 0 0 1
0x08fc 1 0 0 1
0x08fc 1 0 0 1
0x08fc 1 0 0 1
0x08fc 1 0 0 1
0x08fc 1 0 0 1
0x08fc 1 0 0 1
0x08fc 1 0 0 1
0x08fc 1 0 0 1
0x08fc 1 0 0 1
0x08fc 1 0 0 1
0x08fc 1 0 0 1
0x08fc 1 0 0 1
0x08fc 1 0 0 1
0x08fc 1 0 0 1
0x08fc 1 0 0 1
0x08fc 1 0 0 1
0x08fc 1 0 0 1
0x08fc 1 0 0 1
0x08fc 1 0 0 1
0x08fc 1 0 0 1
0x08fc 1 0 0 1
0x08fc 1 0 0 1
0x08fc 1 0 0 1
0x08fc 1 0 0 1
0x08fc 1 0 0 1
0x08fc 1 0 0 1
0x08fc 1 0 0 1
0x08fc 1 0 0 1
0x08fc 1 0 0 1
0x08fc 1 0 0 1
0x08fc 1 0 0 1
0x08fc 1 0 0 1
0x08fc 1 0 0 1
0x08fc 1 0 0 1
0x08fc 1 0 0 1
0x08fc 1 0 0 1
0x08fc 1 0 0 1
0x08fc 1 0 0 1
0x08fc 1 0 0 1
0x08fc 1 0 0 1
0x08fc 1 0 0 1
0x08fc 1 0 0 1
0x08fc 1 0 0 1
0x08fc 1 0 0 1
0x08fc 1 0 0 1
0x08fc 1 0 0 1
0x08fc 1 0 0 1
0x08fc 1 0 0 1
0x08fc 1 0 0 1
0x08fc 1 1 1 1