0xaa01 1 0 0 1
0x4000 1 0 0 1
0x5555 1 0 0 1
0x5555 1 0 0 1
0x5555 1 0 0 1
0x5555 1 1 0 1
0x0226 1 0 0 1
0x0225 1 0 0 1
0x0222 1 0 0 1
0x021d 1 0 0 1
0x0218 1 0 0 1
0x0212 1 0 0 1
0x020c 1 0 0 1
0x0206 1 0 0 1
0x0201 1 0 0 1
0x01fd 1 0 0 1
0x01fa 1 0 0 1
0x01f8 1 0 0 1
0x01f6 1 0 0 1
0x01f5 1 0 0 1
0x01f4 1 0 0 1
0x01f4 1 0 0 1
0x01f4 1 0 0 1
0x01f4 1 0 0 1
0x01f4 1 0 0 1
0x01f4 1 0 0 1
0x01f4 1 0 0 1
0x01f4 1 0 0 1
0x01f4 1 0 0 1
0x01f4 1 0 0 1
0x01f4 1 0 0 1
0x01f4 1 0 0 1
0x01f4 1 0 0 1
0x01f4 1 0 0 1
0x01f4 1 0 0 1
0x01f4 1 0 0 1
0x01f4 1 0 0 1
0x01f4 1 0 0 1
0x01f4 1 0 0 1
0x01f4 1 0 0 1
0x01f4 1 0 0 1
0x01f4 1 0 0 1
0x01f4 1 0 0 1
0x01f4 1 0 0 1
0x01f4 1 0 0 1
0x01f4 1 0 0 1
0x01f4 1 0 0 1
0x01f4 1 0 0 1
0x01f4 1 0 0 1
0x01f4 1 0 0 1
0x01f4 1 0 0 1
0x01f4 1 0 0 1
0x01f4 1 0 0 1
0x01f4 1 0 0 1
0x01f4 1 0 0 1
0x01f4 1 0 0 1
0x01f4 1 0 0 1
0x01f4 1 0 0 1
0x01f4 1 0 0 1
0x01f4 1 0 0 1
0x01f4 1 0 0 1
0x01f4 1 0 0 1
0x01f4 1 0 0 1
0x01f4 1 0 0 1
0x01f4 1 0 0 1
0x01f4 1 0 0 1
0x01f4 1 0 0 1
0x01f4 1 0 0 1
0x01f4 1 0 0 1
0x01f4 1 1 1 1
0xaa05 1 0 0 1
0x4000 1 0 0 1
0x5555 1 0 0 1
0x5555 1 0 0 1
0x5555 1 0 0 1
0x5555 1 1 0 1
0x0225 1 0 0 1
0x0226 1 0 0 1
0x0225 1 0 0 1
0x0222 1 0 0 1
0x021d 1 0 0 1
0x0218 1 0 0 1
0x0212 1 0 0 1
0x020c 1 0 0 1
0x0206 1 0 0 1
0x0201 1 0 0 1
0x01fd 1 0 0 1
0x01fa 1 0 0 1
0x01f8 1 0 0 1
0x01f6 1 0 0 1
0x01f5 1 0 0 1
0x01f4 1 0 0 1
0x01f4 1 0 0 1
0x01f4 1 0 0 1
0x01f4 1 0 0 1
0x01f4 1 0 0 1
0x01f4 1 0 0 1
0x01f4 1 0 0 1
0x01f4 1 0 0 1
0x01f4 1 0 0 1
0x01f4 1 0 0 1
0x01f4 1 0 0 1
0x01f4 1 0 0 1
0x01f4 1 0 0 1
0x01f4 1 0 0 1
0x01f4 1 0 0 1
0x01f4 1 0 0 1
0x01f4 1 0 0 1
0x01f4 1 0 0 1
0x01f4 1 0 0 1
0x01f4 1 0 0 1
0x01f4 1 0 0 1
0x01f4 1 0 0 1
0x01f4 1 0 0 1
0x01f4 1 0 0 1
0x01f4 1 0 0 1
0x01f4 1 0 0 1
0x01f4 1 0 0 1
0x01f4 1 0 0 1
0x01f4 1 0 0 1
0x01f4 1 0 0 1
0x01f4 1 0 0 1
0x01f4 1 0 0 1
0x01f4 1 0 0 1
0x01f4 1 0 0 1
0x01f4 1 0 0 1
0x01f4 1 0 0 1
0x01f4 1 0 0 1
0x01f4 1 0 0 1
0x01f4 1 0 0 1
0x01f4 1 0 0 1
0x01f4 1 0 0 1
0x01f4 1 0 0 1
0x01f4 1 0 0 1
0x01f4 1 0 0 1
0x01f4 1 0 0 1
0x01f4 1 0 0 1
0x01f4 1 0 0 1
0x01f4 1 0 0 1
0x01f4 1 1 1 1
0xaa09 1 0 0 1
0x4000 1 0 0 1
0x5555 1 0 0 1
0x5555 1 0 0 1
0x5555 1 0 0 1
0x5555 1 1 0 1
0x0222 1 0 0 1
0x0225 1 0 0 1
0x0226 1 0 0 1
0x0225 1 0 0 1
0x0222 1 0 0 1
0x021d 1 0 0 1
0x0218 1 0 0 1
0x0212 1 0 0 1
0x020c 1 0 0 1
0x0206 1 0 0 1
0x0201 1 0 0 1
0x01fd 1 0 0 1
0x01fa 1 0 0 1
0x01f8 1 0 0 1
0x01f6 1 0 0 1
0x01f5 1 0 0 1
0x01f4 1 0 0 1
0x01f4 1 0 0 1
0x01f4 1 0 0 1
0x01f4 1 0 0 1
0x01f4 1 0 0 1
0x01f4 1 0 0 1
0x01f4 1 0 0 1
0x01f4 1 0 0 1
0x01f4 1 0 0 1
0x01f4 1 0 0 1
0x01f4 1 0 0 1
0x01f4 1 0 0 1
0x01f4 1 0 0 1
0x01f4 1 0 0 1
0x01f4 1 0 0 1
0x01f4 1 0 0 1
0x01f4 1 0 0 1
0x01f4 1 0 0 1
0x01f4 1 0 0 1
0x01f4 1 0 0 1
0x01f4 1 0 0 1
0x01f4 1 0 0 1
0x01f4 1 0 0 1
0x01f4 1 0 0 1
0x01f4 1 0 0 1
0x01f4 1 0 0 1
0x01f4 1 0 0 1
0x01f4 1 0 0 1
0x01f4 1 0 0 1
0x01f4 1 0 0 1
0x01f4 1 0 0 1
0x01f4 1 0 0 1
0x01f4 1 0 0 1
0x01f4 1 0 0 1
0x01f4 1 0 0 1
0x01f4 1 0 0 1
0x01f4 1 0 0 1
0x01f4 1 0 0 1
0x01f4 1 0 0 1
0x01f4 1 0 0 1
0x01f4 1 0 0 1
0x01f4 1 0 0 1
0x01f4 1 0 0 1
0x01f4 1 0 0 1
0x01f4 1 0 0 1
0x01f4 1 0 0 1
0x01f4 1 0 0 1
0x01f4 1 1 1 1
0xaa0d 1 0 0 1
0x4000 1 0 0 1
0x5555 1 0 0 1
0x5555 1 0 0 1
0x5555 1 0 0 1
0x5555 1 1 0 1
0x021d 1 0 0 1
0x0222 1 0 0 1
0x0225 1 0 0 1
0x0226 1 0 0 1
0x0225 1 0 0 1
0x0222 1 0 0 1
0x021d 1 0 0 1
0x0218 1 0 0 1
0x0212 1 0 0 1
0x020c 1 0 0 1
0x0206 1 0 0 1
0x0201 1 0 0 1
0x01fd 1 0 0 1
0x01fa 1 0 0 1
0x01f8 1 0 0 1
0x01f6 1 0 0 1
0x01f5 1 0 0 1
0x01f4 1 0 0 1
0x01f4 1 0 0 1
0x01f4 1 0 0 1
0x01f4 1 0 0 1
0x01f4 1 0 0 1
0x01f4 1 0 0 1
0x01f4 1 0 0 1
0x01f4 1 0 0 1
0x01f4 1 0 0 1
0x01f4 1 0 0 1
0x01f4 1 0 0 1
0x01f4 1 0 0 1
0x01f4 1 0 0 1
0x01f4 1 0 0 1
0x01f4 1 0 0 1
0x01f4 1 0 0 1
0x01f4 1 0 0 1
0x01f4 1 0 0 1
0x01f4 1 0 0 1
0x01f4 1 0 0 1
0x01f4 1 0 0 1
0x01f4 1 0 0 1
0x01f4 1 0 0 1
0x01f4 1 0 0 1
0x01f4 1 0 0 1
0x01f4 1 0 0 1
0x01f4 1 0 0 1
0x01f4 1 0 0 1
0x01f4 1 0 0 1
0x01f4 1 0 0 1
0x01f4 1 0 0 1
0x01f4 1 0 0 1
0x01f4 1 0 0 1
0x01f4 1 0 0 1
0x01f4 1 0 0 1
0x01f4 1 0 0 1
0x01f4 1 0 0 1
0x01f4 1 0 0 1
0x01f4 1 0 0 1
0x01f4 1 0 0 1
0x01f4 1 0 0 1
0x01f4 1 0 0 1
0x01f4 1 0 0 1
0x01f4 1 0 0 1
0x01f4 1 0 0 1
0x01f4 1 0 0 1
0x01f4 1 1 1 1
0xaa11 1 0 0 1
0x4000 1 0 0 1
0x5555 1 0 0 1
0x5555 1 0 0 1
0x5555 1 0 0 1
0x5555 1 1 0 1
0x0218 1 0 0 1
0x021d 1 0 0 1
0x0222 1 0 0 1
0x0225 1 0 0 1
0x0226 1 0 0 1
0x0225 1 0 0 1
0x0222 1 0 0 1
0x021d 1 0 0 1
0x0218 1 0 0 1
0x0212 1 0 0 1
0x020c 1 0 0 1
0x0206 1 0 0 1
0x0201 1 0 0 1
0x01fd 1 0 0 1
0x01fa 1 0 0 1
0x01f8 1 0 0 1
0x01f6 1 0 0 1
0x01f5 1 0 0 1
0x01f4 1 0 0 1
0x01f4 1 0 0 1
0x01f4 1 0 0 1
0x01f4 1 0 0 1
0x01f4 1 0 0 1
0x01f4 1 0 0 1
0x01f4 1 0 0 1
0x01f4 1 0 0 1
0x01f4 1 0 0 1
0x01f4 1 0 0 1
0x01f4 1 0 0 1
0x01f4 1 0 0 1
0x01f4 1 0 0 1
0x01f4 1 0 0 1
0x01f4 1 0 0 1
0x01f4 1 0 0 1
0x01f4 1 0 0 1
0x01f4 1 0 0 1
0x01f4 1 0 0 1
0x01f4 1 0 0 1
0x01f4 1 0 0 1
0x01f4 1 0 0 1
0x01f4 1 0 0 1
0x01f4 1 0 0 1
0x01f4 1 0 0 1
0x01f4 1 0 0 1
0x01f4 1 0 0 1
0x01f4 1 0 0 1
0x01f4 1 0 0 1
0x01f4 1 0 0 1
0x01f4 1 0 0 1
0x01f4 1 0 0 1
0x01f4 1 0 0 1
0x01f4 1 0 0 1
0x01f4 1 0 0 1
0x01f4 1 0 0 1
0x01f4 1 0 0 1
0x01f4 1 0 0 1
0x01f4 1 0 0 1
0x01f4 1 0 0 1
0x01f4 1 0 0 1
0x01f4 1 0 0 1
0x01f4 1 0 0 1
0x01f4 1 0 0 1
0x01f4 1 0 0 1
0x01f4 1 1 1 1
0xaa15 1 0 0 1
0x4000 1 0 0 1
0x5555 1 0 0 1
0x5555 1 0 0 1
0x5555 1 0 0 1
0x5555 1 1 0 1
0x0212 1 0 0 1
0x0218 1 0 0 1
0x021d 1 0 0 1
0x0222 1 0 0 1
0x0225 1 0 0 1
0x0226 1 0 0 1
0x0225 1 0 0 1
0x0222 1 0 0 1
0x021d 1 0 0 1
0x0218 1 0 0 1
0x0212 1 0 0 1
0x020c 1 0 0 1
0x0206 1 0 0 1
0x0201 1 0 0 1
0x01fd 1 0 0 1
0x01fa 1 0 0 1
0x01f8 1 0 0 1
0x01f6 1 0 0 1
0x01f5 1 0 0 1
0x01f4 1 0 0 1
0x01f4 1 0 0 1
0x01f4 1 0 0 1
0x01f4 1 0 0 1
0x01f4 1 0 0 1
0x01f4 1 0 0 1
0x01f4 1 0 0 1
0x01f4 1 0 0 1
0x01f4 1 0 0 1
0x01f4 1 0 0 1
0x01f4 1 0 0 1
0x01f4 1 0 0 1
0x01f4 1 0 0 1
0x01f4 1 0 0 1
0x01f4 1 0 0 1
0x01f4 1 0 0 1
0x01f4 1 0 0 1
0x01f4 1 0 0 1
0x01f4 1 0 0 1
0x01f4 1 0 0 1
0x01f4 1 0 0 1
0x01f4 1 0 0 1
0x01f4 1 0 0 1
0x01f4 1 0 0 1
0x01f4 1 0 0 1
0x01f4 1 0 0 1
0x01f4 1 0 0 1
0x01f4 1 0 0 1
0x01f4 1 0 0 1
0x01f4 1 0 0 1
0x01f4 1 0 0 1
0x01f4 1 0 0 1
0x01f4 1 0 0 1
0x01f4 1 0 0 1
0x01f4 1 0 0 1
0x01f4 1 0 0 1
0x01f4 1 0 0 1
0x01f4 1 0 0 1
0x01f4 1 0 0 1
0x01f4 1 0 0 1
0x01f4 1 0 0 1
0x01f4 1 0 0 1
0x01f4 1 0 0 1
0x01f4 1 0 0 1
0x01f4 1 1 1 1
0xaa19 1 0 0 1
0x4000 1 0 0 1
0x5555 1 0 0 1
0x5555 1 0 0 1
0x5555 1 0 0 1
0x5555 1 1 0 1
0x020c 1 0 0 1
0x0212 1 0 0 1
0x0218 1 0 0 1
0x021d 1 0 0 1
0x0222 1 0 0 1
0x0225 1 0 0 1
0x0226 1 0 0 1
0x0225 1 0 0 1
0x0222 1 0 0 1
0x021d 1 0 0 1
0x0218 1 0 0 1
0x0212 1 0 0 1
0x020c 1 0 0 1
0x0206 1 0 0 1
0x0201 1 0 0 1
0x01fd 1 0 0 1
0x01fa 1 0 0 1
0x01f8 1 0 0 1
0x01f6 1 0 0 1
0x01f5 1 0 0 1
0x01f4 1 0 0 1
0x01f4 1 0 0 1
0x01f4 1 0 0 1
0x01f4 1 0 0 1
0x01f4 1 0 0 1
0x01f4 1 0 0 1
0x01f4 1 0 0 1
0x01f4 1 0 0 1
0x01f4 1 0 0 1
0x01f4 1 0 0 1
0x01f4 1 0 0 1
0x01f4 1 0 0 1
0x01f4 1 0 0 1
0x01f4 1 0 0 1
0x01f4 1 0 0 1
0x01f4 1 0 0 1
0x01f4 1 0 0 1
0x01f4 1 0 0 1
0x01f4 1 0 0 1
0x01f4 1 0 0 1
0x01f4 1 0 0 1
0x01f4 1 0 0 1
0x01f4 1 0 0 1
0x01f4 1 0 0 1
0x01f4 1 0 0 1
0x01f4 1 0 0 1
0x01f4 1 0 0 1
0x01f4 1 0 0 1
0x01f4 1 0 0 1
0x01f4 1 0 0 1
0x01f4 1 0 0 1
0x01f4 1 0 0 1
0x01f4 1 0 0 1
0x01f4 1 0 0 1
0x01f4 1 0 0 1
0x01f4 1 0 0 1
0x01f4 1 0 0 1
0x01f4 1 0 0 1
0x01f4 1 0 0 1
0x01f4 1 0 0 1
0x01f4 1 0 0 1
0x01f4 1 0 0 1
0x01f4 1 0 0 1
0x01f4 1 1 1 1
0xaa1d 1 0 0 1
0x4000 1 0 0 1
0x5555 1 0 0 1
0x5555 1 0 0 1
0x5555 1 0 0 1
0x5555 1 1 0 1
0x0206 1 0 0 1
0x020c 1 0 0 1
0x0212 1 0 0 1
0x0218 1 0 0 1
0x021d 1 0 0 1
0x0222 1 0 0 1
0x0225 1 0 0 1
0x0226 1 0 0 1
0x0225 1 0 0 1
0x0222 1 0 0 1
0x021d 1 0 0 1
0x0218 1 0 0 1
0x0212 1 0 0 1
0x020c 1 0 0 1
0x0206 1 0 0 1
0x0201 1 0 0 1
0x01fd 1 0 0 1
0x01fa 1 0 0 1
0x01f8 1 0 0 1
0x01f6 1 0 0 1
0x01f5 1 0 0 1
0x01f4 1 0 0 1
0x01f4 1 0 0 1
0x01f4 1 0 0 1
0x01f4 1 0 0 1
0x01f4 1 0 0 1
0x01f4 1 0 0 1
0x01f4 1 0 0 1
0x01f4 1 0 0 1
0x01f4 1 0 0 1
0x01f4 1 0 0 1
0x01f4 1 0 0 1
0x01f4 1 0 0 1
0x01f4 1 0 0 1
0x01f4 1 0 0 1
0x01f4 1 0 0 1
0x01f4 1 0 0 1
0x01f4 1 0 0 1
0x01f4 1 0 0 1
0x01f4 1 0 0 1
0x01f4 1 0 0 1
0x01f4 1 0 0 1
0x01f4 1 0 0 1
0x01f4 1 0 0 1
0x01f4 1 0 0 1
0x01f4 1 0 0 1
0x01f4 1 0 0 1
0x01f4 1 0 0 1
0x01f4 1 0 0 1
0x01f4 1 0 0 1
0x01f4 1 0 0 1
0x01f4 1 0 0 1
0x01f4 1 0 0 1
0x01f4 1 0 0 1
0x01f4 1 0 0 1
0x01f4 1 0 0 1
0x01f4 1 0 0 1
0x01f4 1 0 0 1
0x01f4 1 0 0 1
0x01f4 1 0 0 1
0x01f4 1 0 0 1
0x01f4 1 0 0 1
0x01f4 1 0 0 1
0x01f4 1 1 1 1
0xaa21 1 0 0 1
0x4000 1 0 0 1
0x5555 1 0 0 1
0x5555 1 0 0 1
0x5555 1 0 0 1
0x5555 1 1 0 1
0x0201 1 0 0 1
0x0206 1 0 0 1
0x020c 1 0 0 1
0x0212 1 0 0 1
0x0218 1 0 0 1
0x021d 1 0 0 1
0x0222 1 0 0 1
0x0225 1 0 0 1
0x0226 1 0 0 1
0x0225 1 0 0 1
0x0222 1 0 0 1
0x021d 1 0 0 1
0x0218 1 0 0 1
0x0212 1 0 0 1
0x020c 1 0 0 1
0x0206 1 0 0 1
0x0201 1 0 0 1
0x01fd 1 0 0 1
0x01fa 1 0 0 1
0x01f8 1 0 0 1
0x01f6 1 0 0 1
0x01f5 1 0 0 1
0x01f4 1 0 0 1
0x01f4 1 0 0 1
0x01f4 1 0 0 1
0x01f4 1 0 0 1
0x01f4 1 0 0 1
0x01f4 1 0 0 1
0x01f4 1 0 0 1
0x01f4 1 0 0 1
0x01f4 1 0 0 1
0x01f4 1 0 0 1
0x01f4 1 0 0 1
0x01f4 1 0 0 1
0x01f4 1 0 0 1
0x01f4 1 0 0 1
0x01f4 1 0 0 1
0x01f4 1 0 0 1
0x01f4 1 0 0 1
0x01f4 1 0 0 1
0x01f4 1 0 0 1
0x01f4 1 0 0 1
0x01f4 1 0 0 1
0x01f4 1 0 0 1
0x01f4 1 0 0 1
0x01f4 1 0 0 1
0x01f4 1 0 0 1
0x01f4 1 0 0 1
0x01f4 1 0 0 1
0x01f4 1 0 0 1
0x01f4 1 0 0 1
0x01f4 1 0 0 1
0x01f4 1 0 0 1
0x01f4 1 0 0 1
0x01f4 1 0 0 1
0x01f4 1 0 0 1
0x01f4 1 0 0 1
0x01f4 1 0 0 1
0x01f4 1 0 0 1
0x01f4 1 0 0 1
0x01f4 1 0 0 1
0x01f4 1 0 0 1
0x01f4 1 0 0 1
0x01f4 1 1 1 1
0xaa25 1 0 0 1
0x4000 1 0 0 1
0x5555 1 0 0 1
0x5555 1 0 0 1
0x5555 1 0 0 1
0x5555 1 1 0 1
0x01fd 1 0 0 1
0x0201 1 0 0 1
0x0206 1 0 0 1
0x020c 1 0 0 1
0x0212 1 0 0 1
0x0218 1 0 0 1
0x021d 1 0 0 1
0x0222 1 0 0 1
0x0225 1 0 0 1
0x0226 1 0 0 1
0x0225 1 0 0 1
0x0222 1 0 0 1
0x021d 1 0 0 1
0x0218 1 0 0 1
0x0212 1 0 0 1
0x020c 1 0 0 1
0x0206 1 0 0 1
0x0201 1 0 0 1
0x01fd 1 0 0 1
0x01fa 1 0 0 1
0x01f8 1 0 0 1
0x01f6 1 0 0 1
0x01f5 1 0 0 1
0x01f4 1 0 0 1
0x01f4 1 0 0 1
0x01f4 1 0 0 1
0x01f4 1 0 0 1
0x01f4 1 0 0 1
0x01f4 1 0 0 1
0x01f4 1 0 0 1
0x01f4 1 0 0 1
0x01f4 1 0 0 1
0x01f4 1 0 0 1
0x01f4 1 0 0 1
0x01f4 1 0 0 1
0x01f4 1 0 0 1
0x01f4 1 0 0 1
0x01f4 1 0 0 1
0x01f4 1 0 0 1
0x01f4 1 0 0 1
0x01f4 1 0 0 1
0x01f4 1 0 0 1
0x01f4 1 0 0 1
0x01f4 1 0 0 1
0x01f4 1 0 0 1
0x01f4 1 0 0 1
0x01f4 1 0 0 1
0x01f4 1 0 0 1
0x01f4 1 0 0 1
0x01f4 1 0 0 1
0x01f4 1 0 0 1
0x01f4 1 0 0 1
0x01f4 1 0 0 1
0x01f4 1 0 0 1
0x01f4 1 0 0 1
0x01f4 1 0 0 1
0x01f4 1 0 0 1
0x01f4 1 0 0 1
0x01f4 1 0 0 1
0x01f4 1 0 0 1
0x01f4 1 0 0 1
0x01f4 1 0 0 1
0x01f4 1 0 0 1
0x01f4 1 1 1 1
0xaa29 1 0 0 1
0x4000 1 0 0 1
0x5555 1 0 0 1
0x5555 1 0 0 1
0x5555 1 0 0 1
0x5555 1 1 0 1
0x01fa 1 0 0 1
0x01fd 1 0 0 1
0x0201 1 0 0 1
0x0206 1 0 0 1
0x020c 1 0 0 1
0x0212 1 0 0 1
0x0218 1 0 0 1
0x021d 1 0 0 1
0x0222 1 0 0 1
0x0225 1 0 0 1
0x0226 1 0 0 1
0x0225 1 0 0 1
0x0222 1 0 0 1
0x021d 1 0 0 1
0x0218 1 0 0 1
0x0212 1 0 0 1
0x020c 1 0 0 1
0x0206 1 0 0 1
0x0201 1 0 0 1
0x01fd 1 0 0 1
0x01fa 1 0 0 1
0x01f8 1 0 0 1
0x01f6 1 0 0 1
0x01f5 1 0 0 1
0x01f4 1 0 0 1
0x01f4 1 0 0 1
0x01f4 1 0 0 1
0x01f4 1 0 0 1
0x01f4 1 0 0 1
0x01f4 1 0 0 1
0x01f4 1 0 0 1
0x01f4 1 0 0 1
0x01f4 1 0 0 1
0x01f4 1 0 0 1
0x01f4 1 0 0 1
0x01f4 1 0 0 1
0x01f4 1 0 0 1
0x01f4 1 0 0 1
0x01f4 1 0 0 1
0x01f4 1 0 0 1
0x01f4 1 0 0 1
0x01f4 1 0 0 1
0x01f4 1 0 0 1
0x01f4 1 0 0 1
0x01f4 1 0 0 1
0x01f4 1 0 0 1
0x01f4 1 0 0 1
0x01f4 1 0 0 1
0x01f4 1 0 0 1
0x01f4 1 0 0 1
0x01f4 1 0 0 1
0x01f4 1 0 0 1
0x01f4 1 0 0 1
0x01f4 1 0 0 1
0x01f4 1 0 0 1
0x01f4 1 0 0 1
0x01f4 1 0 0 1
0x01f4 1 0 0 1
0x01f4 1 0 0 1
0x01f4 1 0 0 1
0x01f4 1 0 0 1
0x01f4 1 0 0 1
0x01f4 1 0 0 1
0x01f4 1 1 1 1
0xaa2d 1 0 0 1
0x4000 1 0 0 1
0x5555 1 0 0 1
0x5555 1 0 0 1
0x5555 1 0 0 1
0x5555 1 1 0 1
0x01f8 1 0 0 1
0x01fa 1 0 0 1
0x01fd 1 0 0 1
0x0201 1 0 0 1
0x0206 1 0 0 1
0x020c 1 0 0 1
0x0212 1 0 0 1
0x0218 1 0 0 1
0x021d 1 0 0 1
0x0222 1 0 0 1
0x0225 1 0 0 1
0x0226 1 0 0 1
0x0225 1 0 0 1
0x0222 1 0 0 1
0x021d 1 0 0 1
0x0218 1 0 0 1
0x0212 1 0 0 1
0x020c 1 0 0 1
0x0206 1 0 0 1
0x0201 1 0 0 1
0x01fd 1 0 0 1
0x01fa 1 0 0 1
0x01f8 1 0 0 1
0x01f6 1 0 0 1
0x01f5 1 0 0 1
0x01f4 1 0 0 1
0x01f4 1 0 0 1
0x01f4 1 0 0 1
0x01f4 1 0 0 1
0x01f4 1 0 0 1
0x01f4 1 0 0 1
0x01f4 1 0 0 1
0x01f4 1 0 0 1
0x01f4 1 0 0 1
0x01f4 1 0 0 1
0x01f4 1 0 0 1
0x01f4 1 0 0 1
0x01f4 1 0 0 1
0x01f4 1 0 0 1
0x01f4 1 0 0 1
0x01f4 1 0 0 1
0x01f4 1 0 0 1
0x01f4 1 0 0 1
0x01f4 1 0 0 1
0x01f4 1 0 0 1
0x01f4 1 0 0 1
0x01f4 1 0 0 1
0x01f4 1 0 0 1
0x01f4 1 0 0 1
0x01f4 1 0 0 1
0x01f4 1 0 0 1
0x01f4 1 0 0 1
0x01f4 1 0 0 1
0x01f4 1 0 0 1
0x01f4 1 0 0 1
0x01f4 1 0 0 1
0x01f4 1 0 0 1
0x01f4 1 0 0 1
0x01f4 1 0 0 1
0x01f4 1 0 0 1
0x01f4 1 0 0 1
0x01f4 1 0 0 1
0x01f4 1 0 0 1
0x01f4 1 1 1 1
0xaa31 1 0 0 1
0x4000 1 0 0 1
0x5555 1 0 0 1
0x5555 1 0 0 1
0x5555 1 0 0 1
0x5555 1 1 0 1
0x01f6 1 0 0 1
0x01f8 1 0 0 1
0x01fa 1 0 0 1
0x01fd 1 0 0 1
0x0201 1 0 0 1
0x0206 1 0 0 1
0x020c 1 0 0 1
0x0212 1 0 0 1
0x0218 1 0 0 1
0x021d 1 0 0 1
0x0222 1 0 0 1
0x0225 1 0 0 1
0x0226 1 0 0 1
0x0225 1 0 0 1
0x0222 1 0 0 1
0x021d 1 0 0 1
0x0218 1 0 0 1
0x0212 1 0 0 1
0x020c 1 0 0 1
0x0206 1 0 0 1
0x0201 1 0 0 1
0x01fd 1 0 0 1
0x01fa 1 0 0 1
0x01f8 1 0 0 1
0x01f6 1 0 0 1
0x01f5 1 0 0 1
0x01f4 1 0 0 1
0x01f4 1 0 0 1
0x01f4 1 0 0 1
0x01f4 1 0 0 1
0x01f4 1 0 0 1
0x01f4 1 0 0 1
0x01f4 1 0 0 1
0x01f4 1 0 0 1
0x01f4 1 0 0 1
0x01f4 1 0 0 1
0x01f4 1 0 0 1
0x01f4 1 0 0 1
0x01f4 1 0 0 1
0x01f4 1 0 0 1
0x01f4 1 0 0 1
0x01f4 1 0 0 1
0x01f4 1 0 0 1
0x01f4 1 0 0 1
0x01f4 1 0 0 1
0x01f4 1 0 0 1
0x01f4 1 0 0 1
0x01f4 1 0 0 1
0x01f4 1 0 0 1
0x01f4 1 0 0 1
0x01f4 1 0 0 1
0x01f4 1 0 0 1
0x01f4 1 0 0 1
0x01f4 1 0 0 1
0x01f4 1 0 0 1
0x01f4 1 0 0 1
0x01f4 1 0 0 1
0x01f4 1 0 0 1
0x01f4 1 0 0 1
0x01f4 1 0 0 1
0x01f4 1 0 0 1
0x01f4 1 0 0 1
0x01f4 1 0 0 1
0x01f4 1 1 1 1
0xaa35 1 0 0 1
0x4000 1 0 0 1
0x5555 1 0 0 1
0x5555 1 0 0 1
0x5555 1 0 0 1
0x5555 1 1 0 1
0x01f5 1 0 0 1
0x01f6 1 0 0 1
0x01f8 1 0 0 1
0x01fa 1 0 0 1
0x01fd 1 0 0 1
0x0201 1 0 0 1
0x0206 1 0 0 1
0x020c 1 0 0 1
0x0212 1 0 0 1
0x0218 1 0 0 1
0x021d 1 0 0 1
0x0222 1 0 0 1
0x0225 1 0 0 1
0x0226 1 0 0 1
0x0225 1 0 0 1
0x0222 1 0 0 1
0x021d 1 0 0 1
0x0218 1 0 0 1
0x0212 1 0 0 1
0x020c 1 0 0 1
0x0206 1 0 0 1
0x0201 1 0 0 1
0x01fd 1 0 0 1
0x01fa 1 0 0 1
0x01f8 1 0 0 1
0x01f6 1 0 0 1
0x01f5 1 0 0 1
0x01f4 1 0 0 1
0x01f4 1 0 0 1
0x01f4 1 0 0 1
0x01f4 1 0 0 1
0x01f4 1 0 0 1
0x01f4 1 0 0 1
0x01f4 1 0 0 1
0x01f4 1 0 0 1
0x01f4 1 0 0 1
0x01f4 1 0 0 1
0x01f4 1 0 0 1
0x01f4 1 0 0 1
0x01f4 1 0 0 1
0x01f4 1 0 0 1
0x01f4 1 0 0 1
0x01f4 1 0 0 1
0x01f4 1 0 0 1
0x01f4 1 0 0 1
0x01f4 1 0 0 1
0x01f4 1 0 0 1
0x01f4 1 0 0 1
0x01f4 1 0 0 1
0x01f4 1 0 0 1
0x01f4 1 0 0 1
0x01f4 1 0 0 1
0x01f4 1 0 0 1
0x01f4 1 0 0 1
0x01f4 1 0 0 1
0x01f4 1 0 0 1
0x01f4 1 0 0 1
0x01f4 1 0 0 1
0x01f4 1 0 0 1
0x01f4 1 0 0 1
0x01f4 1 0 0 1
0x01f4 1 0 0 1
0x01f4 1 0 0 1
0x01f4 1 1 1 1
0xaa39 1 0 0 1
0x4000 1 0 0 1
0x5555 1 0 0 1
0x5555 1 0 0 1
0x5555 1 0 0 1
0x5555 1 1 0 1
0x01f4 1 0 0 1
0x01f5 1 0 0 1
0x01f6 1 0 0 1
0x01f8 1 0 0 1
0x01fa 1 0 0 1
0x01fd 1 0 0 1
0x0201 1 0 0 1
0x0206 1 0 0 1
0x020c 1 0 0 1
0x0212 1 0 0 1
0x0218 1 0 0 1
0x021d 1 0 0 1
0x0222 1 0 0 1
0x0225 1 0 0 1
0x0226 1 0 0 1
0x0225 1 0 0 1
0x0222 1 0 0 1
0x021d 1 0 0 1
0x0218 1 0 0 1
0x0212 1 0 0 1
0x020c 1 0 0 1
0x0206 1 0 0 1
0x0201 1 0 0 1
0x01fd 1 0 0 1
0x01fa 1 0 0 1
0x01f8 1 0 0 1
0x01f6 1 0 0 1
0x01f5 1 0 0 1
0x01f4 1 0 0 1
0x01f4 1 0 0 1
0x01f4 1 0 0 1
0x01f4 1 0 0 1
0x01f4 1 0 0 1
0x01f4 1 0 0 1
0x01f4 1 0 0 1
0x01f4 1 0 0 1
0x01f4 1 0 0 1
0x01f4 1 0 0 1
0x01f4 1 0 0 1
0x01f4 1 0 0 1
0x01f4 1 0 0 1
0x01f4 1 0 0 1
0x01f4 1 0 0 1
0x01f4 1 0 0 1
0x01f4 1 0 0 1
0x01f4 1 0 0 1
0x01f4 1 0 0 1
0x01f4 1 0 0 1
0x01f4 1 0 0 1
0x01f4 1 0 0 1
0x01f4 1 0 0 1
0x01f4 1 0 0 1
0x01f4 1 0 0 1
0x01f4 1 0 0 1
0x01f4 1 0 0 1
0x01f4 1 0 0 1
0x01f4 1 0 0 1
0x01f4 1 0 0 1
0x01f4 1 0 0 1
0x01f4 1 0 0 1
0x01f4 1 0 0 1
0x01f4 1 0 0 1
0x01f4 1 0 0 1
0x01f4 1 1 1 1
0xaa3d 1 0 0 1
0x4000 1 0 0 1
0x5555 1 0 0 1
0x5555 1 0 0 1
0x5555 1 0 0 1
0x5555 1 1 0 1
0x01f4 1 0 0 1
0x01f4 1 0 0 1
0x01f5 1 0 0 1
0x01f6 1 0 0 1
0x01f8 1 0 0 1
0x01fa 1 0 0 1
0x01fd 1 0 0 1
0x0201 1 0 0 1
0x0206 1 0 0 1
0x020c 1 0 0 1
0x0212 1 0 0 1
0x0218 1 0 0 1
0x021d 1 0 0 1
0x0222 1 0 0 1
0x0225 1 0 0 1
0x0226 1 0 0 1
0x0225 1 0 0 1
0x0222 1 0 0 1
0x021d 1 0 0 1
0x0218 1 0 0 1
0x0212 1 0 0 1
0x020c 1 0 0 1
0x0206 1 0 0 1
0x0201 1 0 0 1
0x01fd 1 0 0 1
0x01fa 1 0 0 1
0x01f8 1 0 0 1
0x01f6 1 0 0 1
0x01f5 1 0 0 1
0x01f4 1 0 0 1
0x01f4 1 0 0 1
0x01f4 1 0 0 1
0x01f4 1 0 0 1
0x01f4 1 0 0 1
0x01f4 1 0 0 1
0x01f4 1 0 0 1
0x01f4 1 0 0 1
0x01f4 1 0 0 1
0x01f4 1 0 0 1
0x01f4 1 0 0 1
0x01f4 1 0 0 1
0x01f4 1 0 0 1
0x01f4 1 0 0 1
0x01f4 1 0 0 1
0x01f4 1 0 0 1
0x01f4 1 0 0 1
0x01f4 1 0 0 1
0x01f4 1 0 0 1
0x01f4 1 0 0 1
0x01f4 1 0 0 1
0x01f4 1 0 0 1
0x01f4 1 0 0 1
0x01f4 1 0 0 1
0x01f4 1 0 0 1
0x01f4 1 0 0 1
0x01f4 1 0 0 1
0x01f4 1 0 0 1
0x01f4 1 0 0 1
0x01f4 1 0 0 1
0x01f4 1 0 0 1
0x01f4 1 0 0 1
0x01f4 1 0 0 1
0x01f4 1 0 0 1
0x01f4 1 1 1 1
0xaa41 1 0 0 1
0x4000 1 0 0 1
0x5555 1 0 0 1
0x5555 1 0 0 1
0x5555 1 0 0 1
0x5555 1 1 0 1
0x01f4 1 0 0 1
0x01f4 1 0 0 1
0x01f4 1 0 0 1
0x01f5 1 0 0 1
0x01f6 1 0 0 1
0x01f8 1 0 0 1
0x01fa 1 0 0 1
0x01fd 1 0 0 1
0x0201 1 0 0 1
0x0206 1 0 0 1
0x020c 1 0 0 1
0x0212 1 0 0 1
0x0218 1 0 0 1
0x021d 1 0 0 1
0x0222 1 0 0 1
0x0225 1 0 0 1
0x0226 1 0 0 1
0x0225 1 0 0 1
0x0222 1 0 0 1
0x021d 1 0 0 1
0x0218 1 0 0 1
0x0212 1 0 0 1
0x020c 1 0 0 1
0x0206 1 0 0 1
0x0201 1 0 0 1
0x01fd 1 0 0 1
0x01fa 1 0 0 1
0x01f8 1 0 0 1
0x01f6 1 0 0 1
0x01f5 1 0 0 1
0x01f4 1 0 0 1
0x01f4 1 0 0 1
0x01f4 1 0 0 1
0x01f4 1 0 0 1
0x01f4 1 0 0 1
0x01f4 1 0 0 1
0x01f4 1 0 0 1
0x01f4 1 0 0 1
0x01f4 1 0 0 1
0x01f4 1 0 0 1
0x01f4 1 0 0 1
0x01f4 1 0 0 1
0x01f4 1 0 0 1
0x01f4 1 0 0 1
0x01f4 1 0 0 1
0x01f4 1 0 0 1
0x01f4 1 0 0 1
0x01f4 1 0 0 1
0x01f4 1 0 0 1
0x01f4 1 0 0 1
0x01f4 1 0 0 1
0x01f4 1 0 0 1
0x01f4 1 0 0 1
0x01f4 1 0 0 1
0x01f4 1 0 0 1
0x01f4 1 0 0 1
0x01f4 1 0 0 1
0x01f4 1 0 0 1
0x01f4 1 0 0 1
0x01f4 1 0 0 1
0x01f4 1 0 0 1
0x01f4 1 0 0 1
0x01f4 1 0 0 1
0x01f4 1 1 1 1
0xaa45 1 0 0 1
0x4000 1 0 0 1
0x5555 1 0 0 1
0x5555 1 0 0 1
0x5555 1 0 0 1
0x5555 1 1 0 1
0x01f4 1 0 0 1
0x01f4 1 0 0 1
0x01f4 1 0 0 1
0x01f4 1 0 0 1
0x01f5 1 0 0 1
0x01f6 1 0 0 1
0x01f8 1 0 0 1
0x01fa 1 0 0 1
0x01fd 1 0 0 1
0x0201 1 0 0 1
0x0206 1 0 0 1
0x020c 1 0 0 1
0x0212 1 0 0 1
0x0218 1 0 0 1
0x021d 1 0 0 1
0x0222 1 0 0 1
0x0225 1 0 0 1
0x0226 1 0 0 1
0x0225 1 0 0 1
0x0222 1 0 0 1
0x021d 1 0 0 1
0x0218 1 0 0 1
0x0212 1 0 0 1
0x020c 1 0 0 1
0x0206 1 0 0 1
0x0201 1 0 0 1
0x01fd 1 0 0 1
0x01fa 1 0 0 1
0x01f8 1 0 0 1
0x01f6 1 0 0 1
0x01f5 1 0 0 1
0x01f4 1 0 0 1
0x01f4 1 0 0 1
0x01f4 1 0 0 1
0x01f4 1 0 0 1
0x01f4 1 0 0 1
0x01f4 1 0 0 1
0x01f4 1 0 0 1
0x01f4 1 0 0 1
0x01f4 1 0 0 1
0x01f4 1 0 0 1
0x01f4 1 0 0 1
0x01f4 1 0 0 1
0x01f4 1 0 0 1
0x01f4 1 0 0 1
0x01f4 1 0 0 1
0x01f4 1 0 0 1
0x01f4 1 0 0 1
0x01f4 1 0 0 1
0x01f4 1 0 0 1
0x01f4 1 0 0 1
0x01f4 1 0 0 1
0x01f4 1 0 0 1
0x01f4 1 0 0 1
0x01f4 1 0 0 1
0x01f4 1 0 0 1
0x01f4 1 0 0 1
0x01f4 1 0 0 1
0x01f4 1 0 0 1
0x01f4 1 0 0 1
0x01f4 1 0 0 1
0x01f4 1 0 0 1
0x01f4 1 0 0 1
0x01f4 1 1 1 1
0xaa49 1 0 0 1
0x4000 1 0 0 1
0x5555 1 0 0 1
0x5555 1 0 0 1
0x5555 1 0 0 1
0x5555 1 1 0 1
0x01f4 1 0 0 1
0x01f4 1 0 0 1
0x01f4 1 0 0 1
0x01f4 1 0 0 1
0x01f4 1 0 0 1
0x01f5 1 0 0 1
0x01f6 1 0 0 1
0x01f8 1 0 0 1
0x01fa 1 0 0 1
0x01fd 1 0 0 1
0x0201 1 0 0 1
0x0206 1 0 0 1
0x020c 1 0 0 1
0x0212 1 0 0 1
0x0218 1 0 0 1
0x021d 1 0 0 1
0x0222 1 0 0 1
0x0225 1 0 0 1
0x0226 1 0 0 1
0x0225 1 0 0 1
0x0222 1 0 0 1
0x021d 1 0 0 1
0x0218 1 0 0 1
0x0212 1 0 0 1
0x020c 1 0 0 1
0x0206 1 0 0 1
0x0201 1 0 0 1
0x01fd 1 0 0 1
0x01fa 1 0 0 1
0x01f8 1 0 0 1
0x01f6 1 0 0 1
0x01f5 1 0 0 1
0x01f4 1 0 0 1
0x01f4 1 0 0 1
0x01f4 1 0 0 1
0x01f4 1 0 0 1
0x01f4 1 0 0 1
0x01f4 1 0 0 1
0x01f4 1 0 0 1
0x01f4 1 0 0 1
0x01f4 1 0 0 1
0x01f4 1 0 0 1
0x01f4 1 0 0 1
0x01f4 1 0 0 1
0x01f4 1 0 0 1
0x01f4 1 0 0 1
0x01f4 1 0 0 1
0x01f4 1 0 0 1
0x01f4 1 0 0 1
0x01f4 1 0 0 1
0x01f4 1 0 0 1
0x01f4 1 0 0 1
0x01f4 1 0 0 1
0x01f4 1 0 0 1
0x01f4 1 0 0 1
0x01f4 1 0 0 1
0x01f4 1 0 0 1
0x01f4 1 0 0 1
0x01f4 1 0 0 1
0x01f4 1 0 0 1
0x01f4 1 0 0 1
0x01f4 1 0 0 1
0x01f4 1 0 0 1
0x01f4 1 1 1 1
0xaa4d 1 0 0 1
0x4000 1 0 0 1
0x5555 1 0 0 1
0x5555 1 0 0 1
0x5555 1 0 0 1
0x5555 1 1 0 1
0x01f4 1 0 0 1
0x01f4 1 0 0 1
0x01f4 1 0 0 1
0x01f4 1 0 0 1
0x01f4 1 0 0 1
0x01f4 1 0 0 1
0x01f5 1 0 0 1
0x01f6 1 0 0 1
0x01f8 1 0 0 1
0x01fa 1 0 0 1
0x01fd 1 0 0 1
0x0201 1 0 0 1
0x0206 1 0 0 1
0x020c 1 0 0 1
0x0212 1 0 0 1
0x0218 1 0 0 1
0x021d 1 0 0 1
0x0222 1 0 0 1
0x0225 1 0 0 1
0x0226 1 0 0 1
0x0225 1 0 0 1
0x0222 1 0 0 1
0x021d 1 0 0 1
0x0218 1 0 0 1
0x0212 1 0 0 1
0x020c 1 0 0 1
0x0206 1 0 0 1
0x0201 1 0 0 1
0x01fd 1 0 0 1
0x01fa 1 0 0 1
0x01f8 1 0 0 1
0x01f6 1 0 0 1
0x01f5 1 0 0 1
0x01f4 1 0 0 1
0x01f4 1 0 0 1
0x01f4 1 0 0 1
0x01f4 1 0 0 1
0x01f4 1 0 0 1
0x01f4 1 0 0 1
0x01f4 1 0 0 1
0x01f4 1 0 0 1
0x01f4 1 0 0 1
0x01f4 1 0 0 1
0x01f4 1 0 0 1
0x01f4 1 0 0 1
0x01f4 1 0 0 1
0x01f4 1 0 0 1
0x01f4 1 0 0 1
0x01f4 1 0 0 1
0x01f4 1 0 0 1
0x01f4 1 0 0 1
0x01f4 1 0 0 1
0x01f4 1 0 0 1
0x01f4 1 0 0 1
0x01f4 1 0 0 1
0x01f4 1 0 0 1
0x01f4 1 0 0 1
0x01f4 1 0 0 1
0x01f4 1 0 0 1
0x01f4 1 0 0 1
0x01f4 1 0 0 1
0x01f4 1 0 0 1
0x01f4 1 0 0 1
0x01f4 1 1 1 1
0xaa51 1 0 0 1
0x4000 1 0 0 1
0x5555 1 0 0 1
0x5555 1 0 0 1
0x5555 1 0 0 1
0x5555 1 1 0 1
0x01f4 1 0 0 1
0x01f4 1 0 0 1
0x01f4 1 0 0 1
0x01f4 1 0 0 1
0x01f4 1 0 0 1
0x01f4 1 0 0 1
0x01f4 1 0 0 1
0x01f5 1 0 0 1
0x01f6 1 0 0 1
0x01f8 1 0 0 1
0x01fa 1 0 0 1
0x01fd 1 0 0 1
0x0201 1 0 0 1
0x0206 1 0 0 1
0x020c 1 0 0 1
0x0212 1 0 0 1
0x0218 1 0 0 1
0x021d 1 0 0 1
0x0222 1 0 0 1
0x0225 1 0 0 1
0x0226 1 0 0 1
0x0225 1 0 0 1
0x0222 1 0 0 1
0x021d 1 0 0 1
0x0218 1 0 0 1
0x0212 1 0 0 1
0x020c 1 0 0 1
0x0206 1 0 0 1
0x0201 1 0 0 1
0x01fd 1 0 0 1
0x01fa 1 0 0 1
0x01f8 1 0 0 1
0x01f6 1 0 0 1
0x01f5 1 0 0 1
0x01f4 1 0 0 1
0x01f4 1 0 0 1
0x01f4 1 0 0 1
0x01f4 1 0 0 1
0x01f4 1 0 0 1
0x01f4 1 0 0 1
0x01f4 1 0 0 1
0x01f4 1 0 0 1
0x01f4 1 0 0 1
0x01f4 1 0 0 1
0x01f4 1 0 0 1
0x01f4 1 0 0 1
0x01f4 1 0 0 1
0x01f4 1 0 0 1
0x01f4 1 0 0 1
0x01f4 1 0 0 1
0x01f4 1 0 0 1
0x01f4 1 0 0 1
0x01f4 1 0 0 1
0x01f4 1 0 0 1
0x01f4 1 0 0 1
0x01f4 1 0 0 1
0x01f4 1 0 0 1
0x01f4 1 0 0 1
0x01f4 1 0 0 1
0x01f4 1 0 0 1
0x01f4 1 0 0 1
0x01f4 1 0 0 1
0x01f4 1 0 0 1
0x01f4 1 1 1 1
0xaa55 1 0 0 1
0x4000 1 0 0 1
0x5555 1 0 0 1
0x5555 1 0 0 1
0x5555 1 0 0 1
0x5555 1 1 0 1
0x01f4 1 0 0 1
0x01f4 1 0 0 1
0x01f4 1 0 0 1
0x01f4 1 0 0 1
0x01f4 1 0 0 1
0x01f4 1 0 0 1
0x01f4 1 0 0 1
0x01f4 1 0 0 1
0x01f5 1 0 0 1
0x01f6 1 0 0 1
0x01f8 1 0 0 1
0x01fa 1 0 0 1
0x01fd 1 0 0 1
0x0201 1 0 0 1
0x0206 1 0 0 1
0x020c 1 0 0 1
0x0212 1 0 0 1
0x0218 1 0 0 1
0x021d 1 0 0 1
0x0222 1 0 0 1
0x0225 1 0 0 1
0x0226 1 0 0 1
0x0225 1 0 0 1
0x0222 1 0 0 1
0x021d 1 0 0 1
0x0218 1 0 0 1
0x0212 1 0 0 1
0x020c 1 0 0 1
0x0206 1 0 0 1
0x0201 1 0 0 1
0x01fd 1 0 0 1
0x01fa 1 0 0 1
0x01f8 1 0 0 1
0x01f6 1 0 0 1
0x01f5 1 0 0 1
0x01f4 1 0 0 1
0x01f4 1 0 0 1
0x01f4 1 0 0 1
0x01f4 1 0 0 1
0x01f4 1 0 0 1
0x01f4 1 0 0 1
0x01f4 1 0 0 1
0x01f4 1 0 0 1
0x01f4 1 0 0 1
0x01f4 1 0 0 1
0x01f4 1 0 0 1
0x01f4 1 0 0 1
0x01f4 1 0 0 1
0x01f4 1 0 0 1
0x01f4 1 0 0 1
0x01f4 1 0 0 1
0x01f4 1 0 0 1
0x01f4 1 0 0 1
0x01f4 1 0 0 1
0x01f4 1 0 0 1
0x01f4 1 0 0 1
0x01f4 1 0 0 1
0x01f4 1 0 0 1
0x01f4 1 0 0 1
0x01f4 1 0 0 1
0x01f4 1 0 0 1
0x01f4 1 0 0 1
0x01f4 1 0 0 1
0x01f4 1 1 1 1
0xaa59 1 0 0 1
0x4000 1 0 0 1
0x5555 1 0 0 1
0x5555 1 0 0 1
0x5555 1 0 0 1
0x5555 1 1 0 1
0x01f4 1 0 0 1
0x01f4 1 0 0 1
0x01f4 1 0 0 1
0x01f4 1 0 0 1
0x01f4 1 0 0 1
0x01f4 1 0 0 1
0x01f4 1 0 0 1
0x01f4 1 0 0 1
0x01f4 1 0 0 1
0x01f5 1 0 0 1
0x01f6 1 0 0 1
0x01f8 1 0 0 1
0x01fa 1 0 0 1
0x01fd 1 0 0 1
0x0201 1 0 0 1
0x0206 1 0 0 1
0x020c 1 0 0 1
0x0212 1 0 0 1
0x0218 1 0 0 1
0x021d 1 0 0 1
0x0222 1 0 0 1
0x0225 1 0 0 1
0x0226 1 0 0 1
0x0225 1 0 0 1
0x0222 1 0 0 1
0x021d 1 0 0 1
0x0218 1 0 0 1
0x0212 1 0 0 1
0x020c 1 0 0 1
0x0206 1 0 0 1
0x0201 1 0 0 1
0x01fd 1 0 0 1
0x01fa 1 0 0 1
0x01f8 1 0 0 1
0x01f6 1 0 0 1
0x01f5 1 0 0 1
0x01f4 1 0 0 1
0x01f4 1 0 0 1
0x01f4 1 0 0 1
0x01f4 1 0 0 1
0x01f4 1 0 0 1
0x01f4 1 0 0 1
0x01f4 1 0 0 1
0x01f4 1 0 0 1
0x01f4 1 0 0 1
0x01f4 1 0 0 1
0x01f4 1 0 0 1
0x01f4 1 0 0 1
0x01f4 1 0 0 1
0x01f4 1 0 0 1
0x01f4 1 0 0 1
0x01f4 1 0 0 1
0x01f4 1 0 0 1
0x01f4 1 0 0 1
0x01f4 1 0 0 1
0x01f4 1 0 0 1
0x01f4 1 0 0 1
0x01f4 1 0 0 1
0x01f4 1 0 0 1
0x01f4 1 0 0 1
0x01f4 1 0 0 1
0x01f4 1 0 0 1
0x01f4 1 0 0 1
0x01f4 1 1 1 1
0xaa5d 1 0 0 1
0x4000 1 0 0 1
0x5555 1 0 0 1
0x5555 1 0 0 1
0x5555 1 0 0 1
0x5555 1 1 0 1
0x01f4 1 0 0 1
0x01f4 1 0 0 1
0x01f4 1 0 0 1
0x01f4 1 0 0 1
0x01f4 1 0 0 1
0x01f4 1 0 0 1
0x01f4 1 0 0 1
0x01f4 1 0 0 1
0x01f4 1 0 0 1
0x01f4 1 0 0 1
0x01f5 1 0 0 1
0x01f6 1 0 0 1
0x01f8 1 0 0 1
0x01fa 1 0 0 1
0x01fd 1 0 0 1
0x0201 1 0 0 1
0x0206 1 0 0 1
0x020c 1 0 0 1
0x0212 1 0 0 1
0x0218 1 0 0 1
0x021d 1 0 0 1
0x0222 1 0 0 1
0x0225 1 0 0 1
0x0226 1 0 0 1
0x0225 1 0 0 1
0x0222 1 0 0 1
0x021d 1 0 0 1
0x0218 1 0 0 1
0x0212 1 0 0 1
0x020c 1 0 0 1
0x0206 1 0 0 1
0x0201 1 0 0 1
0x01fd 1 0 0 1
0x01fa 1 0 0 1
0x01f8 1 0 0 1
0x01f6 1 0 0 1
0x01f5 1 0 0 1
0x01f4 1 0 0 1
0x01f4 1 0 0 1
0x01f4 1 0 0 1
0x01f4 1 0 0 1
0x01f4 1 0 0 1
0x01f4 1 0 0 1
0x01f4 1 0 0 1
0x01f4 1 0 0 1
0x01f4 1 0 0 1
0x01f4 1 0 0 1
0x01f4 1 0 0 1
0x01f4 1 0 0 1
0x01f4 1 0 0 1
0x01f4 1 0 0 1
0x01f4 1 0 0 1
0x01f4 1 0 0 1
0x01f4 1 0 0 1
0x01f4 1 0 0 1
0x01f4 1 0 0 1
0x01f4 1 0 0 1
0x01f4 1 0 0 1
0x01f4 1 0 0 1
0x01f4 1 0 0 1
0x01f4 1 0 0 1
0x01f4 1 0 0 1
0x01f4 1 0 0 1
0x01f4 1 1 1 1
0xaa61 1 0 0 1
0x4000 1 0 0 1
0x5555 1 0 0 1
0x5555 1 0 0 1
0x5555 1 0 0 1
0x5555 1 1 0 1
0x01f4 1 0 0 1
0x01f4 1 0 0 1
0x01f4 1 0 0 1
0x01f4 1 0 0 1
0x01f4 1 0 0 1
0x01f4 1 0 0 1
0x01f4 1 0 0 1
0x01f4 1 0 0 1
0x01f4 1 0 0 1
0x01f4 1 0 0 1
0x01f4 1 0 0 1
0x01f5 1 0 0 1
0x01f6 1 0 0 1
0x01f8 1 0 0 1
0x01fa 1 0 0 1
0x01fd 1 0 0 1
0x0201 1 0 0 1
0x0206 1 0 0 1
0x020c 1 0 0 1
0x0212 1 0 0 1
0x0218 1 0 0 1
0x021d 1 0 0 1
0x0222 1 0 0 1
0x0225 1 0 0 1
0x0226 1 0 0 1
0x0225 1 0 0 1
0x0222 1 0 0 1
0x021d 1 0 0 1
0x0218 1 0 0 1
0x0212 1 0 0 1
0x020c 1 0 0 1
0x0206 1 0 0 1
0x0201 1 0 0 1
0x01fd 1 0 0 1
0x01fa 1 0 0 1
0x01f8 1 0 0 1
0x01f6 1 0 0 1
0x01f5 1 0 0 1
0x01f4 1 0 0 1
0x01f4 1 0 0 1
0x01f4 1 0 0 1
0x01f4 1 0 0 1
0x01f4 1 0 0 1
0x01f4 1 0 0 1
0x01f4 1 0 0 1
0x01f4 1 0 0 1
0x01f4 1 0 0 1
0x01f4 1 0 0 1
0x01f4 1 0 0 1
0x01f4 1 0 0 1
0x01f4 1 0 0 1
0x01f4 1 0 0 1
0x01f4 1 0 0 1
0x01f4 1 0 0 1
0x01f4 1 0 0 1
0x01f4 1 0 0 1
0x01f4 1 0 0 1
0x01f4 1 0 0 1
0x01f4 1 0 0 1
0x01f4 1 0 0 1
0x01f4 1 0 0 1
0x01f4 1 0 0 1
0x01f4 1 0 0 1
0x01f4 1 1 1 1
0xaa65 1 0 0 1
0x4000 1 0 0 1
0x5555 1 0 0 1
0x5555 1 0 0 1
0x5555 1 0 0 1
0x5555 1 1 0 1
0x01f4 1 0 0 1
0x01f4 1 0 0 1
0x01f4 1 0 0 1
0x01f4 1 0 0 1
0x01f4 1 0 0 1
0x01f4 1 0 0 1
0x01f4 1 0 0 1
0x01f4 1 0 0 1
0x01f4 1 0 0 1
0x01f4 1 0 0 1
0x01f4 1 0 0 1
0x01f4 1 0 0 1
0x01f5 1 0 0 1
0x01f6 1 0 0 1
0x01f8 1 0 0 1
0x01fa 1 0 0 1
0x01fd 1 0 0 1
0x0201 1 0 0 1
0x0206 1 0 0 1
0x020c 1 0 0 1
0x0212 1 0 0 1
0x0218 1 0 0 1
0x021d 1 0 0 1
0x0222 1 0 0 1
0x0225 1 0 0 1
0x0226 1 0 0 1
0x0225 1 0 0 1
0x0222 1 0 0 1
0x021d 1 0 0 1
0x0218 1 0 0 1
0x0212 1 0 0 1
0x020c 1 0 0 1
0x0206 1 0 0 1
0x0201 1 0 0 1
0x01fd 1 0 0 1
0x01fa 1 0 0 1
0x01f8 1 0 0 1
0x01f6 1 0 0 1
0x01f5 1 0 0 1
0x01f4 1 0 0 1
0x01f4 1 0 0 1
0x01f4 1 0 0 1
0x01f4 1 0 0 1
0x01f4 1 0 0 1
0x01f4 1 0 0 1
0x01f4 1 0 0 1
0x01f4 1 0 0 1
0x01f4 1 0 0 1
0x01f4 1 0 0 1
0x01f4 1 0 0 1
0x01f4 1 0 0 1
0x01f4 1 0 0 1
0x01f4 1 0 0 1
0x01f4 1 0 0 1
0x01f4 1 0 0 1
0x01f4 1 0 0 1
0x01f4 1 0 0 1
0x01f4 1 0 0 1
0x01f4 1 0 0 1
0x01f4 1 0 0 1
0x01f4 1 0 0 1
0x01f4 1 0 0 1
0x01f4 1 0 0 1
0x01f4 1 1 1 1
0xaa69 1 0 0 1
0x4000 1 0 0 1
0x5555 1 0 0 1
0x5555 1 0 0 1
0x5555 1 0 0 1
0x5555 1 1 0 1
0x01f4 1 0 0 1
0x01f4 1 0 0 1
0x01f4 1 0 0 1
0x01f4 1 0 0 1
0x01f4 1 0 0 1
0x01f4 1 0 0 1
0x01f4 1 0 0 1
0x01f4 1 0 0 1
0x01f4 1 0 0 1
0x01f4 1 0 0 1
0x01f4 1 0 0 1
0x01f4 1 0 0 1
0x01f4 1 0 0 1
0x01f5 1 0 0 1
0x01f6 1 0 0 1
0x01f8 1 0 0 1
0x01fa 1 0 0 1
0x01fd 1 0 0 1
0x0201 1 0 0 1
0x0206 1 0 0 1
0x020c 1 0 0 1
0x0212 1 0 0 1
0x0218 1 0 0 1
0x021d 1 0 0 1
0x0222 1 0 0 1
0x0225 1 0 0 1
0x0226 1 0 0 1
0x0225 1 0 0 1
0x0222 1 0 0 1
0x021d 1 0 0 1
0x0218 1 0 0 1
0x0212 1 0 0 1
0x020c 1 0 0 1
0x0206 1 0 0 1
0x0201 1 0 0 1
0x01fd 1 0 0 1
0x01fa 1 0 0 1
0x01f8 1 0 0 1
0x01f6 1 0 0 1
0x01f5 1 0 0 1
0x01f4 1 0 0 1
0x01f4 1 0 0 1
0x01f4 1 0 0 1
0x01f4 1 0 0 1
0x01f4 1 0 0 1
0x01f4 1 0 0 1
0x01f4 1 0 0 1
0x01f4 1 0 0 1
0x01f4 1 0 0 1
0x01f4 1 0 0 1
0x01f4 1 0 0 1
0x01f4 1 0 0 1
0x01f4 1 0 0 1
0x01f4 1 0 0 1
0x01f4 1 0 0 1
0x01f4 1 0 0 1
0x01f4 1 0 0 1
0x01f4 1 0 0 1
0x01f4 1 0 0 1
0x01f4 1 0 0 1
0x01f4 1 0 0 1
0x01f4 1 0 0 1
0x01f4 1 0 0 1
0x01f4 1 1 1 1
0xaa6d 1 0 0 1
0x4000 1 0 0 1
0x5555 1 0 0 1
0x5555 1 0 0 1
0x5555 1 0 0 1
0x5555 1 1 0 1
0x01f4 1 0 0 1
0x01f4 1 0 0 1
0x01f4 1 0 0 1
0x01f4 1 0 0 1
0x01f4 1 0 0 1
0x01f4 1 0 0 1
0x01f4 1 0 0 1
0x01f4 1 0 0 1
0x01f4 1 0 0 1
0x01f4 1 0 0 1
0x01f4 1 0 0 1
0x01f4 1 0 0 1
0x01f4 1 0 0 1
0x01f4 1 0 0 1
0x01f5 1 0 0 1
0x01f6 1 0 0 1
0x01f8 1 0 0 1
0x01fa 1 0 0 1
0x01fd 1 0 0 1
0x0201 1 0 0 1
0x0206 1 0 0 1
0x020c 1 0 0 1
0x0212 1 0 0 1
0x0218 1 0 0 1
0x021d 1 0 0 1
0x0222 1 0 0 1
0x0225 1 0 0 1
0x0226 1 0 0 1
0x0225 1 0 0 1
0x0222 1 0 0 1
0x021d 1 0 0 1
0x0218 1 0 0 1
0x0212 1 0 0 1
0x020c 1 0 0 1
0x0206 1 0 0 1
0x0201 1 0 0 1
0x01fd 1 0 0 1
0x01fa 1 0 0 1
0x01f8 1 0 0 1
0x01f6 1 0 0 1
0x01f5 1 0 0 1
0x01f4 1 0 0 1
0x01f4 1 0 0 1
0x01f4 1 0 0 1
0x01f4 1 0 0 1
0x01f4 1 0 0 1
0x01f4 1 0 0 1
0x01f4 1 0 0 1
0x01f4 1 0 0 1
0x01f4 1 0 0 1
0x01f4 1 0 0 1
0x01f4 1 0 0 1
0x01f4 1 0 0 1
0x01f4 1 0 0 1
0x01f4 1 0 0 1
0x01f4 1 0 0 1
0x01f4 1 0 0 1
0x01f4 1 0 0 1
0x01f4 1 0 0 1
0x01f4 1 0 0 1
0x01f4 1 0 0 1
0x01f4 1 0 0 1
0x01f4 1 0 0 1
0x01f4 1 1 1 1
0xaa71 1 0 0 1
0x4000 1 0 0 1
0x5555 1 0 0 1
0x5555 1 0 0 1
0x5555 1 0 0 1
0x5555 1 1 0 1
0x01f4 1 0 0 1
0x01f4 1 0 0 1
0x01f4 1 0 0 1
0x01f4 1 0 0 1
0x01f4 1 0 0 1
0x01f4 1 0 0 1
0x01f4 1 0 0 1
0x01f4 1 0 0 1
0x01f4 1 0 0 1
0x01f4 1 0 0 1
0x01f4 1 0 0 1
0x01f4 1 0 0 1
0x01f4 1 0 0 1
0x01f4 1 0 0 1
0x01f4 1 0 0 1
0x01f5 1 0 0 1
0x01f6 1 0 0 1
0x01f8 1 0 0 1
0x01fa 1 0 0 1
0x01fd 1 0 0 1
0x0201 1 0 0 1
0x0206 1 0 0 1
0x020c 1 0 0 1
0x0212 1 0 0 1
0x0218 1 0 0 1
0x021d 1 0 0 1
0x0222 1 0 0 1
0x0225 1 0 0 1
0x0226 1 0 0 1
0x0225 1 0 0 1
0x0222 1 0 0 1
0x021d 1 0 0 1
0x0218 1 0 0 1
0x0212 1 0 0 1
0x020c 1 0 0 1
0x0206 1 0 0 1
0x0201 1 0 0 1
0x01fd 1 0 0 1
0x01fa 1 0 0 1
0x01f8 1 0 0 1
0x01f6 1 0 0 1
0x01f5 1 0 0 1
0x01f4 1 0 0 1
0x01f4 1 0 0 1
0x01f4 1 0 0 1
0x01f4 1 0 0 1
0x01f4 1 0 0 1
0x01f4 1 0 0 1
0x01f4 1 0 0 1
0x01f4 1 0 0 1
0x01f4 1 0 0 1
0x01f4 1 0 0 1
0x01f4 1 0 0 1
0x01f4 1 0 0 1
0x01f4 1 0 0 1
0x01f4 1 0 0 1
0x01f4 1 0 0 1
0x01f4 1 0 0 1
0x01f4 1 0 0 1
0x01f4 1 0 0 1
0x01f4 1 0 0 1
0x01f4 1 0 0 1
0x01f4 1 0 0 1
0x01f4 1 1 1 1
0xaa75 1 0 0 1
0x4000 1 0 0 1
0x5555 1 0 0 1
0x5555 1 0 0 1
0x5555 1 0 0 1
0x5555 1 1 0 1
0x01f4 1 0 0 1
0x01f4 1 0 0 1
0x01f4 1 0 0 1
0x01f4 1 0 0 1
0x01f4 1 0 0 1
0x01f4 1 0 0 1
0x01f4 1 0 0 1
0x01f4 1 0 0 1
0x01f4 1 0 0 1
0x01f4 1 0 0 1
0x01f4 1 0 0 1
0x01f4 1 0 0 1
0x01f4 1 0 0 1
0x01f4 1 0 0 1
0x01f4 1 0 0 1
0x01f4 1 0 0 1
0x01f5 1 0 0 1
0x01f6 1 0 0 1
0x01f8 1 0 0 1
0x01fa 1 0 0 1
0x01fd 1 0 0 1
0x0201 1 0 0 1
0x0206 1 0 0 1
0x020c 1 0 0 1
0x0212 1 0 0 1
0x0218 1 0 0 1
0x021d 1 0 0 1
0x0222 1 0 0 1
0x0225 1 0 0 1
0x0226 1 0 0 1
0x0225 1 0 0 1
0x0222 1 0 0 1
0x021d 1 0 0 1
0x0218 1 0 0 1
0x0212 1 0 0 1
0x020c 1 0 0 1
0x0206 1 0 0 1
0x0201 1 0 0 1
0x01fd 1 0 0 1
0x01fa 1 0 0 1
0x01f8 1 0 0 1
0x01f6 1 0 0 1
0x01f5 1 0 0 1
0x01f4 1 0 0 1
0x01f4 1 0 0 1
0x01f4 1 0 0 1
0x01f4 1 0 0 1
0x01f4 1 0 0 1
0x01f4 1 0 0 1
0x01f4 1 0 0 1
0x01f4 1 0 0 1
0x01f4 1 0 0 1
0x01f4 1 0 0 1
0x01f4 1 0 0 1
0x01f4 1 0 0 1
0x01f4 1 0 0 1
0x01f4 1 0 0 1
0x01f4 1 0 0 1
0x01f4 1 0 0 1
0x01f4 1 0 0 1
0x01f4 1 0 0 1
0x01f4 1 0 0 1
0x01f4 1 0 0 1
0x01f4 1 1 1 1
0xaa79 1 0 0 1
0x4000 1 0 0 1
0x5555 1 0 0 1
0x5555 1 0 0 1
0x5555 1 0 0 1
0x5555 1 1 0 1
0x01f4 1 0 0 1
0x01f4 1 0 0 1
0x01f4 1 0 0 1
0x01f4 1 0 0 1
0x01f4 1 0 0 1
0x01f4 1 0 0 1
0x01f4 1 0 0 1
0x01f4 1 0 0 1
0x01f4 1 0 0 1
0x01f4 1 0 0 1
0x01f4 1 0 0 1
0x01f4 1 0 0 1
0x01f4 1 0 0 1
0x01f4 1 0 0 1
0x01f4 1 0 0 1
0x01f4 1 0 0 1
0x01f4 1 0 0 1
0x01f5 1 0 0 1
0x01f6 1 0 0 1
0x01f8 1 0 0 1
0x01fa 1 0 0 1
0x01fd 1 0 0 1
0x0201 1 0 0 1
0x0206 1 0 0 1
0x020c 1 0 0 1
0x0212 1 0 0 1
0x0218 1 0 0 1
0x021d 1 0 0 1
0x0222 1 0 0 1
0x0225 1 0 0 1
0x0226 1 0 0 1
0x0225 1 0 0 1
0x0222 1 0 0 1
0x021d 1 0 0 1
0x0218 1 0 0 1
0x0212 1 0 0 1
0x020c 1 0 0 1
0x0206 1 0 0 1
0x0201 1 0 0 1
0x01fd 1 0 0 1
0x01fa 1 0 0 1
0x01f8 1 0 0 1
0x01f6 1 0 0 1
0x01f5 1 0 0 1
0x01f4 1 0 0 1
0x01f4 1 0 0 1
0x01f4 1 0 0 1
0x01f4 1 0 0 1
0x01f4 1 0 0 1
0x01f4 1 0 0 1
0x01f4 1 0 0 1
0x01f4 1 0 0 1
0x01f4 1 0 0 1
0x01f4 1 0 0 1
0x01f4 1 0 0 1
0x01f4 1 0 0 1
0x01f4 1 0 0 1
0x01f4 1 0 0 1
0x01f4 1 0 0 1
0x01f4 1 0 0 1
0x01f4 1 0 0 1
0x01f4 1 0 0 1
0x01f4 1 0 0 1
0x01f4 1 1 1 1
0xaa7d 1 0 0 1
0x4000 1 0 0 1
0x5555 1 0 0 1
0x5555 1 0 0 1
0x5555 1 0 0 1
0x5555 1 1 0 1
0x01f4 1 0 0 1
0x01f4 1 0 0 1
0x01f4 1 0 0 1
0x01f4 1 0 0 1
0x01f4 1 0 0 1
0x01f4 1 0 0 1
0x01f4 1 0 0 1
0x01f4 1 0 0 1
0x01f4 1 0 0 1
0x01f4 1 0 0 1
0x01f4 1 0 0 1
0x01f4 1 0 0 1
0x01f4 1 0 0 1
0x01f4 1 0 0 1
0x01f4 1 0 0 1
0x01f4 1 0 0 1
0x01f4 1 0 0 1
0x01f4 1 0 0 1
0x01f5 1 0 0 1
0x01f6 1 0 0 1
0x01f8 1 0 0 1
0x01fa 1 0 0 1
0x01fd 1 0 0 1
0x0201 1 0 0 1
0x0206 1 0 0 1
0x020c 1 0 0 1
0x0212 1 0 0 1
0x0218 1 0 0 1
0x021d 1 0 0 1
0x0222 1 0 0 1
0x0225 1 0 0 1
0x0226 1 0 0 1
0x0225 1 0 0 1
0x0222 1 0 0 1
0x021d 1 0 0 1
0x0218 1 0 0 1
0x0212 1 0 0 1
0x020c 1 0 0 1
0x0206 1 0 0 1
0x0201 1 0 0 1
0x01fd 1 0 0 1
0x01fa 1 0 0 1
0x01f8 1 0 0 1
0x01f6 1 0 0 1
0x01f5 1 0 0 1
0x01f4 1 0 0 1
0x01f4 1 0 0 1
0x01f4 1 0 0 1
0x01f4 1 0 0 1
0x01f4 1 0 0 1
0x01f4 1 0 0 1
0x01f4 1 0 0 1
0x01f4 1 0 0 1
0x01f4 1 0 0 1
0x01f4 1 0 0 1
0x01f4 1 0 0 1
0x01f4 1 0 0 1
0x01f4 1 0 0 1
0x01f4 1 0 0 1
0x01f4 1 0 0 1
0x01f4 1 0 0 1
0x01f4 1 0 0 1
0x01f4 1 0 0 1
0x01f4 1 1 1 1
0xaa81 1 0 0 1
0x4000 1 0 0 1
0x5555 1 0 0 1
0x5555 1 0 0 1
0x5555 1 0 0 1
0x5555 1 1 0 1
0x01f4 1 0 0 1
0x01f4 1 0 0 1
0x01f4 1 0 0 1
0x01f4 1 0 0 1
0x01f4 1 0 0 1
0x01f4 1 0 0 1
0x01f4 1 0 0 1
0x01f4 1 0 0 1
0x01f4 1 0 0 1
0x01f4 1 0 0 1
0x01f4 1 0 0 1
0x01f4 1 0 0 1
0x01f4 1 0 0 1
0x01f4 1 0 0 1
0x01f4 1 0 0 1
0x01f4 1 0 0 1
0x01f4 1 0 0 1
0x01f4 1 0 0 1
0x01f4 1 0 0 1
0x01f5 1 0 0 1
0x01f6 1 0 0 1
0x01f8 1 0 0 1
0x01fa 1 0 0 1
0x01fd 1 0 0 1
0x0201 1 0 0 1
0x0206 1 0 0 1
0x020c 1 0 0 1
0x0212 1 0 0 1
0x0218 1 0 0 1
0x021d 1 0 0 1
0x0222 1 0 0 1
0x0225 1 0 0 1
0x0226 1 0 0 1
0x0225 1 0 0 1
0x0222 1 0 0 1
0x021d 1 0 0 1
0x0218 1 0 0 1
0x0212 1 0 0 1
0x020c 1 0 0 1
0x0206 1 0 0 1
0x0201 1 0 0 1
0x01fd 1 0 0 1
0x01fa 1 0 0 1
0x01f8 1 0 0 1
0x01f6 1 0 0 1
0x01f5 1 0 0 1
0x01f4 1 0 0 1
0x01f4 1 0 0 1
0x01f4 1 0 0 1
0x01f4 1 0 0 1
0x01f4 1 0 0 1
0x01f4 1 0 0 1
0x01f4 1 0 0 1
0x01f4 1 0 0 1
0x01f4 1 0 0 1
0x01f4 1 0 0 1
0x01f4 1 0 0 1
0x01f4 1 0 0 1
0x01f4 1 0 0 1
0x01f4 1 0 0 1
0x01f4 1 0 0 1
0x01f4 1 0 0 1
0x01f4 1 0 0 1
0x01f4 1 1 1 1
0xaa85 1 0 0 1
0x4000 1 0 0 1
0x5555 1 0 0 1
0x5555 1 0 0 1
0x5555 1 0 0 1
0x5555 1 1 0 1
0x01f4 1 0 0 1
0x01f4 1 0 0 1
0x01f4 1 0 0 1
0x01f4 1 0 0 1
0x01f4 1 0 0 1
0x01f4 1 0 0 1
0x01f4 1 0 0 1
0x01f4 1 0 0 1
0x01f4 1 0 0 1
0x01f4 1 0 0 1
0x01f4 1 0 0 1
0x01f4 1 0 0 1
0x01f4 1 0 0 1
0x01f4 1 0 0 1
0x01f4 1 0 0 1
0x01f4 1 0 0 1
0x01f4 1 0 0 1
0x01f4 1 0 0 1
0x01f4 1 0 0 1
0x01f4 1 0 0 1
0x01f5 1 0 0 1
0x01f6 1 0 0 1
0x01f8 1 0 0 1
0x01fa 1 0 0 1
0x01fd 1 0 0 1
0x0201 1 0 0 1
0x0206 1 0 0 1
0x020c 1 0 0 1
0x0212 1 0 0 1
0x0218 1 0 0 1
0x021d 1 0 0 1
0x0222 1 0 0 1
0x0225 1 0 0 1
0x0226 1 0 0 1
0x0225 1 0 0 1
0x0222 1 0 0 1
0x021d 1 0 0 1
0x0218 1 0 0 1
0x0212 1 0 0 1
0x020c 1 0 0 1
0x0206 1 0 0 1
0x0201 1 0 0 1
0x01fd 1 0 0 1
0x01fa 1 0 0 1
0x01f8 1 0 0 1
0x01f6 1 0 0 1
0x01f5 1 0 0 1
0x01f4 1 0 0 1
0x01f4 1 0 0 1
0x01f4 1 0 0 1
0x01f4 1 0 0 1
0x01f4 1 0 0 1
0x01f4 1 0 0 1
0x01f4 1 0 0 1
0x01f4 1 0 0 1
0x01f4 1 0 0 1
0x01f4 1 0 0 1
0x01f4 1 0 0 1
0x01f4 1 0 0 1
0x01f4 1 0 0 1
0x01f4 1 0 0 1
0x01f4 1 0 0 1
0x01f4 1 0 0 1
0x01f4 1 1 1 1
0xaa89 1 0 0 1
0x4000 1 0 0 1
0x5555 1 0 0 1
0x5555 1 0 0 1
0x5555 1 0 0 1
0x5555 1 1 0 1
0x01f4 1 0 0 1
0x01f4 1 0 0 1
0x01f4 1 0 0 1
0x01f4 1 0 0 1
0x01f4 1 0 0 1
0x01f4 1 0 0 1
0x01f4 1 0 0 1
0x01f4 1 0 0 1
0x01f4 1 0 0 1
0x01f4 1 0 0 1
0x01f4 1 0 0 1
0x01f4 1 0 0 1
0x01f4 1 0 0 1
0x01f4 1 0 0 1
0x01f4 1 0 0 1
0x01f4 1 0 0 1
0x01f4 1 0 0 1
0x01f4 1 0 0 1
0x01f4 1 0 0 1
0x01f4 1 0 0 1
0x01f4 1 0 0 1
0x01f5 1 0 0 1
0x01f6 1 0 0 1
0x01f8 1 0 0 1
0x01fa 1 0 0 1
0x01fd 1 0 0 1
0x0201 1 0 0 1
0x0206 1 0 0 1
0x020c 1 0 0 1
0x0212 1 0 0 1
0x0218 1 0 0 1
0x021d 1 0 0 1
0x0222 1 0 0 1
0x0225 1 0 0 1
0x0226 1 0 0 1
0x0225 1 0 0 1
0x0222 1 0 0 1
0x021d 1 0 0 1
0x0218 1 0 0 1
0x0212 1 0 0 1
0x020c 1 0 0 1
0x0206 1 0 0 1
0x0201 1 0 0 1
0x01fd 1 0 0 1
0x01fa 1 0 0 1
0x01f8 1 0 0 1
0x01f6 1 0 0 1
0x01f5 1 0 0 1
0x01f4 1 0 0 1
0x01f4 1 0 0 1
0x01f4 1 0 0 1
0x01f4 1 0 0 1
0x01f4 1 0 0 1
0x01f4 1 0 0 1
0x01f4 1 0 0 1
0x01f4 1 0 0 1
0x01f4 1 0 0 1
0x01f4 1 0 0 1
0x01f4 1 0 0 1
0x01f4 1 0 0 1
0x01f4 1 0 0 1
0x01f4 1 0 0 1
0x01f4 1 0 0 1
0x01f4 1 1 1 1
0xaa8d 1 0 0 1
0x4000 1 0 0 1
0x5555 1 0 0 1
0x5555 1 0 0 1
0x5555 1 0 0 1
0x5555 1 1 0 1
0x01f4 1 0 0 1
0x01f4 1 0 0 1
0x01f4 1 0 0 1
0x01f4 1 0 0 1
0x01f4 1 0 0 1
0x01f4 1 0 0 1
0x01f4 1 0 0 1
0x01f4 1 0 0 1
0x01f4 1 0 0 1
0x01f4 1 0 0 1
0x01f4 1 0 0 1
0x01f4 1 0 0 1
0x01f4 1 0 0 1
0x01f4 1 0 0 1
0x01f4 1 0 0 1
0x01f4 1 0 0 1
0x01f4 1 0 0 1
0x01f4 1 0 0 1
0x01f4 1 0 0 1
0x01f4 1 0 0 1
0x01f4 1 0 0 1
0x01f4 1 0 0 1
0x01f5 1 0 0 1
0x01f6 1 0 0 1
0x01f8 1 0 0 1
0x01fa 1 0 0 1
0x01fd 1 0 0 1
0x0201 1 0 0 1
0x0206 1 0 0 1
0x020c 1 0 0 1
0x0212 1 0 0 1
0x0218 1 0 0 1
0x021d 1 0 0 1
0x0222 1 0 0 1
0x0225 1 0 0 1
0x0226 1 0 0 1
0x0225 1 0 0 1
0x0222 1 0 0 1
0x021d 1 0 0 1
0x0218 1 0 0 1
0x0212 1 0 0 1
0x020c 1 0 0 1
0x0206 1 0 0 1
0x0201 1 0 0 1
0x01fd 1 0 0 1
0x01fa 1 0 0 1
0x01f8 1 0 0 1
0x01f6 1 0 0 1
0x01f5 1 0 0 1
0x01f4 1 0 0 1
0x01f4 1 0 0 1
0x01f4 1 0 0 1
0x01f4 1 0 0 1
0x01f4 1 0 0 1
0x01f4 1 0 0 1
0x01f4 1 0 0 1
0x01f4 1 0 0 1
0x01f4 1 0 0 1
0x01f4 1 0 0 1
0x01f4 1 0 0 1
0x01f4 1 0 0 1
0x01f4 1 0 0 1
0x01f4 1 0 0 1
0x01f4 1 1 1 1
0xaa91 1 0 0 1
0x4000 1 0 0 1
0x5555 1 0 0 1
0x5555 1 0 0 1
0x5555 1 0 0 1
0x5555 1 1 0 1
0x01f4 1 0 0 1
0x01f4 1 0 0 1
0x01f4 1 0 0 1
0x01f4 1 0 0 1
0x01f4 1 0 0 1
0x01f4 1 0 0 1
0x01f4 1 0 0 1
0x01f4 1 0 0 1
0x01f4 1 0 0 1
0x01f4 1 0 0 1
0x01f4 1 0 0 1
0x01f4 1 0 0 1
0x01f4 1 0 0 1
0x01f4 1 0 0 1
0x01f4 1 0 0 1
0x01f4 1 0 0 1
0x01f4 1 0 0 1
0x01f4 1 0 0 1
0x01f4 1 0 0 1
0x01f4 1 0 0 1
0x01f4 1 0 0 1
0x01f4 1 0 0 1
0x01f4 1 0 0 1
0x01f5 1 0 0 1
0x01f6 1 0 0 1
0x01f8 1 0 0 1
0x01fa 1 0 0 1
0x01fd 1 0 0 1
0x0201 1 0 0 1
0x0206 1 0 0 1
0x020c 1 0 0 1
0x0212 1 0 0 1
0x0218 1 0 0 1
0x021d 1 0 0 1
0x0222 1 0 0 1
0x0225 1 0 0 1
0x0226 1 0 0 1
0x0225 1 0 0 1
0x0222 1 0 0 1
0x021d 1 0 0 1
0x0218 1 0 0 1
0x0212 1 0 0 1
0x020c 1 0 0 1
0x0206 1 0 0 1
0x0201 1 0 0 1
0x01fd 1 0 0 1
0x01fa 1 0 0 1
0x01f8 1 0 0 1
0x01f6 1 0 0 1
0x01f5 1 0 0 1
0x01f4 1 0 0 1
0x01f4 1 0 0 1
0x01f4 1 0 0 1
0x01f4 1 0 0 1
0x01f4 1 0 0 1
0x01f4 1 0 0 1
0x01f4 1 0 0 1
0x01f4 1 0 0 1
0x01f4 1 0 0 1
0x01f4 1 0 0 1
0x01f4 1 0 0 1
0x01f4 1 0 0 1
0x01f4 1 0 0 1
0x01f4 1 1 1 1
0xaa95 1 0 0 1
0x4000 1 0 0 1
0x5555 1 0 0 1
0x5555 1 0 0 1
0x5555 1 0 0 1
0x5555 1 1 0 1
0x01f4 1 0 0 1
0x01f4 1 0 0 1
0x01f4 1 0 0 1
0x01f4 1 0 0 1
0x01f4 1 0 0 1
0x01f4 1 0 0 1
0x01f4 1 0 0 1
0x01f4 1 0 0 1
0x01f4 1 0 0 1
0x01f4 1 0 0 1
0x01f4 1 0 0 1
0x01f4 1 0 0 1
0x01f4 1 0 0 1
0x01f4 1 0 0 1
0x01f4 1 0 0 1
0x01f4 1 0 0 1
0x01f4 1 0 0 1
0x01f4 1 0 0 1
0x01f4 1 0 0 1
0x01f4 1 0 0 1
0x01f4 1 0 0 1
0x01f4 1 0 0 1
0x01f4 1 0 0 1
0x01f4 1 0 0 1
0x01f5 1 0 0 1
0x01f6 1 0 0 1
0x01f8 1 0 0 1
0x01fa 1 0 0 1
0x01fd 1 0 0 1
0x0201 1 0 0 1
0x0206 1 0 0 1
0x020c 1 0 0 1
0x0212 1 0 0 1
0x0218 1 0 0 1
0x021d 1 0 0 1
0x0222 1 0 0 1
0x0225 1 0 0 1
0x0226 1 0 0 1
0x0225 1 0 0 1
0x0222 1 0 0 1
0x021d 1 0 0 1
0x0218 1 0 0 1
0x0212 1 0 0 1
0x020c 1 0 0 1
0x0206 1 0 0 1
0x0201 1 0 0 1
0x01fd 1 0 0 1
0x01fa 1 0 0 1
0x01f8 1 0 0 1
0x01f6 1 0 0 1
0x01f5 1 0 0 1
0x01f4 1 0 0 1
0x01f4 1 0 0 1
0x01f4 1 0 0 1
0x01f4 1 0 0 1
0x01f4 1 0 0 1
0x01f4 1 0 0 1
0x01f4 1 0 0 1
0x01f4 1 0 0 1
0x01f4 1 0 0 1
0x01f4 1 0 0 1
0x01f4 1 0 0 1
0x01f4 1 0 0 1
0x01f4 1 1 1 1
0xaa99 1 0 0 1
0x4000 1 0 0 1
0x5555 1 0 0 1
0x5555 1 0 0 1
0x5555 1 0 0 1
0x5555 1 1 0 1
0x01f4 1 0 0 1
0x01f4 1 0 0 1
0x01f4 1 0 0 1
0x01f4 1 0 0 1
0x01f4 1 0 0 1
0x01f4 1 0 0 1
0x01f4 1 0 0 1
0x01f4 1 0 0 1
0x01f4 1 0 0 1
0x01f4 1 0 0 1
0x01f4 1 0 0 1
0x01f4 1 0 0 1
0x01f4 1 0 0 1
0x01f4 1 0 0 1
0x01f4 1 0 0 1
0x01f4 1 0 0 1
0x01f4 1 0 0 1
0x01f4 1 0 0 1
0x01f4 1 0 0 1
0x01f4 1 0 0 1
0x01f4 1 0 0 1
0x01f4 1 0 0 1
0x01f4 1 0 0 1
0x01f4 1 0 0 1
0x01f4 1 0 0 1
0x01f5 1 0 0 1
0x01f6 1 0 0 1
0x01f8 1 0 0 1
0x01fa 1 0 0 1
0x01fd 1 0 0 1
0x0201 1 0 0 1
0x0206 1 0 0 1
0x020c 1 0 0 1
0x0212 1 0 0 1
0x0218 1 0 0 1
0x021d 1 0 0 1
0x0222 1 0 0 1
0x0225 1 0 0 1
0x0226 1 0 0 1
0x0225 1 0 0 1
0x0222 1 0 0 1
0x021d 1 0 0 1
0x0218 1 0 0 1
0x0212 1 0 0 1
0x020c 1 0 0 1
0x0206 1 0 0 1
0x0201 1 0 0 1
0x01fd 1 0 0 1
0x01fa 1 0 0 1
0x01f8 1 0 0 1
0x01f6 1 0 0 1
0x01f5 1 0 0 1
0x01f4 1 0 0 1
0x01f4 1 0 0 1
0x01f4 1 0 0 1
0x01f4 1 0 0 1
0x01f4 1 0 0 1
0x01f4 1 0 0 1
0x01f4 1 0 0 1
0x01f4 1 0 0 1
0x01f4 1 0 0 1
0x01f4 1 0 0 1
0x01f4 1 0 0 1
0x01f4 1 1 1 1
0xaa9d 1 0 0 1
0x4000 1 0 0 1
0x5555 1 0 0 1
0x5555 1 0 0 1
0x5555 1 0 0 1
0x5555 1 1 0 1
0x01f4 1 0 0 1
0x01f4 1 0 0 1
0x01f4 1 0 0 1
0x01f4 1 0 0 1
0x01f4 1 0 0 1
0x01f4 1 0 0 1
0x01f4 1 0 0 1
0x01f4 1 0 0 1
0x01f4 1 0 0 1
0x01f4 1 0 0 1
0x01f4 1 0 0 1
0x01f4 1 0 0 1
0x01f4 1 0 0 1
0x01f4 1 0 0 1
0x01f4 1 0 0 1
0x01f4 1 0 0 1
0x01f4 1 0 0 1
0x01f4 1 0 0 1
0x01f4 1 0 0 1
0x01f4 1 0 0 1
0x01f4 1 0 0 1
0x01f4 1 0 0 1
0x01f4 1 0 0 1
0x01f4 1 0 0 1
0x01f4 1 0 0 1
0x01f4 1 0 0 1
0x01f5 1 0 0 1
0x01f6 1 0 0 1
0x01f8 1 0 0 1
0x01fa 1 0 0 1
0x01fd 1 0 0 1
0x0201 1 0 0 1
0x0206 1 0 0 1
0x020c 1 0 0 1
0x0212 1 0 0 1
0x0218 1 0 0 1
0x021d 1 0 0 1
0x0222 1 0 0 1
0x0225 1 0 0 1
0x0226 1 0 0 1
0x0225 1 0 0 1
0x0222 1 0 0 1
0x021d 1 0 0 1
0x0218 1 0 0 1
0x0212 1 0 0 1
0x020c 1 0 0 1
0x0206 1 0 0 1
0x0201 1 0 0 1
0x01fd 1 0 0 1
0x01fa 1 0 0 1
0x01f8 1 0 0 1
0x01f6 1 0 0 1
0x01f5 1 0 0 1
0x01f4 1 0 0 1
0x01f4 1 0 0 1
0x01f4 1 0 0 1
0x01f4 1 0 0 1
0x01f4 1 0 0 1
0x01f4 1 0 0 1
0x01f4 1 0 0 1
0x01f4 1 0 0 1
0x01f4 1 0 0 1
0x01f4 1 0 0 1
0x01f4 1 1 1 1
0xaaa1 1 0 0 1
0x4000 1 0 0 1
0x5555 1 0 0 1
0x5555 1 0 0 1
0x5555 1 0 0 1
0x5555 1 1 0 1
0x01f4 1 0 0 1
0x01f4 1 0 0 1
0x01f4 1 0 0 1
0x01f4 1 0 0 1
0x01f4 1 0 0 1
0x01f4 1 0 0 1
0x01f4 1 0 0 1
0x01f4 1 0 0 1
0x01f4 1 0 0 1
0x01f4 1 0 0 1
0x01f4 1 0 0 1
0x01f4 1 0 0 1
0x01f4 1 0 0 1
0x01f4 1 0 0 1
0x01f4 1 0 0 1
0x01f4 1 0 0 1
0x01f4 1 0 0 1
0x01f4 1 0 0 1
0x01f4 1 0 0 1
0x01f4 1 0 0 1
0x01f4 1 0 0 1
0x01f4 1 0 0 1
0x01f4 1 0 0 1
0x01f4 1 0 0 1
0x01f4 1 0 0 1
0x01f4 1 0 0 1
0x01f4 1 0 0 1
0x01f5 1 0 0 1
0x01f6 1 0 0 1
0x01f8 1 0 0 1
0x01fa 1 0 0 1
0x01fd 1 0 0 1
0x0201 1 0 0 1
0x0206 1 0 0 1
0x020c 1 0 0 1
0x0212 1 0 0 1
0x0218 1 0 0 1
0x021d 1 0 0 1
0x0222 1 0 0 1
0x0225 1 0 0 1
0x0226 1 0 0 1
0x0225 1 0 0 1
0x0222 1 0 0 1
0x021d 1 0 0 1
0x0218 1 0 0 1
0x0212 1 0 0 1
0x020c 1 0 0 1
0x0206 1 0 0 1
0x0201 1 0 0 1
0x01fd 1 0 0 1
0x01fa 1 0 0 1
0x01f8 1 0 0 1
0x01f6 1 0 0 1
0x01f5 1 0 0 1
0x01f4 1 0 0 1
0x01f4 1 0 0 1
0x01f4 1 0 0 1
0x01f4 1 0 0 1
0x01f4 1 0 0 1
0x01f4 1 0 0 1
0x01f4 1 0 0 1
0x01f4 1 0 0 1
0x01f4 1 0 0 1
0x01f4 1 1 1 1
0xaaa5 1 0 0 1
0x4000 1 0 0 1
0x5555 1 0 0 1
0x5555 1 0 0 1
0x5555 1 0 0 1
0x5555 1 1 0 1
0x01f4 1 0 0 1
0x01f4 1 0 0 1
0x01f4 1 0 0 1
0x01f4 1 0 0 1
0x01f4 1 0 0 1
0x01f4 1 0 0 1
0x01f4 1 0 0 1
0x01f4 1 0 0 1
0x01f4 1 0 0 1
0x01f4 1 0 0 1
0x01f4 1 0 0 1
0x01f4 1 0 0 1
0x01f4 1 0 0 1
0x01f4 1 0 0 1
0x01f4 1 0 0 1
0x01f4 1 0 0 1
0x01f4 1 0 0 1
0x01f4 1 0 0 1
0x01f4 1 0 0 1
0x01f4 1 0 0 1
0x01f4 1 0 0 1
0x01f4 1 0 0 1
0x01f4 1 0 0 1
0x01f4 1 0 0 1
0x01f4 1 0 0 1
0x01f4 1 0 0 1
0x01f4 1 0 0 1
0x01f4 1 0 0 1
0x01f5 1 0 0 1
0x01f6 1 0 0 1
0x01f8 1 0 0 1
0x01fa 1 0 0 1
0x01fd 1 0 0 1
0x0201 1 0 0 1
0x0206 1 0 0 1
0x020c 1 0 0 1
0x0212 1 0 0 1
0x0218 1 0 0 1
0x021d 1 0 0 1
0x0222 1 0 0 1
0x0225 1 0 0 1
0x0226 1 0 0 1
0x0225 1 0 0 1
0x0222 1 0 0 1
0x021d 1 0 0 1
0x0218 1 0 0 1
0x0212 1 0 0 1
0x020c 1 0 0 1
0x0206 1 0 0 1
0x0201 1 0 0 1
0x01fd 1 0 0 1
0x01fa 1 0 0 1
0x01f8 1 0 0 1
0x01f6 1 0 0 1
0x01f5 1 0 0 1
0x01f4 1 0 0 1
0x01f4 1 0 0 1
0x01f4 1 0 0 1
0x01f4 1 0 0 1
0x01f4 1 0 0 1
0x01f4 1 0 0 1
0x01f4 1 0 0 1
0x01f4 1 0 0 1
0x01f4 1 1 1 1
0xaaa9 1 0 0 1
0x4000 1 0 0 1
0x5555 1 0 0 1
0x5555 1 0 0 1
0x5555 1 0 0 1
0x5555 1 1 0 1
0x01f4 1 0 0 1
0x01f4 1 0 0 1
0x01f4 1 0 0 1
0x01f4 1 0 0 1
0x01f4 1 0 0 1
0x01f4 1 0 0 1
0x01f4 1 0 0 1
0x01f4 1 0 0 1
0x01f4 1 0 0 1
0x01f4 1 0 0 1
0x01f4 1 0 0 1
0x01f4 1 0 0 1
0x01f4 1 0 0 1
0x01f4 1 0 0 1
0x01f4 1 0 0 1
0x01f4 1 0 0 1
0x01f4 1 0 0 1
0x01f4 1 0 0 1
0x01f4 1 0 0 1
0x01f4 1 0 0 1
0x01f4 1 0 0 1
0x01f4 1 0 0 1
0x01f4 1 0 0 1
0x01f4 1 0 0 1
0x01f4 1 0 0 1
0x01f4 1 0 0 1
0x01f4 1 0 0 1
0x01f4 1 0 0 1
0x01f4 1 0 0 1
0x01f5 1 0 0 1
0x01f6 1 0 0 1
0x01f8 1 0 0 1
0x01fa 1 0 0 1
0x01fd 1 0 0 1
0x0201 1 0 0 1
0x0206 1 0 0 1
0x020c 1 0 0 1
0x0212 1 0 0 1
0x0218 1 0 0 1
0x021d 1 0 0 1
0x0222 1 0 0 1
0x0225 1 0 0 1
0x0226 1 0 0 1
0x0225 1 0 0 1
0x0222 1 0 0 1
0x021d 1 0 0 1
0x0218 1 0 0 1
0x0212 1 0 0 1
0x020c 1 0 0 1
0x0206 1 0 0 1
0x0201 1 0 0 1
0x01fd 1 0 0 1
0x01fa 1 0 0 1
0x01f8 1 0 0 1
0x01f6 1 0 0 1
0x01f5 1 0 0 1
0x01f4 1 0 0 1
0x01f4 1 0 0 1
0x01f4 1 0 0 1
0x01f4 1 0 0 1
0x01f4 1 0 0 1
0x01f4 1 0 0 1
0x01f4 1 0 0 1
0x01f4 1 1 1 1
0xaaad 1 0 0 1
0x4000 1 0 0 1
0x5555 1 0 0 1
0x5555 1 0 0 1
0x5555 1 0 0 1
0x5555 1 1 0 1
0x01f4 1 0 0 1
0x01f4 1 0 0 1
0x01f4 1 0 0 1
0x01f4 1 0 0 1
0x01f4 1 0 0 1
0x01f4 1 0 0 1
0x01f4 1 0 0 1
0x01f4 1 0 0 1
0x01f4 1 0 0 1
0x01f4 1 0 0 1
0x01f4 1 0 0 1
0x01f4 1 0 0 1
0x01f4 1 0 0 1
0x01f4 1 0 0 1
0x01f4 1 0 0 1
0x01f4 1 0 0 1
0x01f4 1 0 0 1
0x01f4 1 0 0 1
0x01f4 1 0 0 1
0x01f4 1 0 0 1
0x01f4 1 0 0 1
0x01f4 1 0 0 1
0x01f4 1 0 0 1
0x01f4 1 0 0 1
0x01f4 1 0 0 1
0x01f4 1 0 0 1
0x01f4 1 0 0 1
0x01f4 1 0 0 1
0x01f4 1 0 0 1
0x01f4 1 0 0 1
0x01f5 1 0 0 1
0x01f6 1 0 0 1
0x01f8 1 0 0 1
0x01fa 1 0 0 1
0x01fd 1 0 0 1
0x0201 1 0 0 1
0x0206 1 0 0 1
0x020c 1 0 0 1
0x0212 1 0 0 1
0x0218 1 0 0 1
0x021d 1 0 0 1
0x0222 1 0 0 1
0x0225 1 0 0 1
0x0226 1 0 0 1
0x0225 1 0 0 1
0x0222 1 0 0 1
0x021d 1 0 0 1
0x0218 1 0 0 1
0x0212 1 0 0 1
0x020c 1 0 0 1
0x0206 1 0 0 1
0x0201 1 0 0 1
0x01fd 1 0 0 1
0x01fa 1 0 0 1
0x01f8 1 0 0 1
0x01f6 1 0 0 1
0x01f5 1 0 0 1
0x01f4 1 0 0 1
0x01f4 1 0 0 1
0x01f4 1 0 0 1
0x01f4 1 0 0 1
0x01f4 1 0 0 1
0x01f4 1 0 0 1
0x01f4 1 1 1 1
0xaab1 1 0 0 1
0x4000 1 0 0 1
0x5555 1 0 0 1
0x5555 1 0 0 1
0x5555 1 0 0 1
0x5555 1 1 0 1
0x01f4 1 0 0 1
0x01f4 1 0 0 1
0x01f4 1 0 0 1
0x01f4 1 0 0 1
0x01f4 1 0 0 1
0x01f4 1 0 0 1
0x01f4 1 0 0 1
0x01f4 1 0 0 1
0x01f4 1 0 0 1
0x01f4 1 0 0 1
0x01f4 1 0 0 1
0x01f4 1 0 0 1
0x01f4 1 0 0 1
0x01f4 1 0 0 1
0x01f4 1 0 0 1
0x01f4 1 0 0 1
0x01f4 1 0 0 1
0x01f4 1 0 0 1
0x01f4 1 0 0 1
0x01f4 1 0 0 1
0x01f4 1 0 0 1
0x01f4 1 0 0 1
0x01f4 1 0 0 1
0x01f4 1 0 0 1
0x01f4 1 0 0 1
0x01f4 1 0 0 1
0x01f4 1 0 0 1
0x01f4 1 0 0 1
0x01f4 1 0 0 1
0x01f4 1 0 0 1
0x01f4 1 0 0 1
0x01f5 1 0 0 1
0x01f6 1 0 0 1
0x01f8 1 0 0 1
0x01fa 1 0 0 1
0x01fd 1 0 0 1
0x0201 1 0 0 1
0x0206 1 0 0 1
0x020c 1 0 0 1
0x0212 1 0 0 1
0x0218 1 0 0 1
0x021d 1 0 0 1
0x0222 1 0 0 1
0x0225 1 0 0 1
0x0226 1 0 0 1
0x0225 1 0 0 1
0x0222 1 0 0 1
0x021d 1 0 0 1
0x0218 1 0 0 1
0x0212 1 0 0 1
0x020c 1 0 0 1
0x0206 1 0 0 1
0x0201 1 0 0 1
0x01fd 1 0 0 1
0x01fa 1 0 0 1
0x01f8 1 0 0 1
0x01f6 1 0 0 1
0x01f5 1 0 0 1
0x01f4 1 0 0 1
0x01f4 1 0 0 1
0x01f4 1 0 0 1
0x01f4 1 0 0 1
0x01f4 1 0 0 1
0x01f4 1 1 1 1
0xaab5 1 0 0 1
0x4000 1 0 0 1
0x5555 1 0 0 1
0x5555 1 0 0 1
0x5555 1 0 0 1
0x5555 1 1 0 1
0x01f4 1 0 0 1
0x01f4 1 0 0 1
0x01f4 1 0 0 1
0x01f4 1 0 0 1
0x01f4 1 0 0 1
0x01f4 1 0 0 1
0x01f4 1 0 0 1
0x01f4 1 0 0 1
0x01f4 1 0 0 1
0x01f4 1 0 0 1
0x01f4 1 0 0 1
0x01f4 1 0 0 1
0x01f4 1 0 0 1
0x01f4 1 0 0 1
0x01f4 1 0 0 1
0x01f4 1 0 0 1
0x01f4 1 0 0 1
0x01f4 1 0 0 1
0x01f4 1 0 0 1
0x01f4 1 0 0 1
0x01f4 1 0 0 1
0x01f4 1 0 0 1
0x01f4 1 0 0 1
0x01f4 1 0 0 1
0x01f4 1 0 0 1
0x01f4 1 0 0 1
0x01f4 1 0 0 1
0x01f4 1 0 0 1
0x01f4 1 0 0 1
0x01f4 1 0 0 1
0x01f4 1 0 0 1
0x01f4 1 0 0 1
0x01f5 1 0 0 1
0x01f6 1 0 0 1
0x01f8 1 0 0 1
0x01fa 1 0 0 1
0x01fd 1 0 0 1
0x0201 1 0 0 1
0x0206 1 0 0 1
0x020c 1 0 0 1
0x0212 1 0 0 1
0x0218 1 0 0 1
0x021d 1 0 0 1
0x0222 1 0 0 1
0x0225 1 0 0 1
0x0226 1 0 0 1
0x0225 1 0 0 1
0x0222 1 0 0 1
0x021d 1 0 0 1
0x0218 1 0 0 1
0x0212 1 0 0 1
0x020c 1 0 0 1
0x0206 1 0 0 1
0x0201 1 0 0 1
0x01fd 1 0 0 1
0x01fa 1 0 0 1
0x01f8 1 0 0 1
0x01f6 1 0 0 1
0x01f5 1 0 0 1
0x01f4 1 0 0 1
0x01f4 1 0 0 1
0x01f4 1 0 0 1
0x01f4 1 0 0 1
0x01f4 1 1 1 1
0xaab9 1 0 0 1
0x4000 1 0 0 1
0x5555 1 0 0 1
0x5555 1 0 0 1
0x5555 1 0 0 1
0x5555 1 1 0 1
0x01f4 1 0 0 1
0x01f4 1 0 0 1
0x01f4 1 0 0 1
0x01f4 1 0 0 1
0x01f4 1 0 0 1
0x01f4 1 0 0 1
0x01f4 1 0 0 1
0x01f4 1 0 0 1
0x01f4 1 0 0 1
0x01f4 1 0 0 1
0x01f4 1 0 0 1
0x01f4 1 0 0 1
0x01f4 1 0 0 1
0x01f4 1 0 0 1
0x01f4 1 0 0 1
0x01f4 1 0 0 1
0x01f4 1 0 0 1
0x01f4 1 0 0 1
0x01f4 1 0 0 1
0x01f4 1 0 0 1
0x01f4 1 0 0 1
0x01f4 1 0 0 1
0x01f4 1 0 0 1
0x01f4 1 0 0 1
0x01f4 1 0 0 1
0x01f4 1 0 0 1
0x01f4 1 0 0 1
0x01f4 1 0 0 1
0x01f4 1 0 0 1
0x01f4 1 0 0 1
0x01f4 1 0 0 1
0x01f4 1 0 0 1
0x01f4 1 0 0 1
0x01f5 1 0 0 1
0x01f6 1 0 0 1
0x01f8 1 0 0 1
0x01fa 1 0 0 1
0x01fd 1 0 0 1
0x0201 1 0 0 1
0x0206 1 0 0 1
0x020c 1 0 0 1
0x0212 1 0 0 1
0x0218 1 0 0 1
0x021d 1 0 0 1
0x0222 1 0 0 1
0x0225 1 0 0 1
0x0226 1 0 0 1
0x0225 1 0 0 1
0x0222 1 0 0 1
0x021d 1 0 0 1
0x0218 1 0 0 1
0x0212 1 0 0 1
0x020c 1 0 0 1
0x0206 1 0 0 1
0x0201 1 0 0 1
0x01fd 1 0 0 1
0x01fa 1 0 0 1
0x01f8 1 0 0 1
0x01f6 1 0 0 1
0x01f5 1 0 0 1
0x01f4 1 0 0 1
0x01f4 1 0 0 1
0x01f4 1 0 0 1
0x01f4 1 1 1 1
0xaabd 1 0 0 1
0x4000 1 0 0 1
0x5555 1 0 0 1
0x5555 1 0 0 1
0x5555 1 0 0 1
0x5555 1 1 0 1
0x01f4 1 0 0 1
0x01f4 1 0 0 1
0x01f4 1 0 0 1
0x01f4 1 0 0 1
0x01f4 1 0 0 1
0x01f4 1 0 0 1
0x01f4 1 0 0 1
0x01f4 1 0 0 1
0x01f4 1 0 0 1
0x01f4 1 0 0 1
0x01f4 1 0 0 1
0x01f4 1 0 0 1
0x01f4 1 0 0 1
0x01f4 1 0 0 1
0x01f4 1 0 0 1
0x01f4 1 0 0 1
0x01f4 1 0 0 1
0x01f4 1 0 0 1
0x01f4 1 0 0 1
0x01f4 1 0 0 1
0x01f4 1 0 0 1
0x01f4 1 0 0 1
0x01f4 1 0 0 1
0x01f4 1 0 0 1
0x01f4 1 0 0 1
0x01f4 1 0 0 1
0x01f4 1 0 0 1
0x01f4 1 0 0 1
0x01f4 1 0 0 1
0x01f4 1 0 0 1
0x01f4 1 0 0 1
0x01f4 1 0 0 1
0x01f4 1 0 0 1
0x01f4 1 0 0 1
0x01f5 1 0 0 1
0x01f6 1 0 0 1
0x01f8 1 0 0 1
0x01fa 1 0 0 1
0x01fd 1 0 0 1
0x0201 1 0 0 1
0x0206 1 0 0 1
0x020c 1 0 0 1
0x0212 1 0 0 1
0x0218 1 0 0 1
0x021d 1 0 0 1
0x0222 1 0 0 1
0x0225 1 0 0 1
0x0226 1 0 0 1
0x0225 1 0 0 1
0x0222 1 0 0 1
0x021d 1 0 0 1
0x0218 1 0 0 1
0x0212 1 0 0 1
0x020c 1 0 0 1
0x0206 1 0 0 1
0x0201 1 0 0 1
0x01fd 1 0 0 1
0x01fa 1 0 0 1
0x01f8 1 0 0 1
0x01f6 1 0 0 1
0x01f5 1 0 0 1
0x01f4 1 0 0 1
0x01f4 1 0 0 1
0x01f4 1 1 1 1
0xaac1 1 0 0 1
0x4000 1 0 0 1
0x5555 1 0 0 1
0x5555 1 0 0 1
0x5555 1 0 0 1
0x5555 1 1 0 1
0x01f4 1 0 0 1
0x01f4 1 0 0 1
0x01f4 1 0 0 1
0x01f4 1 0 0 1
0x01f4 1 0 0 1
0x01f4 1 0 0 1
0x01f4 1 0 0 1
0x01f4 1 0 0 1
0x01f4 1 0 0 1
0x01f4 1 0 0 1
0x01f4 1 0 0 1
0x01f4 1 0 0 1
0x01f4 1 0 0 1
0x01f4 1 0 0 1
0x01f4 1 0 0 1
0x01f4 1 0 0 1
0x01f4 1 0 0 1
0x01f4 1 0 0 1
0x01f4 1 0 0 1
0x01f4 1 0 0 1
0x01f4 1 0 0 1
0x01f4 1 0 0 1
0x01f4 1 0 0 1
0x01f4 1 0 0 1
0x01f4 1 0 0 1
0x01f4 1 0 0 1
0x01f4 1 0 0 1
0x01f4 1 0 0 1
0x01f4 1 0 0 1
0x01f4 1 0 0 1
0x01f4 1 0 0 1
0x01f4 1 0 0 1
0x01f4 1 0 0 1
0x01f4 1 0 0 1
0x01f4 1 0 0 1
0x01f5 1 0 0 1
0x01f6 1 0 0 1
0x01f8 1 0 0 1
0x01fa 1 0 0 1
0x01fd 1 0 0 1
0x0201 1 0 0 1
0x0206 1 0 0 1
0x020c 1 0 0 1
0x0212 1 0 0 1
0x0218 1 0 0 1
0x021d 1 0 0 1
0x0222 1 0 0 1
0x0225 1 0 0 1
0x0226 1 0 0 1
0x0225 1 0 0 1
0x0222 1 0 0 1
0x021d 1 0 0 1
0x0218 1 0 0 1
0x0212 1 0 0 1
0x020c 1 0 0 1
0x0206 1 0 0 1
0x0201 1 0 0 1
0x01fd 1 0 0 1
0x01fa 1 0 0 1
0x01f8 1 0 0 1
0x01f6 1 0 0 1
0x01f5 1 0 0 1
0x01f4 1 0 0 1
0x01f4 1 1 1 1
0xaac5 1 0 0 1
0x4000 1 0 0 1
0x5555 1 0 0 1
0x5555 1 0 0 1
0x5555 1 0 0 1
0x5555 1 1 0 1
0x01f4 1 0 0 1
0x01f4 1 0 0 1
0x01f4 1 0 0 1
0x01f4 1 0 0 1
0x01f4 1 0 0 1
0x01f4 1 0 0 1
0x01f4 1 0 0 1
0x01f4 1 0 0 1
0x01f4 1 0 0 1
0x01f4 1 0 0 1
0x01f4 1 0 0 1
0x01f4 1 0 0 1
0x01f4 1 0 0 1
0x01f4 1 0 0 1
0x01f4 1 0 0 1
0x01f4 1 0 0 1
0x01f4 1 0 0 1
0x01f4 1 0 0 1
0x01f4 1 0 0 1
0x01f4 1 0 0 1
0x01f4 1 0 0 1
0x01f4 1 0 0 1
0x01f4 1 0 0 1
0x01f4 1 0 0 1
0x01f4 1 0 0 1
0x01f4 1 0 0 1
0x01f4 1 0 0 1
0x01f4 1 0 0 1
0x01f4 1 0 0 1
0x01f4 1 0 0 1
0x01f4 1 0 0 1
0x01f4 1 0 0 1
0x01f4 1 0 0 1
0x01f4 1 0 0 1
0x01f4 1 0 0 1
0x01f4 1 0 0 1
0x01f5 1 0 0 1
0x01f6 1 0 0 1
0x01f8 1 0 0 1
0x01fa 1 0 0 1
0x01fd 1 0 0 1
0x0201 1 0 0 1
0x0206 1 0 0 1
0x020c 1 0 0 1
0x0212 1 0 0 1
0x0218 1 0 0 1
0x021d 1 0 0 1
0x0222 1 0 0 1
0x0225 1 0 0 1
0x0226 1 0 0 1
0x0225 1 0 0 1
0x0222 1 0 0 1
0x021d 1 0 0 1
0x0218 1 0 0 1
0x0212 1 0 0 1
0x020c 1 0 0 1
0x0206 1 0 0 1
0x0201 1 0 0 1
0x01fd 1 0 0 1
0x01fa 1 0 0 1
0x01f8 1 0 0 1
0x01f6 1 0 0 1
0x01f5 1 0 0 1
0x01f4 1 1 1 1
0xaac9 1 0 0 1
0x4000 1 0 0 1
0x5555 1 0 0 1
0x5555 1 0 0 1
0x5555 1 0 0 1
0x5555 1 1 0 1
0x01f4 1 0 0 1
0x01f4 1 0 0 1
0x01f4 1 0 0 1
0x01f4 1 0 0 1
0x01f4 1 0 0 1
0x01f4 1 0 0 1
0x01f4 1 0 0 1
0x01f4 1 0 0 1
0x01f4 1 0 0 1
0x01f4 1 0 0 1
0x01f4 1 0 0 1
0x01f4 1 0 0 1
0x01f4 1 0 0 1
0x01f4 1 0 0 1
0x01f4 1 0 0 1
0x01f4 1 0 0 1
0x01f4 1 0 0 1
0x01f4 1 0 0 1
0x01f4 1 0 0 1
0x01f4 1 0 0 1
0x01f4 1 0 0 1
0x01f4 1 0 0 1
0x01f4 1 0 0 1
0x01f4 1 0 0 1
0x01f4 1 0 0 1
0x01f4 1 0 0 1
0x01f4 1 0 0 1
0x01f4 1 0 0 1
0x01f4 1 0 0 1
0x01f4 1 0 0 1
0x01f4 1 0 0 1
0x01f4 1 0 0 1
0x01f4 1 0 0 1
0x01f4 1 0 0 1
0x01f4 1 0 0 1
0x01f4 1 0 0 1
0x01f4 1 0 0 1
0x01f5 1 0 0 1
0x01f6 1 0 0 1
0x01f8 1 0 0 1
0x01fa 1 0 0 1
0x01fd 1 0 0 1
0x0201 1 0 0 1
0x0206 1 0 0 1
0x020c 1 0 0 1
0x0212 1 0 0 1
0x0218 1 0 0 1
0x021d 1 0 0 1
0x0222 1 0 0 1
0x0225 1 0 0 1
0x0226 1 0 0 1
0x0225 1 0 0 1
0x0222 1 0 0 1
0x021d 1 0 0 1
0x0218 1 0 0 1
0x0212 1 0 0 1
0x020c 1 0 0 1
0x0206 1 0 0 1
0x0201 1 0 0 1
0x01fd 1 0 0 1
0x01fa 1 0 0 1
0x01f8 1 0 0 1
0x01f6 1 0 0 1
0x01f5 1 1 1 1
0xaacd 1 0 0 1
0x4000 1 0 0 1
0x5555 1 0 0 1
0x5555 1 0 0 1
0x5555 1 0 0 1
0x5555 1 1 0 1
0x01f4 1 0 0 1
0x01f4 1 0 0 1
0x01f4 1 0 0 1
0x01f4 1 0 0 1
0x01f4 1 0 0 1
0x01f4 1 0 0 1
0x01f4 1 0 0 1
0x01f4 1 0 0 1
0x01f4 1 0 0 1
0x01f4 1 0 0 1
0x01f4 1 0 0 1
0x01f4 1 0 0 1
0x01f4 1 0 0 1
0x01f4 1 0 0 1
0x01f4 1 0 0 1
0x01f4 1 0 0 1
0x01f4 1 0 0 1
0x01f4 1 0 0 1
0x01f4 1 0 0 1
0x01f4 1 0 0 1
0x01f4 1 0 0 1
0x01f4 1 0 0 1
0x01f4 1 0 0 1
0x01f4 1 0 0 1
0x01f4 1 0 0 1
0x01f4 1 0 0 1
0x01f4 1 0 0 1
0x01f4 1 0 0 1
0x01f4 1 0 0 1
0x01f4 1 0 0 1
0x01f4 1 0 0 1
0x01f4 1 0 0 1
0x01f4 1 0 0 1
0x01f4 1 0 0 1
0x01f4 1 0 0 1
0x01f4 1 0 0 1
0x01f4 1 0 0 1
0x01f4 1 0 0 1
0x01f5 1 0 0 1
0x01f6 1 0 0 1
0x01f8 1 0 0 1
0x01fa 1 0 0 1
0x01fd 1 0 0 1
0x0201 1 0 0 1
0x0206 1 0 0 1
0x020c 1 0 0 1
0x0212 1 0 0 1
0x0218 1 0 0 1
0x021d 1 0 0 1
0x0222 1 0 0 1
0x0225 1 0 0 1
0x0226 1 0 0 1
0x0225 1 0 0 1
0x0222 1 0 0 1
0x021d 1 0 0 1
0x0218 1 0 0 1
0x0212 1 0 0 1
0x020c 1 0 0 1
0x0206 1 0 0 1
0x0201 1 0 0 1
0x01fd 1 0 0 1
0x01fa 1 0 0 1
0x01f8 1 0 0 1
0x01f6 1 1 1 1
0xaad1 1 0 0 1
0x4000 1 0 0 1
0x5555 1 0 0 1
0x5555 1 0 0 1
0x5555 1 0 0 1
0x5555 1 1 0 1
0x01f4 1 0 0 1
0x01f4 1 0 0 1
0x01f4 1 0 0 1
0x01f4 1 0 0 1
0x01f4 1 0 0 1
0x01f4 1 0 0 1
0x01f4 1 0 0 1
0x01f4 1 0 0 1
0x01f4 1 0 0 1
0x01f4 1 0 0 1
0x01f4 1 0 0 1
0x01f4 1 0 0 1
0x01f4 1 0 0 1
0x01f4 1 0 0 1
0x01f4 1 0 0 1
0x01f4 1 0 0 1
0x01f4 1 0 0 1
0x01f4 1 0 0 1
0x01f4 1 0 0 1
0x01f4 1 0 0 1
0x01f4 1 0 0 1
0x01f4 1 0 0 1
0x01f4 1 0 0 1
0x01f4 1 0 0 1
0x01f4 1 0 0 1
0x01f4 1 0 0 1
0x01f4 1 0 0 1
0x01f4 1 0 0 1
0x01f4 1 0 0 1
0x01f4 1 0 0 1
0x01f4 1 0 0 1
0x01f4 1 0 0 1
0x01f4 1 0 0 1
0x01f4 1 0 0 1
0x01f4 1 0 0 1
0x01f4 1 0 0 1
0x01f4 1 0 0 1
0x01f4 1 0 0 1
0x01f4 1 0 0 1
0x01f5 1 0 0 1
0x01f6 1 0 0 1
0x01f8 1 0 0 1
0x01fa 1 0 0 1
0x01fd 1 0 0 1
0x0201 1 0 0 1
0x0206 1 0 0 1
0x020c 1 0 0 1
0x0212 1 0 0 1
0x0218 1 0 0 1
0x021d 1 0 0 1
0x0222 1 0 0 1
0x0225 1 0 0 1
0x0226 1 0 0 1
0x0225 1 0 0 1
0x0222 1 0 0 1
0x021d 1 0 0 1
0x0218 1 0 0 1
0x0212 1 0 0 1
0x020c 1 0 0 1
0x0206 1 0 0 1
0x0201 1 0 0 1
0x01fd 1 0 0 1
0x01fa 1 0 0 1
0x01f8 1 1 1 1
0xaad5 1 0 0 1
0x4000 1 0 0 1
0x5555 1 0 0 1
0x5555 1 0 0 1
0x5555 1 0 0 1
0x5555 1 1 0 1
0x01f4 1 0 0 1
0x01f4 1 0 0 1
0x01f4 1 0 0 1
0x01f4 1 0 0 1
0x01f4 1 0 0 1
0x01f4 1 0 0 1
0x01f4 1 0 0 1
0x01f4 1 0 0 1
0x01f4 1 0 0 1
0x01f4 1 0 0 1
0x01f4 1 0 0 1
0x01f4 1 0 0 1
0x01f4 1 0 0 1
0x01f4 1 0 0 1
0x01f4 1 0 0 1
0x01f4 1 0 0 1
0x01f4 1 0 0 1
0x01f4 1 0 0 1
0x01f4 1 0 0 1
0x01f4 1 0 0 1
0x01f4 1 0 0 1
0x01f4 1 0 0 1
0x01f4 1 0 0 1
0x01f4 1 0 0 1
0x01f4 1 0 0 1
0x01f4 1 0 0 1
0x01f4 1 0 0 1
0x01f4 1 0 0 1
0x01f4 1 0 0 1
0x01f4 1 0 0 1
0x01f4 1 0 0 1
0x01f4 1 0 0 1
0x01f4 1 0 0 1
0x01f4 1 0 0 1
0x01f4 1 0 0 1
0x01f4 1 0 0 1
0x01f4 1 0 0 1
0x01f4 1 0 0 1
0x01f4 1 0 0 1
0x01f4 1 0 0 1
0x01f5 1 0 0 1
0x01f6 1 0 0 1
0x01f8 1 0 0 1
0x01fa 1 0 0 1
0x01fd 1 0 0 1
0x0201 1 0 0 1
0x0206 1 0 0 1
0x020c 1 0 0 1
0x0212 1 0 0 1
0x0218 1 0 0 1
0x021d 1 0 0 1
0x0222 1 0 0 1
0x0225 1 0 0 1
0x0226 1 0 0 1
0x0225 1 0 0 1
0x0222 1 0 0 1
0x021d 1 0 0 1
0x0218 1 0 0 1
0x0212 1 0 0 1
0x020c 1 0 0 1
0x0206 1 0 0 1
0x0201 1 0 0 1
0x01fd 1 0 0 1
0x01fa 1 1 1 1
0xaad9 1 0 0 1
0x4000 1 0 0 1
0x5555 1 0 0 1
0x5555 1 0 0 1
0x5555 1 0 0 1
0x5555 1 1 0 1
0x01f4 1 0 0 1
0x01f4 1 0 0 1
0x01f4 1 0 0 1
0x01f4 1 0 0 1
0x01f4 1 0 0 1
0x01f4 1 0 0 1
0x01f4 1 0 0 1
0x01f4 1 0 0 1
0x01f4 1 0 0 1
0x01f4 1 0 0 1
0x01f4 1 0 0 1
0x01f4 1 0 0 1
0x01f4 1 0 0 1
0x01f4 1 0 0 1
0x01f4 1 0 0 1
0x01f4 1 0 0 1
0x01f4 1 0 0 1
0x01f4 1 0 0 1
0x01f4 1 0 0 1
0x01f4 1 0 0 1
0x01f4 1 0 0 1
0x01f4 1 0 0 1
0x01f4 1 0 0 1
0x01f4 1 0 0 1
0x01f4 1 0 0 1
0x01f4 1 0 0 1
0x01f4 1 0 0 1
0x01f4 1 0 0 1
0x01f4 1 0 0 1
0x01f4 1 0 0 1
0x01f4 1 0 0 1
0x01f4 1 0 0 1
0x01f4 1 0 0 1
0x01f4 1 0 0 1
0x01f4 1 0 0 1
0x01f4 1 0 0 1
0x01f4 1 0 0 1
0x01f4 1 0 0 1
0x01f4 1 0 0 1
0x01f4 1 0 0 1
0x01f4 1 0 0 1
0x01f5 1 0 0 1
0x01f6 1 0 0 1
0x01f8 1 0 0 1
0x01fa 1 0 0 1
0x01fd 1 0 0 1
0x0201 1 0 0 1
0x0206 1 0 0 1
0x020c 1 0 0 1
0x0212 1 0 0 1
0x0218 1 0 0 1
0x021d 1 0 0 1
0x0222 1 0 0 1
0x0225 1 0 0 1
0x0226 1 0 0 1
0x0225 1 0 0 1
0x0222 1 0 0 1
0x021d 1 0 0 1
0x0218 1 0 0 1
0x0212 1 0 0 1
0x020c 1 0 0 1
0x0206 1 0 0 1
0x0201 1 0 0 1
0x01fd 1 1 1 1
0xaadd 1 0 0 1
0x4000 1 0 0 1
0x5555 1 0 0 1
0x5555 1 0 0 1
0x5555 1 0 0 1
0x5555 1 1 0 1
0x01f4 1 0 0 1
0x01f4 1 0 0 1
0x01f4 1 0 0 1
0x01f4 1 0 0 1
0x01f4 1 0 0 1
0x01f4 1 0 0 1
0x01f4 1 0 0 1
0x01f4 1 0 0 1
0x01f4 1 0 0 1
0x01f4 1 0 0 1
0x01f4 1 0 0 1
0x01f4 1 0 0 1
0x01f4 1 0 0 1
0x01f4 1 0 0 1
0x01f4 1 0 0 1
0x01f4 1 0 0 1
0x01f4 1 0 0 1
0x01f4 1 0 0 1
0x01f4 1 0 0 1
0x01f4 1 0 0 1
0x01f4 1 0 0 1
0x01f4 1 0 0 1
0x01f4 1 0 0 1
0x01f4 1 0 0 1
0x01f4 1 0 0 1
0x01f4 1 0 0 1
0x01f4 1 0 0 1
0x01f4 1 0 0 1
0x01f4 1 0 0 1
0x01f4 1 0 0 1
0x01f4 1 0 0 1
0x01f4 1 0 0 1
0x01f4 1 0 0 1
0x01f4 1 0 0 1
0x01f4 1 0 0 1
0x01f4 1 0 0 1
0x01f4 1 0 0 1
0x01f4 1 0 0 1
0x01f4 1 0 0 1
0x01f4 1 0 0 1
0x01f4 1 0 0 1
0x01f4 1 0 0 1
0x01f5 1 0 0 1
0x01f6 1 0 0 1
0x01f8 1 0 0 1
0x01fa 1 0 0 1
0x01fd 1 0 0 1
0x0201 1 0 0 1
0x0206 1 0 0 1
0x020c 1 0 0 1
0x0212 1 0 0 1
0x0218 1 0 0 1
0x021d 1 0 0 1
0x0222 1 0 0 1
0x0225 1 0 0 1
0x0226 1 0 0 1
0x0225 1 0 0 1
0x0222 1 0 0 1
0x021d 1 0 0 1
0x0218 1 0 0 1
0x0212 1 0 0 1
0x020c 1 0 0 1
0x0206 1 0 0 1
0x0201 1 1 1 1
0xaae1 1 0 0 1
0x4000 1 0 0 1
0x5555 1 0 0 1
0x5555 1 0 0 1
0x5555 1 0 0 1
0x5555 1 1 0 1
0x01f4 1 0 0 1
0x01f4 1 0 0 1
0x01f4 1 0 0 1
0x01f4 1 0 0 1
0x01f4 1 0 0 1
0x01f4 1 0 0 1
0x01f4 1 0 0 1
0x01f4 1 0 0 1
0x01f4 1 0 0 1
0x01f4 1 0 0 1
0x01f4 1 0 0 1
0x01f4 1 0 0 1
0x01f4 1 0 0 1
0x01f4 1 0 0 1
0x01f4 1 0 0 1
0x01f4 1 0 0 1
0x01f4 1 0 0 1
0x01f4 1 0 0 1
0x01f4 1 0 0 1
0x01f4 1 0 0 1
0x01f4 1 0 0 1
0x01f4 1 0 0 1
0x01f4 1 0 0 1
0x01f4 1 0 0 1
0x01f4 1 0 0 1
0x01f4 1 0 0 1
0x01f4 1 0 0 1
0x01f4 1 0 0 1
0x01f4 1 0 0 1
0x01f4 1 0 0 1
0x01f4 1 0 0 1
0x01f4 1 0 0 1
0x01f4 1 0 0 1
0x01f4 1 0 0 1
0x01f4 1 0 0 1
0x01f4 1 0 0 1
0x01f4 1 0 0 1
0x01f4 1 0 0 1
0x01f4 1 0 0 1
0x01f4 1 0 0 1
0x01f4 1 0 0 1
0x01f4 1 0 0 1
0x01f4 1 0 0 1
0x01f5 1 0 0 1
0x01f6 1 0 0 1
0x01f8 1 0 0 1
0x01fa 1 0 0 1
0x01fd 1 0 0 1
0x0201 1 0 0 1
0x0206 1 0 0 1
0x020c 1 0 0 1
0x0212 1 0 0 1
0x0218 1 0 0 1
0x021d 1 0 0 1
0x0222 1 0 0 1
0x0225 1 0 0 1
0x0226 1 0 0 1
0x0225 1 0 0 1
0x0222 1 0 0 1
0x021d 1 0 0 1
0x0218 1 0 0 1
0x0212 1 0 0 1
0x020c 1 0 0 1
0x0206 1 1 1 1
0xaae5 1 0 0 1
0x4000 1 0 0 1
0x5555 1 0 0 1
0x5555 1 0 0 1
0x5555 1 0 0 1
0x5555 1 1 0 1
0x01f4 1 0 0 1
0x01f4 1 0 0 1
0x01f4 1 0 0 1
0x01f4 1 0 0 1
0x01f4 1 0 0 1
0x01f4 1 0 0 1
0x01f4 1 0 0 1
0x01f4 1 0 0 1
0x01f4 1 0 0 1
0x01f4 1 0 0 1
0x01f4 1 0 0 1
0x01f4 1 0 0 1
0x01f4 1 0 0 1
0x01f4 1 0 0 1
0x01f4 1 0 0 1
0x01f4 1 0 0 1
0x01f4 1 0 0 1
0x01f4 1 0 0 1
0x01f4 1 0 0 1
0x01f4 1 0 0 1
0x01f4 1 0 0 1
0x01f4 1 0 0 1
0x01f4 1 0 0 1
0x01f4 1 0 0 1
0x01f4 1 0 0 1
0x01f4 1 0 0 1
0x01f4 1 0 0 1
0x01f4 1 0 0 1
0x01f4 1 0 0 1
0x01f4 1 0 0 1
0x01f4 1 0 0 1
0x01f4 1 0 0 1
0x01f4 1 0 0 1
0x01f4 1 0 0 1
0x01f4 1 0 0 1
0x01f4 1 0 0 1
0x01f4 1 0 0 1
0x01f4 1 0 0 1
0x01f4 1 0 0 1
0x01f4 1 0 0 1
0x01f4 1 0 0 1
0x01f4 1 0 0 1
0x01f4 1 0 0 1
0x01f4 1 0 0 1
0x01f5 1 0 0 1
0x01f6 1 0 0 1
0x01f8 1 0 0 1
0x01fa 1 0 0 1
0x01fd 1 0 0 1
0x0201 1 0 0 1
0x0206 1 0 0 1
0x020c 1 0 0 1
0x0212 1 0 0 1
0x0218 1 0 0 1
0x021d 1 0 0 1
0x0222 1 0 0 1
0x0225 1 0 0 1
0x0226 1 0 0 1
0x0225 1 0 0 1
0x0222 1 0 0 1
0x021d 1 0 0 1
0x0218 1 0 0 1
0x0212 1 0 0 1
0x020c 1 1 1 1
0xaae9 1 0 0 1
0x4000 1 0 0 1
0x5555 1 0 0 1
0x5555 1 0 0 1
0x5555 1 0 0 1
0x5555 1 1 0 1
0x01f4 1 0 0 1
0x01f4 1 0 0 1
0x01f4 1 0 0 1
0x01f4 1 0 0 1
0x01f4 1 0 0 1
0x01f4 1 0 0 1
0x01f4 1 0 0 1
0x01f4 1 0 0 1
0x01f4 1 0 0 1
0x01f4 1 0 0 1
0x01f4 1 0 0 1
0x01f4 1 0 0 1
0x01f4 1 0 0 1
0x01f4 1 0 0 1
0x01f4 1 0 0 1
0x01f4 1 0 0 1
0x01f4 1 0 0 1
0x01f4 1 0 0 1
0x01f4 1 0 0 1
0x01f4 1 0 0 1
0x01f4 1 0 0 1
0x01f4 1 0 0 1
0x01f4 1 0 0 1
0x01f4 1 0 0 1
0x01f4 1 0 0 1
0x01f4 1 0 0 1
0x01f4 1 0 0 1
0x01f4 1 0 0 1
0x01f4 1 0 0 1
0x01f4 1 0 0 1
0x01f4 1 0 0 1
0x01f4 1 0 0 1
0x01f4 1 0 0 1
0x01f4 1 0 0 1
0x01f4 1 0 0 1
0x01f4 1 0 0 1
0x01f4 1 0 0 1
0x01f4 1 0 0 1
0x01f4 1 0 0 1
0x01f4 1 0 0 1
0x01f4 1 0 0 1
0x01f4 1 0 0 1
0x01f4 1 0 0 1
0x01f4 1 0 0 1
0x01f4 1 0 0 1
0x01f5 1 0 0 1
0x01f6 1 0 0 1
0x01f8 1 0 0 1
0x01fa 1 0 0 1
0x01fd 1 0 0 1
0x0201 1 0 0 1
0x0206 1 0 0 1
0x020c 1 0 0 1
0x0212 1 0 0 1
0x0218 1 0 0 1
0x021d 1 0 0 1
0x0222 1 0 0 1
0x0225 1 0 0 1
0x0226 1 0 0 1
0x0225 1 0 0 1
0x0222 1 0 0 1
0x021d 1 0 0 1
0x0218 1 0 0 1
0x0212 1 1 1 1
0xaaed 1 0 0 1
0x4000 1 0 0 1
0x5555 1 0 0 1
0x5555 1 0 0 1
0x5555 1 0 0 1
0x5555 1 1 0 1
0x01f4 1 0 0 1
0x01f4 1 0 0 1
0x01f4 1 0 0 1
0x01f4 1 0 0 1
0x01f4 1 0 0 1
0x01f4 1 0 0 1
0x01f4 1 0 0 1
0x01f4 1 0 0 1
0x01f4 1 0 0 1
0x01f4 1 0 0 1
0x01f4 1 0 0 1
0x01f4 1 0 0 1
0x01f4 1 0 0 1
0x01f4 1 0 0 1
0x01f4 1 0 0 1
0x01f4 1 0 0 1
0x01f4 1 0 0 1
0x01f4 1 0 0 1
0x01f4 1 0 0 1
0x01f4 1 0 0 1
0x01f4 1 0 0 1
0x01f4 1 0 0 1
0x01f4 1 0 0 1
0x01f4 1 0 0 1
0x01f4 1 0 0 1
0x01f4 1 0 0 1
0x01f4 1 0 0 1
0x01f4 1 0 0 1
0x01f4 1 0 0 1
0x01f4 1 0 0 1
0x01f4 1 0 0 1
0x01f4 1 0 0 1
0x01f4 1 0 0 1
0x01f4 1 0 0 1
0x01f4 1 0 0 1
0x01f4 1 0 0 1
0x01f4 1 0 0 1
0x01f4 1 0 0 1
0x01f4 1 0 0 1
0x01f4 1 0 0 1
0x01f4 1 0 0 1
0x01f4 1 0 0 1
0x01f4 1 0 0 1
0x01f4 1 0 0 1
0x01f4 1 0 0 1
0x01f4 1 0 0 1
0x01f5 1 0 0 1
0x01f6 1 0 0 1
0x01f8 1 0 0 1
0x01fa 1 0 0 1
0x01fd 1 0 0 1
0x0201 1 0 0 1
0x0206 1 0 0 1
0x020c 1 0 0 1
0x0212 1 0 0 1
0x0218 1 0 0 1
0x021d 1 0 0 1
0x0222 1 0 0 1
0x0225 1 0 0 1
0x0226 1 0 0 1
0x0225 1 0 0 1
0x0222 1 0 0 1
0x021d 1 0 0 1
0x0218 1 1 1 1
0xaaf1 1 0 0 1
0x4000 1 0 0 1
0x5555 1 0 0 1
0x5555 1 0 0 1
0x5555 1 0 0 1
0x5555 1 1 0 1
0x01f4 1 0 0 1
0x01f4 1 0 0 1
0x01f4 1 0 0 1
0x01f4 1 0 0 1
0x01f4 1 0 0 1
0x01f4 1 0 0 1
0x01f4 1 0 0 1
0x01f4 1 0 0 1
0x01f4 1 0 0 1
0x01f4 1 0 0 1
0x01f4 1 0 0 1
0x01f4 1 0 0 1
0x01f4 1 0 0 1
0x01f4 1 0 0 1
0x01f4 1 0 0 1
0x01f4 1 0 0 1
0x01f4 1 0 0 1
0x01f4 1 0 0 1
0x01f4 1 0 0 1
0x01f4 1 0 0 1
0x01f4 1 0 0 1
0x01f4 1 0 0 1
0x01f4 1 0 0 1
0x01f4 1 0 0 1
0x01f4 1 0 0 1
0x01f4 1 0 0 1
0x01f4 1 0 0 1
0x01f4 1 0 0 1
0x01f4 1 0 0 1
0x01f4 1 0 0 1
0x01f4 1 0 0 1
0x01f4 1 0 0 1
0x01f4 1 0 0 1
0x01f4 1 0 0 1
0x01f4 1 0 0 1
0x01f4 1 0 0 1
0x01f4 1 0 0 1
0x01f4 1 0 0 1
0x01f4 1 0 0 1
0x01f4 1 0 0 1
0x01f4 1 0 0 1
0x01f4 1 0 0 1
0x01f4 1 0 0 1
0x01f4 1 0 0 1
0x01f4 1 0 0 1
0x01f4 1 0 0 1
0x01f4 1 0 0 1
0x01f5 1 0 0 1
0x01f6 1 0 0 1
0x01f8 1 0 0 1
0x01fa 1 0 0 1
0x01fd 1 0 0 1
0x0201 1 0 0 1
0x0206 1 0 0 1
0x020c 1 0 0 1
0x0212 1 0 0 1
0x0218 1 0 0 1
0x021d 1 0 0 1
0x0222 1 0 0 1
0x0225 1 0 0 1
0x0226 1 0 0 1
0x0225 1 0 0 1
0x0222 1 0 0 1
0x021d 1 1 1 1
0xaaf5 1 0 0 1
0x4000 1 0 0 1
0x5555 1 0 0 1
0x5555 1 0 0 1
0x5555 1 0 0 1
0x5555 1 1 0 1
0x01f4 1 0 0 1
0x01f4 1 0 0 1
0x01f4 1 0 0 1
0x01f4 1 0 0 1
0x01f4 1 0 0 1
0x01f4 1 0 0 1
0x01f4 1 0 0 1
0x01f4 1 0 0 1
0x01f4 1 0 0 1
0x01f4 1 0 0 1
0x01f4 1 0 0 1
0x01f4 1 0 0 1
0x01f4 1 0 0 1
0x01f4 1 0 0 1
0x01f4 1 0 0 1
0x01f4 1 0 0 1
0x01f4 1 0 0 1
0x01f4 1 0 0 1
0x01f4 1 0 0 1
0x01f4 1 0 0 1
0x01f4 1 0 0 1
0x01f4 1 0 0 1
0x01f4 1 0 0 1
0x01f4 1 0 0 1
0x01f4 1 0 0 1
0x01f4 1 0 0 1
0x01f4 1 0 0 1
0x01f4 1 0 0 1
0x01f4 1 0 0 1
0x01f4 1 0 0 1
0x01f4 1 0 0 1
0x01f4 1 0 0 1
0x01f4 1 0 0 1
0x01f4 1 0 0 1
0x01f4 1 0 0 1
0x01f4 1 0 0 1
0x01f4 1 0 0 1
0x01f4 1 0 0 1
0x01f4 1 0 0 1
0x01f4 1 0 0 1
0x01f4 1 0 0 1
0x01f4 1 0 0 1
0x01f4 1 0 0 1
0x01f4 1 0 0 1
0x01f4 1 0 0 1
0x01f4 1 0 0 1
0x01f4 1 0 0 1
0x01f4 1 0 0 1
0x01f5 1 0 0 1
0x01f6 1 0 0 1
0x01f8 1 0 0 1
0x01fa 1 0 0 1
0x01fd 1 0 0 1
0x0201 1 0 0 1
0x0206 1 0 0 1
0x020c 1 0 0 1
0x0212 1 0 0 1
0x0218 1 0 0 1
0x021d 1 0 0 1
0x0222 1 0 0 1
0x0225 1 0 0 1
0x0226 1 0 0 1
0x0225 1 0 0 1
0x0222 1 1 1 1
0xaaf9 1 0 0 1
0x4000 1 0 0 1
0x5555 1 0 0 1
0x5555 1 0 0 1
0x5555 1 0 0 1
0x5555 1 1 0 1
0x01f4 1 0 0 1
0x01f4 1 0 0 1
0x01f4 1 0 0 1
0x01f4 1 0 0 1
0x01f4 1 0 0 1
0x01f4 1 0 0 1
0x01f4 1 0 0 1
0x01f4 1 0 0 1
0x01f4 1 0 0 1
0x01f4 1 0 0 1
0x01f4 1 0 0 1
0x01f4 1 0 0 1
0x01f4 1 0 0 1
0x01f4 1 0 0 1
0x01f4 1 0 0 1
0x01f4 1 0 0 1
0x01f4 1 0 0 1
0x01f4 1 0 0 1
0x01f4 1 0 0 1
0x01f4 1 0 0 1
0x01f4 1 0 0 1
0x01f4 1 0 0 1
0x01f4 1 0 0 1
0x01f4 1 0 0 1
0x01f4 1 0 0 1
0x01f4 1 0 0 1
0x01f4 1 0 0 1
0x01f4 1 0 0 1
0x01f4 1 0 0 1
0x01f4 1 0 0 1
0x01f4 1 0 0 1
0x01f4 1 0 0 1
0x01f4 1 0 0 1
0x01f4 1 0 0 1
0x01f4 1 0 0 1
0x01f4 1 0 0 1
0x01f4 1 0 0 1
0x01f4 1 0 0 1
0x01f4 1 0 0 1
0x01f4 1 0 0 1
0x01f4 1 0 0 1
0x01f4 1 0 0 1
0x01f4 1 0 0 1
0x01f4 1 0 0 1
0x01f4 1 0 0 1
0x01f4 1 0 0 1
0x01f4 1 0 0 1
0x01f4 1 0 0 1
0x01f4 1 0 0 1
0x01f5 1 0 0 1
0x01f6 1 0 0 1
0x01f8 1 0 0 1
0x01fa 1 0 0 1
0x01fd 1 0 0 1
0x0201 1 0 0 1
0x0206 1 0 0 1
0x020c 1 0 0 1
0x0212 1 0 0 1
0x0218 1 0 0 1
0x021d 1 0 0 1
0x0222 1 0 0 1
0x0225 1 0 0 1
0x0226 1 0 0 1
0x0225 1 1 1 1
0xaafd 1 0 0 1
0x4000 1 0 0 1
0x5555 1 0 0 1
0x5555 1 0 0 1
0x5555 1 0 0 1
0x5555 1 1 0 1
0x01f4 1 0 0 1
0x01f4 1 0 0 1
0x01f4 1 0 0 1
0x01f4 1 0 0 1
0x01f4 1 0 0 1
0x01f4 1 0 0 1
0x01f4 1 0 0 1
0x01f4 1 0 0 1
0x01f4 1 0 0 1
0x01f4 1 0 0 1
0x01f4 1 0 0 1
0x01f4 1 0 0 1
0x01f4 1 0 0 1
0x01f4 1 0 0 1
0x01f4 1 0 0 1
0x01f4 1 0 0 1
0x01f4 1 0 0 1
0x01f4 1 0 0 1
0x01f4 1 0 0 1
0x01f4 1 0 0 1
0x01f4 1 0 0 1
0x01f4 1 0 0 1
0x01f4 1 0 0 1
0x01f4 1 0 0 1
0x01f4 1 0 0 1
0x01f4 1 0 0 1
0x01f4 1 0 0 1
0x01f4 1 0 0 1
0x01f4 1 0 0 1
0x01f4 1 0 0 1
0x01f4 1 0 0 1
0x01f4 1 0 0 1
0x01f4 1 0 0 1
0x01f4 1 0 0 1
0x01f4 1 0 0 1
0x01f4 1 0 0 1
0x01f4 1 0 0 1
0x01f4 1 0 0 1
0x01f4 1 0 0 1
0x01f4 1 0 0 1
0x01f4 1 0 0 1
0x01f4 1 0 0 1
0x01f4 1 0 0 1
0x01f4 1 0 0 1
0x01f4 1 0 0 1
0x01f4 1 0 0 1
0x01f4 1 0 0 1
0x01f4 1 0 0 1
0x01f4 1 0 0 1
0x01f4 1 0 0 1
0x01f5 1 0 0 1
0x01f6 1 0 0 1
0x01f8 1 0 0 1
0x01fa 1 0 0 1
0x01fd 1 0 0 1
0x0201 1 0 0 1
0x0206 1 0 0 1
0x020c 1 0 0 1
0x0212 1 0 0 1
0x0218 1 0 0 1
0x021d 1 0 0 1
0x0222 1 0 0 1
0x0225 1 0 0 1
0x0226 1 1 1 1