0xaa00 1 0 0 1
0x4000 1 0 0 1
0x5555 1 0 0 1
0x5555 1 0 0 1
0x5555 1 0 0 1
0x5555 1 1 0 1
0x023a 1 0 0 1
0x0239 1 0 0 1
0x0235 1 0 0 1
0x022f 1 0 0 1
0x0227 1 0 0 1
0x021e 1 0 0 1
0x0216 1 0 0 1
0x020e 1 0 0 1
0x0207 1 0 0 1
0x0202 1 0 0 1
0x01fd 1 0 0 1
0x01fa 1 0 0 1
0x01f7 1 0 0 1
0x01f6 1 0 0 1
0x01f5 1 0 0 1
0x01f4 1 0 0 1
0x01f4 1 0 0 1
0x01f4 1 0 0 1
0x01f4 1 0 0 1
0x01f4 1 0 0 1
0x01f4 1 0 0 1
0x01f4 1 0 0 1
0x01f4 1 0 0 1
0x01f4 1 0 0 1
0x01f4 1 0 0 1
0x01f4 1 0 0 1
0x01f4 1 0 0 1
0x01f4 1 0 0 1
0x01f4 1 0 0 1
0x01f4 1 0 0 1
0x01f4 1 0 0 1
0x01f4 1 0 0 1
0x01f4 1 0 0 1
0x01f4 1 0 0 1
0x01f4 1 0 0 1
0x01f4 1 0 0 1
0x01f4 1 0 0 1
0x01f4 1 0 0 1
0x01f4 1 0 0 1
0x01f4 1 0 0 1
0x01f4 1 0 0 1
0x01f4 1 0 0 1
0x01f4 1 0 0 1
0x01f4 1 0 0 1
0x01f4 1 0 0 1
0x01f4 1 0 0 1
0x01f4 1 0 0 1
0x01f4 1 0 0 1
0x01f4 1 0 0 1
0x01f4 1 0 0 1
0x01f4 1 0 0 1
0x01f4 1 0 0 1
0x01f4 1 0 0 1
0x01f4 1 0 0 1
0x01f4 1 0 0 1
0x01f4 1 0 0 1
0x01f4 1 0 0 1
0x01f4 1 0 0 1
0x01f4 1 0 0 1
0x01f4 1 0 0 1
0x01f4 1 0 0 1
0x01f4 1 0 0 1
0x01f4 1 0 0 1
0x01f4 1 1 1 1
0xaa04 1 0 0 1
0x4000 1 0 0 1
0x5555 1 0 0 1
0x5555 1 0 0 1
0x5555 1 0 0 1
0x5555 1 1 0 1
0x022f 1 0 0 1
0x0231 1 0 0 1
0x022f 1 0 0 1
0x022c 1 0 0 1
0x0227 1 0 0 1
0x0220 1 0 0 1
0x0219 1 0 0 1
0x0211 1 0 0 1
0x020a 1 0 0 1
0x0204 1 0 0 1
0x0200 1 0 0 1
0x01fc 1 0 0 1
0x01f9 1 0 0 1
0x01f7 1 0 0 1
0x01f6 1 0 0 1
0x01f5 1 0 0 1
0x01f4 1 0 0 1
0x01f4 1 0 0 1
0x01f4 1 0 0 1
0x01f4 1 0 0 1
0x01f4 1 0 0 1
0x01f4 1 0 0 1
0x01f4 1 0 0 1
0x01f4 1 0 0 1
0x01f4 1 0 0 1
0x01f4 1 0 0 1
0x01f4 1 0 0 1
0x01f4 1 0 0 1
0x01f4 1 0 0 1
0x01f4 1 0 0 1
0x01f4 1 0 0 1
0x01f4 1 0 0 1
0x01f4 1 0 0 1
0x01f4 1 0 0 1
0x01f4 1 0 0 1
0x01f4 1 0 0 1
0x01f4 1 0 0 1
0x01f4 1 0 0 1
0x01f4 1 0 0 1
0x01f4 1 0 0 1
0x01f4 1 0 0 1
0x01f4 1 0 0 1
0x01f4 1 0 0 1
0x01f4 1 0 0 1
0x01f4 1 0 0 1
0x01f4 1 0 0 1
0x01f4 1 0 0 1
0x01f4 1 0 0 1
0x01f4 1 0 0 1
0x01f4 1 0 0 1
0x01f4 1 0 0 1
0x01f4 1 0 0 1
0x01f4 1 0 0 1
0x01f4 1 0 0 1
0x01f4 1 0 0 1
0x01f4 1 0 0 1
0x01f4 1 0 0 1
0x01f4 1 0 0 1
0x01f4 1 0 0 1
0x01f4 1 0 0 1
0x01f4 1 0 0 1
0x01f4 1 0 0 1
0x01f4 1 0 0 1
0x01f4 1 1 1 1
0xaa08 1 0 0 1
0x4000 1 0 0 1
0x5555 1 0 0 1
0x5555 1 0 0 1
0x5555 1 0 0 1
0x5555 1 1 0 1
0x0222 1 0 0 1
0x0225 1 0 0 1
0x0226 1 0 0 1
0x0225 1 0 0 1
0x0222 1 0 0 1
0x021e 1 0 0 1
0x0218 1 0 0 1
0x0212 1 0 0 1
0x020c 1 0 0 1
0x0206 1 0 0 1
0x0202 1 0 0 1
0x01fd 1 0 0 1
0x01fa 1 0 0 1
0x01f8 1 0 0 1
0x01f6 1 0 0 1
0x01f5 1 0 0 1
0x01f5 1 0 0 1
0x01f4 1 0 0 1
0x01f4 1 0 0 1
0x01f4 1 0 0 1
0x01f4 1 0 0 1
0x01f4 1 0 0 1
0x01f4 1 0 0 1
0x01f4 1 0 0 1
0x01f4 1 0 0 1
0x01f4 1 0 0 1
0x01f4 1 0 0 1
0x01f4 1 0 0 1
0x01f4 1 0 0 1
0x01f4 1 0 0 1
0x01f4 1 0 0 1
0x01f4 1 0 0 1
0x01f4 1 0 0 1
0x01f4 1 0 0 1
0x01f4 1 0 0 1
0x01f4 1 0 0 1
0x01f4 1 0 0 1
0x01f4 1 0 0 1
0x01f4 1 0 0 1
0x01f4 1 0 0 1
0x01f4 1 0 0 1
0x01f4 1 0 0 1
0x01f4 1 0 0 1
0x01f4 1 0 0 1
0x01f4 1 0 0 1
0x01f4 1 0 0 1
0x01f4 1 0 0 1
0x01f4 1 0 0 1
0x01f4 1 0 0 1
0x01f4 1 0 0 1
0x01f4 1 0 0 1
0x01f4 1 0 0 1
0x01f4 1 0 0 1
0x01f4 1 0 0 1
0x01f4 1 0 0 1
0x01f4 1 0 0 1
0x01f4 1 0 0 1
0x01f4 1 0 0 1
0x01f4 1 0 0 1
0x01f4 1 0 0 1
0x01f4 1 0 0 1
0x01f4 1 0 0 1
0x01f4 1 0 0 1
0x01f4 1 1 1 1
0xaa0c 1 0 0 1
0x4000 1 0 0 1
0x5555 1 0 0 1
0x5555 1 0 0 1
0x5555 1 0 0 1
0x5555 1 1 0 1
0x023e 1 0 0 1
0x0246 1 0 0 1
0x024b 1 0 0 1
0x024c 1 0 0 1
0x024b 1 0 0 1
0x0246 1 0 0 1
0x023e 1 0 0 1
0x0234 1 0 0 1
0x0229 1 0 0 1
0x021f 1 0 0 1
0x0215 1 0 0 1
0x020c 1 0 0 1
0x0205 1 0 0 1
0x0200 1 0 0 1
0x01fb 1 0 0 1
0x01f8 1 0 0 1
0x01f7 1 0 0 1
0x01f5 1 0 0 1
0x01f4 1 0 0 1
0x01f4 1 0 0 1
0x01f4 1 0 0 1
0x01f4 1 0 0 1
0x01f4 1 0 0 1
0x01f4 1 0 0 1
0x01f4 1 0 0 1
0x01f4 1 0 0 1
0x01f4 1 0 0 1
0x01f4 1 0 0 1
0x01f4 1 0 0 1
0x01f4 1 0 0 1
0x01f4 1 0 0 1
0x01f4 1 0 0 1
0x01f4 1 0 0 1
0x01f4 1 0 0 1
0x01f4 1 0 0 1
0x01f4 1 0 0 1
0x01f4 1 0 0 1
0x01f4 1 0 0 1
0x01f4 1 0 0 1
0x01f4 1 0 0 1
0x01f4 1 0 0 1
0x01f4 1 0 0 1
0x01f4 1 0 0 1
0x01f4 1 0 0 1
0x01f4 1 0 0 1
0x01f4 1 0 0 1
0x01f4 1 0 0 1
0x01f4 1 0 0 1
0x01f4 1 0 0 1
0x01f4 1 0 0 1
0x01f4 1 0 0 1
0x01f4 1 0 0 1
0x01f4 1 0 0 1
0x01f4 1 0 0 1
0x01f4 1 0 0 1
0x01f4 1 0 0 1
0x01f4 1 0 0 1
0x01f4 1 0 0 1
0x01f4 1 0 0 1
0x01f4 1 0 0 1
0x01f4 1 0 0 1
0x01f4 1 0 0 1
0x01f4 1 0 0 1
0x01f4 1 1 1 1
0xaa10 1 0 0 1
0x4000 1 0 0 1
0x5555 1 0 0 1
0x5555 1 0 0 1
0x5555 1 0 0 1
0x5555 1 1 0 1
0x0223 1 0 0 1
0x022a 1 0 0 1
0x022f 1 0 0 1
0x0233 1 0 0 1
0x0234 1 0 0 1
0x0233 1 0 0 1
0x022f 1 0 0 1
0x022a 1 0 0 1
0x0223 1 0 0 1
0x021b 1 0 0 1
0x0213 1 0 0 1
0x020c 1 0 0 1
0x0205 1 0 0 1
0x0200 1 0 0 1
0x01fc 1 0 0 1
0x01f9 1 0 0 1
0x01f7 1 0 0 1
0x01f6 1 0 0 1
0x01f5 1 0 0 1
0x01f4 1 0 0 1
0x01f4 1 0 0 1
0x01f4 1 0 0 1
0x01f4 1 0 0 1
0x01f4 1 0 0 1
0x01f4 1 0 0 1
0x01f4 1 0 0 1
0x01f4 1 0 0 1
0x01f4 1 0 0 1
0x01f4 1 0 0 1
0x01f4 1 0 0 1
0x01f4 1 0 0 1
0x01f4 1 0 0 1
0x01f4 1 0 0 1
0x01f4 1 0 0 1
0x01f4 1 0 0 1
0x01f4 1 0 0 1
0x01f4 1 0 0 1
0x01f4 1 0 0 1
0x01f4 1 0 0 1
0x01f4 1 0 0 1
0x01f4 1 0 0 1
0x01f4 1 0 0 1
0x01f4 1 0 0 1
0x01f4 1 0 0 1
0x01f4 1 0 0 1
0x01f4 1 0 0 1
0x01f4 1 0 0 1
0x01f4 1 0 0 1
0x01f4 1 0 0 1
0x01f4 1 0 0 1
0x01f4 1 0 0 1
0x01f4 1 0 0 1
0x01f4 1 0 0 1
0x01f4 1 0 0 1
0x01f4 1 0 0 1
0x01f4 1 0 0 1
0x01f4 1 0 0 1
0x01f4 1 0 0 1
0x01f4 1 0 0 1
0x01f4 1 0 0 1
0x01f4 1 0 0 1
0x01f4 1 0 0 1
0x01f4 1 0 0 1
0x01f4 1 1 1 1
0xaa14 1 0 0 1
0x4000 1 0 0 1
0x5555 1 0 0 1
0x5555 1 0 0 1
0x5555 1 0 0 1
0x5555 1 1 0 1
0x0213 1 0 0 1
0x021a 1 0 0 1
0x021f 1 0 0 1
0x0224 1 0 0 1
0x0227 1 0 0 1
0x0228 1 0 0 1
0x0227 1 0 0 1
0x0224 1 0 0 1
0x021f 1 0 0 1
0x021a 1 0 0 1
0x0213 1 0 0 1
0x020d 1 0 0 1
0x0207 1 0 0 1
0x0202 1 0 0 1
0x01fe 1 0 0 1
0x01fb 1 0 0 1
0x01f8 1 0 0 1
0x01f6 1 0 0 1
0x01f5 1 0 0 1
0x01f5 1 0 0 1
0x01f4 1 0 0 1
0x01f4 1 0 0 1
0x01f4 1 0 0 1
0x01f4 1 0 0 1
0x01f4 1 0 0 1
0x01f4 1 0 0 1
0x01f4 1 0 0 1
0x01f4 1 0 0 1
0x01f4 1 0 0 1
0x01f4 1 0 0 1
0x01f4 1 0 0 1
0x01f4 1 0 0 1
0x01f4 1 0 0 1
0x01f4 1 0 0 1
0x01f4 1 0 0 1
0x01f4 1 0 0 1
0x01f4 1 0 0 1
0x01f4 1 0 0 1
0x01f4 1 0 0 1
0x01f4 1 0 0 1
0x01f4 1 0 0 1
0x01f4 1 0 0 1
0x01f4 1 0 0 1
0x01f4 1 0 0 1
0x01f4 1 0 0 1
0x01f4 1 0 0 1
0x01f4 1 0 0 1
0x01f4 1 0 0 1
0x01f4 1 0 0 1
0x01f4 1 0 0 1
0x01f4 1 0 0 1
0x01f4 1 0 0 1
0x01f4 1 0 0 1
0x01f4 1 0 0 1
0x01f4 1 0 0 1
0x01f4 1 0 0 1
0x01f4 1 0 0 1
0x01f4 1 0 0 1
0x01f4 1 0 0 1
0x01f4 1 0 0 1
0x01f4 1 0 0 1
0x01f4 1 0 0 1
0x01f4 1 0 0 1
0x01f4 1 1 1 1
0xaa18 1 0 0 1
0x4000 1 0 0 1
0x5555 1 0 0 1
0x5555 1 0 0 1
0x5555 1 0 0 1
0x5555 1 1 0 1
0x0221 1 0 0 1
0x022c 1 0 0 1
0x0237 1 0 0 1
0x0242 1 0 0 1
0x024a 1 0 0 1
0x024f 1 0 0 1
0x0251 1 0 0 1
0x024f 1 0 0 1
0x024a 1 0 0 1
0x0242 1 0 0 1
0x0237 1 0 0 1
0x022c 1 0 0 1
0x0221 1 0 0 1
0x0217 1 0 0 1
0x020d 1 0 0 1
0x0206 1 0 0 1
0x0200 1 0 0 1
0x01fc 1 0 0 1
0x01f9 1 0 0 1
0x01f7 1 0 0 1
0x01f5 1 0 0 1
0x01f5 1 0 0 1
0x01f4 1 0 0 1
0x01f4 1 0 0 1
0x01f4 1 0 0 1
0x01f4 1 0 0 1
0x01f4 1 0 0 1
0x01f4 1 0 0 1
0x01f4 1 0 0 1
0x01f4 1 0 0 1
0x01f4 1 0 0 1
0x01f4 1 0 0 1
0x01f4 1 0 0 1
0x01f4 1 0 0 1
0x01f4 1 0 0 1
0x01f4 1 0 0 1
0x01f4 1 0 0 1
0x01f4 1 0 0 1
0x01f4 1 0 0 1
0x01f4 1 0 0 1
0x01f4 1 0 0 1
0x01f4 1 0 0 1
0x01f4 1 0 0 1
0x01f4 1 0 0 1
0x01f4 1 0 0 1
0x01f4 1 0 0 1
0x01f4 1 0 0 1
0x01f4 1 0 0 1
0x01f4 1 0 0 1
0x01f4 1 0 0 1
0x01f4 1 0 0 1
0x01f4 1 0 0 1
0x01f4 1 0 0 1
0x01f4 1 0 0 1
0x01f4 1 0 0 1
0x01f4 1 0 0 1
0x01f4 1 0 0 1
0x01f4 1 0 0 1
0x01f4 1 0 0 1
0x01f4 1 0 0 1
0x01f4 1 0 0 1
0x01f4 1 0 0 1
0x01f4 1 0 0 1
0x01f4 1 1 1 1
0xaa1c 1 0 0 1
0x4000 1 0 0 1
0x5555 1 0 0 1
0x5555 1 0 0 1
0x5555 1 0 0 1
0x5555 1 1 0 1
0x0216 1 0 0 1
0x0221 1 0 0 1
0x022c 1 0 0 1
0x0237 1 0 0 1
0x0241 1 0 0 1
0x024a 1 0 0 1
0x024f 1 0 0 1
0x0251 1 0 0 1
0x024f 1 0 0 1
0x024a 1 0 0 1
0x0241 1 0 0 1
0x0237 1 0 0 1
0x022c 1 0 0 1
0x0221 1 0 0 1
0x0216 1 0 0 1
0x020d 1 0 0 1
0x0206 1 0 0 1
0x0200 1 0 0 1
0x01fc 1 0 0 1
0x01f9 1 0 0 1
0x01f7 1 0 0 1
0x01f5 1 0 0 1
0x01f5 1 0 0 1
0x01f4 1 0 0 1
0x01f4 1 0 0 1
0x01f4 1 0 0 1
0x01f4 1 0 0 1
0x01f4 1 0 0 1
0x01f4 1 0 0 1
0x01f4 1 0 0 1
0x01f4 1 0 0 1
0x01f4 1 0 0 1
0x01f4 1 0 0 1
0x01f4 1 0 0 1
0x01f4 1 0 0 1
0x01f4 1 0 0 1
0x01f4 1 0 0 1
0x01f4 1 0 0 1
0x01f4 1 0 0 1
0x01f4 1 0 0 1
0x01f4 1 0 0 1
0x01f4 1 0 0 1
0x01f4 1 0 0 1
0x01f4 1 0 0 1
0x01f4 1 0 0 1
0x01f4 1 0 0 1
0x01f4 1 0 0 1
0x01f4 1 0 0 1
0x01f4 1 0 0 1
0x01f4 1 0 0 1
0x01f4 1 0 0 1
0x01f4 1 0 0 1
0x01f4 1 0 0 1
0x01f4 1 0 0 1
0x01f4 1 0 0 1
0x01f4 1 0 0 1
0x01f4 1 0 0 1
0x01f4 1 0 0 1
0x01f4 1 0 0 1
0x01f4 1 0 0 1
0x01f4 1 0 0 1
0x01f4 1 0 0 1
0x01f4 1 0 0 1
0x01f4 1 1 1 1
0xaa20 1 0 0 1
0x4000 1 0 0 1
0x5555 1 0 0 1
0x5555 1 0 0 1
0x5555 1 0 0 1
0x5555 1 1 0 1
0x0205 1 0 0 1
0x020b 1 0 0 1
0x0212 1 0 0 1
0x0219 1 0 0 1
0x0221 1 0 0 1
0x0228 1 0 0 1
0x022d 1 0 0 1
0x0231 1 0 0 1
0x0232 1 0 0 1
0x0231 1 0 0 1
0x022d 1 0 0 1
0x0228 1 0 0 1
0x0221 1 0 0 1
0x0219 1 0 0 1
0x0212 1 0 0 1
0x020b 1 0 0 1
0x0205 1 0 0 1
0x0200 1 0 0 1
0x01fc 1 0 0 1
0x01f9 1 0 0 1
0x01f7 1 0 0 1
0x01f6 1 0 0 1
0x01f5 1 0 0 1
0x01f4 1 0 0 1
0x01f4 1 0 0 1
0x01f4 1 0 0 1
0x01f4 1 0 0 1
0x01f4 1 0 0 1
0x01f4 1 0 0 1
0x01f4 1 0 0 1
0x01f4 1 0 0 1
0x01f4 1 0 0 1
0x01f4 1 0 0 1
0x01f4 1 0 0 1
0x01f4 1 0 0 1
0x01f4 1 0 0 1
0x01f4 1 0 0 1
0x01f4 1 0 0 1
0x01f4 1 0 0 1
0x01f4 1 0 0 1
0x01f4 1 0 0 1
0x01f4 1 0 0 1
0x01f4 1 0 0 1
0x01f4 1 0 0 1
0x01f4 1 0 0 1
0x01f4 1 0 0 1
0x01f4 1 0 0 1
0x01f4 1 0 0 1
0x01f4 1 0 0 1
0x01f4 1 0 0 1
0x01f4 1 0 0 1
0x01f4 1 0 0 1
0x01f4 1 0 0 1
0x01f4 1 0 0 1
0x01f4 1 0 0 1
0x01f4 1 0 0 1
0x01f4 1 0 0 1
0x01f4 1 0 0 1
0x01f4 1 0 0 1
0x01f4 1 0 0 1
0x01f4 1 0 0 1
0x01f4 1 0 0 1
0x01f4 1 0 0 1
0x01f4 1 1 1 1
0xaa24 1 0 0 1
0x4000 1 0 0 1
0x5555 1 0 0 1
0x5555 1 0 0 1
0x5555 1 0 0 1
0x5555 1 1 0 1
0x0207 1 0 0 1
0x020f 1 0 0 1
0x0218 1 0 0 1
0x0223 1 0 0 1
0x022e 1 0 0 1
0x023a 1 0 0 1
0x0245 1 0 0 1
0x024d 1 0 0 1
0x0253 1 0 0 1
0x0255 1 0 0 1
0x0253 1 0 0 1
0x024d 1 0 0 1
0x0245 1 0 0 1
0x023a 1 0 0 1
0x022e 1 0 0 1
0x0223 1 0 0 1
0x0218 1 0 0 1
0x020f 1 0 0 1
0x0207 1 0 0 1
0x0201 1 0 0 1
0x01fc 1 0 0 1
0x01f9 1 0 0 1
0x01f7 1 0 0 1
0x01f5 1 0 0 1
0x01f5 1 0 0 1
0x01f4 1 0 0 1
0x01f4 1 0 0 1
0x01f4 1 0 0 1
0x01f4 1 0 0 1
0x01f4 1 0 0 1
0x01f4 1 0 0 1
0x01f4 1 0 0 1
0x01f4 1 0 0 1
0x01f4 1 0 0 1
0x01f4 1 0 0 1
0x01f4 1 0 0 1
0x01f4 1 0 0 1
0x01f4 1 0 0 1
0x01f4 1 0 0 1
0x01f4 1 0 0 1
0x01f4 1 0 0 1
0x01f4 1 0 0 1
0x01f4 1 0 0 1
0x01f4 1 0 0 1
0x01f4 1 0 0 1
0x01f4 1 0 0 1
0x01f4 1 0 0 1
0x01f4 1 0 0 1
0x01f4 1 0 0 1
0x01f4 1 0 0 1
0x01f4 1 0 0 1
0x01f4 1 0 0 1
0x01f4 1 0 0 1
0x01f4 1 0 0 1
0x01f4 1 0 0 1
0x01f4 1 0 0 1
0x01f4 1 0 0 1
0x01f4 1 0 0 1
0x01f4 1 0 0 1
0x01f4 1 0 0 1
0x01f4 1 0 0 1
0x01f4 1 0 0 1
0x01f4 1 0 0 1
0x01f4 1 1 1 1
0xaa28 1 0 0 1
0x4000 1 0 0 1
0x5555 1 0 0 1
0x5555 1 0 0 1
0x5555 1 0 0 1
0x5555 1 1 0 1
0x01fc 1 0 0 1
0x0200 1 0 0 1
0x0205 1 0 0 1
0x020b 1 0 0 1
0x0212 1 0 0 1
0x0219 1 0 0 1
0x0221 1 0 0 1
0x0228 1 0 0 1
0x022d 1 0 0 1
0x0231 1 0 0 1
0x0232 1 0 0 1
0x0231 1 0 0 1
0x022d 1 0 0 1
0x0228 1 0 0 1
0x0221 1 0 0 1
0x0219 1 0 0 1
0x0212 1 0 0 1
0x020b 1 0 0 1
0x0205 1 0 0 1
0x0200 1 0 0 1
0x01fc 1 0 0 1
0x01f9 1 0 0 1
0x01f7 1 0 0 1
0x01f6 1 0 0 1
0x01f5 1 0 0 1
0x01f4 1 0 0 1
0x01f4 1 0 0 1
0x01f4 1 0 0 1
0x01f4 1 0 0 1
0x01f4 1 0 0 1
0x01f4 1 0 0 1
0x01f4 1 0 0 1
0x01f4 1 0 0 1
0x01f4 1 0 0 1
0x01f4 1 0 0 1
0x01f4 1 0 0 1
0x01f4 1 0 0 1
0x01f4 1 0 0 1
0x01f4 1 0 0 1
0x01f4 1 0 0 1
0x01f4 1 0 0 1
0x01f4 1 0 0 1
0x01f4 1 0 0 1
0x01f4 1 0 0 1
0x01f4 1 0 0 1
0x01f4 1 0 0 1
0x01f4 1 0 0 1
0x01f4 1 0 0 1
0x01f4 1 0 0 1
0x01f4 1 0 0 1
0x01f4 1 0 0 1
0x01f4 1 0 0 1
0x01f4 1 0 0 1
0x01f4 1 0 0 1
0x01f4 1 0 0 1
0x01f4 1 0 0 1
0x01f4 1 0 0 1
0x01f4 1 0 0 1
0x01f4 1 0 0 1
0x01f4 1 0 0 1
0x01f4 1 0 0 1
0x01f4 1 0 0 1
0x01f4 1 0 0 1
0x01f4 1 1 1 1
0xaa2c 1 0 0 1
0x4000 1 0 0 1
0x5555 1 0 0 1
0x5555 1 0 0 1
0x5555 1 0 0 1
0x5555 1 1 0 1
0x01fc 1 0 0 1
0x0201 1 0 0 1
0x0207 1 0 0 1
0x020f 1 0 0 1
0x0219 1 0 0 1
0x0224 1 0 0 1
0x0230 1 0 0 1
0x023c 1 0 0 1
0x0247 1 0 0 1
0x024f 1 0 0 1
0x0255 1 0 0 1
0x0257 1 0 0 1
0x0255 1 0 0 1
0x024f 1 0 0 1
0x0247 1 0 0 1
0x023c 1 0 0 1
0x0230 1 0 0 1
0x0224 1 0 0 1
0x0219 1 0 0 1
0x020f 1 0 0 1
0x0207 1 0 0 1
0x0201 1 0 0 1
0x01fc 1 0 0 1
0x01f9 1 0 0 1
0x01f7 1 0 0 1
0x01f5 1 0 0 1
0x01f5 1 0 0 1
0x01f4 1 0 0 1
0x01f4 1 0 0 1
0x01f4 1 0 0 1
0x01f4 1 0 0 1
0x01f4 1 0 0 1
0x01f4 1 0 0 1
0x01f4 1 0 0 1
0x01f4 1 0 0 1
0x01f4 1 0 0 1
0x01f4 1 0 0 1
0x01f4 1 0 0 1
0x01f4 1 0 0 1
0x01f4 1 0 0 1
0x01f4 1 0 0 1
0x01f4 1 0 0 1
0x01f4 1 0 0 1
0x01f4 1 0 0 1
0x01f4 1 0 0 1
0x01f4 1 0 0 1
0x01f4 1 0 0 1
0x01f4 1 0 0 1
0x01f4 1 0 0 1
0x01f4 1 0 0 1
0x01f4 1 0 0 1
0x01f4 1 0 0 1
0x01f4 1 0 0 1
0x01f4 1 0 0 1
0x01f4 1 0 0 1
0x01f4 1 0 0 1
0x01f4 1 0 0 1
0x01f4 1 0 0 1
0x01f4 1 0 0 1
0x01f4 1 0 0 1
0x01f4 1 0 0 1
0x01f4 1 0 0 1
0x01f4 1 0 0 1
0x01f4 1 1 1 1
0xaa30 1 0 0 1
0x4000 1 0 0 1
0x5555 1 0 0 1
0x5555 1 0 0 1
0x5555 1 0 0 1
0x5555 1 1 0 1
0x01f7 1 0 0 1
0x01f9 1 0 0 1
0x01fc 1 0 0 1
0x0200 1 0 0 1
0x0206 1 0 0 1
0x020c 1 0 0 1
0x0213 1 0 0 1
0x021b 1 0 0 1
0x0223 1 0 0 1
0x022a 1 0 0 1
0x0230 1 0 0 1
0x0233 1 0 0 1
0x0235 1 0 0 1
0x0233 1 0 0 1
0x0230 1 0 0 1
0x022a 1 0 0 1
0x0223 1 0 0 1
0x021b 1 0 0 1
0x0213 1 0 0 1
0x020c 1 0 0 1
0x0206 1 0 0 1
0x0200 1 0 0 1
0x01fc 1 0 0 1
0x01f9 1 0 0 1
0x01f7 1 0 0 1
0x01f6 1 0 0 1
0x01f5 1 0 0 1
0x01f4 1 0 0 1
0x01f4 1 0 0 1
0x01f4 1 0 0 1
0x01f4 1 0 0 1
0x01f4 1 0 0 1
0x01f4 1 0 0 1
0x01f4 1 0 0 1
0x01f4 1 0 0 1
0x01f4 1 0 0 1
0x01f4 1 0 0 1
0x01f4 1 0 0 1
0x01f4 1 0 0 1
0x01f4 1 0 0 1
0x01f4 1 0 0 1
0x01f4 1 0 0 1
0x01f4 1 0 0 1
0x01f4 1 0 0 1
0x01f4 1 0 0 1
0x01f4 1 0 0 1
0x01f4 1 0 0 1
0x01f4 1 0 0 1
0x01f4 1 0 0 1
0x01f4 1 0 0 1
0x01f4 1 0 0 1
0x01f4 1 0 0 1
0x01f4 1 0 0 1
0x01f4 1 0 0 1
0x01f4 1 0 0 1
0x01f4 1 0 0 1
0x01f4 1 0 0 1
0x01f4 1 0 0 1
0x01f4 1 0 0 1
0x01f4 1 0 0 1
0x01f4 1 0 0 1
0x01f4 1 0 0 1
0x01f4 1 0 0 1
0x01f4 1 1 1 1
0xaa34 1 0 0 1
0x4000 1 0 0 1
0x5555 1 0 0 1
0x5555 1 0 0 1
0x5555 1 0 0 1
0x5555 1 1 0 1
0x01f7 1 0 0 1
0x01f9 1 0 0 1
0x01fc 1 0 0 1
0x0200 1 0 0 1
0x0206 1 0 0 1
0x020d 1 0 0 1
0x0216 1 0 0 1
0x0220 1 0 0 1
0x022c 1 0 0 1
0x0237 1 0 0 1
0x0241 1 0 0 1
0x0249 1 0 0 1
0x024e 1 0 0 1
0x0250 1 0 0 1
0x024e 1 0 0 1
0x0249 1 0 0 1
0x0241 1 0 0 1
0x0237 1 0 0 1
0x022c 1 0 0 1
0x0220 1 0 0 1
0x0216 1 0 0 1
0x020d 1 0 0 1
0x0206 1 0 0 1
0x0200 1 0 0 1
0x01fc 1 0 0 1
0x01f9 1 0 0 1
0x01f7 1 0 0 1
0x01f5 1 0 0 1
0x01f5 1 0 0 1
0x01f4 1 0 0 1
0x01f4 1 0 0 1
0x01f4 1 0 0 1
0x01f4 1 0 0 1
0x01f4 1 0 0 1
0x01f4 1 0 0 1
0x01f4 1 0 0 1
0x01f4 1 0 0 1
0x01f4 1 0 0 1
0x01f4 1 0 0 1
0x01f4 1 0 0 1
0x01f4 1 0 0 1
0x01f4 1 0 0 1
0x01f4 1 0 0 1
0x01f4 1 0 0 1
0x01f4 1 0 0 1
0x01f4 1 0 0 1
0x01f4 1 0 0 1
0x01f4 1 0 0 1
0x01f4 1 0 0 1
0x01f4 1 0 0 1
0x01f4 1 0 0 1
0x01f4 1 0 0 1
0x01f4 1 0 0 1
0x01f4 1 0 0 1
0x01f4 1 0 0 1
0x01f4 1 0 0 1
0x01f4 1 0 0 1
0x01f4 1 0 0 1
0x01f4 1 0 0 1
0x01f4 1 0 0 1
0x01f4 1 0 0 1
0x01f4 1 0 0 1
0x01f4 1 0 0 1
0x01f4 1 1 1 1
0xaa38 1 0 0 1
0x4000 1 0 0 1
0x5555 1 0 0 1
0x5555 1 0 0 1
0x5555 1 0 0 1
0x5555 1 1 0 1
0x01f5 1 0 0 1
0x01f5 1 0 0 1
0x01f7 1 0 0 1
0x01f8 1 0 0 1
0x01fb 1 0 0 1
0x01fe 1 0 0 1
0x0203 1 0 0 1
0x0208 1 0 0 1
0x020e 1 0 0 1
0x0214 1 0 0 1
0x021b 1 0 0 1
0x0221 1 0 0 1
0x0226 1 0 0 1
0x0229 1 0 0 1
0x022a 1 0 0 1
0x0229 1 0 0 1
0x0226 1 0 0 1
0x0221 1 0 0 1
0x021b 1 0 0 1
0x0214 1 0 0 1
0x020e 1 0 0 1
0x0208 1 0 0 1
0x0203 1 0 0 1
0x01fe 1 0 0 1
0x01fb 1 0 0 1
0x01f8 1 0 0 1
0x01f7 1 0 0 1
0x01f5 1 0 0 1
0x01f5 1 0 0 1
0x01f4 1 0 0 1
0x01f4 1 0 0 1
0x01f4 1 0 0 1
0x01f4 1 0 0 1
0x01f4 1 0 0 1
0x01f4 1 0 0 1
0x01f4 1 0 0 1
0x01f4 1 0 0 1
0x01f4 1 0 0 1
0x01f4 1 0 0 1
0x01f4 1 0 0 1
0x01f4 1 0 0 1
0x01f4 1 0 0 1
0x01f4 1 0 0 1
0x01f4 1 0 0 1
0x01f4 1 0 0 1
0x01f4 1 0 0 1
0x01f4 1 0 0 1
0x01f4 1 0 0 1
0x01f4 1 0 0 1
0x01f4 1 0 0 1
0x01f4 1 0 0 1
0x01f4 1 0 0 1
0x01f4 1 0 0 1
0x01f4 1 0 0 1
0x01f4 1 0 0 1
0x01f4 1 0 0 1
0x01f4 1 0 0 1
0x01f4 1 0 0 1
0x01f4 1 0 0 1
0x01f4 1 0 0 1
0x01f4 1 0 0 1
0x01f4 1 0 0 1
0x01f4 1 0 0 1
0x01f4 1 1 1 1
0xaa3c 1 0 0 1
0x4000 1 0 0 1
0x5555 1 0 0 1
0x5555 1 0 0 1
0x5555 1 0 0 1
0x5555 1 1 0 1
0x01f5 1 0 0 1
0x01f5 1 0 0 1
0x01f7 1 0 0 1
0x01f9 1 0 0 1
0x01fc 1 0 0 1
0x0200 1 0 0 1
0x0206 1 0 0 1
0x020d 1 0 0 1
0x0216 1 0 0 1
0x0220 1 0 0 1
0x022b 1 0 0 1
0x0236 1 0 0 1
0x0240 1 0 0 1
0x0248 1 0 0 1
0x024d 1 0 0 1
0x024f 1 0 0 1
0x024d 1 0 0 1
0x0248 1 0 0 1
0x0240 1 0 0 1
0x0236 1 0 0 1
0x022b 1 0 0 1
0x0220 1 0 0 1
0x0216 1 0 0 1
0x020d 1 0 0 1
0x0206 1 0 0 1
0x0200 1 0 0 1
0x01fc 1 0 0 1
0x01f9 1 0 0 1
0x01f7 1 0 0 1
0x01f5 1 0 0 1
0x01f5 1 0 0 1
0x01f4 1 0 0 1
0x01f4 1 0 0 1
0x01f4 1 0 0 1
0x01f4 1 0 0 1
0x01f4 1 0 0 1
0x01f4 1 0 0 1
0x01f4 1 0 0 1
0x01f4 1 0 0 1
0x01f4 1 0 0 1
0x01f4 1 0 0 1
0x01f4 1 0 0 1
0x01f4 1 0 0 1
0x01f4 1 0 0 1
0x01f4 1 0 0 1
0x01f4 1 0 0 1
0x01f4 1 0 0 1
0x01f4 1 0 0 1
0x01f4 1 0 0 1
0x01f4 1 0 0 1
0x01f4 1 0 0 1
0x01f4 1 0 0 1
0x01f4 1 0 0 1
0x01f4 1 0 0 1
0x01f4 1 0 0 1
0x01f4 1 0 0 1
0x01f4 1 0 0 1
0x01f4 1 0 0 1
0x01f4 1 0 0 1
0x01f4 1 0 0 1
0x01f4 1 0 0 1
0x01f4 1 0 0 1
0x01f4 1 0 0 1
0x01f4 1 1 1 1
0xaa40 1 0 0 1
0x4000 1 0 0 1
0x5555 1 0 0 1
0x5555 1 0 0 1
0x5555 1 0 0 1
0x5555 1 1 0 1
0x01f4 1 0 0 1
0x01f4 1 0 0 1
0x01f5 1 0 0 1
0x01f6 1 0 0 1
0x01f7 1 0 0 1
0x01f9 1 0 0 1
0x01fc 1 0 0 1
0x0200 1 0 0 1
0x0204 1 0 0 1
0x020a 1 0 0 1
0x0211 1 0 0 1
0x0218 1 0 0 1
0x0220 1 0 0 1
0x0226 1 0 0 1
0x022c 1 0 0 1
0x022f 1 0 0 1
0x0230 1 0 0 1
0x022f 1 0 0 1
0x022c 1 0 0 1
0x0226 1 0 0 1
0x0220 1 0 0 1
0x0218 1 0 0 1
0x0211 1 0 0 1
0x020a 1 0 0 1
0x0204 1 0 0 1
0x0200 1 0 0 1
0x01fc 1 0 0 1
0x01f9 1 0 0 1
0x01f7 1 0 0 1
0x01f6 1 0 0 1
0x01f5 1 0 0 1
0x01f4 1 0 0 1
0x01f4 1 0 0 1
0x01f4 1 0 0 1
0x01f4 1 0 0 1
0x01f4 1 0 0 1
0x01f4 1 0 0 1
0x01f4 1 0 0 1
0x01f4 1 0 0 1
0x01f4 1 0 0 1
0x01f4 1 0 0 1
0x01f4 1 0 0 1
0x01f4 1 0 0 1
0x01f4 1 0 0 1
0x01f4 1 0 0 1
0x01f4 1 0 0 1
0x01f4 1 0 0 1
0x01f4 1 0 0 1
0x01f4 1 0 0 1
0x01f4 1 0 0 1
0x01f4 1 0 0 1
0x01f4 1 0 0 1
0x01f4 1 0 0 1
0x01f4 1 0 0 1
0x01f4 1 0 0 1
0x01f4 1 0 0 1
0x01f4 1 0 0 1
0x01f4 1 0 0 1
0x01f4 1 0 0 1
0x01f4 1 0 0 1
0x01f4 1 0 0 1
0x01f4 1 0 0 1
0x01f4 1 0 0 1
0x01f4 1 1 1 1
0xaa44 1 0 0 1
0x4000 1 0 0 1
0x5555 1 0 0 1
0x5555 1 0 0 1
0x5555 1 0 0 1
0x5555 1 1 0 1
0x01f4 1 0 0 1
0x01f4 1 0 0 1
0x01f4 1 0 0 1
0x01f5 1 0 0 1
0x01f6 1 0 0 1
0x01f7 1 0 0 1
0x01f9 1 0 0 1
0x01fc 1 0 0 1
0x0200 1 0 0 1
0x0206 1 0 0 1
0x020c 1 0 0 1
0x0213 1 0 0 1
0x021b 1 0 0 1
0x0223 1 0 0 1
0x022a 1 0 0 1
0x022f 1 0 0 1
0x0233 1 0 0 1
0x0234 1 0 0 1
0x0233 1 0 0 1
0x022f 1 0 0 1
0x022a 1 0 0 1
0x0223 1 0 0 1
0x021b 1 0 0 1
0x0213 1 0 0 1
0x020c 1 0 0 1
0x0206 1 0 0 1
0x0200 1 0 0 1
0x01fc 1 0 0 1
0x01f9 1 0 0 1
0x01f7 1 0 0 1
0x01f6 1 0 0 1
0x01f5 1 0 0 1
0x01f4 1 0 0 1
0x01f4 1 0 0 1
0x01f4 1 0 0 1
0x01f4 1 0 0 1
0x01f4 1 0 0 1
0x01f4 1 0 0 1
0x01f4 1 0 0 1
0x01f4 1 0 0 1
0x01f4 1 0 0 1
0x01f4 1 0 0 1
0x01f4 1 0 0 1
0x01f4 1 0 0 1
0x01f4 1 0 0 1
0x01f4 1 0 0 1
0x01f4 1 0 0 1
0x01f4 1 0 0 1
0x01f4 1 0 0 1
0x01f4 1 0 0 1
0x01f4 1 0 0 1
0x01f4 1 0 0 1
0x01f4 1 0 0 1
0x01f4 1 0 0 1
0x01f4 1 0 0 1
0x01f4 1 0 0 1
0x01f4 1 0 0 1
0x01f4 1 0 0 1
0x01f4 1 0 0 1
0x01f4 1 0 0 1
0x01f4 1 0 0 1
0x01f4 1 0 0 1
0x01f4 1 0 0 1
0x01f4 1 1 1 1
0xaa48 1 0 0 1
0x4000 1 0 0 1
0x5555 1 0 0 1
0x5555 1 0 0 1
0x5555 1 0 0 1
0x5555 1 1 0 1
0x01f4 1 0 0 1
0x01f4 1 0 0 1
0x01f4 1 0 0 1
0x01f4 1 0 0 1
0x01f5 1 0 0 1
0x01f6 1 0 0 1
0x01f8 1 0 0 1
0x01fb 1 0 0 1
0x01ff 1 0 0 1
0x0204 1 0 0 1
0x020a 1 0 0 1
0x0212 1 0 0 1
0x021b 1 0 0 1
0x0225 1 0 0 1
0x022f 1 0 0 1
0x0238 1 0 0 1
0x023f 1 0 0 1
0x0244 1 0 0 1
0x0246 1 0 0 1
0x0244 1 0 0 1
0x023f 1 0 0 1
0x0238 1 0 0 1
0x022f 1 0 0 1
0x0225 1 0 0 1
0x021b 1 0 0 1
0x0212 1 0 0 1
0x020a 1 0 0 1
0x0204 1 0 0 1
0x01ff 1 0 0 1
0x01fb 1 0 0 1
0x01f8 1 0 0 1
0x01f6 1 0 0 1
0x01f5 1 0 0 1
0x01f4 1 0 0 1
0x01f4 1 0 0 1
0x01f4 1 0 0 1
0x01f4 1 0 0 1
0x01f4 1 0 0 1
0x01f4 1 0 0 1
0x01f4 1 0 0 1
0x01f4 1 0 0 1
0x01f4 1 0 0 1
0x01f4 1 0 0 1
0x01f4 1 0 0 1
0x01f4 1 0 0 1
0x01f4 1 0 0 1
0x01f4 1 0 0 1
0x01f4 1 0 0 1
0x01f4 1 0 0 1
0x01f4 1 0 0 1
0x01f4 1 0 0 1
0x01f4 1 0 0 1
0x01f4 1 0 0 1
0x01f4 1 0 0 1
0x01f4 1 0 0 1
0x01f4 1 0 0 1
0x01f4 1 0 0 1
0x01f4 1 0 0 1
0x01f4 1 0 0 1
0x01f4 1 0 0 1
0x01f4 1 0 0 1
0x01f4 1 0 0 1
0x01f4 1 0 0 1
0x01f4 1 1 1 1
0xaa4c 1 0 0 1
0x4000 1 0 0 1
0x5555 1 0 0 1
0x5555 1 0 0 1
0x5555 1 0 0 1
0x5555 1 1 0 1
0x01f4 1 0 0 1
0x01f4 1 0 0 1
0x01f4 1 0 0 1
0x01f4 1 0 0 1
0x01f5 1 0 0 1
0x01f5 1 0 0 1
0x01f7 1 0 0 1
0x01f9 1 0 0 1
0x01fc 1 0 0 1
0x0200 1 0 0 1
0x0206 1 0 0 1
0x020e 1 0 0 1
0x0218 1 0 0 1
0x0222 1 0 0 1
0x022e 1 0 0 1
0x0239 1 0 0 1
0x0244 1 0 0 1
0x024c 1 0 0 1
0x0252 1 0 0 1
0x0253 1 0 0 1
0x0252 1 0 0 1
0x024c 1 0 0 1
0x0244 1 0 0 1
0x0239 1 0 0 1
0x022e 1 0 0 1
0x0222 1 0 0 1
0x0218 1 0 0 1
0x020e 1 0 0 1
0x0206 1 0 0 1
0x0200 1 0 0 1
0x01fc 1 0 0 1
0x01f9 1 0 0 1
0x01f7 1 0 0 1
0x01f5 1 0 0 1
0x01f5 1 0 0 1
0x01f4 1 0 0 1
0x01f4 1 0 0 1
0x01f4 1 0 0 1
0x01f4 1 0 0 1
0x01f4 1 0 0 1
0x01f4 1 0 0 1
0x01f4 1 0 0 1
0x01f4 1 0 0 1
0x01f4 1 0 0 1
0x01f4 1 0 0 1
0x01f4 1 0 0 1
0x01f4 1 0 0 1
0x01f4 1 0 0 1
0x01f4 1 0 0 1
0x01f4 1 0 0 1
0x01f4 1 0 0 1
0x01f4 1 0 0 1
0x01f4 1 0 0 1
0x01f4 1 0 0 1
0x01f4 1 0 0 1
0x01f4 1 0 0 1
0x01f4 1 0 0 1
0x01f4 1 0 0 1
0x01f4 1 0 0 1
0x01f4 1 0 0 1
0x01f4 1 0 0 1
0x01f4 1 0 0 1
0x01f4 1 0 0 1
0x01f4 1 1 1 1
0xaa50 1 0 0 1
0x4000 1 0 0 1
0x5555 1 0 0 1
0x5555 1 0 0 1
0x5555 1 0 0 1
0x5555 1 1 0 1
0x01f4 1 0 0 1
0x01f4 1 0 0 1
0x01f4 1 0 0 1
0x01f4 1 0 0 1
0x01f4 1 0 0 1
0x01f4 1 0 0 1
0x01f5 1 0 0 1
0x01f6 1 0 0 1
0x01f7 1 0 0 1
0x01fa 1 0 0 1
0x01fd 1 0 0 1
0x0201 1 0 0 1
0x0206 1 0 0 1
0x020d 1 0 0 1
0x0214 1 0 0 1
0x021d 1 0 0 1
0x0225 1 0 0 1
0x022c 1 0 0 1
0x0232 1 0 0 1
0x0236 1 0 0 1
0x0237 1 0 0 1
0x0236 1 0 0 1
0x0232 1 0 0 1
0x022c 1 0 0 1
0x0225 1 0 0 1
0x021d 1 0 0 1
0x0214 1 0 0 1
0x020d 1 0 0 1
0x0206 1 0 0 1
0x0201 1 0 0 1
0x01fd 1 0 0 1
0x01fa 1 0 0 1
0x01f7 1 0 0 1
0x01f6 1 0 0 1
0x01f5 1 0 0 1
0x01f4 1 0 0 1
0x01f4 1 0 0 1
0x01f4 1 0 0 1
0x01f4 1 0 0 1
0x01f4 1 0 0 1
0x01f4 1 0 0 1
0x01f4 1 0 0 1
0x01f4 1 0 0 1
0x01f4 1 0 0 1
0x01f4 1 0 0 1
0x01f4 1 0 0 1
0x01f4 1 0 0 1
0x01f4 1 0 0 1
0x01f4 1 0 0 1
0x01f4 1 0 0 1
0x01f4 1 0 0 1
0x01f4 1 0 0 1
0x01f4 1 0 0 1
0x01f4 1 0 0 1
0x01f4 1 0 0 1
0x01f4 1 0 0 1
0x01f4 1 0 0 1
0x01f4 1 0 0 1
0x01f4 1 0 0 1
0x01f4 1 0 0 1
0x01f4 1 0 0 1
0x01f4 1 0 0 1
0x01f4 1 0 0 1
0x01f4 1 1 1 1
0xaa54 1 0 0 1
0x4000 1 0 0 1
0x5555 1 0 0 1
0x5555 1 0 0 1
0x5555 1 0 0 1
0x5555 1 1 0 1
0x01f4 1 0 0 1
0x01f4 1 0 0 1
0x01f4 1 0 0 1
0x01f4 1 0 0 1
0x01f4 1 0 0 1
0x01f4 1 0 0 1
0x01f4 1 0 0 1
0x01f5 1 0 0 1
0x01f6 1 0 0 1
0x01f8 1 0 0 1
0x01fb 1 0 0 1
0x01fe 1 0 0 1
0x0204 1 0 0 1
0x020a 1 0 0 1
0x0212 1 0 0 1
0x021b 1 0 0 1
0x0225 1 0 0 1
0x022e 1 0 0 1
0x0237 1 0 0 1
0x023e 1 0 0 1
0x0243 1 0 0 1
0x0245 1 0 0 1
0x0243 1 0 0 1
0x023e 1 0 0 1
0x0237 1 0 0 1
0x022e 1 0 0 1
0x0225 1 0 0 1
0x021b 1 0 0 1
0x0212 1 0 0 1
0x020a 1 0 0 1
0x0204 1 0 0 1
0x01fe 1 0 0 1
0x01fb 1 0 0 1
0x01f8 1 0 0 1
0x01f6 1 0 0 1
0x01f5 1 0 0 1
0x01f4 1 0 0 1
0x01f4 1 0 0 1
0x01f4 1 0 0 1
0x01f4 1 0 0 1
0x01f4 1 0 0 1
0x01f4 1 0 0 1
0x01f4 1 0 0 1
0x01f4 1 0 0 1
0x01f4 1 0 0 1
0x01f4 1 0 0 1
0x01f4 1 0 0 1
0x01f4 1 0 0 1
0x01f4 1 0 0 1
0x01f4 1 0 0 1
0x01f4 1 0 0 1
0x01f4 1 0 0 1
0x01f4 1 0 0 1
0x01f4 1 0 0 1
0x01f4 1 0 0 1
0x01f4 1 0 0 1
0x01f4 1 0 0 1
0x01f4 1 0 0 1
0x01f4 1 0 0 1
0x01f4 1 0 0 1
0x01f4 1 0 0 1
0x01f4 1 0 0 1
0x01f4 1 0 0 1
0x01f4 1 1 1 1
0xaa58 1 0 0 1
0x4000 1 0 0 1
0x5555 1 0 0 1
0x5555 1 0 0 1
0x5555 1 0 0 1
0x5555 1 1 0 1
0x01f4 1 0 0 1
0x01f4 1 0 0 1
0x01f4 1 0 0 1
0x01f4 1 0 0 1
0x01f4 1 0 0 1
0x01f4 1 0 0 1
0x01f4 1 0 0 1
0x01f4 1 0 0 1
0x01f5 1 0 0 1
0x01f6 1 0 0 1
0x01f8 1 0 0 1
0x01fa 1 0 0 1
0x01fe 1 0 0 1
0x0202 1 0 0 1
0x0208 1 0 0 1
0x0210 1 0 0 1
0x0218 1 0 0 1
0x0221 1 0 0 1
0x022a 1 0 0 1
0x0232 1 0 0 1
0x0239 1 0 0 1
0x023d 1 0 0 1
0x023e 1 0 0 1
0x023d 1 0 0 1
0x0239 1 0 0 1
0x0232 1 0 0 1
0x022a 1 0 0 1
0x0221 1 0 0 1
0x0218 1 0 0 1
0x0210 1 0 0 1
0x0208 1 0 0 1
0x0202 1 0 0 1
0x01fe 1 0 0 1
0x01fa 1 0 0 1
0x01f8 1 0 0 1
0x01f6 1 0 0 1
0x01f5 1 0 0 1
0x01f4 1 0 0 1
0x01f4 1 0 0 1
0x01f4 1 0 0 1
0x01f4 1 0 0 1
0x01f4 1 0 0 1
0x01f4 1 0 0 1
0x01f4 1 0 0 1
0x01f4 1 0 0 1
0x01f4 1 0 0 1
0x01f4 1 0 0 1
0x01f4 1 0 0 1
0x01f4 1 0 0 1
0x01f4 1 0 0 1
0x01f4 1 0 0 1
0x01f4 1 0 0 1
0x01f4 1 0 0 1
0x01f4 1 0 0 1
0x01f4 1 0 0 1
0x01f4 1 0 0 1
0x01f4 1 0 0 1
0x01f4 1 0 0 1
0x01f4 1 0 0 1
0x01f4 1 0 0 1
0x01f4 1 0 0 1
0x01f4 1 0 0 1
0x01f4 1 0 0 1
0x01f4 1 1 1 1
0xaa5c 1 0 0 1
0x4000 1 0 0 1
0x5555 1 0 0 1
0x5555 1 0 0 1
0x5555 1 0 0 1
0x5555 1 1 0 1
0x01f4 1 0 0 1
0x01f4 1 0 0 1
0x01f4 1 0 0 1
0x01f4 1 0 0 1
0x01f4 1 0 0 1
0x01f4 1 0 0 1
0x01f4 1 0 0 1
0x01f4 1 0 0 1
0x01f4 1 0 0 1
0x01f5 1 0 0 1
0x01f6 1 0 0 1
0x01f8 1 0 0 1
0x01fb 1 0 0 1
0x01fe 1 0 0 1
0x0203 1 0 0 1
0x020a 1 0 0 1
0x0212 1 0 0 1
0x021b 1 0 0 1
0x0224 1 0 0 1
0x022e 1 0 0 1
0x0237 1 0 0 1
0x023e 1 0 0 1
0x0242 1 0 0 1
0x0244 1 0 0 1
0x0242 1 0 0 1
0x023e 1 0 0 1
0x0237 1 0 0 1
0x022e 1 0 0 1
0x0224 1 0 0 1
0x021b 1 0 0 1
0x0212 1 0 0 1
0x020a 1 0 0 1
0x0203 1 0 0 1
0x01fe 1 0 0 1
0x01fb 1 0 0 1
0x01f8 1 0 0 1
0x01f6 1 0 0 1
0x01f5 1 0 0 1
0x01f4 1 0 0 1
0x01f4 1 0 0 1
0x01f4 1 0 0 1
0x01f4 1 0 0 1
0x01f4 1 0 0 1
0x01f4 1 0 0 1
0x01f4 1 0 0 1
0x01f4 1 0 0 1
0x01f4 1 0 0 1
0x01f4 1 0 0 1
0x01f4 1 0 0 1
0x01f4 1 0 0 1
0x01f4 1 0 0 1
0x01f4 1 0 0 1
0x01f4 1 0 0 1
0x01f4 1 0 0 1
0x01f4 1 0 0 1
0x01f4 1 0 0 1
0x01f4 1 0 0 1
0x01f4 1 0 0 1
0x01f4 1 0 0 1
0x01f4 1 0 0 1
0x01f4 1 0 0 1
0x01f4 1 0 0 1
0x01f4 1 0 0 1
0x01f4 1 1 1 1
0xaa60 1 0 0 1
0x4000 1 0 0 1
0x5555 1 0 0 1
0x5555 1 0 0 1
0x5555 1 0 0 1
0x5555 1 1 0 1
0x01f4 1 0 0 1
0x01f4 1 0 0 1
0x01f4 1 0 0 1
0x01f4 1 0 0 1
0x01f4 1 0 0 1
0x01f4 1 0 0 1
0x01f4 1 0 0 1
0x01f4 1 0 0 1
0x01f4 1 0 0 1
0x01f5 1 0 0 1
0x01f5 1 0 0 1
0x01f7 1 0 0 1
0x01f9 1 0 0 1
0x01fc 1 0 0 1
0x0200 1 0 0 1
0x0206 1 0 0 1
0x020d 1 0 0 1
0x0216 1 0 0 1
0x0220 1 0 0 1
0x022b 1 0 0 1
0x0236 1 0 0 1
0x0240 1 0 0 1
0x0248 1 0 0 1
0x024e 1 0 0 1
0x024f 1 0 0 1
0x024e 1 0 0 1
0x0248 1 0 0 1
0x0240 1 0 0 1
0x0236 1 0 0 1
0x022b 1 0 0 1
0x0220 1 0 0 1
0x0216 1 0 0 1
0x020d 1 0 0 1
0x0206 1 0 0 1
0x0200 1 0 0 1
0x01fc 1 0 0 1
0x01f9 1 0 0 1
0x01f7 1 0 0 1
0x01f5 1 0 0 1
0x01f5 1 0 0 1
0x01f4 1 0 0 1
0x01f4 1 0 0 1
0x01f4 1 0 0 1
0x01f4 1 0 0 1
0x01f4 1 0 0 1
0x01f4 1 0 0 1
0x01f4 1 0 0 1
0x01f4 1 0 0 1
0x01f4 1 0 0 1
0x01f4 1 0 0 1
0x01f4 1 0 0 1
0x01f4 1 0 0 1
0x01f4 1 0 0 1
0x01f4 1 0 0 1
0x01f4 1 0 0 1
0x01f4 1 0 0 1
0x01f4 1 0 0 1
0x01f4 1 0 0 1
0x01f4 1 0 0 1
0x01f4 1 0 0 1
0x01f4 1 0 0 1
0x01f4 1 0 0 1
0x01f4 1 0 0 1
0x01f4 1 1 1 1
0xaa64 1 0 0 1
0x4000 1 0 0 1
0x5555 1 0 0 1
0x5555 1 0 0 1
0x5555 1 0 0 1
0x5555 1 1 0 1
0x01f4 1 0 0 1
0x01f4 1 0 0 1
0x01f4 1 0 0 1
0x01f4 1 0 0 1
0x01f4 1 0 0 1
0x01f4 1 0 0 1
0x01f4 1 0 0 1
0x01f4 1 0 0 1
0x01f4 1 0 0 1
0x01f4 1 0 0 1
0x01f4 1 0 0 1
0x01f5 1 0 0 1
0x01f6 1 0 0 1
0x01f8 1 0 0 1
0x01fa 1 0 0 1
0x01fe 1 0 0 1
0x0203 1 0 0 1
0x0209 1 0 0 1
0x0210 1 0 0 1
0x0218 1 0 0 1
0x0221 1 0 0 1
0x022b 1 0 0 1
0x0233 1 0 0 1
0x0239 1 0 0 1
0x023e 1 0 0 1
0x023f 1 0 0 1
0x023e 1 0 0 1
0x0239 1 0 0 1
0x0233 1 0 0 1
0x022b 1 0 0 1
0x0221 1 0 0 1
0x0218 1 0 0 1
0x0210 1 0 0 1
0x0209 1 0 0 1
0x0203 1 0 0 1
0x01fe 1 0 0 1
0x01fa 1 0 0 1
0x01f8 1 0 0 1
0x01f6 1 0 0 1
0x01f5 1 0 0 1
0x01f4 1 0 0 1
0x01f4 1 0 0 1
0x01f4 1 0 0 1
0x01f4 1 0 0 1
0x01f4 1 0 0 1
0x01f4 1 0 0 1
0x01f4 1 0 0 1
0x01f4 1 0 0 1
0x01f4 1 0 0 1
0x01f4 1 0 0 1
0x01f4 1 0 0 1
0x01f4 1 0 0 1
0x01f4 1 0 0 1
0x01f4 1 0 0 1
0x01f4 1 0 0 1
0x01f4 1 0 0 1
0x01f4 1 0 0 1
0x01f4 1 0 0 1
0x01f4 1 0 0 1
0x01f4 1 0 0 1
0x01f4 1 0 0 1
0x01f4 1 0 0 1
0x01f4 1 0 0 1
0x01f4 1 1 1 1
0xaa68 1 0 0 1
0x4000 1 0 0 1
0x5555 1 0 0 1
0x5555 1 0 0 1
0x5555 1 0 0 1
0x5555 1 1 0 1
0x01f4 1 0 0 1
0x01f4 1 0 0 1
0x01f4 1 0 0 1
0x01f4 1 0 0 1
0x01f4 1 0 0 1
0x01f4 1 0 0 1
0x01f4 1 0 0 1
0x01f4 1 0 0 1
0x01f4 1 0 0 1
0x01f4 1 0 0 1
0x01f4 1 0 0 1
0x01f4 1 0 0 1
0x01f5 1 0 0 1
0x01f5 1 0 0 1
0x01f7 1 0 0 1
0x01f8 1 0 0 1
0x01fb 1 0 0 1
0x01fe 1 0 0 1
0x0203 1 0 0 1
0x0208 1 0 0 1
0x020e 1 0 0 1
0x0214 1 0 0 1
0x021b 1 0 0 1
0x0221 1 0 0 1
0x0226 1 0 0 1
0x0229 1 0 0 1
0x022a 1 0 0 1
0x0229 1 0 0 1
0x0226 1 0 0 1
0x0221 1 0 0 1
0x021b 1 0 0 1
0x0214 1 0 0 1
0x020e 1 0 0 1
0x0208 1 0 0 1
0x0203 1 0 0 1
0x01fe 1 0 0 1
0x01fb 1 0 0 1
0x01f8 1 0 0 1
0x01f7 1 0 0 1
0x01f5 1 0 0 1
0x01f5 1 0 0 1
0x01f4 1 0 0 1
0x01f4 1 0 0 1
0x01f4 1 0 0 1
0x01f4 1 0 0 1
0x01f4 1 0 0 1
0x01f4 1 0 0 1
0x01f4 1 0 0 1
0x01f4 1 0 0 1
0x01f4 1 0 0 1
0x01f4 1 0 0 1
0x01f4 1 0 0 1
0x01f4 1 0 0 1
0x01f4 1 0 0 1
0x01f4 1 0 0 1
0x01f4 1 0 0 1
0x01f4 1 0 0 1
0x01f4 1 0 0 1
0x01f4 1 0 0 1
0x01f4 1 0 0 1
0x01f4 1 0 0 1
0x01f4 1 0 0 1
0x01f4 1 0 0 1
0x01f4 1 1 1 1
0xaa6c 1 0 0 1
0x4000 1 0 0 1
0x5555 1 0 0 1
0x5555 1 0 0 1
0x5555 1 0 0 1
0x5555 1 1 0 1
0x01f4 1 0 0 1
0x01f4 1 0 0 1
0x01f4 1 0 0 1
0x01f4 1 0 0 1
0x01f4 1 0 0 1
0x01f4 1 0 0 1
0x01f4 1 0 0 1
0x01f4 1 0 0 1
0x01f4 1 0 0 1
0x01f4 1 0 0 1
0x01f4 1 0 0 1
0x01f4 1 0 0 1
0x01f4 1 0 0 1
0x01f5 1 0 0 1
0x01f6 1 0 0 1
0x01f8 1 0 0 1
0x01fb 1 0 0 1
0x01fe 1 0 0 1
0x0203 1 0 0 1
0x020a 1 0 0 1
0x0212 1 0 0 1
0x021b 1 0 0 1
0x0224 1 0 0 1
0x022e 1 0 0 1
0x0237 1 0 0 1
0x023e 1 0 0 1
0x0242 1 0 0 1
0x0244 1 0 0 1
0x0242 1 0 0 1
0x023e 1 0 0 1
0x0237 1 0 0 1
0x022e 1 0 0 1
0x0224 1 0 0 1
0x021b 1 0 0 1
0x0212 1 0 0 1
0x020a 1 0 0 1
0x0203 1 0 0 1
0x01fe 1 0 0 1
0x01fb 1 0 0 1
0x01f8 1 0 0 1
0x01f6 1 0 0 1
0x01f5 1 0 0 1
0x01f4 1 0 0 1
0x01f4 1 0 0 1
0x01f4 1 0 0 1
0x01f4 1 0 0 1
0x01f4 1 0 0 1
0x01f4 1 0 0 1
0x01f4 1 0 0 1
0x01f4 1 0 0 1
0x01f4 1 0 0 1
0x01f4 1 0 0 1
0x01f4 1 0 0 1
0x01f4 1 0 0 1
0x01f4 1 0 0 1
0x01f4 1 0 0 1
0x01f4 1 0 0 1
0x01f4 1 0 0 1
0x01f4 1 0 0 1
0x01f4 1 0 0 1
0x01f4 1 0 0 1
0x01f4 1 0 0 1
0x01f4 1 0 0 1
0x01f4 1 1 1 1
0xaa70 1 0 0 1
0x4000 1 0 0 1
0x5555 1 0 0 1
0x5555 1 0 0 1
0x5555 1 0 0 1
0x5555 1 1 0 1
0x01f4 1 0 0 1
0x01f4 1 0 0 1
0x01f4 1 0 0 1
0x01f4 1 0 0 1
0x01f4 1 0 0 1
0x01f4 1 0 0 1
0x01f4 1 0 0 1
0x01f4 1 0 0 1
0x01f4 1 0 0 1
0x01f4 1 0 0 1
0x01f4 1 0 0 1
0x01f4 1 0 0 1
0x01f4 1 0 0 1
0x01f5 1 0 0 1
0x01f5 1 0 0 1
0x01f7 1 0 0 1
0x01f9 1 0 0 1
0x01fc 1 0 0 1
0x0200 1 0 0 1
0x0206 1 0 0 1
0x020d 1 0 0 1
0x0216 1 0 0 1
0x0221 1 0 0 1
0x022c 1 0 0 1
0x0237 1 0 0 1
0x0241 1 0 0 1
0x0249 1 0 0 1
0x024e 1 0 0 1
0x0250 1 0 0 1
0x024e 1 0 0 1
0x0249 1 0 0 1
0x0241 1 0 0 1
0x0237 1 0 0 1
0x022c 1 0 0 1
0x0221 1 0 0 1
0x0216 1 0 0 1
0x020d 1 0 0 1
0x0206 1 0 0 1
0x0200 1 0 0 1
0x01fc 1 0 0 1
0x01f9 1 0 0 1
0x01f7 1 0 0 1
0x01f5 1 0 0 1
0x01f5 1 0 0 1
0x01f4 1 0 0 1
0x01f4 1 0 0 1
0x01f4 1 0 0 1
0x01f4 1 0 0 1
0x01f4 1 0 0 1
0x01f4 1 0 0 1
0x01f4 1 0 0 1
0x01f4 1 0 0 1
0x01f4 1 0 0 1
0x01f4 1 0 0 1
0x01f4 1 0 0 1
0x01f4 1 0 0 1
0x01f4 1 0 0 1
0x01f4 1 0 0 1
0x01f4 1 0 0 1
0x01f4 1 0 0 1
0x01f4 1 0 0 1
0x01f4 1 0 0 1
0x01f4 1 0 0 1
0x01f4 1 1 1 1
0xaa74 1 0 0 1
0x4000 1 0 0 1
0x5555 1 0 0 1
0x5555 1 0 0 1
0x5555 1 0 0 1
0x5555 1 1 0 1
0x01f4 1 0 0 1
0x01f4 1 0 0 1
0x01f4 1 0 0 1
0x01f4 1 0 0 1
0x01f4 1 0 0 1
0x01f4 1 0 0 1
0x01f4 1 0 0 1
0x01f4 1 0 0 1
0x01f4 1 0 0 1
0x01f4 1 0 0 1
0x01f4 1 0 0 1
0x01f4 1 0 0 1
0x01f4 1 0 0 1
0x01f4 1 0 0 1
0x01f4 1 0 0 1
0x01f5 1 0 0 1
0x01f6 1 0 0 1
0x01f8 1 0 0 1
0x01fa 1 0 0 1
0x01fd 1 0 0 1
0x0202 1 0 0 1
0x0208 1 0 0 1
0x020f 1 0 0 1
0x0217 1 0 0 1
0x0220 1 0 0 1
0x0228 1 0 0 1
0x0230 1 0 0 1
0x0236 1 0 0 1
0x023b 1 0 0 1
0x023c 1 0 0 1
0x023b 1 0 0 1
0x0236 1 0 0 1
0x0230 1 0 0 1
0x0228 1 0 0 1
0x0220 1 0 0 1
0x0217 1 0 0 1
0x020f 1 0 0 1
0x0208 1 0 0 1
0x0202 1 0 0 1
0x01fd 1 0 0 1
0x01fa 1 0 0 1
0x01f8 1 0 0 1
0x01f6 1 0 0 1
0x01f5 1 0 0 1
0x01f4 1 0 0 1
0x01f4 1 0 0 1
0x01f4 1 0 0 1
0x01f4 1 0 0 1
0x01f4 1 0 0 1
0x01f4 1 0 0 1
0x01f4 1 0 0 1
0x01f4 1 0 0 1
0x01f4 1 0 0 1
0x01f4 1 0 0 1
0x01f4 1 0 0 1
0x01f4 1 0 0 1
0x01f4 1 0 0 1
0x01f4 1 0 0 1
0x01f4 1 0 0 1
0x01f4 1 0 0 1
0x01f4 1 0 0 1
0x01f4 1 0 0 1
0x01f4 1 0 0 1
0x01f4 1 1 1 1
0xaa78 1 0 0 1
0x4000 1 0 0 1
0x5555 1 0 0 1
0x5555 1 0 0 1
0x5555 1 0 0 1
0x5555 1 1 0 1
0x01f4 1 0 0 1
0x01f4 1 0 0 1
0x01f4 1 0 0 1
0x01f4 1 0 0 1
0x01f4 1 0 0 1
0x01f4 1 0 0 1
0x01f4 1 0 0 1
0x01f4 1 0 0 1
0x01f4 1 0 0 1
0x01f4 1 0 0 1
0x01f4 1 0 0 1
0x01f4 1 0 0 1
0x01f4 1 0 0 1
0x01f4 1 0 0 1
0x01f4 1 0 0 1
0x01f4 1 0 0 1
0x01f5 1 0 0 1
0x01f5 1 0 0 1
0x01f7 1 0 0 1
0x01f8 1 0 0 1
0x01fb 1 0 0 1
0x01fe 1 0 0 1
0x0203 1 0 0 1
0x0208 1 0 0 1
0x020f 1 0 0 1
0x0215 1 0 0 1
0x021c 1 0 0 1
0x0222 1 0 0 1
0x0227 1 0 0 1
0x022a 1 0 0 1
0x022b 1 0 0 1
0x022a 1 0 0 1
0x0227 1 0 0 1
0x0222 1 0 0 1
0x021c 1 0 0 1
0x0215 1 0 0 1
0x020f 1 0 0 1
0x0208 1 0 0 1
0x0203 1 0 0 1
0x01fe 1 0 0 1
0x01fb 1 0 0 1
0x01f8 1 0 0 1
0x01f7 1 0 0 1
0x01f5 1 0 0 1
0x01f5 1 0 0 1
0x01f4 1 0 0 1
0x01f4 1 0 0 1
0x01f4 1 0 0 1
0x01f4 1 0 0 1
0x01f4 1 0 0 1
0x01f4 1 0 0 1
0x01f4 1 0 0 1
0x01f4 1 0 0 1
0x01f4 1 0 0 1
0x01f4 1 0 0 1
0x01f4 1 0 0 1
0x01f4 1 0 0 1
0x01f4 1 0 0 1
0x01f4 1 0 0 1
0x01f4 1 0 0 1
0x01f4 1 0 0 1
0x01f4 1 0 0 1
0x01f4 1 0 0 1
0x01f4 1 1 1 1
0xaa7c 1 0 0 1
0x4000 1 0 0 1
0x5555 1 0 0 1
0x5555 1 0 0 1
0x5555 1 0 0 1
0x5555 1 1 0 1
0x01f4 1 0 0 1
0x01f4 1 0 0 1
0x01f4 1 0 0 1
0x01f4 1 0 0 1
0x01f4 1 0 0 1
0x01f4 1 0 0 1
0x01f4 1 0 0 1
0x01f4 1 0 0 1
0x01f4 1 0 0 1
0x01f4 1 0 0 1
0x01f4 1 0 0 1
0x01f4 1 0 0 1
0x01f4 1 0 0 1
0x01f4 1 0 0 1
0x01f4 1 0 0 1
0x01f4 1 0 0 1
0x01f4 1 0 0 1
0x01f5 1 0 0 1
0x01f6 1 0 0 1
0x01f8 1 0 0 1
0x01fa 1 0 0 1
0x01fe 1 0 0 1
0x0202 1 0 0 1
0x0208 1 0 0 1
0x0210 1 0 0 1
0x0218 1 0 0 1
0x0221 1 0 0 1
0x022a 1 0 0 1
0x0232 1 0 0 1
0x0239 1 0 0 1
0x023d 1 0 0 1
0x023f 1 0 0 1
0x023d 1 0 0 1
0x0239 1 0 0 1
0x0232 1 0 0 1
0x022a 1 0 0 1
0x0221 1 0 0 1
0x0218 1 0 0 1
0x0210 1 0 0 1
0x0208 1 0 0 1
0x0202 1 0 0 1
0x01fe 1 0 0 1
0x01fa 1 0 0 1
0x01f8 1 0 0 1
0x01f6 1 0 0 1
0x01f5 1 0 0 1
0x01f4 1 0 0 1
0x01f4 1 0 0 1
0x01f4 1 0 0 1
0x01f4 1 0 0 1
0x01f4 1 0 0 1
0x01f4 1 0 0 1
0x01f4 1 0 0 1
0x01f4 1 0 0 1
0x01f4 1 0 0 1
0x01f4 1 0 0 1
0x01f4 1 0 0 1
0x01f4 1 0 0 1
0x01f4 1 0 0 1
0x01f4 1 0 0 1
0x01f4 1 0 0 1
0x01f4 1 0 0 1
0x01f4 1 0 0 1
0x01f4 1 1 1 1
0xaa80 1 0 0 1
0x4000 1 0 0 1
0x5555 1 0 0 1
0x5555 1 0 0 1
0x5555 1 0 0 1
0x5555 1 1 0 1
0x01f4 1 0 0 1
0x01f4 1 0 0 1
0x01f4 1 0 0 1
0x01f4 1 0 0 1
0x01f4 1 0 0 1
0x01f4 1 0 0 1
0x01f4 1 0 0 1
0x01f4 1 0 0 1
0x01f4 1 0 0 1
0x01f4 1 0 0 1
0x01f4 1 0 0 1
0x01f4 1 0 0 1
0x01f4 1 0 0 1
0x01f4 1 0 0 1
0x01f4 1 0 0 1
0x01f4 1 0 0 1
0x01f4 1 0 0 1
0x01f4 1 0 0 1
0x01f5 1 0 0 1
0x01f6 1 0 0 1
0x01f8 1 0 0 1
0x01fa 1 0 0 1
0x01fe 1 0 0 1
0x0203 1 0 0 1
0x0209 1 0 0 1
0x0211 1 0 0 1
0x021a 1 0 0 1
0x0223 1 0 0 1
0x022d 1 0 0 1
0x0235 1 0 0 1
0x023c 1 0 0 1
0x0240 1 0 0 1
0x0242 1 0 0 1
0x0240 1 0 0 1
0x023c 1 0 0 1
0x0235 1 0 0 1
0x022d 1 0 0 1
0x0223 1 0 0 1
0x021a 1 0 0 1
0x0211 1 0 0 1
0x0209 1 0 0 1
0x0203 1 0 0 1
0x01fe 1 0 0 1
0x01fa 1 0 0 1
0x01f8 1 0 0 1
0x01f6 1 0 0 1
0x01f5 1 0 0 1
0x01f4 1 0 0 1
0x01f4 1 0 0 1
0x01f4 1 0 0 1
0x01f4 1 0 0 1
0x01f4 1 0 0 1
0x01f4 1 0 0 1
0x01f4 1 0 0 1
0x01f4 1 0 0 1
0x01f4 1 0 0 1
0x01f4 1 0 0 1
0x01f4 1 0 0 1
0x01f4 1 0 0 1
0x01f4 1 0 0 1
0x01f4 1 0 0 1
0x01f4 1 0 0 1
0x01f4 1 0 0 1
0x01f4 1 1 1 1
0xaa84 1 0 0 1
0x4000 1 0 0 1
0x5555 1 0 0 1
0x5555 1 0 0 1
0x5555 1 0 0 1
0x5555 1 1 0 1
0x01f4 1 0 0 1
0x01f4 1 0 0 1
0x01f4 1 0 0 1
0x01f4 1 0 0 1
0x01f4 1 0 0 1
0x01f4 1 0 0 1
0x01f4 1 0 0 1
0x01f4 1 0 0 1
0x01f4 1 0 0 1
0x01f4 1 0 0 1
0x01f4 1 0 0 1
0x01f4 1 0 0 1
0x01f4 1 0 0 1
0x01f4 1 0 0 1
0x01f4 1 0 0 1
0x01f4 1 0 0 1
0x01f4 1 0 0 1
0x01f4 1 0 0 1
0x01f4 1 0 0 1
0x01f5 1 0 0 1
0x01f6 1 0 0 1
0x01f7 1 0 0 1
0x01fa 1 0 0 1
0x01fd 1 0 0 1
0x0202 1 0 0 1
0x0207 1 0 0 1
0x020e 1 0 0 1
0x0216 1 0 0 1
0x021f 1 0 0 1
0x0227 1 0 0 1
0x022f 1 0 0 1
0x0235 1 0 0 1
0x0239 1 0 0 1
0x023a 1 0 0 1
0x0239 1 0 0 1
0x0235 1 0 0 1
0x022f 1 0 0 1
0x0227 1 0 0 1
0x021f 1 0 0 1
0x0216 1 0 0 1
0x020e 1 0 0 1
0x0207 1 0 0 1
0x0202 1 0 0 1
0x01fd 1 0 0 1
0x01fa 1 0 0 1
0x01f7 1 0 0 1
0x01f6 1 0 0 1
0x01f5 1 0 0 1
0x01f4 1 0 0 1
0x01f4 1 0 0 1
0x01f4 1 0 0 1
0x01f4 1 0 0 1
0x01f4 1 0 0 1
0x01f4 1 0 0 1
0x01f4 1 0 0 1
0x01f4 1 0 0 1
0x01f4 1 0 0 1
0x01f4 1 0 0 1
0x01f4 1 0 0 1
0x01f4 1 0 0 1
0x01f4 1 0 0 1
0x01f4 1 0 0 1
0x01f4 1 0 0 1
0x01f4 1 1 1 1
0xaa88 1 0 0 1
0x4000 1 0 0 1
0x5555 1 0 0 1
0x5555 1 0 0 1
0x5555 1 0 0 1
0x5555 1 1 0 1
0x01f4 1 0 0 1
0x01f4 1 0 0 1
0x01f4 1 0 0 1
0x01f4 1 0 0 1
0x01f4 1 0 0 1
0x01f4 1 0 0 1
0x01f4 1 0 0 1
0x01f4 1 0 0 1
0x01f4 1 0 0 1
0x01f4 1 0 0 1
0x01f4 1 0 0 1
0x01f4 1 0 0 1
0x01f4 1 0 0 1
0x01f4 1 0 0 1
0x01f4 1 0 0 1
0x01f4 1 0 0 1
0x01f4 1 0 0 1
0x01f4 1 0 0 1
0x01f4 1 0 0 1
0x01f5 1 0 0 1
0x01f5 1 0 0 1
0x01f7 1 0 0 1
0x01f9 1 0 0 1
0x01fc 1 0 0 1
0x0201 1 0 0 1
0x0207 1 0 0 1
0x020f 1 0 0 1
0x0218 1 0 0 1
0x0223 1 0 0 1
0x022e 1 0 0 1
0x023a 1 0 0 1
0x0245 1 0 0 1
0x024d 1 0 0 1
0x0253 1 0 0 1
0x0255 1 0 0 1
0x0253 1 0 0 1
0x024d 1 0 0 1
0x0245 1 0 0 1
0x023a 1 0 0 1
0x022e 1 0 0 1
0x0223 1 0 0 1
0x0218 1 0 0 1
0x020f 1 0 0 1
0x0207 1 0 0 1
0x0201 1 0 0 1
0x01fc 1 0 0 1
0x01f9 1 0 0 1
0x01f7 1 0 0 1
0x01f5 1 0 0 1
0x01f5 1 0 0 1
0x01f4 1 0 0 1
0x01f4 1 0 0 1
0x01f4 1 0 0 1
0x01f4 1 0 0 1
0x01f4 1 0 0 1
0x01f4 1 0 0 1
0x01f4 1 0 0 1
0x01f4 1 0 0 1
0x01f4 1 0 0 1
0x01f4 1 0 0 1
0x01f4 1 0 0 1
0x01f4 1 0 0 1
0x01f4 1 0 0 1
0x01f4 1 1 1 1
0xaa8c 1 0 0 1
0x4000 1 0 0 1
0x5555 1 0 0 1
0x5555 1 0 0 1
0x5555 1 0 0 1
0x5555 1 1 0 1
0x01f4 1 0 0 1
0x01f4 1 0 0 1
0x01f4 1 0 0 1
0x01f4 1 0 0 1
0x01f4 1 0 0 1
0x01f4 1 0 0 1
0x01f4 1 0 0 1
0x01f4 1 0 0 1
0x01f4 1 0 0 1
0x01f4 1 0 0 1
0x01f4 1 0 0 1
0x01f4 1 0 0 1
0x01f4 1 0 0 1
0x01f4 1 0 0 1
0x01f4 1 0 0 1
0x01f4 1 0 0 1
0x01f4 1 0 0 1
0x01f4 1 0 0 1
0x01f4 1 0 0 1
0x01f4 1 0 0 1
0x01f5 1 0 0 1
0x01f5 1 0 0 1
0x01f7 1 0 0 1
0x01f9 1 0 0 1
0x01fc 1 0 0 1
0x0200 1 0 0 1
0x0206 1 0 0 1
0x020e 1 0 0 1
0x0217 1 0 0 1
0x0222 1 0 0 1
0x022e 1 0 0 1
0x0239 1 0 0 1
0x0244 1 0 0 1
0x024c 1 0 0 1
0x0251 1 0 0 1
0x0253 1 0 0 1
0x0251 1 0 0 1
0x024c 1 0 0 1
0x0244 1 0 0 1
0x0239 1 0 0 1
0x022e 1 0 0 1
0x0222 1 0 0 1
0x0217 1 0 0 1
0x020e 1 0 0 1
0x0206 1 0 0 1
0x0200 1 0 0 1
0x01fc 1 0 0 1
0x01f9 1 0 0 1
0x01f7 1 0 0 1
0x01f5 1 0 0 1
0x01f5 1 0 0 1
0x01f4 1 0 0 1
0x01f4 1 0 0 1
0x01f4 1 0 0 1
0x01f4 1 0 0 1
0x01f4 1 0 0 1
0x01f4 1 0 0 1
0x01f4 1 0 0 1
0x01f4 1 0 0 1
0x01f4 1 0 0 1
0x01f4 1 0 0 1
0x01f4 1 0 0 1
0x01f4 1 0 0 1
0x01f4 1 1 1 1
0xaa90 1 0 0 1
0x4000 1 0 0 1
0x5555 1 0 0 1
0x5555 1 0 0 1
0x5555 1 0 0 1
0x5555 1 1 0 1
0x01f4 1 0 0 1
0x01f4 1 0 0 1
0x01f4 1 0 0 1
0x01f4 1 0 0 1
0x01f4 1 0 0 1
0x01f4 1 0 0 1
0x01f4 1 0 0 1
0x01f4 1 0 0 1
0x01f4 1 0 0 1
0x01f4 1 0 0 1
0x01f4 1 0 0 1
0x01f4 1 0 0 1
0x01f4 1 0 0 1
0x01f4 1 0 0 1
0x01f4 1 0 0 1
0x01f4 1 0 0 1
0x01f4 1 0 0 1
0x01f4 1 0 0 1
0x01f4 1 0 0 1
0x01f4 1 0 0 1
0x01f4 1 0 0 1
0x01f4 1 0 0 1
0x01f5 1 0 0 1
0x01f6 1 0 0 1
0x01f7 1 0 0 1
0x01f9 1 0 0 1
0x01fc 1 0 0 1
0x0200 1 0 0 1
0x0205 1 0 0 1
0x020c 1 0 0 1
0x0213 1 0 0 1
0x021a 1 0 0 1
0x0222 1 0 0 1
0x0229 1 0 0 1
0x022f 1 0 0 1
0x0232 1 0 0 1
0x0234 1 0 0 1
0x0232 1 0 0 1
0x022f 1 0 0 1
0x0229 1 0 0 1
0x0222 1 0 0 1
0x021a 1 0 0 1
0x0213 1 0 0 1
0x020c 1 0 0 1
0x0205 1 0 0 1
0x0200 1 0 0 1
0x01fc 1 0 0 1
0x01f9 1 0 0 1
0x01f7 1 0 0 1
0x01f6 1 0 0 1
0x01f5 1 0 0 1
0x01f4 1 0 0 1
0x01f4 1 0 0 1
0x01f4 1 0 0 1
0x01f4 1 0 0 1
0x01f4 1 0 0 1
0x01f4 1 0 0 1
0x01f4 1 0 0 1
0x01f4 1 0 0 1
0x01f4 1 0 0 1
0x01f4 1 0 0 1
0x01f4 1 0 0 1
0x01f4 1 0 0 1
0x01f4 1 1 1 1
0xaa94 1 0 0 1
0x4000 1 0 0 1
0x5555 1 0 0 1
0x5555 1 0 0 1
0x5555 1 0 0 1
0x5555 1 1 0 1
0x01f4 1 0 0 1
0x01f4 1 0 0 1
0x01f4 1 0 0 1
0x01f4 1 0 0 1
0x01f4 1 0 0 1
0x01f4 1 0 0 1
0x01f4 1 0 0 1
0x01f4 1 0 0 1
0x01f4 1 0 0 1
0x01f4 1 0 0 1
0x01f4 1 0 0 1
0x01f4 1 0 0 1
0x01f4 1 0 0 1
0x01f4 1 0 0 1
0x01f4 1 0 0 1
0x01f4 1 0 0 1
0x01f4 1 0 0 1
0x01f4 1 0 0 1
0x01f4 1 0 0 1
0x01f4 1 0 0 1
0x01f4 1 0 0 1
0x01f4 1 0 0 1
0x01f5 1 0 0 1
0x01f5 1 0 0 1
0x01f7 1 0 0 1
0x01f9 1 0 0 1
0x01fc 1 0 0 1
0x0200 1 0 0 1
0x0206 1 0 0 1
0x020e 1 0 0 1
0x0217 1 0 0 1
0x0221 1 0 0 1
0x022d 1 0 0 1
0x0238 1 0 0 1
0x0242 1 0 0 1
0x024a 1 0 0 1
0x0250 1 0 0 1
0x0252 1 0 0 1
0x0250 1 0 0 1
0x024a 1 0 0 1
0x0242 1 0 0 1
0x0238 1 0 0 1
0x022d 1 0 0 1
0x0221 1 0 0 1
0x0217 1 0 0 1
0x020e 1 0 0 1
0x0206 1 0 0 1
0x0200 1 0 0 1
0x01fc 1 0 0 1
0x01f9 1 0 0 1
0x01f7 1 0 0 1
0x01f5 1 0 0 1
0x01f5 1 0 0 1
0x01f4 1 0 0 1
0x01f4 1 0 0 1
0x01f4 1 0 0 1
0x01f4 1 0 0 1
0x01f4 1 0 0 1
0x01f4 1 0 0 1
0x01f4 1 0 0 1
0x01f4 1 0 0 1
0x01f4 1 0 0 1
0x01f4 1 0 0 1
0x01f4 1 1 1 1
0xaa98 1 0 0 1
0x4000 1 0 0 1
0x5555 1 0 0 1
0x5555 1 0 0 1
0x5555 1 0 0 1
0x5555 1 1 0 1
0x01f4 1 0 0 1
0x01f4 1 0 0 1
0x01f4 1 0 0 1
0x01f4 1 0 0 1
0x01f4 1 0 0 1
0x01f4 1 0 0 1
0x01f4 1 0 0 1
0x01f4 1 0 0 1
0x01f4 1 0 0 1
0x01f4 1 0 0 1
0x01f4 1 0 0 1
0x01f4 1 0 0 1
0x01f4 1 0 0 1
0x01f4 1 0 0 1
0x01f4 1 0 0 1
0x01f4 1 0 0 1
0x01f4 1 0 0 1
0x01f4 1 0 0 1
0x01f4 1 0 0 1
0x01f4 1 0 0 1
0x01f4 1 0 0 1
0x01f4 1 0 0 1
0x01f4 1 0 0 1
0x01f4 1 0 0 1
0x01f5 1 0 0 1
0x01f5 1 0 0 1
0x01f7 1 0 0 1
0x01f9 1 0 0 1
0x01fb 1 0 0 1
0x01ff 1 0 0 1
0x0203 1 0 0 1
0x0209 1 0 0 1
0x020f 1 0 0 1
0x0216 1 0 0 1
0x021d 1 0 0 1
0x0223 1 0 0 1
0x0228 1 0 0 1
0x022c 1 0 0 1
0x022d 1 0 0 1
0x022c 1 0 0 1
0x0228 1 0 0 1
0x0223 1 0 0 1
0x021d 1 0 0 1
0x0216 1 0 0 1
0x020f 1 0 0 1
0x0209 1 0 0 1
0x0203 1 0 0 1
0x01ff 1 0 0 1
0x01fb 1 0 0 1
0x01f9 1 0 0 1
0x01f7 1 0 0 1
0x01f5 1 0 0 1
0x01f5 1 0 0 1
0x01f4 1 0 0 1
0x01f4 1 0 0 1
0x01f4 1 0 0 1
0x01f4 1 0 0 1
0x01f4 1 0 0 1
0x01f4 1 0 0 1
0x01f4 1 0 0 1
0x01f4 1 0 0 1
0x01f4 1 0 0 1
0x01f4 1 0 0 1
0x01f4 1 1 1 1
0xaa9c 1 0 0 1
0x4000 1 0 0 1
0x5555 1 0 0 1
0x5555 1 0 0 1
0x5555 1 0 0 1
0x5555 1 1 0 1
0x01f4 1 0 0 1
0x01f4 1 0 0 1
0x01f4 1 0 0 1
0x01f4 1 0 0 1
0x01f4 1 0 0 1
0x01f4 1 0 0 1
0x01f4 1 0 0 1
0x01f4 1 0 0 1
0x01f4 1 0 0 1
0x01f4 1 0 0 1
0x01f4 1 0 0 1
0x01f4 1 0 0 1
0x01f4 1 0 0 1
0x01f4 1 0 0 1
0x01f4 1 0 0 1
0x01f4 1 0 0 1
0x01f4 1 0 0 1
0x01f4 1 0 0 1
0x01f4 1 0 0 1
0x01f4 1 0 0 1
0x01f4 1 0 0 1
0x01f4 1 0 0 1
0x01f4 1 0 0 1
0x01f4 1 0 0 1
0x01f4 1 0 0 1
0x01f5 1 0 0 1
0x01f7 1 0 0 1
0x01f9 1 0 0 1
0x01fb 1 0 0 1
0x0200 1 0 0 1
0x0205 1 0 0 1
0x020c 1 0 0 1
0x0215 1 0 0 1
0x021f 1 0 0 1
0x022a 1 0 0 1
0x0235 1 0 0 1
0x023f 1 0 0 1
0x0246 1 0 0 1
0x024c 1 0 0 1
0x024d 1 0 0 1
0x024c 1 0 0 1
0x0246 1 0 0 1
0x023f 1 0 0 1
0x0235 1 0 0 1
0x022a 1 0 0 1
0x021f 1 0 0 1
0x0215 1 0 0 1
0x020c 1 0 0 1
0x0205 1 0 0 1
0x0200 1 0 0 1
0x01fb 1 0 0 1
0x01f9 1 0 0 1
0x01f7 1 0 0 1
0x01f5 1 0 0 1
0x01f4 1 0 0 1
0x01f4 1 0 0 1
0x01f4 1 0 0 1
0x01f4 1 0 0 1
0x01f4 1 0 0 1
0x01f4 1 0 0 1
0x01f4 1 0 0 1
0x01f4 1 0 0 1
0x01f4 1 0 0 1
0x01f4 1 1 1 1
0xaaa0 1 0 0 1
0x4000 1 0 0 1
0x5555 1 0 0 1
0x5555 1 0 0 1
0x5555 1 0 0 1
0x5555 1 1 0 1
0x01f4 1 0 0 1
0x01f4 1 0 0 1
0x01f4 1 0 0 1
0x01f4 1 0 0 1
0x01f4 1 0 0 1
0x01f4 1 0 0 1
0x01f4 1 0 0 1
0x01f4 1 0 0 1
0x01f4 1 0 0 1
0x01f4 1 0 0 1
0x01f4 1 0 0 1
0x01f4 1 0 0 1
0x01f4 1 0 0 1
0x01f4 1 0 0 1
0x01f4 1 0 0 1
0x01f4 1 0 0 1
0x01f4 1 0 0 1
0x01f4 1 0 0 1
0x01f4 1 0 0 1
0x01f4 1 0 0 1
0x01f4 1 0 0 1
0x01f4 1 0 0 1
0x01f4 1 0 0 1
0x01f4 1 0 0 1
0x01f4 1 0 0 1
0x01f5 1 0 0 1
0x01f5 1 0 0 1
0x01f7 1 0 0 1
0x01f9 1 0 0 1
0x01fc 1 0 0 1
0x0201 1 0 0 1
0x0207 1 0 0 1
0x020e 1 0 0 1
0x0218 1 0 0 1
0x0223 1 0 0 1
0x022e 1 0 0 1
0x023a 1 0 0 1
0x0245 1 0 0 1
0x024d 1 0 0 1
0x0253 1 0 0 1
0x0255 1 0 0 1
0x0253 1 0 0 1
0x024d 1 0 0 1
0x0245 1 0 0 1
0x023a 1 0 0 1
0x022e 1 0 0 1
0x0223 1 0 0 1
0x0218 1 0 0 1
0x020e 1 0 0 1
0x0207 1 0 0 1
0x0201 1 0 0 1
0x01fc 1 0 0 1
0x01f9 1 0 0 1
0x01f7 1 0 0 1
0x01f5 1 0 0 1
0x01f5 1 0 0 1
0x01f4 1 0 0 1
0x01f4 1 0 0 1
0x01f4 1 0 0 1
0x01f4 1 0 0 1
0x01f4 1 0 0 1
0x01f4 1 0 0 1
0x01f4 1 0 0 1
0x01f4 1 1 1 1
0xaaa4 1 0 0 1
0x4000 1 0 0 1
0x5555 1 0 0 1
0x5555 1 0 0 1
0x5555 1 0 0 1
0x5555 1 1 0 1
0x01f4 1 0 0 1
0x01f4 1 0 0 1
0x01f4 1 0 0 1
0x01f4 1 0 0 1
0x01f4 1 0 0 1
0x01f4 1 0 0 1
0x01f4 1 0 0 1
0x01f4 1 0 0 1
0x01f4 1 0 0 1
0x01f4 1 0 0 1
0x01f4 1 0 0 1
0x01f4 1 0 0 1
0x01f4 1 0 0 1
0x01f4 1 0 0 1
0x01f4 1 0 0 1
0x01f4 1 0 0 1
0x01f4 1 0 0 1
0x01f4 1 0 0 1
0x01f4 1 0 0 1
0x01f4 1 0 0 1
0x01f4 1 0 0 1
0x01f4 1 0 0 1
0x01f4 1 0 0 1
0x01f4 1 0 0 1
0x01f4 1 0 0 1
0x01f4 1 0 0 1
0x01f5 1 0 0 1
0x01f5 1 0 0 1
0x01f7 1 0 0 1
0x01f9 1 0 0 1
0x01fc 1 0 0 1
0x0200 1 0 0 1
0x0206 1 0 0 1
0x020d 1 0 0 1
0x0216 1 0 0 1
0x0220 1 0 0 1
0x022b 1 0 0 1
0x0236 1 0 0 1
0x0240 1 0 0 1
0x0248 1 0 0 1
0x024d 1 0 0 1
0x024f 1 0 0 1
0x024d 1 0 0 1
0x0248 1 0 0 1
0x0240 1 0 0 1
0x0236 1 0 0 1
0x022b 1 0 0 1
0x0220 1 0 0 1
0x0216 1 0 0 1
0x020d 1 0 0 1
0x0206 1 0 0 1
0x0200 1 0 0 1
0x01fc 1 0 0 1
0x01f9 1 0 0 1
0x01f7 1 0 0 1
0x01f5 1 0 0 1
0x01f5 1 0 0 1
0x01f4 1 0 0 1
0x01f4 1 0 0 1
0x01f4 1 0 0 1
0x01f4 1 0 0 1
0x01f4 1 0 0 1
0x01f4 1 0 0 1
0x01f4 1 1 1 1
0xaaa8 1 0 0 1
0x4000 1 0 0 1
0x5555 1 0 0 1
0x5555 1 0 0 1
0x5555 1 0 0 1
0x5555 1 1 0 1
0x01f4 1 0 0 1
0x01f4 1 0 0 1
0x01f4 1 0 0 1
0x01f4 1 0 0 1
0x01f4 1 0 0 1
0x01f4 1 0 0 1
0x01f4 1 0 0 1
0x01f4 1 0 0 1
0x01f4 1 0 0 1
0x01f4 1 0 0 1
0x01f4 1 0 0 1
0x01f4 1 0 0 1
0x01f4 1 0 0 1
0x01f4 1 0 0 1
0x01f4 1 0 0 1
0x01f4 1 0 0 1
0x01f4 1 0 0 1
0x01f4 1 0 0 1
0x01f4 1 0 0 1
0x01f4 1 0 0 1
0x01f4 1 0 0 1
0x01f4 1 0 0 1
0x01f4 1 0 0 1
0x01f4 1 0 0 1
0x01f4 1 0 0 1
0x01f4 1 0 0 1
0x01f4 1 0 0 1
0x01f4 1 0 0 1
0x01f5 1 0 0 1
0x01f6 1 0 0 1
0x01f8 1 0 0 1
0x01fb 1 0 0 1
0x01ff 1 0 0 1
0x0204 1 0 0 1
0x020b 1 0 0 1
0x0213 1 0 0 1
0x021c 1 0 0 1
0x0226 1 0 0 1
0x0230 1 0 0 1
0x0239 1 0 0 1
0x0241 1 0 0 1
0x0245 1 0 0 1
0x0247 1 0 0 1
0x0245 1 0 0 1
0x0241 1 0 0 1
0x0239 1 0 0 1
0x0230 1 0 0 1
0x0226 1 0 0 1
0x021c 1 0 0 1
0x0213 1 0 0 1
0x020b 1 0 0 1
0x0204 1 0 0 1
0x01ff 1 0 0 1
0x01fb 1 0 0 1
0x01f8 1 0 0 1
0x01f6 1 0 0 1
0x01f5 1 0 0 1
0x01f4 1 0 0 1
0x01f4 1 0 0 1
0x01f4 1 0 0 1
0x01f4 1 0 0 1
0x01f4 1 0 0 1
0x01f4 1 0 0 1
0x01f4 1 1 1 1
0xaaac 1 0 0 1
0x4000 1 0 0 1
0x5555 1 0 0 1
0x5555 1 0 0 1
0x5555 1 0 0 1
0x5555 1 1 0 1
0x01f4 1 0 0 1
0x01f4 1 0 0 1
0x01f4 1 0 0 1
0x01f4 1 0 0 1
0x01f4 1 0 0 1
0x01f4 1 0 0 1
0x01f4 1 0 0 1
0x01f4 1 0 0 1
0x01f4 1 0 0 1
0x01f4 1 0 0 1
0x01f4 1 0 0 1
0x01f4 1 0 0 1
0x01f4 1 0 0 1
0x01f4 1 0 0 1
0x01f4 1 0 0 1
0x01f4 1 0 0 1
0x01f4 1 0 0 1
0x01f4 1 0 0 1
0x01f4 1 0 0 1
0x01f4 1 0 0 1
0x01f4 1 0 0 1
0x01f4 1 0 0 1
0x01f4 1 0 0 1
0x01f4 1 0 0 1
0x01f4 1 0 0 1
0x01f4 1 0 0 1
0x01f4 1 0 0 1
0x01f4 1 0 0 1
0x01f4 1 0 0 1
0x01f5 1 0 0 1
0x01f5 1 0 0 1
0x01f7 1 0 0 1
0x01f8 1 0 0 1
0x01fb 1 0 0 1
0x01fe 1 0 0 1
0x0203 1 0 0 1
0x0208 1 0 0 1
0x020e 1 0 0 1
0x0215 1 0 0 1
0x021b 1 0 0 1
0x0221 1 0 0 1
0x0226 1 0 0 1
0x0229 1 0 0 1
0x022a 1 0 0 1
0x0229 1 0 0 1
0x0226 1 0 0 1
0x0221 1 0 0 1
0x021b 1 0 0 1
0x0215 1 0 0 1
0x020e 1 0 0 1
0x0208 1 0 0 1
0x0203 1 0 0 1
0x01fe 1 0 0 1
0x01fb 1 0 0 1
0x01f8 1 0 0 1
0x01f7 1 0 0 1
0x01f5 1 0 0 1
0x01f5 1 0 0 1
0x01f4 1 0 0 1
0x01f4 1 0 0 1
0x01f4 1 0 0 1
0x01f4 1 0 0 1
0x01f4 1 0 0 1
0x01f4 1 1 1 1
0xaab0 1 0 0 1
0x4000 1 0 0 1
0x5555 1 0 0 1
0x5555 1 0 0 1
0x5555 1 0 0 1
0x5555 1 1 0 1
0x01f4 1 0 0 1
0x01f4 1 0 0 1
0x01f4 1 0 0 1
0x01f4 1 0 0 1
0x01f4 1 0 0 1
0x01f4 1 0 0 1
0x01f4 1 0 0 1
0x01f4 1 0 0 1
0x01f4 1 0 0 1
0x01f4 1 0 0 1
0x01f4 1 0 0 1
0x01f4 1 0 0 1
0x01f4 1 0 0 1
0x01f4 1 0 0 1
0x01f4 1 0 0 1
0x01f4 1 0 0 1
0x01f4 1 0 0 1
0x01f4 1 0 0 1
0x01f4 1 0 0 1
0x01f4 1 0 0 1
0x01f4 1 0 0 1
0x01f4 1 0 0 1
0x01f4 1 0 0 1
0x01f4 1 0 0 1
0x01f4 1 0 0 1
0x01f4 1 0 0 1
0x01f4 1 0 0 1
0x01f4 1 0 0 1
0x01f4 1 0 0 1
0x01f4 1 0 0 1
0x01f5 1 0 0 1
0x01f6 1 0 0 1
0x01f8 1 0 0 1
0x01fa 1 0 0 1
0x01fe 1 0 0 1
0x0202 1 0 0 1
0x0208 1 0 0 1
0x0210 1 0 0 1
0x0218 1 0 0 1
0x0221 1 0 0 1
0x022a 1 0 0 1
0x0232 1 0 0 1
0x0239 1 0 0 1
0x023d 1 0 0 1
0x023f 1 0 0 1
0x023d 1 0 0 1
0x0239 1 0 0 1
0x0232 1 0 0 1
0x022a 1 0 0 1
0x0221 1 0 0 1
0x0218 1 0 0 1
0x0210 1 0 0 1
0x0208 1 0 0 1
0x0202 1 0 0 1
0x01fe 1 0 0 1
0x01fa 1 0 0 1
0x01f8 1 0 0 1
0x01f6 1 0 0 1
0x01f5 1 0 0 1
0x01f4 1 0 0 1
0x01f4 1 0 0 1
0x01f4 1 0 0 1
0x01f4 1 0 0 1
0x01f4 1 1 1 1
0xaab4 1 0 0 1
0x4000 1 0 0 1
0x5555 1 0 0 1
0x5555 1 0 0 1
0x5555 1 0 0 1
0x5555 1 1 0 1
0x01f4 1 0 0 1
0x01f4 1 0 0 1
0x01f4 1 0 0 1
0x01f4 1 0 0 1
0x01f4 1 0 0 1
0x01f4 1 0 0 1
0x01f4 1 0 0 1
0x01f4 1 0 0 1
0x01f4 1 0 0 1
0x01f4 1 0 0 1
0x01f4 1 0 0 1
0x01f4 1 0 0 1
0x01f4 1 0 0 1
0x01f4 1 0 0 1
0x01f4 1 0 0 1
0x01f4 1 0 0 1
0x01f4 1 0 0 1
0x01f4 1 0 0 1
0x01f4 1 0 0 1
0x01f4 1 0 0 1
0x01f4 1 0 0 1
0x01f4 1 0 0 1
0x01f4 1 0 0 1
0x01f4 1 0 0 1
0x01f4 1 0 0 1
0x01f4 1 0 0 1
0x01f4 1 0 0 1
0x01f4 1 0 0 1
0x01f4 1 0 0 1
0x01f4 1 0 0 1
0x01f4 1 0 0 1
0x01f5 1 0 0 1
0x01f6 1 0 0 1
0x01f8 1 0 0 1
0x01fa 1 0 0 1
0x01fe 1 0 0 1
0x0203 1 0 0 1
0x0209 1 0 0 1
0x0210 1 0 0 1
0x0219 1 0 0 1
0x0222 1 0 0 1
0x022b 1 0 0 1
0x0233 1 0 0 1
0x023a 1 0 0 1
0x023e 1 0 0 1
0x0240 1 0 0 1
0x023e 1 0 0 1
0x023a 1 0 0 1
0x0233 1 0 0 1
0x022b 1 0 0 1
0x0222 1 0 0 1
0x0219 1 0 0 1
0x0210 1 0 0 1
0x0209 1 0 0 1
0x0203 1 0 0 1
0x01fe 1 0 0 1
0x01fa 1 0 0 1
0x01f8 1 0 0 1
0x01f6 1 0 0 1
0x01f5 1 0 0 1
0x01f4 1 0 0 1
0x01f4 1 0 0 1
0x01f4 1 0 0 1
0x01f4 1 1 1 1
0xaab8 1 0 0 1
0x4000 1 0 0 1
0x5555 1 0 0 1
0x5555 1 0 0 1
0x5555 1 0 0 1
0x5555 1 1 0 1
0x01f4 1 0 0 1
0x01f4 1 0 0 1
0x01f4 1 0 0 1
0x01f4 1 0 0 1
0x01f4 1 0 0 1
0x01f4 1 0 0 1
0x01f4 1 0 0 1
0x01f4 1 0 0 1
0x01f4 1 0 0 1
0x01f4 1 0 0 1
0x01f4 1 0 0 1
0x01f4 1 0 0 1
0x01f4 1 0 0 1
0x01f4 1 0 0 1
0x01f4 1 0 0 1
0x01f4 1 0 0 1
0x01f4 1 0 0 1
0x01f4 1 0 0 1
0x01f4 1 0 0 1
0x01f4 1 0 0 1
0x01f4 1 0 0 1
0x01f4 1 0 0 1
0x01f4 1 0 0 1
0x01f4 1 0 0 1
0x01f4 1 0 0 1
0x01f4 1 0 0 1
0x01f4 1 0 0 1
0x01f4 1 0 0 1
0x01f4 1 0 0 1
0x01f4 1 0 0 1
0x01f4 1 0 0 1
0x01f4 1 0 0 1
0x01f5 1 0 0 1
0x01f5 1 0 0 1
0x01f7 1 0 0 1
0x01f9 1 0 0 1
0x01fb 1 0 0 1
0x01ff 1 0 0 1
0x0203 1 0 0 1
0x0209 1 0 0 1
0x020f 1 0 0 1
0x0216 1 0 0 1
0x021d 1 0 0 1
0x0223 1 0 0 1
0x0228 1 0 0 1
0x022b 1 0 0 1
0x022c 1 0 0 1
0x022b 1 0 0 1
0x0228 1 0 0 1
0x0223 1 0 0 1
0x021d 1 0 0 1
0x0216 1 0 0 1
0x020f 1 0 0 1
0x0209 1 0 0 1
0x0203 1 0 0 1
0x01ff 1 0 0 1
0x01fb 1 0 0 1
0x01f9 1 0 0 1
0x01f7 1 0 0 1
0x01f5 1 0 0 1
0x01f5 1 0 0 1
0x01f4 1 0 0 1
0x01f4 1 0 0 1
0x01f4 1 1 1 1
0xaabc 1 0 0 1
0x4000 1 0 0 1
0x5555 1 0 0 1
0x5555 1 0 0 1
0x5555 1 0 0 1
0x5555 1 1 0 1
0x01f4 1 0 0 1
0x01f4 1 0 0 1
0x01f4 1 0 0 1
0x01f4 1 0 0 1
0x01f4 1 0 0 1
0x01f4 1 0 0 1
0x01f4 1 0 0 1
0x01f4 1 0 0 1
0x01f4 1 0 0 1
0x01f4 1 0 0 1
0x01f4 1 0 0 1
0x01f4 1 0 0 1
0x01f4 1 0 0 1
0x01f4 1 0 0 1
0x01f4 1 0 0 1
0x01f4 1 0 0 1
0x01f4 1 0 0 1
0x01f4 1 0 0 1
0x01f4 1 0 0 1
0x01f4 1 0 0 1
0x01f4 1 0 0 1
0x01f4 1 0 0 1
0x01f4 1 0 0 1
0x01f4 1 0 0 1
0x01f4 1 0 0 1
0x01f4 1 0 0 1
0x01f4 1 0 0 1
0x01f4 1 0 0 1
0x01f4 1 0 0 1
0x01f4 1 0 0 1
0x01f4 1 0 0 1
0x01f4 1 0 0 1
0x01f4 1 0 0 1
0x01f5 1 0 0 1
0x01f6 1 0 0 1
0x01f7 1 0 0 1
0x01fa 1 0 0 1
0x01fd 1 0 0 1
0x0202 1 0 0 1
0x0207 1 0 0 1
0x020e 1 0 0 1
0x0216 1 0 0 1
0x021f 1 0 0 1
0x0227 1 0 0 1
0x022f 1 0 0 1
0x0235 1 0 0 1
0x0239 1 0 0 1
0x023b 1 0 0 1
0x0239 1 0 0 1
0x0235 1 0 0 1
0x022f 1 0 0 1
0x0227 1 0 0 1
0x021f 1 0 0 1
0x0216 1 0 0 1
0x020e 1 0 0 1
0x0207 1 0 0 1
0x0202 1 0 0 1
0x01fd 1 0 0 1
0x01fa 1 0 0 1
0x01f7 1 0 0 1
0x01f6 1 0 0 1
0x01f5 1 0 0 1
0x01f4 1 0 0 1
0x01f4 1 1 1 1
0xaac0 1 0 0 1
0x4000 1 0 0 1
0x5555 1 0 0 1
0x5555 1 0 0 1
0x5555 1 0 0 1
0x5555 1 1 0 1
0x01f4 1 0 0 1
0x01f4 1 0 0 1
0x01f4 1 0 0 1
0x01f4 1 0 0 1
0x01f4 1 0 0 1
0x01f4 1 0 0 1
0x01f4 1 0 0 1
0x01f4 1 0 0 1
0x01f4 1 0 0 1
0x01f4 1 0 0 1
0x01f4 1 0 0 1
0x01f4 1 0 0 1
0x01f4 1 0 0 1
0x01f4 1 0 0 1
0x01f4 1 0 0 1
0x01f4 1 0 0 1
0x01f4 1 0 0 1
0x01f4 1 0 0 1
0x01f4 1 0 0 1
0x01f4 1 0 0 1
0x01f4 1 0 0 1
0x01f4 1 0 0 1
0x01f4 1 0 0 1
0x01f4 1 0 0 1
0x01f4 1 0 0 1
0x01f4 1 0 0 1
0x01f4 1 0 0 1
0x01f4 1 0 0 1
0x01f4 1 0 0 1
0x01f4 1 0 0 1
0x01f4 1 0 0 1
0x01f4 1 0 0 1
0x01f4 1 0 0 1
0x01f4 1 0 0 1
0x01f5 1 0 0 1
0x01f6 1 0 0 1
0x01f7 1 0 0 1
0x01fa 1 0 0 1
0x01fd 1 0 0 1
0x0201 1 0 0 1
0x0207 1 0 0 1
0x020e 1 0 0 1
0x0216 1 0 0 1
0x021e 1 0 0 1
0x0226 1 0 0 1
0x022e 1 0 0 1
0x0234 1 0 0 1
0x0238 1 0 0 1
0x023a 1 0 0 1
0x0238 1 0 0 1
0x0234 1 0 0 1
0x022e 1 0 0 1
0x0226 1 0 0 1
0x021e 1 0 0 1
0x0216 1 0 0 1
0x020e 1 0 0 1
0x0207 1 0 0 1
0x0201 1 0 0 1
0x01fd 1 0 0 1
0x01fa 1 0 0 1
0x01f7 1 0 0 1
0x01f6 1 0 0 1
0x01f5 1 0 0 1
0x01f4 1 1 1 1
0xaac4 1 0 0 1
0x4000 1 0 0 1
0x5555 1 0 0 1
0x5555 1 0 0 1
0x5555 1 0 0 1
0x5555 1 1 0 1
0x01f4 1 0 0 1
0x01f4 1 0 0 1
0x01f4 1 0 0 1
0x01f4 1 0 0 1
0x01f4 1 0 0 1
0x01f4 1 0 0 1
0x01f4 1 0 0 1
0x01f4 1 0 0 1
0x01f4 1 0 0 1
0x01f4 1 0 0 1
0x01f4 1 0 0 1
0x01f4 1 0 0 1
0x01f4 1 0 0 1
0x01f4 1 0 0 1
0x01f4 1 0 0 1
0x01f4 1 0 0 1
0x01f4 1 0 0 1
0x01f4 1 0 0 1
0x01f4 1 0 0 1
0x01f4 1 0 0 1
0x01f4 1 0 0 1
0x01f4 1 0 0 1
0x01f4 1 0 0 1
0x01f4 1 0 0 1
0x01f4 1 0 0 1
0x01f4 1 0 0 1
0x01f4 1 0 0 1
0x01f4 1 0 0 1
0x01f4 1 0 0 1
0x01f4 1 0 0 1
0x01f4 1 0 0 1
0x01f4 1 0 0 1
0x01f4 1 0 0 1
0x01f4 1 0 0 1
0x01f5 1 0 0 1
0x01f5 1 0 0 1
0x01f7 1 0 0 1
0x01f9 1 0 0 1
0x01fc 1 0 0 1
0x0200 1 0 0 1
0x0206 1 0 0 1
0x020d 1 0 0 1
0x0217 1 0 0 1
0x0221 1 0 0 1
0x022c 1 0 0 1
0x0237 1 0 0 1
0x0242 1 0 0 1
0x024a 1 0 0 1
0x024f 1 0 0 1
0x0251 1 0 0 1
0x024f 1 0 0 1
0x024a 1 0 0 1
0x0242 1 0 0 1
0x0237 1 0 0 1
0x022c 1 0 0 1
0x0221 1 0 0 1
0x0217 1 0 0 1
0x020d 1 0 0 1
0x0206 1 0 0 1
0x0200 1 0 0 1
0x01fc 1 0 0 1
0x01f9 1 0 0 1
0x01f7 1 0 0 1
0x01f5 1 1 1 1
0xaac8 1 0 0 1
0x4000 1 0 0 1
0x5555 1 0 0 1
0x5555 1 0 0 1
0x5555 1 0 0 1
0x5555 1 1 0 1
0x01f4 1 0 0 1
0x01f4 1 0 0 1
0x01f4 1 0 0 1
0x01f4 1 0 0 1
0x01f4 1 0 0 1
0x01f4 1 0 0 1
0x01f4 1 0 0 1
0x01f4 1 0 0 1
0x01f4 1 0 0 1
0x01f4 1 0 0 1
0x01f4 1 0 0 1
0x01f4 1 0 0 1
0x01f4 1 0 0 1
0x01f4 1 0 0 1
0x01f4 1 0 0 1
0x01f4 1 0 0 1
0x01f4 1 0 0 1
0x01f4 1 0 0 1
0x01f4 1 0 0 1
0x01f4 1 0 0 1
0x01f4 1 0 0 1
0x01f4 1 0 0 1
0x01f4 1 0 0 1
0x01f4 1 0 0 1
0x01f4 1 0 0 1
0x01f4 1 0 0 1
0x01f4 1 0 0 1
0x01f4 1 0 0 1
0x01f4 1 0 0 1
0x01f4 1 0 0 1
0x01f4 1 0 0 1
0x01f4 1 0 0 1
0x01f4 1 0 0 1
0x01f4 1 0 0 1
0x01f4 1 0 0 1
0x01f4 1 0 0 1
0x01f5 1 0 0 1
0x01f5 1 0 0 1
0x01f7 1 0 0 1
0x01f8 1 0 0 1
0x01fb 1 0 0 1
0x01ff 1 0 0 1
0x0203 1 0 0 1
0x0208 1 0 0 1
0x020f 1 0 0 1
0x0215 1 0 0 1
0x021c 1 0 0 1
0x0222 1 0 0 1
0x0227 1 0 0 1
0x022a 1 0 0 1
0x022b 1 0 0 1
0x022a 1 0 0 1
0x0227 1 0 0 1
0x0222 1 0 0 1
0x021c 1 0 0 1
0x0215 1 0 0 1
0x020f 1 0 0 1
0x0208 1 0 0 1
0x0203 1 0 0 1
0x01ff 1 0 0 1
0x01fb 1 0 0 1
0x01f8 1 0 0 1
0x01f7 1 0 0 1
0x01f5 1 1 1 1
0xaacc 1 0 0 1
0x4000 1 0 0 1
0x5555 1 0 0 1
0x5555 1 0 0 1
0x5555 1 0 0 1
0x5555 1 1 0 1
0x01f4 1 0 0 1
0x01f4 1 0 0 1
0x01f4 1 0 0 1
0x01f4 1 0 0 1
0x01f4 1 0 0 1
0x01f4 1 0 0 1
0x01f4 1 0 0 1
0x01f4 1 0 0 1
0x01f4 1 0 0 1
0x01f4 1 0 0 1
0x01f4 1 0 0 1
0x01f4 1 0 0 1
0x01f4 1 0 0 1
0x01f4 1 0 0 1
0x01f4 1 0 0 1
0x01f4 1 0 0 1
0x01f4 1 0 0 1
0x01f4 1 0 0 1
0x01f4 1 0 0 1
0x01f4 1 0 0 1
0x01f4 1 0 0 1
0x01f4 1 0 0 1
0x01f4 1 0 0 1
0x01f4 1 0 0 1
0x01f4 1 0 0 1
0x01f4 1 0 0 1
0x01f4 1 0 0 1
0x01f4 1 0 0 1
0x01f4 1 0 0 1
0x01f4 1 0 0 1
0x01f4 1 0 0 1
0x01f4 1 0 0 1
0x01f4 1 0 0 1
0x01f4 1 0 0 1
0x01f4 1 0 0 1
0x01f4 1 0 0 1
0x01f5 1 0 0 1
0x01f5 1 0 0 1
0x01f7 1 0 0 1
0x01f9 1 0 0 1
0x01fc 1 0 0 1
0x0201 1 0 0 1
0x0207 1 0 0 1
0x020f 1 0 0 1
0x0218 1 0 0 1
0x0223 1 0 0 1
0x022f 1 0 0 1
0x023b 1 0 0 1
0x0245 1 0 0 1
0x024e 1 0 0 1
0x0254 1 0 0 1
0x0256 1 0 0 1
0x0254 1 0 0 1
0x024e 1 0 0 1
0x0245 1 0 0 1
0x023b 1 0 0 1
0x022f 1 0 0 1
0x0223 1 0 0 1
0x0218 1 0 0 1
0x020f 1 0 0 1
0x0207 1 0 0 1
0x0201 1 0 0 1
0x01fc 1 0 0 1
0x01f9 1 1 1 1
0xaad0 1 0 0 1
0x4000 1 0 0 1
0x5555 1 0 0 1
0x5555 1 0 0 1
0x5555 1 0 0 1
0x5555 1 1 0 1
0x01f4 1 0 0 1
0x01f4 1 0 0 1
0x01f4 1 0 0 1
0x01f4 1 0 0 1
0x01f4 1 0 0 1
0x01f4 1 0 0 1
0x01f4 1 0 0 1
0x01f4 1 0 0 1
0x01f4 1 0 0 1
0x01f4 1 0 0 1
0x01f4 1 0 0 1
0x01f4 1 0 0 1
0x01f4 1 0 0 1
0x01f4 1 0 0 1
0x01f4 1 0 0 1
0x01f4 1 0 0 1
0x01f4 1 0 0 1
0x01f4 1 0 0 1
0x01f4 1 0 0 1
0x01f4 1 0 0 1
0x01f4 1 0 0 1
0x01f4 1 0 0 1
0x01f4 1 0 0 1
0x01f4 1 0 0 1
0x01f4 1 0 0 1
0x01f4 1 0 0 1
0x01f4 1 0 0 1
0x01f4 1 0 0 1
0x01f4 1 0 0 1
0x01f4 1 0 0 1
0x01f4 1 0 0 1
0x01f4 1 0 0 1
0x01f4 1 0 0 1
0x01f4 1 0 0 1
0x01f4 1 0 0 1
0x01f4 1 0 0 1
0x01f4 1 0 0 1
0x01f5 1 0 0 1
0x01f5 1 0 0 1
0x01f7 1 0 0 1
0x01f9 1 0 0 1
0x01fc 1 0 0 1
0x0200 1 0 0 1
0x0206 1 0 0 1
0x020d 1 0 0 1
0x0216 1 0 0 1
0x0220 1 0 0 1
0x022b 1 0 0 1
0x0236 1 0 0 1
0x0240 1 0 0 1
0x0249 1 0 0 1
0x024e 1 0 0 1
0x0250 1 0 0 1
0x024e 1 0 0 1
0x0249 1 0 0 1
0x0240 1 0 0 1
0x0236 1 0 0 1
0x022b 1 0 0 1
0x0220 1 0 0 1
0x0216 1 0 0 1
0x020d 1 0 0 1
0x0206 1 0 0 1
0x0200 1 0 0 1
0x01fc 1 1 1 1
0xaad4 1 0 0 1
0x4000 1 0 0 1
0x5555 1 0 0 1
0x5555 1 0 0 1
0x5555 1 0 0 1
0x5555 1 1 0 1
0x01f4 1 0 0 1
0x01f4 1 0 0 1
0x01f4 1 0 0 1
0x01f4 1 0 0 1
0x01f4 1 0 0 1
0x01f4 1 0 0 1
0x01f4 1 0 0 1
0x01f4 1 0 0 1
0x01f4 1 0 0 1
0x01f4 1 0 0 1
0x01f4 1 0 0 1
0x01f4 1 0 0 1
0x01f4 1 0 0 1
0x01f4 1 0 0 1
0x01f4 1 0 0 1
0x01f4 1 0 0 1
0x01f4 1 0 0 1
0x01f4 1 0 0 1
0x01f4 1 0 0 1
0x01f4 1 0 0 1
0x01f4 1 0 0 1
0x01f4 1 0 0 1
0x01f4 1 0 0 1
0x01f4 1 0 0 1
0x01f4 1 0 0 1
0x01f4 1 0 0 1
0x01f4 1 0 0 1
0x01f4 1 0 0 1
0x01f4 1 0 0 1
0x01f4 1 0 0 1
0x01f4 1 0 0 1
0x01f4 1 0 0 1
0x01f4 1 0 0 1
0x01f4 1 0 0 1
0x01f4 1 0 0 1
0x01f4 1 0 0 1
0x01f4 1 0 0 1
0x01f4 1 0 0 1
0x01f4 1 0 0 1
0x01f5 1 0 0 1
0x01f6 1 0 0 1
0x01f7 1 0 0 1
0x01f9 1 0 0 1
0x01fc 1 0 0 1
0x0200 1 0 0 1
0x0204 1 0 0 1
0x020a 1 0 0 1
0x0211 1 0 0 1
0x0218 1 0 0 1
0x0220 1 0 0 1
0x0226 1 0 0 1
0x022c 1 0 0 1
0x022f 1 0 0 1
0x0230 1 0 0 1
0x022f 1 0 0 1
0x022c 1 0 0 1
0x0226 1 0 0 1
0x0220 1 0 0 1
0x0218 1 0 0 1
0x0211 1 0 0 1
0x020a 1 0 0 1
0x0204 1 0 0 1
0x0200 1 0 0 1
0x01fc 1 1 1 1
0xaad8 1 0 0 1
0x4000 1 0 0 1
0x5555 1 0 0 1
0x5555 1 0 0 1
0x5555 1 0 0 1
0x5555 1 1 0 1
0x01f4 1 0 0 1
0x01f4 1 0 0 1
0x01f4 1 0 0 1
0x01f4 1 0 0 1
0x01f4 1 0 0 1
0x01f4 1 0 0 1
0x01f4 1 0 0 1
0x01f4 1 0 0 1
0x01f4 1 0 0 1
0x01f4 1 0 0 1
0x01f4 1 0 0 1
0x01f4 1 0 0 1
0x01f4 1 0 0 1
0x01f4 1 0 0 1
0x01f4 1 0 0 1
0x01f4 1 0 0 1
0x01f4 1 0 0 1
0x01f4 1 0 0 1
0x01f4 1 0 0 1
0x01f4 1 0 0 1
0x01f4 1 0 0 1
0x01f4 1 0 0 1
0x01f4 1 0 0 1
0x01f4 1 0 0 1
0x01f4 1 0 0 1
0x01f4 1 0 0 1
0x01f4 1 0 0 1
0x01f4 1 0 0 1
0x01f4 1 0 0 1
0x01f4 1 0 0 1
0x01f4 1 0 0 1
0x01f4 1 0 0 1
0x01f4 1 0 0 1
0x01f4 1 0 0 1
0x01f4 1 0 0 1
0x01f4 1 0 0 1
0x01f4 1 0 0 1
0x01f4 1 0 0 1
0x01f4 1 0 0 1
0x01f4 1 0 0 1
0x01f5 1 0 0 1
0x01f5 1 0 0 1
0x01f7 1 0 0 1
0x01f8 1 0 0 1
0x01fb 1 0 0 1
0x01fe 1 0 0 1
0x0203 1 0 0 1
0x0208 1 0 0 1
0x020e 1 0 0 1
0x0215 1 0 0 1
0x021c 1 0 0 1
0x0222 1 0 0 1
0x0226 1 0 0 1
0x022a 1 0 0 1
0x022b 1 0 0 1
0x022a 1 0 0 1
0x0226 1 0 0 1
0x0222 1 0 0 1
0x021c 1 0 0 1
0x0215 1 0 0 1
0x020e 1 0 0 1
0x0208 1 0 0 1
0x0203 1 0 0 1
0x01fe 1 1 1 1
0xaadc 1 0 0 1
0x4000 1 0 0 1
0x5555 1 0 0 1
0x5555 1 0 0 1
0x5555 1 0 0 1
0x5555 1 1 0 1
0x01f4 1 0 0 1
0x01f4 1 0 0 1
0x01f4 1 0 0 1
0x01f4 1 0 0 1
0x01f4 1 0 0 1
0x01f4 1 0 0 1
0x01f4 1 0 0 1
0x01f4 1 0 0 1
0x01f4 1 0 0 1
0x01f4 1 0 0 1
0x01f4 1 0 0 1
0x01f4 1 0 0 1
0x01f4 1 0 0 1
0x01f4 1 0 0 1
0x01f4 1 0 0 1
0x01f4 1 0 0 1
0x01f4 1 0 0 1
0x01f4 1 0 0 1
0x01f4 1 0 0 1
0x01f4 1 0 0 1
0x01f4 1 0 0 1
0x01f4 1 0 0 1
0x01f4 1 0 0 1
0x01f4 1 0 0 1
0x01f4 1 0 0 1
0x01f4 1 0 0 1
0x01f4 1 0 0 1
0x01f4 1 0 0 1
0x01f4 1 0 0 1
0x01f4 1 0 0 1
0x01f4 1 0 0 1
0x01f4 1 0 0 1
0x01f4 1 0 0 1
0x01f4 1 0 0 1
0x01f4 1 0 0 1
0x01f4 1 0 0 1
0x01f4 1 0 0 1
0x01f4 1 0 0 1
0x01f4 1 0 0 1
0x01f4 1 0 0 1
0x01f4 1 0 0 1
0x01f5 1 0 0 1
0x01f6 1 0 0 1
0x01f8 1 0 0 1
0x01fa 1 0 0 1
0x01fe 1 0 0 1
0x0203 1 0 0 1
0x0209 1 0 0 1
0x0211 1 0 0 1
0x0219 1 0 0 1
0x0222 1 0 0 1
0x022c 1 0 0 1
0x0234 1 0 0 1
0x023b 1 0 0 1
0x023f 1 0 0 1
0x0241 1 0 0 1
0x023f 1 0 0 1
0x023b 1 0 0 1
0x0234 1 0 0 1
0x022c 1 0 0 1
0x0222 1 0 0 1
0x0219 1 0 0 1
0x0211 1 0 0 1
0x0209 1 1 1 1
0xaae0 1 0 0 1
0x4000 1 0 0 1
0x5555 1 0 0 1
0x5555 1 0 0 1
0x5555 1 0 0 1
0x5555 1 1 0 1
0x01f4 1 0 0 1
0x01f4 1 0 0 1
0x01f4 1 0 0 1
0x01f4 1 0 0 1
0x01f4 1 0 0 1
0x01f4 1 0 0 1
0x01f4 1 0 0 1
0x01f4 1 0 0 1
0x01f4 1 0 0 1
0x01f4 1 0 0 1
0x01f4 1 0 0 1
0x01f4 1 0 0 1
0x01f4 1 0 0 1
0x01f4 1 0 0 1
0x01f4 1 0 0 1
0x01f4 1 0 0 1
0x01f4 1 0 0 1
0x01f4 1 0 0 1
0x01f4 1 0 0 1
0x01f4 1 0 0 1
0x01f4 1 0 0 1
0x01f4 1 0 0 1
0x01f4 1 0 0 1
0x01f4 1 0 0 1
0x01f4 1 0 0 1
0x01f4 1 0 0 1
0x01f4 1 0 0 1
0x01f4 1 0 0 1
0x01f4 1 0 0 1
0x01f4 1 0 0 1
0x01f4 1 0 0 1
0x01f4 1 0 0 1
0x01f4 1 0 0 1
0x01f4 1 0 0 1
0x01f4 1 0 0 1
0x01f4 1 0 0 1
0x01f4 1 0 0 1
0x01f4 1 0 0 1
0x01f4 1 0 0 1
0x01f4 1 0 0 1
0x01f4 1 0 0 1
0x01f4 1 0 0 1
0x01f5 1 0 0 1
0x01f6 1 0 0 1
0x01f7 1 0 0 1
0x01f9 1 0 0 1
0x01fc 1 0 0 1
0x0200 1 0 0 1
0x0205 1 0 0 1
0x020c 1 0 0 1
0x0213 1 0 0 1
0x021b 1 0 0 1
0x0222 1 0 0 1
0x0229 1 0 0 1
0x022f 1 0 0 1
0x0233 1 0 0 1
0x0234 1 0 0 1
0x0233 1 0 0 1
0x022f 1 0 0 1
0x0229 1 0 0 1
0x0222 1 0 0 1
0x021b 1 0 0 1
0x0213 1 0 0 1
0x020c 1 1 1 1
0xaae4 1 0 0 1
0x4000 1 0 0 1
0x5555 1 0 0 1
0x5555 1 0 0 1
0x5555 1 0 0 1
0x5555 1 1 0 1
0x01f4 1 0 0 1
0x01f4 1 0 0 1
0x01f4 1 0 0 1
0x01f4 1 0 0 1
0x01f4 1 0 0 1
0x01f4 1 0 0 1
0x01f4 1 0 0 1
0x01f4 1 0 0 1
0x01f4 1 0 0 1
0x01f4 1 0 0 1
0x01f4 1 0 0 1
0x01f4 1 0 0 1
0x01f4 1 0 0 1
0x01f4 1 0 0 1
0x01f4 1 0 0 1
0x01f4 1 0 0 1
0x01f4 1 0 0 1
0x01f4 1 0 0 1
0x01f4 1 0 0 1
0x01f4 1 0 0 1
0x01f4 1 0 0 1
0x01f4 1 0 0 1
0x01f4 1 0 0 1
0x01f4 1 0 0 1
0x01f4 1 0 0 1
0x01f4 1 0 0 1
0x01f4 1 0 0 1
0x01f4 1 0 0 1
0x01f4 1 0 0 1
0x01f4 1 0 0 1
0x01f4 1 0 0 1
0x01f4 1 0 0 1
0x01f4 1 0 0 1
0x01f4 1 0 0 1
0x01f4 1 0 0 1
0x01f4 1 0 0 1
0x01f4 1 0 0 1
0x01f4 1 0 0 1
0x01f4 1 0 0 1
0x01f4 1 0 0 1
0x01f4 1 0 0 1
0x01f4 1 0 0 1
0x01f4 1 0 0 1
0x01f5 1 0 0 1
0x01f5 1 0 0 1
0x01f7 1 0 0 1
0x01f8 1 0 0 1
0x01fb 1 0 0 1
0x01fe 1 0 0 1
0x0203 1 0 0 1
0x0208 1 0 0 1
0x020e 1 0 0 1
0x0215 1 0 0 1
0x021b 1 0 0 1
0x0221 1 0 0 1
0x0226 1 0 0 1
0x0229 1 0 0 1
0x022a 1 0 0 1
0x0229 1 0 0 1
0x0226 1 0 0 1
0x0221 1 0 0 1
0x021b 1 0 0 1
0x0215 1 0 0 1
0x020e 1 1 1 1
0xaae8 1 0 0 1
0x4000 1 0 0 1
0x5555 1 0 0 1
0x5555 1 0 0 1
0x5555 1 0 0 1
0x5555 1 1 0 1
0x01f4 1 0 0 1
0x01f4 1 0 0 1
0x01f4 1 0 0 1
0x01f4 1 0 0 1
0x01f4 1 0 0 1
0x01f4 1 0 0 1
0x01f4 1 0 0 1
0x01f4 1 0 0 1
0x01f4 1 0 0 1
0x01f4 1 0 0 1
0x01f4 1 0 0 1
0x01f4 1 0 0 1
0x01f4 1 0 0 1
0x01f4 1 0 0 1
0x01f4 1 0 0 1
0x01f4 1 0 0 1
0x01f4 1 0 0 1
0x01f4 1 0 0 1
0x01f4 1 0 0 1
0x01f4 1 0 0 1
0x01f4 1 0 0 1
0x01f4 1 0 0 1
0x01f4 1 0 0 1
0x01f4 1 0 0 1
0x01f4 1 0 0 1
0x01f4 1 0 0 1
0x01f4 1 0 0 1
0x01f4 1 0 0 1
0x01f4 1 0 0 1
0x01f4 1 0 0 1
0x01f4 1 0 0 1
0x01f4 1 0 0 1
0x01f4 1 0 0 1
0x01f4 1 0 0 1
0x01f4 1 0 0 1
0x01f4 1 0 0 1
0x01f4 1 0 0 1
0x01f4 1 0 0 1
0x01f4 1 0 0 1
0x01f4 1 0 0 1
0x01f4 1 0 0 1
0x01f4 1 0 0 1
0x01f4 1 0 0 1
0x01f4 1 0 0 1
0x01f5 1 0 0 1
0x01f5 1 0 0 1
0x01f7 1 0 0 1
0x01f9 1 0 0 1
0x01fb 1 0 0 1
0x01ff 1 0 0 1
0x0203 1 0 0 1
0x0209 1 0 0 1
0x020f 1 0 0 1
0x0216 1 0 0 1
0x021d 1 0 0 1
0x0224 1 0 0 1
0x0229 1 0 0 1
0x022c 1 0 0 1
0x022d 1 0 0 1
0x022c 1 0 0 1
0x0229 1 0 0 1
0x0224 1 0 0 1
0x021d 1 0 0 1
0x0216 1 1 1 1
0xaaec 1 0 0 1
0x4000 1 0 0 1
0x5555 1 0 0 1
0x5555 1 0 0 1
0x5555 1 0 0 1
0x5555 1 1 0 1
0x01f4 1 0 0 1
0x01f4 1 0 0 1
0x01f4 1 0 0 1
0x01f4 1 0 0 1
0x01f4 1 0 0 1
0x01f4 1 0 0 1
0x01f4 1 0 0 1
0x01f4 1 0 0 1
0x01f4 1 0 0 1
0x01f4 1 0 0 1
0x01f4 1 0 0 1
0x01f4 1 0 0 1
0x01f4 1 0 0 1
0x01f4 1 0 0 1
0x01f4 1 0 0 1
0x01f4 1 0 0 1
0x01f4 1 0 0 1
0x01f4 1 0 0 1
0x01f4 1 0 0 1
0x01f4 1 0 0 1
0x01f4 1 0 0 1
0x01f4 1 0 0 1
0x01f4 1 0 0 1
0x01f4 1 0 0 1
0x01f4 1 0 0 1
0x01f4 1 0 0 1
0x01f4 1 0 0 1
0x01f4 1 0 0 1
0x01f4 1 0 0 1
0x01f4 1 0 0 1
0x01f4 1 0 0 1
0x01f4 1 0 0 1
0x01f4 1 0 0 1
0x01f4 1 0 0 1
0x01f4 1 0 0 1
0x01f4 1 0 0 1
0x01f4 1 0 0 1
0x01f4 1 0 0 1
0x01f4 1 0 0 1
0x01f4 1 0 0 1
0x01f4 1 0 0 1
0x01f4 1 0 0 1
0x01f4 1 0 0 1
0x01f4 1 0 0 1
0x01f5 1 0 0 1
0x01f5 1 0 0 1
0x01f7 1 0 0 1
0x01f9 1 0 0 1
0x01fc 1 0 0 1
0x0201 1 0 0 1
0x0207 1 0 0 1
0x020f 1 0 0 1
0x0219 1 0 0 1
0x0224 1 0 0 1
0x0230 1 0 0 1
0x023c 1 0 0 1
0x0247 1 0 0 1
0x024f 1 0 0 1
0x0255 1 0 0 1
0x0257 1 0 0 1
0x0255 1 0 0 1
0x024f 1 0 0 1
0x0247 1 0 0 1
0x023c 1 1 1 1
0xaaf0 1 0 0 1
0x4000 1 0 0 1
0x5555 1 0 0 1
0x5555 1 0 0 1
0x5555 1 0 0 1
0x5555 1 1 0 1
0x01f4 1 0 0 1
0x01f4 1 0 0 1
0x01f4 1 0 0 1
0x01f4 1 0 0 1
0x01f4 1 0 0 1
0x01f4 1 0 0 1
0x01f4 1 0 0 1
0x01f4 1 0 0 1
0x01f4 1 0 0 1
0x01f4 1 0 0 1
0x01f4 1 0 0 1
0x01f4 1 0 0 1
0x01f4 1 0 0 1
0x01f4 1 0 0 1
0x01f4 1 0 0 1
0x01f4 1 0 0 1
0x01f4 1 0 0 1
0x01f4 1 0 0 1
0x01f4 1 0 0 1
0x01f4 1 0 0 1
0x01f4 1 0 0 1
0x01f4 1 0 0 1
0x01f4 1 0 0 1
0x01f4 1 0 0 1
0x01f4 1 0 0 1
0x01f4 1 0 0 1
0x01f4 1 0 0 1
0x01f4 1 0 0 1
0x01f4 1 0 0 1
0x01f4 1 0 0 1
0x01f4 1 0 0 1
0x01f4 1 0 0 1
0x01f4 1 0 0 1
0x01f4 1 0 0 1
0x01f4 1 0 0 1
0x01f4 1 0 0 1
0x01f4 1 0 0 1
0x01f4 1 0 0 1
0x01f4 1 0 0 1
0x01f4 1 0 0 1
0x01f4 1 0 0 1
0x01f4 1 0 0 1
0x01f4 1 0 0 1
0x01f4 1 0 0 1
0x01f4 1 0 0 1
0x01f4 1 0 0 1
0x01f5 1 0 0 1
0x01f6 1 0 0 1
0x01f8 1 0 0 1
0x01fb 1 0 0 1
0x01fe 1 0 0 1
0x0203 1 0 0 1
0x020a 1 0 0 1
0x0212 1 0 0 1
0x021b 1 0 0 1
0x0224 1 0 0 1
0x022e 1 0 0 1
0x0237 1 0 0 1
0x023e 1 0 0 1
0x0243 1 0 0 1
0x0244 1 0 0 1
0x0243 1 0 0 1
0x023e 1 0 0 1
0x0237 1 1 1 1
0xaaf4 1 0 0 1
0x4000 1 0 0 1
0x5555 1 0 0 1
0x5555 1 0 0 1
0x5555 1 0 0 1
0x5555 1 1 0 1
0x01f4 1 0 0 1
0x01f4 1 0 0 1
0x01f4 1 0 0 1
0x01f4 1 0 0 1
0x01f4 1 0 0 1
0x01f4 1 0 0 1
0x01f4 1 0 0 1
0x01f4 1 0 0 1
0x01f4 1 0 0 1
0x01f4 1 0 0 1
0x01f4 1 0 0 1
0x01f4 1 0 0 1
0x01f4 1 0 0 1
0x01f4 1 0 0 1
0x01f4 1 0 0 1
0x01f4 1 0 0 1
0x01f4 1 0 0 1
0x01f4 1 0 0 1
0x01f4 1 0 0 1
0x01f4 1 0 0 1
0x01f4 1 0 0 1
0x01f4 1 0 0 1
0x01f4 1 0 0 1
0x01f4 1 0 0 1
0x01f4 1 0 0 1
0x01f4 1 0 0 1
0x01f4 1 0 0 1
0x01f4 1 0 0 1
0x01f4 1 0 0 1
0x01f4 1 0 0 1
0x01f4 1 0 0 1
0x01f4 1 0 0 1
0x01f4 1 0 0 1
0x01f4 1 0 0 1
0x01f4 1 0 0 1
0x01f4 1 0 0 1
0x01f4 1 0 0 1
0x01f4 1 0 0 1
0x01f4 1 0 0 1
0x01f4 1 0 0 1
0x01f4 1 0 0 1
0x01f4 1 0 0 1
0x01f4 1 0 0 1
0x01f4 1 0 0 1
0x01f4 1 0 0 1
0x01f4 1 0 0 1
0x01f5 1 0 0 1
0x01f5 1 0 0 1
0x01f7 1 0 0 1
0x01f9 1 0 0 1
0x01fc 1 0 0 1
0x0200 1 0 0 1
0x0206 1 0 0 1
0x020e 1 0 0 1
0x0217 1 0 0 1
0x0222 1 0 0 1
0x022d 1 0 0 1
0x0239 1 0 0 1
0x0243 1 0 0 1
0x024c 1 0 0 1
0x0251 1 0 0 1
0x0253 1 0 0 1
0x0251 1 0 0 1
0x024c 1 1 1 1
0xaaf8 1 0 0 1
0x4000 1 0 0 1
0x5555 1 0 0 1
0x5555 1 0 0 1
0x5555 1 0 0 1
0x5555 1 1 0 1
0x01f4 1 0 0 1
0x01f4 1 0 0 1
0x01f4 1 0 0 1
0x01f4 1 0 0 1
0x01f4 1 0 0 1
0x01f4 1 0 0 1
0x01f4 1 0 0 1
0x01f4 1 0 0 1
0x01f4 1 0 0 1
0x01f4 1 0 0 1
0x01f4 1 0 0 1
0x01f4 1 0 0 1
0x01f4 1 0 0 1
0x01f4 1 0 0 1
0x01f4 1 0 0 1
0x01f4 1 0 0 1
0x01f4 1 0 0 1
0x01f4 1 0 0 1
0x01f4 1 0 0 1
0x01f4 1 0 0 1
0x01f4 1 0 0 1
0x01f4 1 0 0 1
0x01f4 1 0 0 1
0x01f4 1 0 0 1
0x01f4 1 0 0 1
0x01f4 1 0 0 1
0x01f4 1 0 0 1
0x01f4 1 0 0 1
0x01f4 1 0 0 1
0x01f4 1 0 0 1
0x01f4 1 0 0 1
0x01f4 1 0 0 1
0x01f4 1 0 0 1
0x01f4 1 0 0 1
0x01f4 1 0 0 1
0x01f4 1 0 0 1
0x01f4 1 0 0 1
0x01f4 1 0 0 1
0x01f4 1 0 0 1
0x01f4 1 0 0 1
0x01f4 1 0 0 1
0x01f4 1 0 0 1
0x01f4 1 0 0 1
0x01f4 1 0 0 1
0x01f4 1 0 0 1
0x01f4 1 0 0 1
0x01f4 1 0 0 1
0x01f4 1 0 0 1
0x01f5 1 0 0 1
0x01f6 1 0 0 1
0x01f8 1 0 0 1
0x01fa 1 0 0 1
0x01fe 1 0 0 1
0x0203 1 0 0 1
0x0209 1 0 0 1
0x0210 1 0 0 1
0x0218 1 0 0 1
0x0222 1 0 0 1
0x022b 1 0 0 1
0x0233 1 0 0 1
0x023a 1 0 0 1
0x023e 1 0 0 1
0x023f 1 0 0 1
0x023e 1 1 1 1
0xaafc 1 0 0 1
0x4000 1 0 0 1
0x5555 1 0 0 1
0x5555 1 0 0 1
0x5555 1 0 0 1
0x5555 1 1 0 1
0x01f4 1 0 0 1
0x01f4 1 0 0 1
0x01f4 1 0 0 1
0x01f4 1 0 0 1
0x01f4 1 0 0 1
0x01f4 1 0 0 1
0x01f4 1 0 0 1
0x01f4 1 0 0 1
0x01f4 1 0 0 1
0x01f4 1 0 0 1
0x01f4 1 0 0 1
0x01f4 1 0 0 1
0x01f4 1 0 0 1
0x01f4 1 0 0 1
0x01f4 1 0 0 1
0x01f4 1 0 0 1
0x01f4 1 0 0 1
0x01f4 1 0 0 1
0x01f4 1 0 0 1
0x01f4 1 0 0 1
0x01f4 1 0 0 1
0x01f4 1 0 0 1
0x01f4 1 0 0 1
0x01f4 1 0 0 1
0x01f4 1 0 0 1
0x01f4 1 0 0 1
0x01f4 1 0 0 1
0x01f4 1 0 0 1
0x01f4 1 0 0 1
0x01f4 1 0 0 1
0x01f4 1 0 0 1
0x01f4 1 0 0 1
0x01f4 1 0 0 1
0x01f4 1 0 0 1
0x01f4 1 0 0 1
0x01f4 1 0 0 1
0x01f4 1 0 0 1
0x01f4 1 0 0 1
0x01f4 1 0 0 1
0x01f4 1 0 0 1
0x01f4 1 0 0 1
0x01f4 1 0 0 1
0x01f4 1 0 0 1
0x01f4 1 0 0 1
0x01f4 1 0 0 1
0x01f4 1 0 0 1
0x01f4 1 0 0 1
0x01f4 1 0 0 1
0x01f4 1 0 0 1
0x01f5 1 0 0 1
0x01f6 1 0 0 1
0x01f7 1 0 0 1
0x01f9 1 0 0 1
0x01fc 1 0 0 1
0x0200 1 0 0 1
0x0205 1 0 0 1
0x020b 1 0 0 1
0x0212 1 0 0 1
0x021a 1 0 0 1
0x0221 1 0 0 1
0x0228 1 0 0 1
0x022e 1 0 0 1
0x0231 1 0 0 1
0x0233 1 1 1 1