[Hit Header: 
crate: 21, fibre: 2, wireIndex: 0, slot: 2, flags: 0, tstamp: 6148914691236517205, median: 0, accumulator: 0

Hit Payload: 
0 : hitStartTime: 54, hitEndTime: 63, hitPeakADC: 77, hitPeakTime: 63, hitSumADC: 538, hitFlags: 0, hitContinues: 1
, Hit Header: 
crate: 21, fibre: 2, wireIndex: 4, slot: 2, flags: 0, tstamp: 6148914691236517205, median: 0, accumulator: 0

Hit Payload: 
0 : hitStartTime: 54, hitEndTime: 63, hitPeakADC: 77, hitPeakTime: 63, hitSumADC: 538, hitFlags: 0, hitContinues: 1
, Hit Header: 
crate: 21, fibre: 2, wireIndex: 8, slot: 2, flags: 0, tstamp: 6148914691236517205, median: 0, accumulator: 0

Hit Payload: 
0 : hitStartTime: 54, hitEndTime: 63, hitPeakADC: 77, hitPeakTime: 63, hitSumADC: 538, hitFlags: 0, hitContinues: 1
, Hit Header: 
crate: 21, fibre: 2, wireIndex: 12, slot: 2, flags: 0, tstamp: 6148914691236517205, median: 0, accumulator: 0

Hit Payload: 
0 : hitStartTime: 54, hitEndTime: 63, hitPeakADC: 77, hitPeakTime: 63, hitSumADC: 538, hitFlags: 0, hitContinues: 1
, Hit Header: 
crate: 21, fibre: 2, wireIndex: 16, slot: 2, flags: 0, tstamp: 6148914691236517205, median: 0, accumulator: 0

Hit Payload: 
0 : hitStartTime: 54, hitEndTime: 63, hitPeakADC: 77, hitPeakTime: 63, hitSumADC: 538, hitFlags: 0, hitContinues: 1
, Hit Header: 
crate: 21, fibre: 2, wireIndex: 20, slot: 2, flags: 0, tstamp: 6148914691236517205, median: 0, accumulator: 0

Hit Payload: 
0 : hitStartTime: 54, hitEndTime: 63, hitPeakADC: 77, hitPeakTime: 63, hitSumADC: 538, hitFlags: 0, hitContinues: 1
, Hit Header: 
crate: 21, fibre: 2, wireIndex: 24, slot: 2, flags: 0, tstamp: 6148914691236517205, median: 0, accumulator: 0

Hit Payload: 
0 : hitStartTime: 54, hitEndTime: 63, hitPeakADC: 77, hitPeakTime: 63, hitSumADC: 538, hitFlags: 0, hitContinues: 1
, Hit Header: 
crate: 21, fibre: 2, wireIndex: 28, slot: 2, flags: 0, tstamp: 6148914691236517205, median: 0, accumulator: 0

Hit Payload: 
0 : hitStartTime: 54, hitEndTime: 63, hitPeakADC: 77, hitPeakTime: 63, hitSumADC: 538, hitFlags: 0, hitContinues: 1
, Hit Header: 
crate: 21, fibre: 2, wireIndex: 32, slot: 2, flags: 0, tstamp: 6148914691236517205, median: 0, accumulator: 0

Hit Payload: 
0 : hitStartTime: 54, hitEndTime: 63, hitPeakADC: 77, hitPeakTime: 63, hitSumADC: 538, hitFlags: 0, hitContinues: 1
, Hit Header: 
crate: 21, fibre: 2, wireIndex: 36, slot: 2, flags: 0, tstamp: 6148914691236517205, median: 0, accumulator: 0

Hit Payload: 
0 : hitStartTime: 54, hitEndTime: 63, hitPeakADC: 77, hitPeakTime: 63, hitSumADC: 538, hitFlags: 0, hitContinues: 1
, Hit Header: 
crate: 21, fibre: 2, wireIndex: 40, slot: 2, flags: 0, tstamp: 6148914691236517205, median: 0, accumulator: 0

Hit Payload: 
0 : hitStartTime: 54, hitEndTime: 63, hitPeakADC: 77, hitPeakTime: 63, hitSumADC: 538, hitFlags: 0, hitContinues: 1
, Hit Header: 
crate: 21, fibre: 2, wireIndex: 44, slot: 2, flags: 0, tstamp: 6148914691236517205, median: 0, accumulator: 0

Hit Payload: 
0 : hitStartTime: 54, hitEndTime: 63, hitPeakADC: 77, hitPeakTime: 63, hitSumADC: 538, hitFlags: 0, hitContinues: 1
, Hit Header: 
crate: 21, fibre: 2, wireIndex: 48, slot: 2, flags: 0, tstamp: 6148914691236517205, median: 0, accumulator: 0

Hit Payload: 
0 : hitStartTime: 54, hitEndTime: 63, hitPeakADC: 77, hitPeakTime: 63, hitSumADC: 538, hitFlags: 0, hitContinues: 1
, Hit Header: 
crate: 21, fibre: 2, wireIndex: 52, slot: 2, flags: 0, tstamp: 6148914691236517205, median: 0, accumulator: 0

Hit Payload: 
0 : hitStartTime: 54, hitEndTime: 63, hitPeakADC: 77, hitPeakTime: 63, hitSumADC: 538, hitFlags: 0, hitContinues: 1
, Hit Header: 
crate: 21, fibre: 2, wireIndex: 56, slot: 2, flags: 0, tstamp: 6148914691236517205, median: 0, accumulator: 0

Hit Payload: 
0 : hitStartTime: 54, hitEndTime: 63, hitPeakADC: 77, hitPeakTime: 63, hitSumADC: 538, hitFlags: 0, hitContinues: 1
, Hit Header: 
crate: 21, fibre: 2, wireIndex: 60, slot: 2, flags: 0, tstamp: 6148914691236517205, median: 0, accumulator: 0

Hit Payload: 
0 : hitStartTime: 54, hitEndTime: 63, hitPeakADC: 77, hitPeakTime: 63, hitSumADC: 538, hitFlags: 0, hitContinues: 1
, Hit Header: 
crate: 21, fibre: 2, wireIndex: 64, slot: 2, flags: 0, tstamp: 6148914691236517205, median: 0, accumulator: 0

Hit Payload: 
0 : hitStartTime: 54, hitEndTime: 63, hitPeakADC: 77, hitPeakTime: 63, hitSumADC: 538, hitFlags: 0, hitContinues: 1
, Hit Header: 
crate: 21, fibre: 2, wireIndex: 68, slot: 2, flags: 0, tstamp: 6148914691236517205, median: 0, accumulator: 0

Hit Payload: 
0 : hitStartTime: 54, hitEndTime: 63, hitPeakADC: 77, hitPeakTime: 63, hitSumADC: 538, hitFlags: 0, hitContinues: 1
, Hit Header: 
crate: 21, fibre: 2, wireIndex: 72, slot: 2, flags: 0, tstamp: 6148914691236517205, median: 0, accumulator: 0

Hit Payload: 
0 : hitStartTime: 54, hitEndTime: 63, hitPeakADC: 77, hitPeakTime: 63, hitSumADC: 538, hitFlags: 0, hitContinues: 1
, Hit Header: 
crate: 21, fibre: 2, wireIndex: 76, slot: 2, flags: 0, tstamp: 6148914691236517205, median: 0, accumulator: 0

Hit Payload: 
0 : hitStartTime: 54, hitEndTime: 63, hitPeakADC: 77, hitPeakTime: 63, hitSumADC: 538, hitFlags: 0, hitContinues: 1
, Hit Header: 
crate: 21, fibre: 2, wireIndex: 80, slot: 2, flags: 0, tstamp: 6148914691236517205, median: 0, accumulator: 0

Hit Payload: 
0 : hitStartTime: 54, hitEndTime: 63, hitPeakADC: 77, hitPeakTime: 63, hitSumADC: 538, hitFlags: 0, hitContinues: 1
, Hit Header: 
crate: 21, fibre: 2, wireIndex: 84, slot: 2, flags: 0, tstamp: 6148914691236517205, median: 0, accumulator: 0

Hit Payload: 
0 : hitStartTime: 54, hitEndTime: 63, hitPeakADC: 77, hitPeakTime: 63, hitSumADC: 538, hitFlags: 0, hitContinues: 1
, Hit Header: 
crate: 21, fibre: 2, wireIndex: 88, slot: 2, flags: 0, tstamp: 6148914691236517205, median: 0, accumulator: 0

Hit Payload: 
0 : hitStartTime: 54, hitEndTime: 63, hitPeakADC: 77, hitPeakTime: 63, hitSumADC: 538, hitFlags: 0, hitContinues: 1
, Hit Header: 
crate: 21, fibre: 2, wireIndex: 92, slot: 2, flags: 0, tstamp: 6148914691236517205, median: 0, accumulator: 0

Hit Payload: 
0 : hitStartTime: 54, hitEndTime: 63, hitPeakADC: 77, hitPeakTime: 63, hitSumADC: 538, hitFlags: 0, hitContinues: 1
, Hit Header: 
crate: 21, fibre: 2, wireIndex: 96, slot: 2, flags: 0, tstamp: 6148914691236517205, median: 0, accumulator: 0

Hit Payload: 
0 : hitStartTime: 54, hitEndTime: 63, hitPeakADC: 77, hitPeakTime: 63, hitSumADC: 538, hitFlags: 0, hitContinues: 1
, Hit Header: 
crate: 21, fibre: 2, wireIndex: 100, slot: 2, flags: 0, tstamp: 6148914691236517205, median: 0, accumulator: 0

Hit Payload: 
0 : hitStartTime: 54, hitEndTime: 63, hitPeakADC: 77, hitPeakTime: 63, hitSumADC: 538, hitFlags: 0, hitContinues: 1
, Hit Header: 
crate: 21, fibre: 2, wireIndex: 104, slot: 2, flags: 0, tstamp: 6148914691236517205, median: 0, accumulator: 0

Hit Payload: 
0 : hitStartTime: 54, hitEndTime: 63, hitPeakADC: 77, hitPeakTime: 63, hitSumADC: 538, hitFlags: 0, hitContinues: 1
, Hit Header: 
crate: 21, fibre: 2, wireIndex: 108, slot: 2, flags: 0, tstamp: 6148914691236517205, median: 0, accumulator: 0

Hit Payload: 
0 : hitStartTime: 54, hitEndTime: 63, hitPeakADC: 77, hitPeakTime: 63, hitSumADC: 538, hitFlags: 0, hitContinues: 1
, Hit Header: 
crate: 21, fibre: 2, wireIndex: 112, slot: 2, flags: 0, tstamp: 6148914691236517205, median: 0, accumulator: 0

Hit Payload: 
0 : hitStartTime: 54, hitEndTime: 63, hitPeakADC: 77, hitPeakTime: 63, hitSumADC: 538, hitFlags: 0, hitContinues: 1
, Hit Header: 
crate: 21, fibre: 2, wireIndex: 116, slot: 2, flags: 0, tstamp: 6148914691236517205, median: 0, accumulator: 0

Hit Payload: 
0 : hitStartTime: 54, hitEndTime: 63, hitPeakADC: 77, hitPeakTime: 63, hitSumADC: 538, hitFlags: 0, hitContinues: 1
, Hit Header: 
crate: 21, fibre: 2, wireIndex: 120, slot: 2, flags: 0, tstamp: 6148914691236517205, median: 0, accumulator: 0

Hit Payload: 
0 : hitStartTime: 54, hitEndTime: 63, hitPeakADC: 77, hitPeakTime: 63, hitSumADC: 538, hitFlags: 0, hitContinues: 1
, Hit Header: 
crate: 21, fibre: 2, wireIndex: 124, slot: 2, flags: 0, tstamp: 6148914691236517205, median: 0, accumulator: 0

Hit Payload: 
0 : hitStartTime: 54, hitEndTime: 63, hitPeakADC: 77, hitPeakTime: 63, hitSumADC: 538, hitFlags: 0, hitContinues: 1
, Hit Header: 
crate: 21, fibre: 2, wireIndex: 128, slot: 2, flags: 0, tstamp: 6148914691236517205, median: 0, accumulator: 0

Hit Payload: 
0 : hitStartTime: 54, hitEndTime: 63, hitPeakADC: 77, hitPeakTime: 63, hitSumADC: 538, hitFlags: 0, hitContinues: 1
, Hit Header: 
crate: 21, fibre: 2, wireIndex: 132, slot: 2, flags: 0, tstamp: 6148914691236517205, median: 0, accumulator: 0

Hit Payload: 
0 : hitStartTime: 54, hitEndTime: 63, hitPeakADC: 77, hitPeakTime: 63, hitSumADC: 538, hitFlags: 0, hitContinues: 1
, Hit Header: 
crate: 21, fibre: 2, wireIndex: 136, slot: 2, flags: 0, tstamp: 6148914691236517205, median: 0, accumulator: 0

Hit Payload: 
0 : hitStartTime: 54, hitEndTime: 63, hitPeakADC: 77, hitPeakTime: 63, hitSumADC: 538, hitFlags: 0, hitContinues: 1
, Hit Header: 
crate: 21, fibre: 2, wireIndex: 140, slot: 2, flags: 0, tstamp: 6148914691236517205, median: 0, accumulator: 0

Hit Payload: 
0 : hitStartTime: 54, hitEndTime: 63, hitPeakADC: 77, hitPeakTime: 63, hitSumADC: 538, hitFlags: 0, hitContinues: 1
, Hit Header: 
crate: 21, fibre: 2, wireIndex: 144, slot: 2, flags: 0, tstamp: 6148914691236517205, median: 0, accumulator: 0

Hit Payload: 
0 : hitStartTime: 54, hitEndTime: 63, hitPeakADC: 77, hitPeakTime: 63, hitSumADC: 538, hitFlags: 0, hitContinues: 1
, Hit Header: 
crate: 21, fibre: 2, wireIndex: 148, slot: 2, flags: 0, tstamp: 6148914691236517205, median: 0, accumulator: 0

Hit Payload: 
0 : hitStartTime: 54, hitEndTime: 63, hitPeakADC: 77, hitPeakTime: 63, hitSumADC: 538, hitFlags: 0, hitContinues: 1
, Hit Header: 
crate: 21, fibre: 2, wireIndex: 152, slot: 2, flags: 0, tstamp: 6148914691236517205, median: 0, accumulator: 0

Hit Payload: 
0 : hitStartTime: 54, hitEndTime: 63, hitPeakADC: 77, hitPeakTime: 63, hitSumADC: 538, hitFlags: 0, hitContinues: 1
, Hit Header: 
crate: 21, fibre: 2, wireIndex: 156, slot: 2, flags: 0, tstamp: 6148914691236517205, median: 0, accumulator: 0

Hit Payload: 
0 : hitStartTime: 54, hitEndTime: 63, hitPeakADC: 77, hitPeakTime: 63, hitSumADC: 538, hitFlags: 0, hitContinues: 1
, Hit Header: 
crate: 21, fibre: 2, wireIndex: 160, slot: 2, flags: 0, tstamp: 6148914691236517205, median: 0, accumulator: 0

Hit Payload: 
0 : hitStartTime: 54, hitEndTime: 63, hitPeakADC: 77, hitPeakTime: 63, hitSumADC: 538, hitFlags: 0, hitContinues: 1
, Hit Header: 
crate: 21, fibre: 2, wireIndex: 164, slot: 2, flags: 0, tstamp: 6148914691236517205, median: 0, accumulator: 0

Hit Payload: 
0 : hitStartTime: 54, hitEndTime: 63, hitPeakADC: 77, hitPeakTime: 63, hitSumADC: 538, hitFlags: 0, hitContinues: 1
, Hit Header: 
crate: 21, fibre: 2, wireIndex: 168, slot: 2, flags: 0, tstamp: 6148914691236517205, median: 0, accumulator: 0

Hit Payload: 
0 : hitStartTime: 54, hitEndTime: 63, hitPeakADC: 77, hitPeakTime: 63, hitSumADC: 538, hitFlags: 0, hitContinues: 1
, Hit Header: 
crate: 21, fibre: 2, wireIndex: 172, slot: 2, flags: 0, tstamp: 6148914691236517205, median: 0, accumulator: 0

Hit Payload: 
0 : hitStartTime: 54, hitEndTime: 63, hitPeakADC: 77, hitPeakTime: 63, hitSumADC: 538, hitFlags: 0, hitContinues: 1
, Hit Header: 
crate: 21, fibre: 2, wireIndex: 176, slot: 2, flags: 0, tstamp: 6148914691236517205, median: 0, accumulator: 0

Hit Payload: 
0 : hitStartTime: 54, hitEndTime: 63, hitPeakADC: 77, hitPeakTime: 63, hitSumADC: 538, hitFlags: 0, hitContinues: 1
, Hit Header: 
crate: 21, fibre: 2, wireIndex: 180, slot: 2, flags: 0, tstamp: 6148914691236517205, median: 0, accumulator: 0

Hit Payload: 
0 : hitStartTime: 54, hitEndTime: 63, hitPeakADC: 77, hitPeakTime: 63, hitSumADC: 538, hitFlags: 0, hitContinues: 1
, Hit Header: 
crate: 21, fibre: 2, wireIndex: 184, slot: 2, flags: 0, tstamp: 6148914691236517205, median: 0, accumulator: 0

Hit Payload: 
0 : hitStartTime: 54, hitEndTime: 63, hitPeakADC: 77, hitPeakTime: 63, hitSumADC: 538, hitFlags: 0, hitContinues: 1
, Hit Header: 
crate: 21, fibre: 2, wireIndex: 188, slot: 2, flags: 0, tstamp: 6148914691236517205, median: 0, accumulator: 0

Hit Payload: 
0 : hitStartTime: 54, hitEndTime: 63, hitPeakADC: 77, hitPeakTime: 63, hitSumADC: 538, hitFlags: 0, hitContinues: 1
, Hit Header: 
crate: 21, fibre: 2, wireIndex: 192, slot: 2, flags: 0, tstamp: 6148914691236517205, median: 0, accumulator: 0

Hit Payload: 
0 : hitStartTime: 54, hitEndTime: 63, hitPeakADC: 77, hitPeakTime: 63, hitSumADC: 538, hitFlags: 0, hitContinues: 1
, Hit Header: 
crate: 21, fibre: 2, wireIndex: 196, slot: 2, flags: 0, tstamp: 6148914691236517205, median: 0, accumulator: 0

Hit Payload: 
0 : hitStartTime: 54, hitEndTime: 63, hitPeakADC: 77, hitPeakTime: 63, hitSumADC: 538, hitFlags: 0, hitContinues: 1
, Hit Header: 
crate: 21, fibre: 2, wireIndex: 200, slot: 2, flags: 0, tstamp: 6148914691236517205, median: 0, accumulator: 0

Hit Payload: 
0 : hitStartTime: 54, hitEndTime: 63, hitPeakADC: 77, hitPeakTime: 63, hitSumADC: 538, hitFlags: 0, hitContinues: 1
, Hit Header: 
crate: 21, fibre: 2, wireIndex: 204, slot: 2, flags: 0, tstamp: 6148914691236517205, median: 0, accumulator: 0

Hit Payload: 
0 : hitStartTime: 54, hitEndTime: 63, hitPeakADC: 77, hitPeakTime: 63, hitSumADC: 538, hitFlags: 0, hitContinues: 1
, Hit Header: 
crate: 21, fibre: 2, wireIndex: 208, slot: 2, flags: 0, tstamp: 6148914691236517205, median: 0, accumulator: 0

Hit Payload: 
0 : hitStartTime: 54, hitEndTime: 63, hitPeakADC: 77, hitPeakTime: 63, hitSumADC: 538, hitFlags: 0, hitContinues: 1
, Hit Header: 
crate: 21, fibre: 2, wireIndex: 212, slot: 2, flags: 0, tstamp: 6148914691236517205, median: 0, accumulator: 0

Hit Payload: 
0 : hitStartTime: 54, hitEndTime: 63, hitPeakADC: 77, hitPeakTime: 63, hitSumADC: 538, hitFlags: 0, hitContinues: 1
, Hit Header: 
crate: 21, fibre: 2, wireIndex: 216, slot: 2, flags: 0, tstamp: 6148914691236517205, median: 0, accumulator: 0

Hit Payload: 
0 : hitStartTime: 54, hitEndTime: 63, hitPeakADC: 77, hitPeakTime: 63, hitSumADC: 538, hitFlags: 0, hitContinues: 1
, Hit Header: 
crate: 21, fibre: 2, wireIndex: 220, slot: 2, flags: 0, tstamp: 6148914691236517205, median: 0, accumulator: 0

Hit Payload: 
0 : hitStartTime: 54, hitEndTime: 63, hitPeakADC: 77, hitPeakTime: 63, hitSumADC: 538, hitFlags: 0, hitContinues: 1
, Hit Header: 
crate: 21, fibre: 2, wireIndex: 224, slot: 2, flags: 0, tstamp: 6148914691236517205, median: 0, accumulator: 0

Hit Payload: 
0 : hitStartTime: 54, hitEndTime: 63, hitPeakADC: 77, hitPeakTime: 63, hitSumADC: 538, hitFlags: 0, hitContinues: 1
, Hit Header: 
crate: 21, fibre: 2, wireIndex: 228, slot: 2, flags: 0, tstamp: 6148914691236517205, median: 0, accumulator: 0

Hit Payload: 
0 : hitStartTime: 54, hitEndTime: 63, hitPeakADC: 77, hitPeakTime: 63, hitSumADC: 538, hitFlags: 0, hitContinues: 1
, Hit Header: 
crate: 21, fibre: 2, wireIndex: 232, slot: 2, flags: 0, tstamp: 6148914691236517205, median: 0, accumulator: 0

Hit Payload: 
0 : hitStartTime: 54, hitEndTime: 63, hitPeakADC: 77, hitPeakTime: 63, hitSumADC: 538, hitFlags: 0, hitContinues: 1
, Hit Header: 
crate: 21, fibre: 2, wireIndex: 236, slot: 2, flags: 0, tstamp: 6148914691236517205, median: 0, accumulator: 0

Hit Payload: 
0 : hitStartTime: 54, hitEndTime: 63, hitPeakADC: 77, hitPeakTime: 63, hitSumADC: 538, hitFlags: 0, hitContinues: 1
, Hit Header: 
crate: 21, fibre: 2, wireIndex: 240, slot: 2, flags: 0, tstamp: 6148914691236517205, median: 0, accumulator: 0

Hit Payload: 
0 : hitStartTime: 54, hitEndTime: 63, hitPeakADC: 77, hitPeakTime: 63, hitSumADC: 538, hitFlags: 0, hitContinues: 1
, Hit Header: 
crate: 21, fibre: 2, wireIndex: 244, slot: 2, flags: 0, tstamp: 6148914691236517205, median: 0, accumulator: 0

Hit Payload: 
0 : hitStartTime: 54, hitEndTime: 63, hitPeakADC: 77, hitPeakTime: 63, hitSumADC: 538, hitFlags: 0, hitContinues: 1
, Hit Header: 
crate: 21, fibre: 2, wireIndex: 248, slot: 2, flags: 0, tstamp: 6148914691236517205, median: 0, accumulator: 0

Hit Payload: 
0 : hitStartTime: 54, hitEndTime: 63, hitPeakADC: 77, hitPeakTime: 63, hitSumADC: 538, hitFlags: 0, hitContinues: 1
, Hit Header: 
crate: 21, fibre: 2, wireIndex: 252, slot: 2, flags: 0, tstamp: 6148914691236517205, median: 0, accumulator: 0

Hit Payload: 
0 : hitStartTime: 54, hitEndTime: 63, hitPeakADC: 77, hitPeakTime: 63, hitSumADC: 538, hitFlags: 0, hitContinues: 1
, Hit Header: 
crate: 21, fibre: 2, wireIndex: 0, slot: 2, flags: 0, tstamp: 6148914691236518805, median: 0, accumulator: 0

Hit Payload: 
0 : hitStartTime: 0, hitEndTime: 8, hitPeakADC: 77, hitPeakTime: 0, hitSumADC: 499, hitFlags: 0, hitContinues: 0
, Hit Header: 
crate: 21, fibre: 2, wireIndex: 4, slot: 2, flags: 0, tstamp: 6148914691236518805, median: 0, accumulator: 0

Hit Payload: 
0 : hitStartTime: 0, hitEndTime: 8, hitPeakADC: 77, hitPeakTime: 0, hitSumADC: 499, hitFlags: 0, hitContinues: 0
, Hit Header: 
crate: 21, fibre: 2, wireIndex: 8, slot: 2, flags: 0, tstamp: 6148914691236518805, median: 0, accumulator: 0

Hit Payload: 
0 : hitStartTime: 0, hitEndTime: 8, hitPeakADC: 77, hitPeakTime: 0, hitSumADC: 499, hitFlags: 0, hitContinues: 0
, Hit Header: 
crate: 21, fibre: 2, wireIndex: 12, slot: 2, flags: 0, tstamp: 6148914691236518805, median: 0, accumulator: 0

Hit Payload: 
0 : hitStartTime: 0, hitEndTime: 8, hitPeakADC: 77, hitPeakTime: 0, hitSumADC: 499, hitFlags: 0, hitContinues: 0
, Hit Header: 
crate: 21, fibre: 2, wireIndex: 16, slot: 2, flags: 0, tstamp: 6148914691236518805, median: 0, accumulator: 0

Hit Payload: 
0 : hitStartTime: 0, hitEndTime: 8, hitPeakADC: 77, hitPeakTime: 0, hitSumADC: 499, hitFlags: 0, hitContinues: 0
, Hit Header: 
crate: 21, fibre: 2, wireIndex: 20, slot: 2, flags: 0, tstamp: 6148914691236518805, median: 0, accumulator: 0

Hit Payload: 
0 : hitStartTime: 0, hitEndTime: 8, hitPeakADC: 77, hitPeakTime: 0, hitSumADC: 499, hitFlags: 0, hitContinues: 0
, Hit Header: 
crate: 21, fibre: 2, wireIndex: 24, slot: 2, flags: 0, tstamp: 6148914691236518805, median: 0, accumulator: 0

Hit Payload: 
0 : hitStartTime: 0, hitEndTime: 8, hitPeakADC: 77, hitPeakTime: 0, hitSumADC: 499, hitFlags: 0, hitContinues: 0
, Hit Header: 
crate: 21, fibre: 2, wireIndex: 28, slot: 2, flags: 0, tstamp: 6148914691236518805, median: 0, accumulator: 0

Hit Payload: 
0 : hitStartTime: 0, hitEndTime: 8, hitPeakADC: 77, hitPeakTime: 0, hitSumADC: 499, hitFlags: 0, hitContinues: 0
, Hit Header: 
crate: 21, fibre: 2, wireIndex: 32, slot: 2, flags: 0, tstamp: 6148914691236518805, median: 0, accumulator: 0

Hit Payload: 
0 : hitStartTime: 0, hitEndTime: 8, hitPeakADC: 77, hitPeakTime: 0, hitSumADC: 499, hitFlags: 0, hitContinues: 0
, Hit Header: 
crate: 21, fibre: 2, wireIndex: 36, slot: 2, flags: 0, tstamp: 6148914691236518805, median: 0, accumulator: 0

Hit Payload: 
0 : hitStartTime: 0, hitEndTime: 8, hitPeakADC: 77, hitPeakTime: 0, hitSumADC: 499, hitFlags: 0, hitContinues: 0
, Hit Header: 
crate: 21, fibre: 2, wireIndex: 40, slot: 2, flags: 0, tstamp: 6148914691236518805, median: 0, accumulator: 0

Hit Payload: 
0 : hitStartTime: 0, hitEndTime: 8, hitPeakADC: 77, hitPeakTime: 0, hitSumADC: 499, hitFlags: 0, hitContinues: 0
, Hit Header: 
crate: 21, fibre: 2, wireIndex: 44, slot: 2, flags: 0, tstamp: 6148914691236518805, median: 0, accumulator: 0

Hit Payload: 
0 : hitStartTime: 0, hitEndTime: 8, hitPeakADC: 77, hitPeakTime: 0, hitSumADC: 499, hitFlags: 0, hitContinues: 0
, Hit Header: 
crate: 21, fibre: 2, wireIndex: 48, slot: 2, flags: 0, tstamp: 6148914691236518805, median: 0, accumulator: 0

Hit Payload: 
0 : hitStartTime: 0, hitEndTime: 8, hitPeakADC: 77, hitPeakTime: 0, hitSumADC: 499, hitFlags: 0, hitContinues: 0
, Hit Header: 
crate: 21, fibre: 2, wireIndex: 52, slot: 2, flags: 0, tstamp: 6148914691236518805, median: 0, accumulator: 0

Hit Payload: 
0 : hitStartTime: 0, hitEndTime: 8, hitPeakADC: 77, hitPeakTime: 0, hitSumADC: 499, hitFlags: 0, hitContinues: 0
, Hit Header: 
crate: 21, fibre: 2, wireIndex: 56, slot: 2, flags: 0, tstamp: 6148914691236518805, median: 0, accumulator: 0

Hit Payload: 
0 : hitStartTime: 0, hitEndTime: 8, hitPeakADC: 77, hitPeakTime: 0, hitSumADC: 499, hitFlags: 0, hitContinues: 0
, Hit Header: 
crate: 21, fibre: 2, wireIndex: 60, slot: 2, flags: 0, tstamp: 6148914691236518805, median: 0, accumulator: 0

Hit Payload: 
0 : hitStartTime: 0, hitEndTime: 8, hitPeakADC: 77, hitPeakTime: 0, hitSumADC: 499, hitFlags: 0, hitContinues: 0
, Hit Header: 
crate: 21, fibre: 2, wireIndex: 64, slot: 2, flags: 0, tstamp: 6148914691236518805, median: 0, accumulator: 0

Hit Payload: 
0 : hitStartTime: 0, hitEndTime: 8, hitPeakADC: 77, hitPeakTime: 0, hitSumADC: 499, hitFlags: 0, hitContinues: 0
, Hit Header: 
crate: 21, fibre: 2, wireIndex: 68, slot: 2, flags: 0, tstamp: 6148914691236518805, median: 0, accumulator: 0

Hit Payload: 
0 : hitStartTime: 0, hitEndTime: 8, hitPeakADC: 77, hitPeakTime: 0, hitSumADC: 499, hitFlags: 0, hitContinues: 0
, Hit Header: 
crate: 21, fibre: 2, wireIndex: 72, slot: 2, flags: 0, tstamp: 6148914691236518805, median: 0, accumulator: 0

Hit Payload: 
0 : hitStartTime: 0, hitEndTime: 8, hitPeakADC: 77, hitPeakTime: 0, hitSumADC: 499, hitFlags: 0, hitContinues: 0
, Hit Header: 
crate: 21, fibre: 2, wireIndex: 76, slot: 2, flags: 0, tstamp: 6148914691236518805, median: 0, accumulator: 0

Hit Payload: 
0 : hitStartTime: 0, hitEndTime: 8, hitPeakADC: 77, hitPeakTime: 0, hitSumADC: 499, hitFlags: 0, hitContinues: 0
, Hit Header: 
crate: 21, fibre: 2, wireIndex: 80, slot: 2, flags: 0, tstamp: 6148914691236518805, median: 0, accumulator: 0

Hit Payload: 
0 : hitStartTime: 0, hitEndTime: 8, hitPeakADC: 77, hitPeakTime: 0, hitSumADC: 499, hitFlags: 0, hitContinues: 0
, Hit Header: 
crate: 21, fibre: 2, wireIndex: 84, slot: 2, flags: 0, tstamp: 6148914691236518805, median: 0, accumulator: 0

Hit Payload: 
0 : hitStartTime: 0, hitEndTime: 8, hitPeakADC: 77, hitPeakTime: 0, hitSumADC: 499, hitFlags: 0, hitContinues: 0
, Hit Header: 
crate: 21, fibre: 2, wireIndex: 88, slot: 2, flags: 0, tstamp: 6148914691236518805, median: 0, accumulator: 0

Hit Payload: 
0 : hitStartTime: 0, hitEndTime: 8, hitPeakADC: 77, hitPeakTime: 0, hitSumADC: 499, hitFlags: 0, hitContinues: 0
, Hit Header: 
crate: 21, fibre: 2, wireIndex: 92, slot: 2, flags: 0, tstamp: 6148914691236518805, median: 0, accumulator: 0

Hit Payload: 
0 : hitStartTime: 0, hitEndTime: 8, hitPeakADC: 77, hitPeakTime: 0, hitSumADC: 499, hitFlags: 0, hitContinues: 0
, Hit Header: 
crate: 21, fibre: 2, wireIndex: 96, slot: 2, flags: 0, tstamp: 6148914691236518805, median: 0, accumulator: 0

Hit Payload: 
0 : hitStartTime: 0, hitEndTime: 8, hitPeakADC: 77, hitPeakTime: 0, hitSumADC: 499, hitFlags: 0, hitContinues: 0
, Hit Header: 
crate: 21, fibre: 2, wireIndex: 100, slot: 2, flags: 0, tstamp: 6148914691236518805, median: 0, accumulator: 0

Hit Payload: 
0 : hitStartTime: 0, hitEndTime: 8, hitPeakADC: 77, hitPeakTime: 0, hitSumADC: 499, hitFlags: 0, hitContinues: 0
, Hit Header: 
crate: 21, fibre: 2, wireIndex: 104, slot: 2, flags: 0, tstamp: 6148914691236518805, median: 0, accumulator: 0

Hit Payload: 
0 : hitStartTime: 0, hitEndTime: 8, hitPeakADC: 77, hitPeakTime: 0, hitSumADC: 499, hitFlags: 0, hitContinues: 0
, Hit Header: 
crate: 21, fibre: 2, wireIndex: 108, slot: 2, flags: 0, tstamp: 6148914691236518805, median: 0, accumulator: 0

Hit Payload: 
0 : hitStartTime: 0, hitEndTime: 8, hitPeakADC: 77, hitPeakTime: 0, hitSumADC: 499, hitFlags: 0, hitContinues: 0
, Hit Header: 
crate: 21, fibre: 2, wireIndex: 112, slot: 2, flags: 0, tstamp: 6148914691236518805, median: 0, accumulator: 0

Hit Payload: 
0 : hitStartTime: 0, hitEndTime: 8, hitPeakADC: 77, hitPeakTime: 0, hitSumADC: 499, hitFlags: 0, hitContinues: 0
, Hit Header: 
crate: 21, fibre: 2, wireIndex: 116, slot: 2, flags: 0, tstamp: 6148914691236518805, median: 0, accumulator: 0

Hit Payload: 
0 : hitStartTime: 0, hitEndTime: 8, hitPeakADC: 77, hitPeakTime: 0, hitSumADC: 499, hitFlags: 0, hitContinues: 0
, Hit Header: 
crate: 21, fibre: 2, wireIndex: 120, slot: 2, flags: 0, tstamp: 6148914691236518805, median: 0, accumulator: 0

Hit Payload: 
0 : hitStartTime: 0, hitEndTime: 8, hitPeakADC: 77, hitPeakTime: 0, hitSumADC: 499, hitFlags: 0, hitContinues: 0
, Hit Header: 
crate: 21, fibre: 2, wireIndex: 124, slot: 2, flags: 0, tstamp: 6148914691236518805, median: 0, accumulator: 0

Hit Payload: 
0 : hitStartTime: 0, hitEndTime: 8, hitPeakADC: 77, hitPeakTime: 0, hitSumADC: 499, hitFlags: 0, hitContinues: 0
, Hit Header: 
crate: 21, fibre: 2, wireIndex: 128, slot: 2, flags: 0, tstamp: 6148914691236518805, median: 0, accumulator: 0

Hit Payload: 
0 : hitStartTime: 0, hitEndTime: 8, hitPeakADC: 77, hitPeakTime: 0, hitSumADC: 499, hitFlags: 0, hitContinues: 0
, Hit Header: 
crate: 21, fibre: 2, wireIndex: 132, slot: 2, flags: 0, tstamp: 6148914691236518805, median: 0, accumulator: 0

Hit Payload: 
0 : hitStartTime: 0, hitEndTime: 8, hitPeakADC: 77, hitPeakTime: 0, hitSumADC: 499, hitFlags: 0, hitContinues: 0
, Hit Header: 
crate: 21, fibre: 2, wireIndex: 136, slot: 2, flags: 0, tstamp: 6148914691236518805, median: 0, accumulator: 0

Hit Payload: 
0 : hitStartTime: 0, hitEndTime: 8, hitPeakADC: 77, hitPeakTime: 0, hitSumADC: 499, hitFlags: 0, hitContinues: 0
, Hit Header: 
crate: 21, fibre: 2, wireIndex: 140, slot: 2, flags: 0, tstamp: 6148914691236518805, median: 0, accumulator: 0

Hit Payload: 
0 : hitStartTime: 0, hitEndTime: 8, hitPeakADC: 77, hitPeakTime: 0, hitSumADC: 499, hitFlags: 0, hitContinues: 0
, Hit Header: 
crate: 21, fibre: 2, wireIndex: 144, slot: 2, flags: 0, tstamp: 6148914691236518805, median: 0, accumulator: 0

Hit Payload: 
0 : hitStartTime: 0, hitEndTime: 8, hitPeakADC: 77, hitPeakTime: 0, hitSumADC: 499, hitFlags: 0, hitContinues: 0
, Hit Header: 
crate: 21, fibre: 2, wireIndex: 148, slot: 2, flags: 0, tstamp: 6148914691236518805, median: 0, accumulator: 0

Hit Payload: 
0 : hitStartTime: 0, hitEndTime: 8, hitPeakADC: 77, hitPeakTime: 0, hitSumADC: 499, hitFlags: 0, hitContinues: 0
, Hit Header: 
crate: 21, fibre: 2, wireIndex: 152, slot: 2, flags: 0, tstamp: 6148914691236518805, median: 0, accumulator: 0

Hit Payload: 
0 : hitStartTime: 0, hitEndTime: 8, hitPeakADC: 77, hitPeakTime: 0, hitSumADC: 499, hitFlags: 0, hitContinues: 0
, Hit Header: 
crate: 21, fibre: 2, wireIndex: 156, slot: 2, flags: 0, tstamp: 6148914691236518805, median: 0, accumulator: 0

Hit Payload: 
0 : hitStartTime: 0, hitEndTime: 8, hitPeakADC: 77, hitPeakTime: 0, hitSumADC: 499, hitFlags: 0, hitContinues: 0
, Hit Header: 
crate: 21, fibre: 2, wireIndex: 160, slot: 2, flags: 0, tstamp: 6148914691236518805, median: 0, accumulator: 0

Hit Payload: 
0 : hitStartTime: 0, hitEndTime: 8, hitPeakADC: 77, hitPeakTime: 0, hitSumADC: 499, hitFlags: 0, hitContinues: 0
, Hit Header: 
crate: 21, fibre: 2, wireIndex: 164, slot: 2, flags: 0, tstamp: 6148914691236518805, median: 0, accumulator: 0

Hit Payload: 
0 : hitStartTime: 0, hitEndTime: 8, hitPeakADC: 77, hitPeakTime: 0, hitSumADC: 499, hitFlags: 0, hitContinues: 0
, Hit Header: 
crate: 21, fibre: 2, wireIndex: 168, slot: 2, flags: 0, tstamp: 6148914691236518805, median: 0, accumulator: 0

Hit Payload: 
0 : hitStartTime: 0, hitEndTime: 8, hitPeakADC: 77, hitPeakTime: 0, hitSumADC: 499, hitFlags: 0, hitContinues: 0
, Hit Header: 
crate: 21, fibre: 2, wireIndex: 172, slot: 2, flags: 0, tstamp: 6148914691236518805, median: 0, accumulator: 0

Hit Payload: 
0 : hitStartTime: 0, hitEndTime: 8, hitPeakADC: 77, hitPeakTime: 0, hitSumADC: 499, hitFlags: 0, hitContinues: 0
, Hit Header: 
crate: 21, fibre: 2, wireIndex: 176, slot: 2, flags: 0, tstamp: 6148914691236518805, median: 0, accumulator: 0

Hit Payload: 
0 : hitStartTime: 0, hitEndTime: 8, hitPeakADC: 77, hitPeakTime: 0, hitSumADC: 499, hitFlags: 0, hitContinues: 0
, Hit Header: 
crate: 21, fibre: 2, wireIndex: 180, slot: 2, flags: 0, tstamp: 6148914691236518805, median: 0, accumulator: 0

Hit Payload: 
0 : hitStartTime: 0, hitEndTime: 8, hitPeakADC: 77, hitPeakTime: 0, hitSumADC: 499, hitFlags: 0, hitContinues: 0
, Hit Header: 
crate: 21, fibre: 2, wireIndex: 184, slot: 2, flags: 0, tstamp: 6148914691236518805, median: 0, accumulator: 0

Hit Payload: 
0 : hitStartTime: 0, hitEndTime: 8, hitPeakADC: 77, hitPeakTime: 0, hitSumADC: 499, hitFlags: 0, hitContinues: 0
, Hit Header: 
crate: 21, fibre: 2, wireIndex: 188, slot: 2, flags: 0, tstamp: 6148914691236518805, median: 0, accumulator: 0

Hit Payload: 
0 : hitStartTime: 0, hitEndTime: 8, hitPeakADC: 77, hitPeakTime: 0, hitSumADC: 499, hitFlags: 0, hitContinues: 0
, Hit Header: 
crate: 21, fibre: 2, wireIndex: 192, slot: 2, flags: 0, tstamp: 6148914691236518805, median: 0, accumulator: 0

Hit Payload: 
0 : hitStartTime: 0, hitEndTime: 8, hitPeakADC: 77, hitPeakTime: 0, hitSumADC: 499, hitFlags: 0, hitContinues: 0
, Hit Header: 
crate: 21, fibre: 2, wireIndex: 196, slot: 2, flags: 0, tstamp: 6148914691236518805, median: 0, accumulator: 0

Hit Payload: 
0 : hitStartTime: 0, hitEndTime: 8, hitPeakADC: 77, hitPeakTime: 0, hitSumADC: 499, hitFlags: 0, hitContinues: 0
, Hit Header: 
crate: 21, fibre: 2, wireIndex: 200, slot: 2, flags: 0, tstamp: 6148914691236518805, median: 0, accumulator: 0

Hit Payload: 
0 : hitStartTime: 0, hitEndTime: 8, hitPeakADC: 77, hitPeakTime: 0, hitSumADC: 499, hitFlags: 0, hitContinues: 0
, Hit Header: 
crate: 21, fibre: 2, wireIndex: 204, slot: 2, flags: 0, tstamp: 6148914691236518805, median: 0, accumulator: 0

Hit Payload: 
0 : hitStartTime: 0, hitEndTime: 8, hitPeakADC: 77, hitPeakTime: 0, hitSumADC: 499, hitFlags: 0, hitContinues: 0
, Hit Header: 
crate: 21, fibre: 2, wireIndex: 208, slot: 2, flags: 0, tstamp: 6148914691236518805, median: 0, accumulator: 0

Hit Payload: 
0 : hitStartTime: 0, hitEndTime: 8, hitPeakADC: 77, hitPeakTime: 0, hitSumADC: 499, hitFlags: 0, hitContinues: 0
, Hit Header: 
crate: 21, fibre: 2, wireIndex: 212, slot: 2, flags: 0, tstamp: 6148914691236518805, median: 0, accumulator: 0

Hit Payload: 
0 : hitStartTime: 0, hitEndTime: 8, hitPeakADC: 77, hitPeakTime: 0, hitSumADC: 499, hitFlags: 0, hitContinues: 0
, Hit Header: 
crate: 21, fibre: 2, wireIndex: 216, slot: 2, flags: 0, tstamp: 6148914691236518805, median: 0, accumulator: 0

Hit Payload: 
0 : hitStartTime: 0, hitEndTime: 8, hitPeakADC: 77, hitPeakTime: 0, hitSumADC: 499, hitFlags: 0, hitContinues: 0
, Hit Header: 
crate: 21, fibre: 2, wireIndex: 220, slot: 2, flags: 0, tstamp: 6148914691236518805, median: 0, accumulator: 0

Hit Payload: 
0 : hitStartTime: 0, hitEndTime: 8, hitPeakADC: 77, hitPeakTime: 0, hitSumADC: 499, hitFlags: 0, hitContinues: 0
, Hit Header: 
crate: 21, fibre: 2, wireIndex: 224, slot: 2, flags: 0, tstamp: 6148914691236518805, median: 0, accumulator: 0

Hit Payload: 
0 : hitStartTime: 0, hitEndTime: 8, hitPeakADC: 77, hitPeakTime: 0, hitSumADC: 499, hitFlags: 0, hitContinues: 0
, Hit Header: 
crate: 21, fibre: 2, wireIndex: 228, slot: 2, flags: 0, tstamp: 6148914691236518805, median: 0, accumulator: 0

Hit Payload: 
0 : hitStartTime: 0, hitEndTime: 8, hitPeakADC: 77, hitPeakTime: 0, hitSumADC: 499, hitFlags: 0, hitContinues: 0
, Hit Header: 
crate: 21, fibre: 2, wireIndex: 232, slot: 2, flags: 0, tstamp: 6148914691236518805, median: 0, accumulator: 0

Hit Payload: 
0 : hitStartTime: 0, hitEndTime: 8, hitPeakADC: 77, hitPeakTime: 0, hitSumADC: 499, hitFlags: 0, hitContinues: 0
, Hit Header: 
crate: 21, fibre: 2, wireIndex: 236, slot: 2, flags: 0, tstamp: 6148914691236518805, median: 0, accumulator: 0

Hit Payload: 
0 : hitStartTime: 0, hitEndTime: 8, hitPeakADC: 77, hitPeakTime: 0, hitSumADC: 499, hitFlags: 0, hitContinues: 0
, Hit Header: 
crate: 21, fibre: 2, wireIndex: 240, slot: 2, flags: 0, tstamp: 6148914691236518805, median: 0, accumulator: 0

Hit Payload: 
0 : hitStartTime: 0, hitEndTime: 8, hitPeakADC: 77, hitPeakTime: 0, hitSumADC: 499, hitFlags: 0, hitContinues: 0
, Hit Header: 
crate: 21, fibre: 2, wireIndex: 244, slot: 2, flags: 0, tstamp: 6148914691236518805, median: 0, accumulator: 0

Hit Payload: 
0 : hitStartTime: 0, hitEndTime: 8, hitPeakADC: 77, hitPeakTime: 0, hitSumADC: 499, hitFlags: 0, hitContinues: 0
, Hit Header: 
crate: 21, fibre: 2, wireIndex: 248, slot: 2, flags: 0, tstamp: 6148914691236518805, median: 0, accumulator: 0

Hit Payload: 
0 : hitStartTime: 0, hitEndTime: 8, hitPeakADC: 77, hitPeakTime: 0, hitSumADC: 499, hitFlags: 0, hitContinues: 0
, Hit Header: 
crate: 21, fibre: 2, wireIndex: 252, slot: 2, flags: 0, tstamp: 6148914691236518805, median: 0, accumulator: 0

Hit Payload: 
0 : hitStartTime: 0, hitEndTime: 8, hitPeakADC: 77, hitPeakTime: 0, hitSumADC: 499, hitFlags: 0, hitContinues: 0
]
