[Hit Header: 
crate: 21, fibre: 2, wireIndex: 2, slot: 2, flags: 0, tstamp: 6148914691236517205, median: 0, accumulator: 0

Hit Payload: 
0 : hitStartTime: 50, hitEndTime: 63, hitPeakADC: 121, hitPeakTime: 61, hitSumADC: 1196, hitFlags: 0, hitContinues: 1
, Hit Header: 
crate: 21, fibre: 2, wireIndex: 6, slot: 2, flags: 0, tstamp: 6148914691236517205, median: 0, accumulator: 0

Hit Payload: 
0 : hitStartTime: 56, hitEndTime: 63, hitPeakADC: 77, hitPeakTime: 63, hitSumADC: 420, hitFlags: 0, hitContinues: 1
, Hit Header: 
crate: 21, fibre: 2, wireIndex: 10, slot: 2, flags: 0, tstamp: 6148914691236517205, median: 0, accumulator: 0

Hit Payload: 
0 : hitStartTime: 0, hitEndTime: 27, hitPeakADC: 114, hitPeakTime: 0, hitSumADC: 2621, hitFlags: 0, hitContinues: 0
, Hit Header: 
crate: 21, fibre: 2, wireIndex: 14, slot: 2, flags: 0, tstamp: 6148914691236517205, median: 0, accumulator: 0

Hit Payload: 
0 : hitStartTime: 14, hitEndTime: 38, hitPeakADC: 146, hitPeakTime: 27, hitSumADC: 2163, hitFlags: 0, hitContinues: 0
, Hit Header: 
crate: 21, fibre: 2, wireIndex: 18, slot: 2, flags: 0, tstamp: 6148914691236517205, median: 0, accumulator: 0

Hit Payload: 
0 : hitStartTime: 54, hitEndTime: 63, hitPeakADC: 83, hitPeakTime: 63, hitSumADC: 545, hitFlags: 0, hitContinues: 1
, Hit Header: 
crate: 21, fibre: 2, wireIndex: 22, slot: 2, flags: 0, tstamp: 6148914691236517205, median: 0, accumulator: 0

Hit Payload: 

, Hit Header: 
crate: 21, fibre: 2, wireIndex: 26, slot: 2, flags: 0, tstamp: 6148914691236517205, median: 0, accumulator: 0

Hit Payload: 
0 : hitStartTime: 57, hitEndTime: 63, hitPeakADC: 85, hitPeakTime: 63, hitSumADC: 374, hitFlags: 0, hitContinues: 1
, Hit Header: 
crate: 21, fibre: 2, wireIndex: 30, slot: 2, flags: 0, tstamp: 6148914691236517205, median: 0, accumulator: 0

Hit Payload: 

, Hit Header: 
crate: 21, fibre: 2, wireIndex: 34, slot: 2, flags: 0, tstamp: 6148914691236517205, median: 0, accumulator: 0

Hit Payload: 
0 : hitStartTime: 24, hitEndTime: 46, hitPeakADC: 114, hitPeakTime: 35, hitSumADC: 1633, hitFlags: 0, hitContinues: 0
, Hit Header: 
crate: 21, fibre: 2, wireIndex: 38, slot: 2, flags: 0, tstamp: 6148914691236517205, median: 0, accumulator: 0

Hit Payload: 
0 : hitStartTime: 56, hitEndTime: 63, hitPeakADC: 103, hitPeakTime: 63, hitSumADC: 518, hitFlags: 0, hitContinues: 1
, Hit Header: 
crate: 21, fibre: 2, wireIndex: 42, slot: 2, flags: 0, tstamp: 6148914691236517205, median: 0, accumulator: 0

Hit Payload: 
0 : hitStartTime: 45, hitEndTime: 63, hitPeakADC: 86, hitPeakTime: 54, hitSumADC: 1159, hitFlags: 0, hitContinues: 1
, Hit Header: 
crate: 21, fibre: 2, wireIndex: 46, slot: 2, flags: 0, tstamp: 6148914691236517205, median: 0, accumulator: 0

Hit Payload: 

, Hit Header: 
crate: 21, fibre: 2, wireIndex: 50, slot: 2, flags: 0, tstamp: 6148914691236517205, median: 0, accumulator: 0

Hit Payload: 
0 : hitStartTime: 0, hitEndTime: 29, hitPeakADC: 147, hitPeakTime: 14, hitSumADC: 3668, hitFlags: 0, hitContinues: 0
, Hit Header: 
crate: 21, fibre: 2, wireIndex: 54, slot: 2, flags: 0, tstamp: 6148914691236517205, median: 0, accumulator: 0

Hit Payload: 

, Hit Header: 
crate: 21, fibre: 2, wireIndex: 58, slot: 2, flags: 0, tstamp: 6148914691236517205, median: 0, accumulator: 0

Hit Payload: 
0 : hitStartTime: 0, hitEndTime: 37, hitPeakADC: 152, hitPeakTime: 26, hitSumADC: 2610, hitFlags: 0, hitContinues: 0
, Hit Header: 
crate: 21, fibre: 2, wireIndex: 62, slot: 2, flags: 0, tstamp: 6148914691236517205, median: 0, accumulator: 0

Hit Payload: 
0 : hitStartTime: 30, hitEndTime: 51, hitPeakADC: 121, hitPeakTime: 41, hitSumADC: 1730, hitFlags: 0, hitContinues: 0
, Hit Header: 
crate: 21, fibre: 2, wireIndex: 66, slot: 2, flags: 0, tstamp: 6148914691236517205, median: 0, accumulator: 0

Hit Payload: 
0 : hitStartTime: 59, hitEndTime: 63, hitPeakADC: 59, hitPeakTime: 63, hitSumADC: 192, hitFlags: 0, hitContinues: 1
, Hit Header: 
crate: 21, fibre: 2, wireIndex: 70, slot: 2, flags: 0, tstamp: 6148914691236517205, median: 0, accumulator: 0

Hit Payload: 
0 : hitStartTime: 30, hitEndTime: 50, hitPeakADC: 92, hitPeakTime: 40, hitSumADC: 1282, hitFlags: 0, hitContinues: 0
, Hit Header: 
crate: 21, fibre: 2, wireIndex: 74, slot: 2, flags: 0, tstamp: 6148914691236517205, median: 0, accumulator: 0

Hit Payload: 
0 : hitStartTime: 0, hitEndTime: 30, hitPeakADC: 129, hitPeakTime: 18, hitSumADC: 3184, hitFlags: 0, hitContinues: 0
, Hit Header: 
crate: 21, fibre: 2, wireIndex: 78, slot: 2, flags: 0, tstamp: 6148914691236517205, median: 0, accumulator: 0

Hit Payload: 
0 : hitStartTime: 35, hitEndTime: 56, hitPeakADC: 117, hitPeakTime: 45, hitSumADC: 1666, hitFlags: 0, hitContinues: 0
, Hit Header: 
crate: 21, fibre: 2, wireIndex: 82, slot: 2, flags: 0, tstamp: 6148914691236517205, median: 0, accumulator: 0

Hit Payload: 
0 : hitStartTime: 49, hitEndTime: 63, hitPeakADC: 97, hitPeakTime: 59, hitSumADC: 1078, hitFlags: 0, hitContinues: 1
, Hit Header: 
crate: 21, fibre: 2, wireIndex: 86, slot: 2, flags: 0, tstamp: 6148914691236517205, median: 0, accumulator: 0

Hit Payload: 

, Hit Header: 
crate: 21, fibre: 2, wireIndex: 90, slot: 2, flags: 0, tstamp: 6148914691236517205, median: 0, accumulator: 0

Hit Payload: 
0 : hitStartTime: 26, hitEndTime: 46, hitPeakADC: 93, hitPeakTime: 36, hitSumADC: 1304, hitFlags: 0, hitContinues: 0
, Hit Header: 
crate: 21, fibre: 2, wireIndex: 94, slot: 2, flags: 0, tstamp: 6148914691236517205, median: 0, accumulator: 0

Hit Payload: 
0 : hitStartTime: 17, hitEndTime: 37, hitPeakADC: 95, hitPeakTime: 27, hitSumADC: 1339, hitFlags: 0, hitContinues: 0
, Hit Header: 
crate: 21, fibre: 2, wireIndex: 98, slot: 2, flags: 0, tstamp: 6148914691236517205, median: 0, accumulator: 0

Hit Payload: 
0 : hitStartTime: 35, hitEndTime: 58, hitPeakADC: 131, hitPeakTime: 47, hitSumADC: 1910, hitFlags: 0, hitContinues: 0
, Hit Header: 
crate: 21, fibre: 2, wireIndex: 102, slot: 2, flags: 0, tstamp: 6148914691236517205, median: 0, accumulator: 0

Hit Payload: 
0 : hitStartTime: 15, hitEndTime: 37, hitPeakADC: 112, hitPeakTime: 26, hitSumADC: 1625, hitFlags: 0, hitContinues: 0
, Hit Header: 
crate: 21, fibre: 2, wireIndex: 106, slot: 2, flags: 0, tstamp: 6148914691236517205, median: 0, accumulator: 0

Hit Payload: 
0 : hitStartTime: 54, hitEndTime: 63, hitPeakADC: 90, hitPeakTime: 63, hitSumADC: 609, hitFlags: 0, hitContinues: 1
, Hit Header: 
crate: 21, fibre: 2, wireIndex: 110, slot: 2, flags: 0, tstamp: 6148914691236517205, median: 0, accumulator: 0

Hit Payload: 
0 : hitStartTime: 14, hitEndTime: 37, hitPeakADC: 127, hitPeakTime: 26, hitSumADC: 1870, hitFlags: 0, hitContinues: 0
, Hit Header: 
crate: 21, fibre: 2, wireIndex: 114, slot: 2, flags: 0, tstamp: 6148914691236517205, median: 0, accumulator: 0

Hit Payload: 
0 : hitStartTime: 50, hitEndTime: 63, hitPeakADC: 92, hitPeakTime: 60, hitSumADC: 936, hitFlags: 0, hitContinues: 1
, Hit Header: 
crate: 21, fibre: 2, wireIndex: 118, slot: 2, flags: 0, tstamp: 6148914691236517205, median: 0, accumulator: 0

Hit Payload: 
0 : hitStartTime: 36, hitEndTime: 58, hitPeakADC: 145, hitPeakTime: 47, hitSumADC: 2094, hitFlags: 0, hitContinues: 0
, Hit Header: 
crate: 21, fibre: 2, wireIndex: 122, slot: 2, flags: 0, tstamp: 6148914691236517205, median: 0, accumulator: 0

Hit Payload: 
0 : hitStartTime: 22, hitEndTime: 45, hitPeakADC: 133, hitPeakTime: 34, hitSumADC: 1940, hitFlags: 0, hitContinues: 0
, Hit Header: 
crate: 21, fibre: 2, wireIndex: 126, slot: 2, flags: 0, tstamp: 6148914691236517205, median: 0, accumulator: 0

Hit Payload: 
0 : hitStartTime: 0, hitEndTime: 29, hitPeakADC: 135, hitPeakTime: 13, hitSumADC: 3348, hitFlags: 0, hitContinues: 0
, Hit Header: 
crate: 21, fibre: 2, wireIndex: 130, slot: 2, flags: 0, tstamp: 6148914691236517205, median: 0, accumulator: 0

Hit Payload: 

, Hit Header: 
crate: 21, fibre: 2, wireIndex: 134, slot: 2, flags: 0, tstamp: 6148914691236517205, median: 0, accumulator: 0

Hit Payload: 
0 : hitStartTime: 25, hitEndTime: 47, hitPeakADC: 130, hitPeakTime: 36, hitSumADC: 1875, hitFlags: 0, hitContinues: 0
, Hit Header: 
crate: 21, fibre: 2, wireIndex: 138, slot: 2, flags: 0, tstamp: 6148914691236517205, median: 0, accumulator: 0

Hit Payload: 
0 : hitStartTime: 53, hitEndTime: 63, hitPeakADC: 116, hitPeakTime: 63, hitSumADC: 820, hitFlags: 0, hitContinues: 1
, Hit Header: 
crate: 21, fibre: 2, wireIndex: 142, slot: 2, flags: 0, tstamp: 6148914691236517205, median: 0, accumulator: 0

Hit Payload: 
0 : hitStartTime: 26, hitEndTime: 48, hitPeakADC: 136, hitPeakTime: 37, hitSumADC: 1960, hitFlags: 0, hitContinues: 0
, Hit Header: 
crate: 21, fibre: 2, wireIndex: 146, slot: 2, flags: 0, tstamp: 6148914691236517205, median: 0, accumulator: 0

Hit Payload: 
0 : hitStartTime: 45, hitEndTime: 63, hitPeakADC: 106, hitPeakTime: 56, hitSumADC: 1411, hitFlags: 0, hitContinues: 1
, Hit Header: 
crate: 21, fibre: 2, wireIndex: 150, slot: 2, flags: 0, tstamp: 6148914691236517205, median: 0, accumulator: 0

Hit Payload: 
0 : hitStartTime: 14, hitEndTime: 38, hitPeakADC: 139, hitPeakTime: 27, hitSumADC: 2070, hitFlags: 0, hitContinues: 0
, Hit Header: 
crate: 21, fibre: 2, wireIndex: 154, slot: 2, flags: 0, tstamp: 6148914691236517205, median: 0, accumulator: 0

Hit Payload: 

, Hit Header: 
crate: 21, fibre: 2, wireIndex: 158, slot: 2, flags: 0, tstamp: 6148914691236517205, median: 0, accumulator: 0

Hit Payload: 
0 : hitStartTime: 16, hitEndTime: 39, hitPeakADC: 141, hitPeakTime: 28, hitSumADC: 2057, hitFlags: 0, hitContinues: 0
, Hit Header: 
crate: 21, fibre: 2, wireIndex: 162, slot: 2, flags: 0, tstamp: 6148914691236517205, median: 0, accumulator: 0

Hit Payload: 
0 : hitStartTime: 35, hitEndTime: 57, hitPeakADC: 132, hitPeakTime: 46, hitSumADC: 1902, hitFlags: 0, hitContinues: 0
, Hit Header: 
crate: 21, fibre: 2, wireIndex: 166, slot: 2, flags: 0, tstamp: 6148914691236517205, median: 0, accumulator: 0

Hit Payload: 
0 : hitStartTime: 11, hitEndTime: 37, hitPeakADC: 150, hitPeakTime: 26, hitSumADC: 2295, hitFlags: 0, hitContinues: 0
, Hit Header: 
crate: 21, fibre: 2, wireIndex: 170, slot: 2, flags: 0, tstamp: 6148914691236517205, median: 0, accumulator: 0

Hit Payload: 
0 : hitStartTime: 61, hitEndTime: 63, hitPeakADC: 44, hitPeakTime: 63, hitSumADC: 103, hitFlags: 0, hitContinues: 1
, Hit Header: 
crate: 21, fibre: 2, wireIndex: 174, slot: 2, flags: 0, tstamp: 6148914691236517205, median: 0, accumulator: 0

Hit Payload: 
0 : hitStartTime: 21, hitEndTime: 44, hitPeakADC: 141, hitPeakTime: 32, hitSumADC: 2063, hitFlags: 0, hitContinues: 0
, Hit Header: 
crate: 21, fibre: 2, wireIndex: 178, slot: 2, flags: 0, tstamp: 6148914691236517205, median: 0, accumulator: 0

Hit Payload: 
0 : hitStartTime: 22, hitEndTime: 45, hitPeakADC: 153, hitPeakTime: 34, hitSumADC: 2233, hitFlags: 0, hitContinues: 0
, Hit Header: 
crate: 21, fibre: 2, wireIndex: 182, slot: 2, flags: 0, tstamp: 6148914691236517205, median: 0, accumulator: 0

Hit Payload: 
0 : hitStartTime: 61, hitEndTime: 63, hitPeakADC: 43, hitPeakTime: 63, hitSumADC: 99, hitFlags: 0, hitContinues: 1
, Hit Header: 
crate: 21, fibre: 2, wireIndex: 186, slot: 2, flags: 0, tstamp: 6148914691236517205, median: 0, accumulator: 0

Hit Payload: 
0 : hitStartTime: 40, hitEndTime: 61, hitPeakADC: 110, hitPeakTime: 50, hitSumADC: 1570, hitFlags: 0, hitContinues: 0
, Hit Header: 
crate: 21, fibre: 2, wireIndex: 190, slot: 2, flags: 0, tstamp: 6148914691236517205, median: 0, accumulator: 0

Hit Payload: 
0 : hitStartTime: 21, hitEndTime: 42, hitPeakADC: 120, hitPeakTime: 31, hitSumADC: 1715, hitFlags: 0, hitContinues: 0
, Hit Header: 
crate: 21, fibre: 2, wireIndex: 194, slot: 2, flags: 0, tstamp: 6148914691236517205, median: 0, accumulator: 0

Hit Payload: 
0 : hitStartTime: 0, hitEndTime: 33, hitPeakADC: 150, hitPeakTime: 21, hitSumADC: 3348, hitFlags: 0, hitContinues: 0
, Hit Header: 
crate: 21, fibre: 2, wireIndex: 198, slot: 2, flags: 0, tstamp: 6148914691236517205, median: 0, accumulator: 0

Hit Payload: 

, Hit Header: 
crate: 21, fibre: 2, wireIndex: 202, slot: 2, flags: 0, tstamp: 6148914691236517205, median: 0, accumulator: 0

Hit Payload: 
0 : hitStartTime: 16, hitEndTime: 39, hitPeakADC: 145, hitPeakTime: 27, hitSumADC: 2132, hitFlags: 0, hitContinues: 0
, Hit Header: 
crate: 21, fibre: 2, wireIndex: 206, slot: 2, flags: 0, tstamp: 6148914691236517205, median: 0, accumulator: 0

Hit Payload: 
0 : hitStartTime: 28, hitEndTime: 49, hitPeakADC: 117, hitPeakTime: 39, hitSumADC: 1666, hitFlags: 0, hitContinues: 0
, Hit Header: 
crate: 21, fibre: 2, wireIndex: 210, slot: 2, flags: 0, tstamp: 6148914691236517205, median: 0, accumulator: 0

Hit Payload: 
0 : hitStartTime: 48, hitEndTime: 63, hitPeakADC: 139, hitPeakTime: 60, hitSumADC: 1519, hitFlags: 0, hitContinues: 1
, Hit Header: 
crate: 21, fibre: 2, wireIndex: 214, slot: 2, flags: 0, tstamp: 6148914691236517205, median: 0, accumulator: 0

Hit Payload: 
0 : hitStartTime: 37, hitEndTime: 56, hitPeakADC: 89, hitPeakTime: 46, hitSumADC: 1226, hitFlags: 0, hitContinues: 0
, Hit Header: 
crate: 21, fibre: 2, wireIndex: 218, slot: 2, flags: 0, tstamp: 6148914691236517205, median: 0, accumulator: 0

Hit Payload: 
0 : hitStartTime: 24, hitEndTime: 42, hitPeakADC: 78, hitPeakTime: 33, hitSumADC: 1044, hitFlags: 0, hitContinues: 0
, Hit Header: 
crate: 21, fibre: 2, wireIndex: 222, slot: 2, flags: 0, tstamp: 6148914691236517205, median: 0, accumulator: 0

Hit Payload: 
0 : hitStartTime: 54, hitEndTime: 63, hitPeakADC: 128, hitPeakTime: 63, hitSumADC: 720, hitFlags: 0, hitContinues: 1
, Hit Header: 
crate: 21, fibre: 2, wireIndex: 226, slot: 2, flags: 0, tstamp: 6148914691236517205, median: 0, accumulator: 0

Hit Payload: 
0 : hitStartTime: 43, hitEndTime: 62, hitPeakADC: 87, hitPeakTime: 52, hitSumADC: 1195, hitFlags: 0, hitContinues: 0
, Hit Header: 
crate: 21, fibre: 2, wireIndex: 230, slot: 2, flags: 0, tstamp: 6148914691236517205, median: 0, accumulator: 0

Hit Payload: 
0 : hitStartTime: 41, hitEndTime: 63, hitPeakADC: 139, hitPeakTime: 53, hitSumADC: 2009, hitFlags: 0, hitContinues: 1
, Hit Header: 
crate: 21, fibre: 2, wireIndex: 234, slot: 2, flags: 0, tstamp: 6148914691236517205, median: 0, accumulator: 0

Hit Payload: 
0 : hitStartTime: 37, hitEndTime: 60, hitPeakADC: 152, hitPeakTime: 49, hitSumADC: 2215, hitFlags: 0, hitContinues: 0
, Hit Header: 
crate: 21, fibre: 2, wireIndex: 238, slot: 2, flags: 0, tstamp: 6148914691236517205, median: 0, accumulator: 0

Hit Payload: 
0 : hitStartTime: 0, hitEndTime: 34, hitPeakADC: 103, hitPeakTime: 24, hitSumADC: 1950, hitFlags: 0, hitContinues: 0
, Hit Header: 
crate: 21, fibre: 2, wireIndex: 242, slot: 2, flags: 0, tstamp: 6148914691236517205, median: 0, accumulator: 0

Hit Payload: 
0 : hitStartTime: 55, hitEndTime: 63, hitPeakADC: 87, hitPeakTime: 63, hitSumADC: 489, hitFlags: 0, hitContinues: 1
, Hit Header: 
crate: 21, fibre: 2, wireIndex: 246, slot: 2, flags: 0, tstamp: 6148914691236517205, median: 0, accumulator: 0

Hit Payload: 

, Hit Header: 
crate: 21, fibre: 2, wireIndex: 250, slot: 2, flags: 0, tstamp: 6148914691236517205, median: 0, accumulator: 0

Hit Payload: 
0 : hitStartTime: 0, hitEndTime: 33, hitPeakADC: 130, hitPeakTime: 22, hitSumADC: 2828, hitFlags: 0, hitContinues: 0
, Hit Header: 
crate: 21, fibre: 2, wireIndex: 254, slot: 2, flags: 0, tstamp: 6148914691236517205, median: 0, accumulator: 0

Hit Payload: 
0 : hitStartTime: 19, hitEndTime: 40, hitPeakADC: 114, hitPeakTime: 30, hitSumADC: 1623, hitFlags: 0, hitContinues: 0
]
