IRH axi4s infile ->  /home/ppd/lmo86446/private/test/22/FixedHits_D_eop8_hf_eop_axi4s.3.txt
IRH glob ->  [u'/home/ppd/lmo86446/private/test/22/FixedHits_D_eop8_hf_eop_axi4s.3.txt']
IRH axi4s filename ->  /home/ppd/lmo86446/private/test/22/FixedHits_D_eop8_hf_eop_axi4s.3.txt
[Hit Header: 
crate: 21, fibre: 2, wireIndex: 3, slot: 2, flags: 0, tstamp: 6148914691236517205, median: 0, accumulator: 0

Hit Payload: 

, Hit Header: 
crate: 21, fibre: 2, wireIndex: 7, slot: 2, flags: 0, tstamp: 6148914691236517205, median: 0, accumulator: 0

Hit Payload: 

, Hit Header: 
crate: 21, fibre: 2, wireIndex: 11, slot: 2, flags: 0, tstamp: 6148914691236517205, median: 0, accumulator: 0

Hit Payload: 

, Hit Header: 
crate: 21, fibre: 2, wireIndex: 15, slot: 2, flags: 0, tstamp: 6148914691236517205, median: 0, accumulator: 0

Hit Payload: 

, Hit Header: 
crate: 21, fibre: 2, wireIndex: 19, slot: 2, flags: 0, tstamp: 6148914691236517205, median: 0, accumulator: 0

Hit Payload: 

, Hit Header: 
crate: 21, fibre: 2, wireIndex: 23, slot: 2, flags: 0, tstamp: 6148914691236517205, median: 0, accumulator: 0

Hit Payload: 

, Hit Header: 
crate: 21, fibre: 2, wireIndex: 27, slot: 2, flags: 0, tstamp: 6148914691236517205, median: 0, accumulator: 0

Hit Payload: 

, Hit Header: 
crate: 21, fibre: 2, wireIndex: 31, slot: 2, flags: 0, tstamp: 6148914691236517205, median: 0, accumulator: 0

Hit Payload: 

, Hit Header: 
crate: 21, fibre: 2, wireIndex: 35, slot: 2, flags: 0, tstamp: 6148914691236517205, median: 0, accumulator: 0

Hit Payload: 

, Hit Header: 
crate: 21, fibre: 2, wireIndex: 39, slot: 2, flags: 0, tstamp: 6148914691236517205, median: 0, accumulator: 0

Hit Payload: 

, Hit Header: 
crate: 21, fibre: 2, wireIndex: 43, slot: 2, flags: 0, tstamp: 6148914691236517205, median: 0, accumulator: 0

Hit Payload: 

, Hit Header: 
crate: 21, fibre: 2, wireIndex: 47, slot: 2, flags: 0, tstamp: 6148914691236517205, median: 0, accumulator: 0

Hit Payload: 

, Hit Header: 
crate: 21, fibre: 2, wireIndex: 51, slot: 2, flags: 0, tstamp: 6148914691236517205, median: 0, accumulator: 0

Hit Payload: 

, Hit Header: 
crate: 21, fibre: 2, wireIndex: 55, slot: 2, flags: 0, tstamp: 6148914691236517205, median: 0, accumulator: 0

Hit Payload: 

, Hit Header: 
crate: 21, fibre: 2, wireIndex: 59, slot: 2, flags: 0, tstamp: 6148914691236517205, median: 0, accumulator: 0

Hit Payload: 

, Hit Header: 
crate: 21, fibre: 2, wireIndex: 63, slot: 2, flags: 0, tstamp: 6148914691236517205, median: 0, accumulator: 0

Hit Payload: 

, Hit Header: 
crate: 21, fibre: 2, wireIndex: 67, slot: 2, flags: 0, tstamp: 6148914691236517205, median: 0, accumulator: 0

Hit Payload: 

, Hit Header: 
crate: 21, fibre: 2, wireIndex: 71, slot: 2, flags: 0, tstamp: 6148914691236517205, median: 0, accumulator: 0

Hit Payload: 

, Hit Header: 
crate: 21, fibre: 2, wireIndex: 75, slot: 2, flags: 0, tstamp: 6148914691236517205, median: 0, accumulator: 0

Hit Payload: 

, Hit Header: 
crate: 21, fibre: 2, wireIndex: 79, slot: 2, flags: 0, tstamp: 6148914691236517205, median: 0, accumulator: 0

Hit Payload: 

, Hit Header: 
crate: 21, fibre: 2, wireIndex: 83, slot: 2, flags: 0, tstamp: 6148914691236517205, median: 0, accumulator: 0

Hit Payload: 

, Hit Header: 
crate: 21, fibre: 2, wireIndex: 87, slot: 2, flags: 0, tstamp: 6148914691236517205, median: 0, accumulator: 0

Hit Payload: 

, Hit Header: 
crate: 21, fibre: 2, wireIndex: 91, slot: 2, flags: 0, tstamp: 6148914691236517205, median: 0, accumulator: 0

Hit Payload: 

, Hit Header: 
crate: 21, fibre: 2, wireIndex: 95, slot: 2, flags: 0, tstamp: 6148914691236517205, median: 0, accumulator: 0

Hit Payload: 

, Hit Header: 
crate: 21, fibre: 2, wireIndex: 99, slot: 2, flags: 0, tstamp: 6148914691236517205, median: 0, accumulator: 0

Hit Payload: 

, Hit Header: 
crate: 21, fibre: 2, wireIndex: 103, slot: 2, flags: 0, tstamp: 6148914691236517205, median: 0, accumulator: 0

Hit Payload: 

, Hit Header: 
crate: 21, fibre: 2, wireIndex: 107, slot: 2, flags: 0, tstamp: 6148914691236517205, median: 0, accumulator: 0

Hit Payload: 

, Hit Header: 
crate: 21, fibre: 2, wireIndex: 111, slot: 2, flags: 0, tstamp: 6148914691236517205, median: 0, accumulator: 0

Hit Payload: 

, Hit Header: 
crate: 21, fibre: 2, wireIndex: 115, slot: 2, flags: 0, tstamp: 6148914691236517205, median: 0, accumulator: 0

Hit Payload: 

, Hit Header: 
crate: 21, fibre: 2, wireIndex: 119, slot: 2, flags: 0, tstamp: 6148914691236517205, median: 0, accumulator: 0

Hit Payload: 

, Hit Header: 
crate: 21, fibre: 2, wireIndex: 123, slot: 2, flags: 0, tstamp: 6148914691236517205, median: 0, accumulator: 0

Hit Payload: 

, Hit Header: 
crate: 21, fibre: 2, wireIndex: 127, slot: 2, flags: 0, tstamp: 6148914691236517205, median: 0, accumulator: 0

Hit Payload: 

, Hit Header: 
crate: 21, fibre: 2, wireIndex: 131, slot: 2, flags: 0, tstamp: 6148914691236517205, median: 0, accumulator: 0

Hit Payload: 

, Hit Header: 
crate: 21, fibre: 2, wireIndex: 135, slot: 2, flags: 0, tstamp: 6148914691236517205, median: 0, accumulator: 0

Hit Payload: 

, Hit Header: 
crate: 21, fibre: 2, wireIndex: 139, slot: 2, flags: 0, tstamp: 6148914691236517205, median: 0, accumulator: 0

Hit Payload: 

, Hit Header: 
crate: 21, fibre: 2, wireIndex: 143, slot: 2, flags: 0, tstamp: 6148914691236517205, median: 0, accumulator: 0

Hit Payload: 

, Hit Header: 
crate: 21, fibre: 2, wireIndex: 147, slot: 2, flags: 0, tstamp: 6148914691236517205, median: 0, accumulator: 0

Hit Payload: 

, Hit Header: 
crate: 21, fibre: 2, wireIndex: 151, slot: 2, flags: 0, tstamp: 6148914691236517205, median: 0, accumulator: 0

Hit Payload: 

, Hit Header: 
crate: 21, fibre: 2, wireIndex: 155, slot: 2, flags: 0, tstamp: 6148914691236517205, median: 0, accumulator: 0

Hit Payload: 

, Hit Header: 
crate: 21, fibre: 2, wireIndex: 159, slot: 2, flags: 0, tstamp: 6148914691236517205, median: 0, accumulator: 0

Hit Payload: 

, Hit Header: 
crate: 21, fibre: 2, wireIndex: 163, slot: 2, flags: 0, tstamp: 6148914691236517205, median: 0, accumulator: 0

Hit Payload: 

, Hit Header: 
crate: 21, fibre: 2, wireIndex: 167, slot: 2, flags: 0, tstamp: 6148914691236517205, median: 0, accumulator: 0

Hit Payload: 

, Hit Header: 
crate: 21, fibre: 2, wireIndex: 171, slot: 2, flags: 0, tstamp: 6148914691236517205, median: 0, accumulator: 0

Hit Payload: 

, Hit Header: 
crate: 21, fibre: 2, wireIndex: 175, slot: 2, flags: 0, tstamp: 6148914691236517205, median: 0, accumulator: 0

Hit Payload: 

, Hit Header: 
crate: 21, fibre: 2, wireIndex: 179, slot: 2, flags: 0, tstamp: 6148914691236517205, median: 0, accumulator: 0

Hit Payload: 

, Hit Header: 
crate: 21, fibre: 2, wireIndex: 183, slot: 2, flags: 0, tstamp: 6148914691236517205, median: 0, accumulator: 0

Hit Payload: 

, Hit Header: 
crate: 21, fibre: 2, wireIndex: 187, slot: 2, flags: 0, tstamp: 6148914691236517205, median: 0, accumulator: 0

Hit Payload: 

, Hit Header: 
crate: 21, fibre: 2, wireIndex: 191, slot: 2, flags: 0, tstamp: 6148914691236517205, median: 0, accumulator: 0

Hit Payload: 

, Hit Header: 
crate: 21, fibre: 2, wireIndex: 195, slot: 2, flags: 0, tstamp: 6148914691236517205, median: 0, accumulator: 0

Hit Payload: 

, Hit Header: 
crate: 21, fibre: 2, wireIndex: 199, slot: 2, flags: 0, tstamp: 6148914691236517205, median: 0, accumulator: 0

Hit Payload: 

, Hit Header: 
crate: 21, fibre: 2, wireIndex: 203, slot: 2, flags: 0, tstamp: 6148914691236517205, median: 0, accumulator: 0

Hit Payload: 

, Hit Header: 
crate: 21, fibre: 2, wireIndex: 207, slot: 2, flags: 0, tstamp: 6148914691236517205, median: 0, accumulator: 0

Hit Payload: 

, Hit Header: 
crate: 21, fibre: 2, wireIndex: 211, slot: 2, flags: 0, tstamp: 6148914691236517205, median: 0, accumulator: 0

Hit Payload: 

, Hit Header: 
crate: 21, fibre: 2, wireIndex: 215, slot: 2, flags: 0, tstamp: 6148914691236517205, median: 0, accumulator: 0

Hit Payload: 

, Hit Header: 
crate: 21, fibre: 2, wireIndex: 219, slot: 2, flags: 0, tstamp: 6148914691236517205, median: 0, accumulator: 0

Hit Payload: 

, Hit Header: 
crate: 21, fibre: 2, wireIndex: 223, slot: 2, flags: 0, tstamp: 6148914691236517205, median: 0, accumulator: 0

Hit Payload: 

, Hit Header: 
crate: 21, fibre: 2, wireIndex: 227, slot: 2, flags: 0, tstamp: 6148914691236517205, median: 0, accumulator: 0

Hit Payload: 

, Hit Header: 
crate: 21, fibre: 2, wireIndex: 231, slot: 2, flags: 0, tstamp: 6148914691236517205, median: 0, accumulator: 0

Hit Payload: 

, Hit Header: 
crate: 21, fibre: 2, wireIndex: 235, slot: 2, flags: 0, tstamp: 6148914691236517205, median: 0, accumulator: 0

Hit Payload: 

, Hit Header: 
crate: 21, fibre: 2, wireIndex: 239, slot: 2, flags: 0, tstamp: 6148914691236517205, median: 0, accumulator: 0

Hit Payload: 

, Hit Header: 
crate: 21, fibre: 2, wireIndex: 243, slot: 2, flags: 0, tstamp: 6148914691236517205, median: 0, accumulator: 0

Hit Payload: 

, Hit Header: 
crate: 21, fibre: 2, wireIndex: 247, slot: 2, flags: 0, tstamp: 6148914691236517205, median: 0, accumulator: 0

Hit Payload: 

, Hit Header: 
crate: 21, fibre: 2, wireIndex: 251, slot: 2, flags: 0, tstamp: 6148914691236517205, median: 0, accumulator: 0

Hit Payload: 

, Hit Header: 
crate: 21, fibre: 2, wireIndex: 255, slot: 2, flags: 0, tstamp: 6148914691236517205, median: 0, accumulator: 0

Hit Payload: 

, Hit Header: 
crate: 21, fibre: 2, wireIndex: 3, slot: 2, flags: 0, tstamp: 6148914691236518805, median: 0, accumulator: 0

Hit Payload: 
0 : hitStartTime: 6, hitEndTime: 24, hitPeakADC: 77, hitPeakTime: 15, hitSumADC: 1037, hitFlags: 0, hitContinues: 0
, Hit Header: 
crate: 21, fibre: 2, wireIndex: 7, slot: 2, flags: 0, tstamp: 6148914691236518805, median: 0, accumulator: 0

Hit Payload: 
0 : hitStartTime: 6, hitEndTime: 24, hitPeakADC: 77, hitPeakTime: 15, hitSumADC: 1037, hitFlags: 0, hitContinues: 0
, Hit Header: 
crate: 21, fibre: 2, wireIndex: 11, slot: 2, flags: 0, tstamp: 6148914691236518805, median: 0, accumulator: 0

Hit Payload: 
0 : hitStartTime: 6, hitEndTime: 24, hitPeakADC: 77, hitPeakTime: 15, hitSumADC: 1037, hitFlags: 0, hitContinues: 0
, Hit Header: 
crate: 21, fibre: 2, wireIndex: 15, slot: 2, flags: 0, tstamp: 6148914691236518805, median: 0, accumulator: 0

Hit Payload: 
0 : hitStartTime: 6, hitEndTime: 24, hitPeakADC: 77, hitPeakTime: 15, hitSumADC: 1037, hitFlags: 0, hitContinues: 0
, Hit Header: 
crate: 21, fibre: 2, wireIndex: 19, slot: 2, flags: 0, tstamp: 6148914691236518805, median: 0, accumulator: 0

Hit Payload: 
0 : hitStartTime: 6, hitEndTime: 24, hitPeakADC: 77, hitPeakTime: 15, hitSumADC: 1037, hitFlags: 0, hitContinues: 0
, Hit Header: 
crate: 21, fibre: 2, wireIndex: 23, slot: 2, flags: 0, tstamp: 6148914691236518805, median: 0, accumulator: 0

Hit Payload: 
0 : hitStartTime: 6, hitEndTime: 24, hitPeakADC: 77, hitPeakTime: 15, hitSumADC: 1037, hitFlags: 0, hitContinues: 0
, Hit Header: 
crate: 21, fibre: 2, wireIndex: 27, slot: 2, flags: 0, tstamp: 6148914691236518805, median: 0, accumulator: 0

Hit Payload: 
0 : hitStartTime: 6, hitEndTime: 24, hitPeakADC: 77, hitPeakTime: 15, hitSumADC: 1037, hitFlags: 0, hitContinues: 0
, Hit Header: 
crate: 21, fibre: 2, wireIndex: 31, slot: 2, flags: 0, tstamp: 6148914691236518805, median: 0, accumulator: 0

Hit Payload: 
0 : hitStartTime: 6, hitEndTime: 24, hitPeakADC: 77, hitPeakTime: 15, hitSumADC: 1037, hitFlags: 0, hitContinues: 0
, Hit Header: 
crate: 21, fibre: 2, wireIndex: 35, slot: 2, flags: 0, tstamp: 6148914691236518805, median: 0, accumulator: 0

Hit Payload: 
0 : hitStartTime: 6, hitEndTime: 24, hitPeakADC: 77, hitPeakTime: 15, hitSumADC: 1037, hitFlags: 0, hitContinues: 0
, Hit Header: 
crate: 21, fibre: 2, wireIndex: 39, slot: 2, flags: 0, tstamp: 6148914691236518805, median: 0, accumulator: 0

Hit Payload: 
0 : hitStartTime: 6, hitEndTime: 24, hitPeakADC: 77, hitPeakTime: 15, hitSumADC: 1037, hitFlags: 0, hitContinues: 0
, Hit Header: 
crate: 21, fibre: 2, wireIndex: 43, slot: 2, flags: 0, tstamp: 6148914691236518805, median: 0, accumulator: 0

Hit Payload: 
0 : hitStartTime: 6, hitEndTime: 24, hitPeakADC: 77, hitPeakTime: 15, hitSumADC: 1037, hitFlags: 0, hitContinues: 0
, Hit Header: 
crate: 21, fibre: 2, wireIndex: 47, slot: 2, flags: 0, tstamp: 6148914691236518805, median: 0, accumulator: 0

Hit Payload: 
0 : hitStartTime: 6, hitEndTime: 24, hitPeakADC: 77, hitPeakTime: 15, hitSumADC: 1037, hitFlags: 0, hitContinues: 0
, Hit Header: 
crate: 21, fibre: 2, wireIndex: 51, slot: 2, flags: 0, tstamp: 6148914691236518805, median: 0, accumulator: 0

Hit Payload: 
0 : hitStartTime: 6, hitEndTime: 24, hitPeakADC: 77, hitPeakTime: 15, hitSumADC: 1037, hitFlags: 0, hitContinues: 0
, Hit Header: 
crate: 21, fibre: 2, wireIndex: 55, slot: 2, flags: 0, tstamp: 6148914691236518805, median: 0, accumulator: 0

Hit Payload: 
0 : hitStartTime: 6, hitEndTime: 24, hitPeakADC: 77, hitPeakTime: 15, hitSumADC: 1037, hitFlags: 0, hitContinues: 0
, Hit Header: 
crate: 21, fibre: 2, wireIndex: 59, slot: 2, flags: 0, tstamp: 6148914691236518805, median: 0, accumulator: 0

Hit Payload: 
0 : hitStartTime: 6, hitEndTime: 24, hitPeakADC: 77, hitPeakTime: 15, hitSumADC: 1037, hitFlags: 0, hitContinues: 0
, Hit Header: 
crate: 21, fibre: 2, wireIndex: 63, slot: 2, flags: 0, tstamp: 6148914691236518805, median: 0, accumulator: 0

Hit Payload: 
0 : hitStartTime: 6, hitEndTime: 24, hitPeakADC: 77, hitPeakTime: 15, hitSumADC: 1037, hitFlags: 0, hitContinues: 0
, Hit Header: 
crate: 21, fibre: 2, wireIndex: 67, slot: 2, flags: 0, tstamp: 6148914691236518805, median: 0, accumulator: 0

Hit Payload: 
0 : hitStartTime: 6, hitEndTime: 24, hitPeakADC: 77, hitPeakTime: 15, hitSumADC: 1037, hitFlags: 0, hitContinues: 0
, Hit Header: 
crate: 21, fibre: 2, wireIndex: 71, slot: 2, flags: 0, tstamp: 6148914691236518805, median: 0, accumulator: 0

Hit Payload: 
0 : hitStartTime: 6, hitEndTime: 24, hitPeakADC: 77, hitPeakTime: 15, hitSumADC: 1037, hitFlags: 0, hitContinues: 0
, Hit Header: 
crate: 21, fibre: 2, wireIndex: 75, slot: 2, flags: 0, tstamp: 6148914691236518805, median: 0, accumulator: 0

Hit Payload: 
0 : hitStartTime: 6, hitEndTime: 24, hitPeakADC: 77, hitPeakTime: 15, hitSumADC: 1037, hitFlags: 0, hitContinues: 0
, Hit Header: 
crate: 21, fibre: 2, wireIndex: 79, slot: 2, flags: 0, tstamp: 6148914691236518805, median: 0, accumulator: 0

Hit Payload: 
0 : hitStartTime: 6, hitEndTime: 24, hitPeakADC: 77, hitPeakTime: 15, hitSumADC: 1037, hitFlags: 0, hitContinues: 0
, Hit Header: 
crate: 21, fibre: 2, wireIndex: 83, slot: 2, flags: 0, tstamp: 6148914691236518805, median: 0, accumulator: 0

Hit Payload: 
0 : hitStartTime: 6, hitEndTime: 24, hitPeakADC: 77, hitPeakTime: 15, hitSumADC: 1037, hitFlags: 0, hitContinues: 0
, Hit Header: 
crate: 21, fibre: 2, wireIndex: 87, slot: 2, flags: 0, tstamp: 6148914691236518805, median: 0, accumulator: 0

Hit Payload: 
0 : hitStartTime: 6, hitEndTime: 24, hitPeakADC: 77, hitPeakTime: 15, hitSumADC: 1037, hitFlags: 0, hitContinues: 0
, Hit Header: 
crate: 21, fibre: 2, wireIndex: 91, slot: 2, flags: 0, tstamp: 6148914691236518805, median: 0, accumulator: 0

Hit Payload: 
0 : hitStartTime: 6, hitEndTime: 24, hitPeakADC: 77, hitPeakTime: 15, hitSumADC: 1037, hitFlags: 0, hitContinues: 0
, Hit Header: 
crate: 21, fibre: 2, wireIndex: 95, slot: 2, flags: 0, tstamp: 6148914691236518805, median: 0, accumulator: 0

Hit Payload: 
0 : hitStartTime: 6, hitEndTime: 24, hitPeakADC: 77, hitPeakTime: 15, hitSumADC: 1037, hitFlags: 0, hitContinues: 0
, Hit Header: 
crate: 21, fibre: 2, wireIndex: 99, slot: 2, flags: 0, tstamp: 6148914691236518805, median: 0, accumulator: 0

Hit Payload: 
0 : hitStartTime: 6, hitEndTime: 24, hitPeakADC: 77, hitPeakTime: 15, hitSumADC: 1037, hitFlags: 0, hitContinues: 0
, Hit Header: 
crate: 21, fibre: 2, wireIndex: 103, slot: 2, flags: 0, tstamp: 6148914691236518805, median: 0, accumulator: 0

Hit Payload: 
0 : hitStartTime: 6, hitEndTime: 24, hitPeakADC: 77, hitPeakTime: 15, hitSumADC: 1037, hitFlags: 0, hitContinues: 0
, Hit Header: 
crate: 21, fibre: 2, wireIndex: 107, slot: 2, flags: 0, tstamp: 6148914691236518805, median: 0, accumulator: 0

Hit Payload: 
0 : hitStartTime: 6, hitEndTime: 24, hitPeakADC: 77, hitPeakTime: 15, hitSumADC: 1037, hitFlags: 0, hitContinues: 0
, Hit Header: 
crate: 21, fibre: 2, wireIndex: 111, slot: 2, flags: 0, tstamp: 6148914691236518805, median: 0, accumulator: 0

Hit Payload: 
0 : hitStartTime: 6, hitEndTime: 24, hitPeakADC: 77, hitPeakTime: 15, hitSumADC: 1037, hitFlags: 0, hitContinues: 0
, Hit Header: 
crate: 21, fibre: 2, wireIndex: 115, slot: 2, flags: 0, tstamp: 6148914691236518805, median: 0, accumulator: 0

Hit Payload: 
0 : hitStartTime: 6, hitEndTime: 24, hitPeakADC: 77, hitPeakTime: 15, hitSumADC: 1037, hitFlags: 0, hitContinues: 0
, Hit Header: 
crate: 21, fibre: 2, wireIndex: 119, slot: 2, flags: 0, tstamp: 6148914691236518805, median: 0, accumulator: 0

Hit Payload: 
0 : hitStartTime: 6, hitEndTime: 24, hitPeakADC: 77, hitPeakTime: 15, hitSumADC: 1037, hitFlags: 0, hitContinues: 0
, Hit Header: 
crate: 21, fibre: 2, wireIndex: 123, slot: 2, flags: 0, tstamp: 6148914691236518805, median: 0, accumulator: 0

Hit Payload: 
0 : hitStartTime: 6, hitEndTime: 24, hitPeakADC: 77, hitPeakTime: 15, hitSumADC: 1037, hitFlags: 0, hitContinues: 0
, Hit Header: 
crate: 21, fibre: 2, wireIndex: 127, slot: 2, flags: 0, tstamp: 6148914691236518805, median: 0, accumulator: 0

Hit Payload: 
0 : hitStartTime: 6, hitEndTime: 24, hitPeakADC: 77, hitPeakTime: 15, hitSumADC: 1037, hitFlags: 0, hitContinues: 0
, Hit Header: 
crate: 21, fibre: 2, wireIndex: 131, slot: 2, flags: 0, tstamp: 6148914691236518805, median: 0, accumulator: 0

Hit Payload: 
0 : hitStartTime: 6, hitEndTime: 24, hitPeakADC: 77, hitPeakTime: 15, hitSumADC: 1037, hitFlags: 0, hitContinues: 0
, Hit Header: 
crate: 21, fibre: 2, wireIndex: 135, slot: 2, flags: 0, tstamp: 6148914691236518805, median: 0, accumulator: 0

Hit Payload: 
0 : hitStartTime: 6, hitEndTime: 24, hitPeakADC: 77, hitPeakTime: 15, hitSumADC: 1037, hitFlags: 0, hitContinues: 0
, Hit Header: 
crate: 21, fibre: 2, wireIndex: 139, slot: 2, flags: 0, tstamp: 6148914691236518805, median: 0, accumulator: 0

Hit Payload: 
0 : hitStartTime: 6, hitEndTime: 24, hitPeakADC: 77, hitPeakTime: 15, hitSumADC: 1037, hitFlags: 0, hitContinues: 0
, Hit Header: 
crate: 21, fibre: 2, wireIndex: 143, slot: 2, flags: 0, tstamp: 6148914691236518805, median: 0, accumulator: 0

Hit Payload: 
0 : hitStartTime: 6, hitEndTime: 24, hitPeakADC: 77, hitPeakTime: 15, hitSumADC: 1037, hitFlags: 0, hitContinues: 0
, Hit Header: 
crate: 21, fibre: 2, wireIndex: 147, slot: 2, flags: 0, tstamp: 6148914691236518805, median: 0, accumulator: 0

Hit Payload: 
0 : hitStartTime: 6, hitEndTime: 24, hitPeakADC: 77, hitPeakTime: 15, hitSumADC: 1037, hitFlags: 0, hitContinues: 0
, Hit Header: 
crate: 21, fibre: 2, wireIndex: 151, slot: 2, flags: 0, tstamp: 6148914691236518805, median: 0, accumulator: 0

Hit Payload: 
0 : hitStartTime: 6, hitEndTime: 24, hitPeakADC: 77, hitPeakTime: 15, hitSumADC: 1037, hitFlags: 0, hitContinues: 0
, Hit Header: 
crate: 21, fibre: 2, wireIndex: 155, slot: 2, flags: 0, tstamp: 6148914691236518805, median: 0, accumulator: 0

Hit Payload: 
0 : hitStartTime: 6, hitEndTime: 24, hitPeakADC: 77, hitPeakTime: 15, hitSumADC: 1037, hitFlags: 0, hitContinues: 0
, Hit Header: 
crate: 21, fibre: 2, wireIndex: 159, slot: 2, flags: 0, tstamp: 6148914691236518805, median: 0, accumulator: 0

Hit Payload: 
0 : hitStartTime: 6, hitEndTime: 24, hitPeakADC: 77, hitPeakTime: 15, hitSumADC: 1037, hitFlags: 0, hitContinues: 0
, Hit Header: 
crate: 21, fibre: 2, wireIndex: 163, slot: 2, flags: 0, tstamp: 6148914691236518805, median: 0, accumulator: 0

Hit Payload: 
0 : hitStartTime: 6, hitEndTime: 24, hitPeakADC: 77, hitPeakTime: 15, hitSumADC: 1037, hitFlags: 0, hitContinues: 0
, Hit Header: 
crate: 21, fibre: 2, wireIndex: 167, slot: 2, flags: 0, tstamp: 6148914691236518805, median: 0, accumulator: 0

Hit Payload: 
0 : hitStartTime: 6, hitEndTime: 24, hitPeakADC: 77, hitPeakTime: 15, hitSumADC: 1037, hitFlags: 0, hitContinues: 0
, Hit Header: 
crate: 21, fibre: 2, wireIndex: 171, slot: 2, flags: 0, tstamp: 6148914691236518805, median: 0, accumulator: 0

Hit Payload: 
0 : hitStartTime: 6, hitEndTime: 24, hitPeakADC: 77, hitPeakTime: 15, hitSumADC: 1037, hitFlags: 0, hitContinues: 0
, Hit Header: 
crate: 21, fibre: 2, wireIndex: 175, slot: 2, flags: 0, tstamp: 6148914691236518805, median: 0, accumulator: 0

Hit Payload: 
0 : hitStartTime: 6, hitEndTime: 24, hitPeakADC: 77, hitPeakTime: 15, hitSumADC: 1037, hitFlags: 0, hitContinues: 0
, Hit Header: 
crate: 21, fibre: 2, wireIndex: 179, slot: 2, flags: 0, tstamp: 6148914691236518805, median: 0, accumulator: 0

Hit Payload: 
0 : hitStartTime: 6, hitEndTime: 24, hitPeakADC: 77, hitPeakTime: 15, hitSumADC: 1037, hitFlags: 0, hitContinues: 0
, Hit Header: 
crate: 21, fibre: 2, wireIndex: 183, slot: 2, flags: 0, tstamp: 6148914691236518805, median: 0, accumulator: 0

Hit Payload: 
0 : hitStartTime: 6, hitEndTime: 24, hitPeakADC: 77, hitPeakTime: 15, hitSumADC: 1037, hitFlags: 0, hitContinues: 0
, Hit Header: 
crate: 21, fibre: 2, wireIndex: 187, slot: 2, flags: 0, tstamp: 6148914691236518805, median: 0, accumulator: 0

Hit Payload: 
0 : hitStartTime: 6, hitEndTime: 24, hitPeakADC: 77, hitPeakTime: 15, hitSumADC: 1037, hitFlags: 0, hitContinues: 0
, Hit Header: 
crate: 21, fibre: 2, wireIndex: 191, slot: 2, flags: 0, tstamp: 6148914691236518805, median: 0, accumulator: 0

Hit Payload: 
0 : hitStartTime: 6, hitEndTime: 24, hitPeakADC: 77, hitPeakTime: 15, hitSumADC: 1037, hitFlags: 0, hitContinues: 0
, Hit Header: 
crate: 21, fibre: 2, wireIndex: 195, slot: 2, flags: 0, tstamp: 6148914691236518805, median: 0, accumulator: 0

Hit Payload: 
0 : hitStartTime: 6, hitEndTime: 24, hitPeakADC: 77, hitPeakTime: 15, hitSumADC: 1037, hitFlags: 0, hitContinues: 0
, Hit Header: 
crate: 21, fibre: 2, wireIndex: 199, slot: 2, flags: 0, tstamp: 6148914691236518805, median: 0, accumulator: 0

Hit Payload: 
0 : hitStartTime: 6, hitEndTime: 24, hitPeakADC: 77, hitPeakTime: 15, hitSumADC: 1037, hitFlags: 0, hitContinues: 0
, Hit Header: 
crate: 21, fibre: 2, wireIndex: 203, slot: 2, flags: 0, tstamp: 6148914691236518805, median: 0, accumulator: 0

Hit Payload: 
0 : hitStartTime: 6, hitEndTime: 24, hitPeakADC: 77, hitPeakTime: 15, hitSumADC: 1037, hitFlags: 0, hitContinues: 0
, Hit Header: 
crate: 21, fibre: 2, wireIndex: 207, slot: 2, flags: 0, tstamp: 6148914691236518805, median: 0, accumulator: 0

Hit Payload: 
0 : hitStartTime: 6, hitEndTime: 24, hitPeakADC: 77, hitPeakTime: 15, hitSumADC: 1037, hitFlags: 0, hitContinues: 0
, Hit Header: 
crate: 21, fibre: 2, wireIndex: 211, slot: 2, flags: 0, tstamp: 6148914691236518805, median: 0, accumulator: 0

Hit Payload: 
0 : hitStartTime: 6, hitEndTime: 24, hitPeakADC: 77, hitPeakTime: 15, hitSumADC: 1037, hitFlags: 0, hitContinues: 0
, Hit Header: 
crate: 21, fibre: 2, wireIndex: 215, slot: 2, flags: 0, tstamp: 6148914691236518805, median: 0, accumulator: 0

Hit Payload: 
0 : hitStartTime: 6, hitEndTime: 24, hitPeakADC: 77, hitPeakTime: 15, hitSumADC: 1037, hitFlags: 0, hitContinues: 0
, Hit Header: 
crate: 21, fibre: 2, wireIndex: 219, slot: 2, flags: 0, tstamp: 6148914691236518805, median: 0, accumulator: 0

Hit Payload: 
0 : hitStartTime: 6, hitEndTime: 24, hitPeakADC: 77, hitPeakTime: 15, hitSumADC: 1037, hitFlags: 0, hitContinues: 0
, Hit Header: 
crate: 21, fibre: 2, wireIndex: 223, slot: 2, flags: 0, tstamp: 6148914691236518805, median: 0, accumulator: 0

Hit Payload: 
0 : hitStartTime: 6, hitEndTime: 24, hitPeakADC: 77, hitPeakTime: 15, hitSumADC: 1037, hitFlags: 0, hitContinues: 0
, Hit Header: 
crate: 21, fibre: 2, wireIndex: 227, slot: 2, flags: 0, tstamp: 6148914691236518805, median: 0, accumulator: 0

Hit Payload: 
0 : hitStartTime: 6, hitEndTime: 24, hitPeakADC: 77, hitPeakTime: 15, hitSumADC: 1037, hitFlags: 0, hitContinues: 0
, Hit Header: 
crate: 21, fibre: 2, wireIndex: 231, slot: 2, flags: 0, tstamp: 6148914691236518805, median: 0, accumulator: 0

Hit Payload: 
0 : hitStartTime: 6, hitEndTime: 24, hitPeakADC: 77, hitPeakTime: 15, hitSumADC: 1037, hitFlags: 0, hitContinues: 0
, Hit Header: 
crate: 21, fibre: 2, wireIndex: 235, slot: 2, flags: 0, tstamp: 6148914691236518805, median: 0, accumulator: 0

Hit Payload: 
0 : hitStartTime: 6, hitEndTime: 24, hitPeakADC: 77, hitPeakTime: 15, hitSumADC: 1037, hitFlags: 0, hitContinues: 0
, Hit Header: 
crate: 21, fibre: 2, wireIndex: 239, slot: 2, flags: 0, tstamp: 6148914691236518805, median: 0, accumulator: 0

Hit Payload: 
0 : hitStartTime: 6, hitEndTime: 24, hitPeakADC: 77, hitPeakTime: 15, hitSumADC: 1037, hitFlags: 0, hitContinues: 0
, Hit Header: 
crate: 21, fibre: 2, wireIndex: 243, slot: 2, flags: 0, tstamp: 6148914691236518805, median: 0, accumulator: 0

Hit Payload: 
0 : hitStartTime: 6, hitEndTime: 24, hitPeakADC: 77, hitPeakTime: 15, hitSumADC: 1037, hitFlags: 0, hitContinues: 0
, Hit Header: 
crate: 21, fibre: 2, wireIndex: 247, slot: 2, flags: 0, tstamp: 6148914691236518805, median: 0, accumulator: 0

Hit Payload: 
0 : hitStartTime: 6, hitEndTime: 24, hitPeakADC: 77, hitPeakTime: 15, hitSumADC: 1037, hitFlags: 0, hitContinues: 0
, Hit Header: 
crate: 21, fibre: 2, wireIndex: 251, slot: 2, flags: 0, tstamp: 6148914691236518805, median: 0, accumulator: 0

Hit Payload: 
0 : hitStartTime: 6, hitEndTime: 24, hitPeakADC: 77, hitPeakTime: 15, hitSumADC: 1037, hitFlags: 0, hitContinues: 0
, Hit Header: 
crate: 21, fibre: 2, wireIndex: 255, slot: 2, flags: 0, tstamp: 6148914691236518805, median: 0, accumulator: 0

Hit Payload: 
0 : hitStartTime: 6, hitEndTime: 24, hitPeakADC: 77, hitPeakTime: 15, hitSumADC: 1037, hitFlags: 0, hitContinues: 0
]
