IRH axi4s infile ->  /home/ppd/lmo86446/private/test/22/FixedHits_F_eop8_hf_eop_axi4s.1.txt
IRH glob ->  [u'/home/ppd/lmo86446/private/test/22/FixedHits_F_eop8_hf_eop_axi4s.1.txt']
IRH axi4s filename ->  /home/ppd/lmo86446/private/test/22/FixedHits_F_eop8_hf_eop_axi4s.1.txt
[Hit Header: 
crate: 21, fibre: 2, wireIndex: 1, slot: 2, flags: 0, tstamp: 6148914691236517205, median: 0, accumulator: 0

Hit Payload: 
0 : hitStartTime: 38, hitEndTime: 57, hitPeakADC: 84, hitPeakTime: 47, hitSumADC: 1158, hitFlags: 0, hitContinues: 0
, Hit Header: 
crate: 21, fibre: 2, wireIndex: 5, slot: 2, flags: 0, tstamp: 6148914691236517205, median: 0, accumulator: 0

Hit Payload: 
0 : hitStartTime: 38, hitEndTime: 57, hitPeakADC: 84, hitPeakTime: 47, hitSumADC: 1158, hitFlags: 0, hitContinues: 0
, Hit Header: 
crate: 21, fibre: 2, wireIndex: 9, slot: 2, flags: 0, tstamp: 6148914691236517205, median: 0, accumulator: 0

Hit Payload: 
0 : hitStartTime: 38, hitEndTime: 57, hitPeakADC: 84, hitPeakTime: 47, hitSumADC: 1158, hitFlags: 0, hitContinues: 0
, Hit Header: 
crate: 21, fibre: 2, wireIndex: 13, slot: 2, flags: 0, tstamp: 6148914691236517205, median: 0, accumulator: 0

Hit Payload: 
0 : hitStartTime: 38, hitEndTime: 57, hitPeakADC: 84, hitPeakTime: 47, hitSumADC: 1158, hitFlags: 0, hitContinues: 0
, Hit Header: 
crate: 21, fibre: 2, wireIndex: 17, slot: 2, flags: 0, tstamp: 6148914691236517205, median: 0, accumulator: 0

Hit Payload: 
0 : hitStartTime: 38, hitEndTime: 57, hitPeakADC: 84, hitPeakTime: 47, hitSumADC: 1158, hitFlags: 0, hitContinues: 0
, Hit Header: 
crate: 21, fibre: 2, wireIndex: 21, slot: 2, flags: 0, tstamp: 6148914691236517205, median: 0, accumulator: 0

Hit Payload: 
0 : hitStartTime: 38, hitEndTime: 57, hitPeakADC: 84, hitPeakTime: 47, hitSumADC: 1158, hitFlags: 0, hitContinues: 0
, Hit Header: 
crate: 21, fibre: 2, wireIndex: 25, slot: 2, flags: 0, tstamp: 6148914691236517205, median: 0, accumulator: 0

Hit Payload: 
0 : hitStartTime: 38, hitEndTime: 57, hitPeakADC: 84, hitPeakTime: 47, hitSumADC: 1158, hitFlags: 0, hitContinues: 0
, Hit Header: 
crate: 21, fibre: 2, wireIndex: 29, slot: 2, flags: 0, tstamp: 6148914691236517205, median: 0, accumulator: 0

Hit Payload: 
0 : hitStartTime: 38, hitEndTime: 57, hitPeakADC: 84, hitPeakTime: 47, hitSumADC: 1158, hitFlags: 0, hitContinues: 0
, Hit Header: 
crate: 21, fibre: 2, wireIndex: 33, slot: 2, flags: 0, tstamp: 6148914691236517205, median: 0, accumulator: 0

Hit Payload: 
0 : hitStartTime: 38, hitEndTime: 57, hitPeakADC: 84, hitPeakTime: 47, hitSumADC: 1158, hitFlags: 0, hitContinues: 0
, Hit Header: 
crate: 21, fibre: 2, wireIndex: 37, slot: 2, flags: 0, tstamp: 6148914691236517205, median: 0, accumulator: 0

Hit Payload: 
0 : hitStartTime: 38, hitEndTime: 57, hitPeakADC: 84, hitPeakTime: 47, hitSumADC: 1158, hitFlags: 0, hitContinues: 0
, Hit Header: 
crate: 21, fibre: 2, wireIndex: 41, slot: 2, flags: 0, tstamp: 6148914691236517205, median: 0, accumulator: 0

Hit Payload: 
0 : hitStartTime: 38, hitEndTime: 57, hitPeakADC: 84, hitPeakTime: 47, hitSumADC: 1158, hitFlags: 0, hitContinues: 0
, Hit Header: 
crate: 21, fibre: 2, wireIndex: 45, slot: 2, flags: 0, tstamp: 6148914691236517205, median: 0, accumulator: 0

Hit Payload: 
0 : hitStartTime: 38, hitEndTime: 57, hitPeakADC: 84, hitPeakTime: 47, hitSumADC: 1158, hitFlags: 0, hitContinues: 0
, Hit Header: 
crate: 21, fibre: 2, wireIndex: 49, slot: 2, flags: 0, tstamp: 6148914691236517205, median: 0, accumulator: 0

Hit Payload: 
0 : hitStartTime: 38, hitEndTime: 57, hitPeakADC: 84, hitPeakTime: 47, hitSumADC: 1158, hitFlags: 0, hitContinues: 0
, Hit Header: 
crate: 21, fibre: 2, wireIndex: 53, slot: 2, flags: 0, tstamp: 6148914691236517205, median: 0, accumulator: 0

Hit Payload: 
0 : hitStartTime: 38, hitEndTime: 57, hitPeakADC: 84, hitPeakTime: 47, hitSumADC: 1158, hitFlags: 0, hitContinues: 0
, Hit Header: 
crate: 21, fibre: 2, wireIndex: 57, slot: 2, flags: 0, tstamp: 6148914691236517205, median: 0, accumulator: 0

Hit Payload: 
0 : hitStartTime: 38, hitEndTime: 57, hitPeakADC: 84, hitPeakTime: 47, hitSumADC: 1158, hitFlags: 0, hitContinues: 0
, Hit Header: 
crate: 21, fibre: 2, wireIndex: 61, slot: 2, flags: 0, tstamp: 6148914691236517205, median: 0, accumulator: 0

Hit Payload: 
0 : hitStartTime: 38, hitEndTime: 57, hitPeakADC: 84, hitPeakTime: 47, hitSumADC: 1158, hitFlags: 0, hitContinues: 0
, Hit Header: 
crate: 21, fibre: 2, wireIndex: 65, slot: 2, flags: 0, tstamp: 6148914691236517205, median: 0, accumulator: 0

Hit Payload: 
0 : hitStartTime: 38, hitEndTime: 57, hitPeakADC: 84, hitPeakTime: 47, hitSumADC: 1158, hitFlags: 0, hitContinues: 0
, Hit Header: 
crate: 21, fibre: 2, wireIndex: 69, slot: 2, flags: 0, tstamp: 6148914691236517205, median: 0, accumulator: 0

Hit Payload: 
0 : hitStartTime: 38, hitEndTime: 57, hitPeakADC: 84, hitPeakTime: 47, hitSumADC: 1158, hitFlags: 0, hitContinues: 0
, Hit Header: 
crate: 21, fibre: 2, wireIndex: 73, slot: 2, flags: 0, tstamp: 6148914691236517205, median: 0, accumulator: 0

Hit Payload: 
0 : hitStartTime: 38, hitEndTime: 57, hitPeakADC: 84, hitPeakTime: 47, hitSumADC: 1158, hitFlags: 0, hitContinues: 0
, Hit Header: 
crate: 21, fibre: 2, wireIndex: 77, slot: 2, flags: 0, tstamp: 6148914691236517205, median: 0, accumulator: 0

Hit Payload: 
0 : hitStartTime: 38, hitEndTime: 57, hitPeakADC: 84, hitPeakTime: 47, hitSumADC: 1158, hitFlags: 0, hitContinues: 0
, Hit Header: 
crate: 21, fibre: 2, wireIndex: 81, slot: 2, flags: 0, tstamp: 6148914691236517205, median: 0, accumulator: 0

Hit Payload: 
0 : hitStartTime: 38, hitEndTime: 57, hitPeakADC: 84, hitPeakTime: 47, hitSumADC: 1158, hitFlags: 0, hitContinues: 0
, Hit Header: 
crate: 21, fibre: 2, wireIndex: 85, slot: 2, flags: 0, tstamp: 6148914691236517205, median: 0, accumulator: 0

Hit Payload: 
0 : hitStartTime: 38, hitEndTime: 57, hitPeakADC: 84, hitPeakTime: 47, hitSumADC: 1158, hitFlags: 0, hitContinues: 0
, Hit Header: 
crate: 21, fibre: 2, wireIndex: 89, slot: 2, flags: 0, tstamp: 6148914691236517205, median: 0, accumulator: 0

Hit Payload: 
0 : hitStartTime: 38, hitEndTime: 57, hitPeakADC: 84, hitPeakTime: 47, hitSumADC: 1158, hitFlags: 0, hitContinues: 0
, Hit Header: 
crate: 21, fibre: 2, wireIndex: 93, slot: 2, flags: 0, tstamp: 6148914691236517205, median: 0, accumulator: 0

Hit Payload: 
0 : hitStartTime: 38, hitEndTime: 57, hitPeakADC: 84, hitPeakTime: 47, hitSumADC: 1158, hitFlags: 0, hitContinues: 0
, Hit Header: 
crate: 21, fibre: 2, wireIndex: 97, slot: 2, flags: 0, tstamp: 6148914691236517205, median: 0, accumulator: 0

Hit Payload: 
0 : hitStartTime: 38, hitEndTime: 57, hitPeakADC: 84, hitPeakTime: 47, hitSumADC: 1158, hitFlags: 0, hitContinues: 0
, Hit Header: 
crate: 21, fibre: 2, wireIndex: 101, slot: 2, flags: 0, tstamp: 6148914691236517205, median: 0, accumulator: 0

Hit Payload: 
0 : hitStartTime: 38, hitEndTime: 57, hitPeakADC: 84, hitPeakTime: 47, hitSumADC: 1158, hitFlags: 0, hitContinues: 0
, Hit Header: 
crate: 21, fibre: 2, wireIndex: 105, slot: 2, flags: 0, tstamp: 6148914691236517205, median: 0, accumulator: 0

Hit Payload: 
0 : hitStartTime: 38, hitEndTime: 57, hitPeakADC: 84, hitPeakTime: 47, hitSumADC: 1158, hitFlags: 0, hitContinues: 0
, Hit Header: 
crate: 21, fibre: 2, wireIndex: 109, slot: 2, flags: 0, tstamp: 6148914691236517205, median: 0, accumulator: 0

Hit Payload: 
0 : hitStartTime: 38, hitEndTime: 57, hitPeakADC: 84, hitPeakTime: 47, hitSumADC: 1158, hitFlags: 0, hitContinues: 0
, Hit Header: 
crate: 21, fibre: 2, wireIndex: 113, slot: 2, flags: 0, tstamp: 6148914691236517205, median: 0, accumulator: 0

Hit Payload: 
0 : hitStartTime: 38, hitEndTime: 57, hitPeakADC: 84, hitPeakTime: 47, hitSumADC: 1158, hitFlags: 0, hitContinues: 0
, Hit Header: 
crate: 21, fibre: 2, wireIndex: 117, slot: 2, flags: 0, tstamp: 6148914691236517205, median: 0, accumulator: 0

Hit Payload: 
0 : hitStartTime: 38, hitEndTime: 57, hitPeakADC: 84, hitPeakTime: 47, hitSumADC: 1158, hitFlags: 0, hitContinues: 0
, Hit Header: 
crate: 21, fibre: 2, wireIndex: 121, slot: 2, flags: 0, tstamp: 6148914691236517205, median: 0, accumulator: 0

Hit Payload: 
0 : hitStartTime: 38, hitEndTime: 57, hitPeakADC: 84, hitPeakTime: 47, hitSumADC: 1158, hitFlags: 0, hitContinues: 0
, Hit Header: 
crate: 21, fibre: 2, wireIndex: 125, slot: 2, flags: 0, tstamp: 6148914691236517205, median: 0, accumulator: 0

Hit Payload: 
0 : hitStartTime: 38, hitEndTime: 57, hitPeakADC: 84, hitPeakTime: 47, hitSumADC: 1158, hitFlags: 0, hitContinues: 0
, Hit Header: 
crate: 21, fibre: 2, wireIndex: 129, slot: 2, flags: 0, tstamp: 6148914691236517205, median: 0, accumulator: 0

Hit Payload: 
0 : hitStartTime: 38, hitEndTime: 57, hitPeakADC: 84, hitPeakTime: 47, hitSumADC: 1158, hitFlags: 0, hitContinues: 0
, Hit Header: 
crate: 21, fibre: 2, wireIndex: 133, slot: 2, flags: 0, tstamp: 6148914691236517205, median: 0, accumulator: 0

Hit Payload: 
0 : hitStartTime: 38, hitEndTime: 57, hitPeakADC: 84, hitPeakTime: 47, hitSumADC: 1158, hitFlags: 0, hitContinues: 0
, Hit Header: 
crate: 21, fibre: 2, wireIndex: 137, slot: 2, flags: 0, tstamp: 6148914691236517205, median: 0, accumulator: 0

Hit Payload: 
0 : hitStartTime: 38, hitEndTime: 57, hitPeakADC: 84, hitPeakTime: 47, hitSumADC: 1158, hitFlags: 0, hitContinues: 0
, Hit Header: 
crate: 21, fibre: 2, wireIndex: 141, slot: 2, flags: 0, tstamp: 6148914691236517205, median: 0, accumulator: 0

Hit Payload: 
0 : hitStartTime: 38, hitEndTime: 57, hitPeakADC: 84, hitPeakTime: 47, hitSumADC: 1158, hitFlags: 0, hitContinues: 0
, Hit Header: 
crate: 21, fibre: 2, wireIndex: 145, slot: 2, flags: 0, tstamp: 6148914691236517205, median: 0, accumulator: 0

Hit Payload: 
0 : hitStartTime: 38, hitEndTime: 57, hitPeakADC: 84, hitPeakTime: 47, hitSumADC: 1158, hitFlags: 0, hitContinues: 0
, Hit Header: 
crate: 21, fibre: 2, wireIndex: 149, slot: 2, flags: 0, tstamp: 6148914691236517205, median: 0, accumulator: 0

Hit Payload: 
0 : hitStartTime: 38, hitEndTime: 57, hitPeakADC: 84, hitPeakTime: 47, hitSumADC: 1158, hitFlags: 0, hitContinues: 0
, Hit Header: 
crate: 21, fibre: 2, wireIndex: 153, slot: 2, flags: 0, tstamp: 6148914691236517205, median: 0, accumulator: 0

Hit Payload: 
0 : hitStartTime: 38, hitEndTime: 57, hitPeakADC: 84, hitPeakTime: 47, hitSumADC: 1158, hitFlags: 0, hitContinues: 0
, Hit Header: 
crate: 21, fibre: 2, wireIndex: 157, slot: 2, flags: 0, tstamp: 6148914691236517205, median: 0, accumulator: 0

Hit Payload: 
0 : hitStartTime: 38, hitEndTime: 57, hitPeakADC: 84, hitPeakTime: 47, hitSumADC: 1158, hitFlags: 0, hitContinues: 0
, Hit Header: 
crate: 21, fibre: 2, wireIndex: 161, slot: 2, flags: 0, tstamp: 6148914691236517205, median: 0, accumulator: 0

Hit Payload: 
0 : hitStartTime: 38, hitEndTime: 57, hitPeakADC: 84, hitPeakTime: 47, hitSumADC: 1158, hitFlags: 0, hitContinues: 0
, Hit Header: 
crate: 21, fibre: 2, wireIndex: 165, slot: 2, flags: 0, tstamp: 6148914691236517205, median: 0, accumulator: 0

Hit Payload: 
0 : hitStartTime: 38, hitEndTime: 57, hitPeakADC: 84, hitPeakTime: 47, hitSumADC: 1158, hitFlags: 0, hitContinues: 0
, Hit Header: 
crate: 21, fibre: 2, wireIndex: 169, slot: 2, flags: 0, tstamp: 6148914691236517205, median: 0, accumulator: 0

Hit Payload: 
0 : hitStartTime: 38, hitEndTime: 57, hitPeakADC: 84, hitPeakTime: 47, hitSumADC: 1158, hitFlags: 0, hitContinues: 0
, Hit Header: 
crate: 21, fibre: 2, wireIndex: 173, slot: 2, flags: 0, tstamp: 6148914691236517205, median: 0, accumulator: 0

Hit Payload: 
0 : hitStartTime: 38, hitEndTime: 57, hitPeakADC: 84, hitPeakTime: 47, hitSumADC: 1158, hitFlags: 0, hitContinues: 0
, Hit Header: 
crate: 21, fibre: 2, wireIndex: 177, slot: 2, flags: 0, tstamp: 6148914691236517205, median: 0, accumulator: 0

Hit Payload: 
0 : hitStartTime: 38, hitEndTime: 57, hitPeakADC: 84, hitPeakTime: 47, hitSumADC: 1158, hitFlags: 0, hitContinues: 0
, Hit Header: 
crate: 21, fibre: 2, wireIndex: 181, slot: 2, flags: 0, tstamp: 6148914691236517205, median: 0, accumulator: 0

Hit Payload: 
0 : hitStartTime: 38, hitEndTime: 57, hitPeakADC: 84, hitPeakTime: 47, hitSumADC: 1158, hitFlags: 0, hitContinues: 0
, Hit Header: 
crate: 21, fibre: 2, wireIndex: 185, slot: 2, flags: 0, tstamp: 6148914691236517205, median: 0, accumulator: 0

Hit Payload: 
0 : hitStartTime: 38, hitEndTime: 57, hitPeakADC: 84, hitPeakTime: 47, hitSumADC: 1158, hitFlags: 0, hitContinues: 0
, Hit Header: 
crate: 21, fibre: 2, wireIndex: 189, slot: 2, flags: 0, tstamp: 6148914691236517205, median: 0, accumulator: 0

Hit Payload: 
0 : hitStartTime: 38, hitEndTime: 57, hitPeakADC: 84, hitPeakTime: 47, hitSumADC: 1158, hitFlags: 0, hitContinues: 0
, Hit Header: 
crate: 21, fibre: 2, wireIndex: 193, slot: 2, flags: 0, tstamp: 6148914691236517205, median: 0, accumulator: 0

Hit Payload: 
0 : hitStartTime: 38, hitEndTime: 57, hitPeakADC: 84, hitPeakTime: 47, hitSumADC: 1158, hitFlags: 0, hitContinues: 0
, Hit Header: 
crate: 21, fibre: 2, wireIndex: 197, slot: 2, flags: 0, tstamp: 6148914691236517205, median: 0, accumulator: 0

Hit Payload: 
0 : hitStartTime: 38, hitEndTime: 57, hitPeakADC: 84, hitPeakTime: 47, hitSumADC: 1158, hitFlags: 0, hitContinues: 0
, Hit Header: 
crate: 21, fibre: 2, wireIndex: 201, slot: 2, flags: 0, tstamp: 6148914691236517205, median: 0, accumulator: 0

Hit Payload: 
0 : hitStartTime: 38, hitEndTime: 57, hitPeakADC: 84, hitPeakTime: 47, hitSumADC: 1158, hitFlags: 0, hitContinues: 0
, Hit Header: 
crate: 21, fibre: 2, wireIndex: 205, slot: 2, flags: 0, tstamp: 6148914691236517205, median: 0, accumulator: 0

Hit Payload: 
0 : hitStartTime: 38, hitEndTime: 57, hitPeakADC: 84, hitPeakTime: 47, hitSumADC: 1158, hitFlags: 0, hitContinues: 0
, Hit Header: 
crate: 21, fibre: 2, wireIndex: 209, slot: 2, flags: 0, tstamp: 6148914691236517205, median: 0, accumulator: 0

Hit Payload: 
0 : hitStartTime: 38, hitEndTime: 57, hitPeakADC: 84, hitPeakTime: 47, hitSumADC: 1158, hitFlags: 0, hitContinues: 0
, Hit Header: 
crate: 21, fibre: 2, wireIndex: 213, slot: 2, flags: 0, tstamp: 6148914691236517205, median: 0, accumulator: 0

Hit Payload: 
0 : hitStartTime: 38, hitEndTime: 57, hitPeakADC: 84, hitPeakTime: 47, hitSumADC: 1158, hitFlags: 0, hitContinues: 0
, Hit Header: 
crate: 21, fibre: 2, wireIndex: 217, slot: 2, flags: 0, tstamp: 6148914691236517205, median: 0, accumulator: 0

Hit Payload: 
0 : hitStartTime: 38, hitEndTime: 57, hitPeakADC: 84, hitPeakTime: 47, hitSumADC: 1158, hitFlags: 0, hitContinues: 0
, Hit Header: 
crate: 21, fibre: 2, wireIndex: 221, slot: 2, flags: 0, tstamp: 6148914691236517205, median: 0, accumulator: 0

Hit Payload: 
0 : hitStartTime: 38, hitEndTime: 57, hitPeakADC: 84, hitPeakTime: 47, hitSumADC: 1158, hitFlags: 0, hitContinues: 0
, Hit Header: 
crate: 21, fibre: 2, wireIndex: 225, slot: 2, flags: 0, tstamp: 6148914691236517205, median: 0, accumulator: 0

Hit Payload: 
0 : hitStartTime: 38, hitEndTime: 57, hitPeakADC: 84, hitPeakTime: 47, hitSumADC: 1158, hitFlags: 0, hitContinues: 0
, Hit Header: 
crate: 21, fibre: 2, wireIndex: 229, slot: 2, flags: 0, tstamp: 6148914691236517205, median: 0, accumulator: 0

Hit Payload: 
0 : hitStartTime: 38, hitEndTime: 57, hitPeakADC: 84, hitPeakTime: 47, hitSumADC: 1158, hitFlags: 0, hitContinues: 0
, Hit Header: 
crate: 21, fibre: 2, wireIndex: 233, slot: 2, flags: 0, tstamp: 6148914691236517205, median: 0, accumulator: 0

Hit Payload: 
0 : hitStartTime: 38, hitEndTime: 57, hitPeakADC: 84, hitPeakTime: 47, hitSumADC: 1158, hitFlags: 0, hitContinues: 0
, Hit Header: 
crate: 21, fibre: 2, wireIndex: 237, slot: 2, flags: 0, tstamp: 6148914691236517205, median: 0, accumulator: 0

Hit Payload: 
0 : hitStartTime: 38, hitEndTime: 57, hitPeakADC: 84, hitPeakTime: 47, hitSumADC: 1158, hitFlags: 0, hitContinues: 0
, Hit Header: 
crate: 21, fibre: 2, wireIndex: 241, slot: 2, flags: 0, tstamp: 6148914691236517205, median: 0, accumulator: 0

Hit Payload: 
0 : hitStartTime: 38, hitEndTime: 57, hitPeakADC: 84, hitPeakTime: 47, hitSumADC: 1158, hitFlags: 0, hitContinues: 0
, Hit Header: 
crate: 21, fibre: 2, wireIndex: 245, slot: 2, flags: 0, tstamp: 6148914691236517205, median: 0, accumulator: 0

Hit Payload: 
0 : hitStartTime: 38, hitEndTime: 57, hitPeakADC: 84, hitPeakTime: 47, hitSumADC: 1158, hitFlags: 0, hitContinues: 0
, Hit Header: 
crate: 21, fibre: 2, wireIndex: 249, slot: 2, flags: 0, tstamp: 6148914691236517205, median: 0, accumulator: 0

Hit Payload: 
0 : hitStartTime: 38, hitEndTime: 57, hitPeakADC: 84, hitPeakTime: 47, hitSumADC: 1158, hitFlags: 0, hitContinues: 0
, Hit Header: 
crate: 21, fibre: 2, wireIndex: 253, slot: 2, flags: 0, tstamp: 6148914691236517205, median: 0, accumulator: 0

Hit Payload: 
0 : hitStartTime: 38, hitEndTime: 57, hitPeakADC: 84, hitPeakTime: 47, hitSumADC: 1158, hitFlags: 0, hitContinues: 0
]
