IRH axi4s infile ->  /home/ppd/lmo86446/private/test/22/FixedHits_D_eop8_hf_eop_axi4s.2.txt
IRH glob ->  [u'/home/ppd/lmo86446/private/test/22/FixedHits_D_eop8_hf_eop_axi4s.2.txt']
IRH axi4s filename ->  /home/ppd/lmo86446/private/test/22/FixedHits_D_eop8_hf_eop_axi4s.2.txt
[Hit Header: 
crate: 21, fibre: 2, wireIndex: 2, slot: 2, flags: 0, tstamp: 6148914691236517205, median: 0, accumulator: 0

Hit Payload: 

, Hit Header: 
crate: 21, fibre: 2, wireIndex: 6, slot: 2, flags: 0, tstamp: 6148914691236517205, median: 0, accumulator: 0

Hit Payload: 

, Hit Header: 
crate: 21, fibre: 2, wireIndex: 10, slot: 2, flags: 0, tstamp: 6148914691236517205, median: 0, accumulator: 0

Hit Payload: 

, Hit Header: 
crate: 21, fibre: 2, wireIndex: 14, slot: 2, flags: 0, tstamp: 6148914691236517205, median: 0, accumulator: 0

Hit Payload: 

, Hit Header: 
crate: 21, fibre: 2, wireIndex: 18, slot: 2, flags: 0, tstamp: 6148914691236517205, median: 0, accumulator: 0

Hit Payload: 

, Hit Header: 
crate: 21, fibre: 2, wireIndex: 22, slot: 2, flags: 0, tstamp: 6148914691236517205, median: 0, accumulator: 0

Hit Payload: 

, Hit Header: 
crate: 21, fibre: 2, wireIndex: 26, slot: 2, flags: 0, tstamp: 6148914691236517205, median: 0, accumulator: 0

Hit Payload: 

, Hit Header: 
crate: 21, fibre: 2, wireIndex: 30, slot: 2, flags: 0, tstamp: 6148914691236517205, median: 0, accumulator: 0

Hit Payload: 

, Hit Header: 
crate: 21, fibre: 2, wireIndex: 34, slot: 2, flags: 0, tstamp: 6148914691236517205, median: 0, accumulator: 0

Hit Payload: 

, Hit Header: 
crate: 21, fibre: 2, wireIndex: 38, slot: 2, flags: 0, tstamp: 6148914691236517205, median: 0, accumulator: 0

Hit Payload: 

, Hit Header: 
crate: 21, fibre: 2, wireIndex: 42, slot: 2, flags: 0, tstamp: 6148914691236517205, median: 0, accumulator: 0

Hit Payload: 

, Hit Header: 
crate: 21, fibre: 2, wireIndex: 46, slot: 2, flags: 0, tstamp: 6148914691236517205, median: 0, accumulator: 0

Hit Payload: 

, Hit Header: 
crate: 21, fibre: 2, wireIndex: 50, slot: 2, flags: 0, tstamp: 6148914691236517205, median: 0, accumulator: 0

Hit Payload: 

, Hit Header: 
crate: 21, fibre: 2, wireIndex: 54, slot: 2, flags: 0, tstamp: 6148914691236517205, median: 0, accumulator: 0

Hit Payload: 

, Hit Header: 
crate: 21, fibre: 2, wireIndex: 58, slot: 2, flags: 0, tstamp: 6148914691236517205, median: 0, accumulator: 0

Hit Payload: 

, Hit Header: 
crate: 21, fibre: 2, wireIndex: 62, slot: 2, flags: 0, tstamp: 6148914691236517205, median: 0, accumulator: 0

Hit Payload: 

, Hit Header: 
crate: 21, fibre: 2, wireIndex: 66, slot: 2, flags: 0, tstamp: 6148914691236517205, median: 0, accumulator: 0

Hit Payload: 

, Hit Header: 
crate: 21, fibre: 2, wireIndex: 70, slot: 2, flags: 0, tstamp: 6148914691236517205, median: 0, accumulator: 0

Hit Payload: 

, Hit Header: 
crate: 21, fibre: 2, wireIndex: 74, slot: 2, flags: 0, tstamp: 6148914691236517205, median: 0, accumulator: 0

Hit Payload: 

, Hit Header: 
crate: 21, fibre: 2, wireIndex: 78, slot: 2, flags: 0, tstamp: 6148914691236517205, median: 0, accumulator: 0

Hit Payload: 

, Hit Header: 
crate: 21, fibre: 2, wireIndex: 82, slot: 2, flags: 0, tstamp: 6148914691236517205, median: 0, accumulator: 0

Hit Payload: 

, Hit Header: 
crate: 21, fibre: 2, wireIndex: 86, slot: 2, flags: 0, tstamp: 6148914691236517205, median: 0, accumulator: 0

Hit Payload: 

, Hit Header: 
crate: 21, fibre: 2, wireIndex: 90, slot: 2, flags: 0, tstamp: 6148914691236517205, median: 0, accumulator: 0

Hit Payload: 

, Hit Header: 
crate: 21, fibre: 2, wireIndex: 94, slot: 2, flags: 0, tstamp: 6148914691236517205, median: 0, accumulator: 0

Hit Payload: 

, Hit Header: 
crate: 21, fibre: 2, wireIndex: 98, slot: 2, flags: 0, tstamp: 6148914691236517205, median: 0, accumulator: 0

Hit Payload: 

, Hit Header: 
crate: 21, fibre: 2, wireIndex: 102, slot: 2, flags: 0, tstamp: 6148914691236517205, median: 0, accumulator: 0

Hit Payload: 

, Hit Header: 
crate: 21, fibre: 2, wireIndex: 106, slot: 2, flags: 0, tstamp: 6148914691236517205, median: 0, accumulator: 0

Hit Payload: 

, Hit Header: 
crate: 21, fibre: 2, wireIndex: 110, slot: 2, flags: 0, tstamp: 6148914691236517205, median: 0, accumulator: 0

Hit Payload: 

, Hit Header: 
crate: 21, fibre: 2, wireIndex: 114, slot: 2, flags: 0, tstamp: 6148914691236517205, median: 0, accumulator: 0

Hit Payload: 

, Hit Header: 
crate: 21, fibre: 2, wireIndex: 118, slot: 2, flags: 0, tstamp: 6148914691236517205, median: 0, accumulator: 0

Hit Payload: 

, Hit Header: 
crate: 21, fibre: 2, wireIndex: 122, slot: 2, flags: 0, tstamp: 6148914691236517205, median: 0, accumulator: 0

Hit Payload: 

, Hit Header: 
crate: 21, fibre: 2, wireIndex: 126, slot: 2, flags: 0, tstamp: 6148914691236517205, median: 0, accumulator: 0

Hit Payload: 

, Hit Header: 
crate: 21, fibre: 2, wireIndex: 130, slot: 2, flags: 0, tstamp: 6148914691236517205, median: 0, accumulator: 0

Hit Payload: 

, Hit Header: 
crate: 21, fibre: 2, wireIndex: 134, slot: 2, flags: 0, tstamp: 6148914691236517205, median: 0, accumulator: 0

Hit Payload: 

, Hit Header: 
crate: 21, fibre: 2, wireIndex: 138, slot: 2, flags: 0, tstamp: 6148914691236517205, median: 0, accumulator: 0

Hit Payload: 

, Hit Header: 
crate: 21, fibre: 2, wireIndex: 142, slot: 2, flags: 0, tstamp: 6148914691236517205, median: 0, accumulator: 0

Hit Payload: 

, Hit Header: 
crate: 21, fibre: 2, wireIndex: 146, slot: 2, flags: 0, tstamp: 6148914691236517205, median: 0, accumulator: 0

Hit Payload: 

, Hit Header: 
crate: 21, fibre: 2, wireIndex: 150, slot: 2, flags: 0, tstamp: 6148914691236517205, median: 0, accumulator: 0

Hit Payload: 

, Hit Header: 
crate: 21, fibre: 2, wireIndex: 154, slot: 2, flags: 0, tstamp: 6148914691236517205, median: 0, accumulator: 0

Hit Payload: 

, Hit Header: 
crate: 21, fibre: 2, wireIndex: 158, slot: 2, flags: 0, tstamp: 6148914691236517205, median: 0, accumulator: 0

Hit Payload: 

, Hit Header: 
crate: 21, fibre: 2, wireIndex: 162, slot: 2, flags: 0, tstamp: 6148914691236517205, median: 0, accumulator: 0

Hit Payload: 

, Hit Header: 
crate: 21, fibre: 2, wireIndex: 166, slot: 2, flags: 0, tstamp: 6148914691236517205, median: 0, accumulator: 0

Hit Payload: 

, Hit Header: 
crate: 21, fibre: 2, wireIndex: 170, slot: 2, flags: 0, tstamp: 6148914691236517205, median: 0, accumulator: 0

Hit Payload: 

, Hit Header: 
crate: 21, fibre: 2, wireIndex: 174, slot: 2, flags: 0, tstamp: 6148914691236517205, median: 0, accumulator: 0

Hit Payload: 

, Hit Header: 
crate: 21, fibre: 2, wireIndex: 178, slot: 2, flags: 0, tstamp: 6148914691236517205, median: 0, accumulator: 0

Hit Payload: 

, Hit Header: 
crate: 21, fibre: 2, wireIndex: 182, slot: 2, flags: 0, tstamp: 6148914691236517205, median: 0, accumulator: 0

Hit Payload: 

, Hit Header: 
crate: 21, fibre: 2, wireIndex: 186, slot: 2, flags: 0, tstamp: 6148914691236517205, median: 0, accumulator: 0

Hit Payload: 

, Hit Header: 
crate: 21, fibre: 2, wireIndex: 190, slot: 2, flags: 0, tstamp: 6148914691236517205, median: 0, accumulator: 0

Hit Payload: 

, Hit Header: 
crate: 21, fibre: 2, wireIndex: 194, slot: 2, flags: 0, tstamp: 6148914691236517205, median: 0, accumulator: 0

Hit Payload: 

, Hit Header: 
crate: 21, fibre: 2, wireIndex: 198, slot: 2, flags: 0, tstamp: 6148914691236517205, median: 0, accumulator: 0

Hit Payload: 

, Hit Header: 
crate: 21, fibre: 2, wireIndex: 202, slot: 2, flags: 0, tstamp: 6148914691236517205, median: 0, accumulator: 0

Hit Payload: 

, Hit Header: 
crate: 21, fibre: 2, wireIndex: 206, slot: 2, flags: 0, tstamp: 6148914691236517205, median: 0, accumulator: 0

Hit Payload: 

, Hit Header: 
crate: 21, fibre: 2, wireIndex: 210, slot: 2, flags: 0, tstamp: 6148914691236517205, median: 0, accumulator: 0

Hit Payload: 

, Hit Header: 
crate: 21, fibre: 2, wireIndex: 214, slot: 2, flags: 0, tstamp: 6148914691236517205, median: 0, accumulator: 0

Hit Payload: 

, Hit Header: 
crate: 21, fibre: 2, wireIndex: 218, slot: 2, flags: 0, tstamp: 6148914691236517205, median: 0, accumulator: 0

Hit Payload: 

, Hit Header: 
crate: 21, fibre: 2, wireIndex: 222, slot: 2, flags: 0, tstamp: 6148914691236517205, median: 0, accumulator: 0

Hit Payload: 

, Hit Header: 
crate: 21, fibre: 2, wireIndex: 226, slot: 2, flags: 0, tstamp: 6148914691236517205, median: 0, accumulator: 0

Hit Payload: 

, Hit Header: 
crate: 21, fibre: 2, wireIndex: 230, slot: 2, flags: 0, tstamp: 6148914691236517205, median: 0, accumulator: 0

Hit Payload: 

, Hit Header: 
crate: 21, fibre: 2, wireIndex: 234, slot: 2, flags: 0, tstamp: 6148914691236517205, median: 0, accumulator: 0

Hit Payload: 

, Hit Header: 
crate: 21, fibre: 2, wireIndex: 238, slot: 2, flags: 0, tstamp: 6148914691236517205, median: 0, accumulator: 0

Hit Payload: 

, Hit Header: 
crate: 21, fibre: 2, wireIndex: 242, slot: 2, flags: 0, tstamp: 6148914691236517205, median: 0, accumulator: 0

Hit Payload: 

, Hit Header: 
crate: 21, fibre: 2, wireIndex: 246, slot: 2, flags: 0, tstamp: 6148914691236517205, median: 0, accumulator: 0

Hit Payload: 

, Hit Header: 
crate: 21, fibre: 2, wireIndex: 250, slot: 2, flags: 0, tstamp: 6148914691236517205, median: 0, accumulator: 0

Hit Payload: 

, Hit Header: 
crate: 21, fibre: 2, wireIndex: 254, slot: 2, flags: 0, tstamp: 6148914691236517205, median: 0, accumulator: 0

Hit Payload: 

, Hit Header: 
crate: 21, fibre: 2, wireIndex: 2, slot: 2, flags: 0, tstamp: 6148914691236518805, median: 0, accumulator: 0

Hit Payload: 
0 : hitStartTime: 6, hitEndTime: 24, hitPeakADC: 77, hitPeakTime: 15, hitSumADC: 1037, hitFlags: 0, hitContinues: 0
, Hit Header: 
crate: 21, fibre: 2, wireIndex: 6, slot: 2, flags: 0, tstamp: 6148914691236518805, median: 0, accumulator: 0

Hit Payload: 
0 : hitStartTime: 6, hitEndTime: 24, hitPeakADC: 77, hitPeakTime: 15, hitSumADC: 1037, hitFlags: 0, hitContinues: 0
, Hit Header: 
crate: 21, fibre: 2, wireIndex: 10, slot: 2, flags: 0, tstamp: 6148914691236518805, median: 0, accumulator: 0

Hit Payload: 
0 : hitStartTime: 6, hitEndTime: 24, hitPeakADC: 77, hitPeakTime: 15, hitSumADC: 1037, hitFlags: 0, hitContinues: 0
, Hit Header: 
crate: 21, fibre: 2, wireIndex: 14, slot: 2, flags: 0, tstamp: 6148914691236518805, median: 0, accumulator: 0

Hit Payload: 
0 : hitStartTime: 6, hitEndTime: 24, hitPeakADC: 77, hitPeakTime: 15, hitSumADC: 1037, hitFlags: 0, hitContinues: 0
, Hit Header: 
crate: 21, fibre: 2, wireIndex: 18, slot: 2, flags: 0, tstamp: 6148914691236518805, median: 0, accumulator: 0

Hit Payload: 
0 : hitStartTime: 6, hitEndTime: 24, hitPeakADC: 77, hitPeakTime: 15, hitSumADC: 1037, hitFlags: 0, hitContinues: 0
, Hit Header: 
crate: 21, fibre: 2, wireIndex: 22, slot: 2, flags: 0, tstamp: 6148914691236518805, median: 0, accumulator: 0

Hit Payload: 
0 : hitStartTime: 6, hitEndTime: 24, hitPeakADC: 77, hitPeakTime: 15, hitSumADC: 1037, hitFlags: 0, hitContinues: 0
, Hit Header: 
crate: 21, fibre: 2, wireIndex: 26, slot: 2, flags: 0, tstamp: 6148914691236518805, median: 0, accumulator: 0

Hit Payload: 
0 : hitStartTime: 6, hitEndTime: 24, hitPeakADC: 77, hitPeakTime: 15, hitSumADC: 1037, hitFlags: 0, hitContinues: 0
, Hit Header: 
crate: 21, fibre: 2, wireIndex: 30, slot: 2, flags: 0, tstamp: 6148914691236518805, median: 0, accumulator: 0

Hit Payload: 
0 : hitStartTime: 6, hitEndTime: 24, hitPeakADC: 77, hitPeakTime: 15, hitSumADC: 1037, hitFlags: 0, hitContinues: 0
, Hit Header: 
crate: 21, fibre: 2, wireIndex: 34, slot: 2, flags: 0, tstamp: 6148914691236518805, median: 0, accumulator: 0

Hit Payload: 
0 : hitStartTime: 6, hitEndTime: 24, hitPeakADC: 77, hitPeakTime: 15, hitSumADC: 1037, hitFlags: 0, hitContinues: 0
, Hit Header: 
crate: 21, fibre: 2, wireIndex: 38, slot: 2, flags: 0, tstamp: 6148914691236518805, median: 0, accumulator: 0

Hit Payload: 
0 : hitStartTime: 6, hitEndTime: 24, hitPeakADC: 77, hitPeakTime: 15, hitSumADC: 1037, hitFlags: 0, hitContinues: 0
, Hit Header: 
crate: 21, fibre: 2, wireIndex: 42, slot: 2, flags: 0, tstamp: 6148914691236518805, median: 0, accumulator: 0

Hit Payload: 
0 : hitStartTime: 6, hitEndTime: 24, hitPeakADC: 77, hitPeakTime: 15, hitSumADC: 1037, hitFlags: 0, hitContinues: 0
, Hit Header: 
crate: 21, fibre: 2, wireIndex: 46, slot: 2, flags: 0, tstamp: 6148914691236518805, median: 0, accumulator: 0

Hit Payload: 
0 : hitStartTime: 6, hitEndTime: 24, hitPeakADC: 77, hitPeakTime: 15, hitSumADC: 1037, hitFlags: 0, hitContinues: 0
, Hit Header: 
crate: 21, fibre: 2, wireIndex: 50, slot: 2, flags: 0, tstamp: 6148914691236518805, median: 0, accumulator: 0

Hit Payload: 
0 : hitStartTime: 6, hitEndTime: 24, hitPeakADC: 77, hitPeakTime: 15, hitSumADC: 1037, hitFlags: 0, hitContinues: 0
, Hit Header: 
crate: 21, fibre: 2, wireIndex: 54, slot: 2, flags: 0, tstamp: 6148914691236518805, median: 0, accumulator: 0

Hit Payload: 
0 : hitStartTime: 6, hitEndTime: 24, hitPeakADC: 77, hitPeakTime: 15, hitSumADC: 1037, hitFlags: 0, hitContinues: 0
, Hit Header: 
crate: 21, fibre: 2, wireIndex: 58, slot: 2, flags: 0, tstamp: 6148914691236518805, median: 0, accumulator: 0

Hit Payload: 
0 : hitStartTime: 6, hitEndTime: 24, hitPeakADC: 77, hitPeakTime: 15, hitSumADC: 1037, hitFlags: 0, hitContinues: 0
, Hit Header: 
crate: 21, fibre: 2, wireIndex: 62, slot: 2, flags: 0, tstamp: 6148914691236518805, median: 0, accumulator: 0

Hit Payload: 
0 : hitStartTime: 6, hitEndTime: 24, hitPeakADC: 77, hitPeakTime: 15, hitSumADC: 1037, hitFlags: 0, hitContinues: 0
, Hit Header: 
crate: 21, fibre: 2, wireIndex: 66, slot: 2, flags: 0, tstamp: 6148914691236518805, median: 0, accumulator: 0

Hit Payload: 
0 : hitStartTime: 6, hitEndTime: 24, hitPeakADC: 77, hitPeakTime: 15, hitSumADC: 1037, hitFlags: 0, hitContinues: 0
, Hit Header: 
crate: 21, fibre: 2, wireIndex: 70, slot: 2, flags: 0, tstamp: 6148914691236518805, median: 0, accumulator: 0

Hit Payload: 
0 : hitStartTime: 6, hitEndTime: 24, hitPeakADC: 77, hitPeakTime: 15, hitSumADC: 1037, hitFlags: 0, hitContinues: 0
, Hit Header: 
crate: 21, fibre: 2, wireIndex: 74, slot: 2, flags: 0, tstamp: 6148914691236518805, median: 0, accumulator: 0

Hit Payload: 
0 : hitStartTime: 6, hitEndTime: 24, hitPeakADC: 77, hitPeakTime: 15, hitSumADC: 1037, hitFlags: 0, hitContinues: 0
, Hit Header: 
crate: 21, fibre: 2, wireIndex: 78, slot: 2, flags: 0, tstamp: 6148914691236518805, median: 0, accumulator: 0

Hit Payload: 
0 : hitStartTime: 6, hitEndTime: 24, hitPeakADC: 77, hitPeakTime: 15, hitSumADC: 1037, hitFlags: 0, hitContinues: 0
, Hit Header: 
crate: 21, fibre: 2, wireIndex: 82, slot: 2, flags: 0, tstamp: 6148914691236518805, median: 0, accumulator: 0

Hit Payload: 
0 : hitStartTime: 6, hitEndTime: 24, hitPeakADC: 77, hitPeakTime: 15, hitSumADC: 1037, hitFlags: 0, hitContinues: 0
, Hit Header: 
crate: 21, fibre: 2, wireIndex: 86, slot: 2, flags: 0, tstamp: 6148914691236518805, median: 0, accumulator: 0

Hit Payload: 
0 : hitStartTime: 6, hitEndTime: 24, hitPeakADC: 77, hitPeakTime: 15, hitSumADC: 1037, hitFlags: 0, hitContinues: 0
, Hit Header: 
crate: 21, fibre: 2, wireIndex: 90, slot: 2, flags: 0, tstamp: 6148914691236518805, median: 0, accumulator: 0

Hit Payload: 
0 : hitStartTime: 6, hitEndTime: 24, hitPeakADC: 77, hitPeakTime: 15, hitSumADC: 1037, hitFlags: 0, hitContinues: 0
, Hit Header: 
crate: 21, fibre: 2, wireIndex: 94, slot: 2, flags: 0, tstamp: 6148914691236518805, median: 0, accumulator: 0

Hit Payload: 
0 : hitStartTime: 6, hitEndTime: 24, hitPeakADC: 77, hitPeakTime: 15, hitSumADC: 1037, hitFlags: 0, hitContinues: 0
, Hit Header: 
crate: 21, fibre: 2, wireIndex: 98, slot: 2, flags: 0, tstamp: 6148914691236518805, median: 0, accumulator: 0

Hit Payload: 
0 : hitStartTime: 6, hitEndTime: 24, hitPeakADC: 77, hitPeakTime: 15, hitSumADC: 1037, hitFlags: 0, hitContinues: 0
, Hit Header: 
crate: 21, fibre: 2, wireIndex: 102, slot: 2, flags: 0, tstamp: 6148914691236518805, median: 0, accumulator: 0

Hit Payload: 
0 : hitStartTime: 6, hitEndTime: 24, hitPeakADC: 77, hitPeakTime: 15, hitSumADC: 1037, hitFlags: 0, hitContinues: 0
, Hit Header: 
crate: 21, fibre: 2, wireIndex: 106, slot: 2, flags: 0, tstamp: 6148914691236518805, median: 0, accumulator: 0

Hit Payload: 
0 : hitStartTime: 6, hitEndTime: 24, hitPeakADC: 77, hitPeakTime: 15, hitSumADC: 1037, hitFlags: 0, hitContinues: 0
, Hit Header: 
crate: 21, fibre: 2, wireIndex: 110, slot: 2, flags: 0, tstamp: 6148914691236518805, median: 0, accumulator: 0

Hit Payload: 
0 : hitStartTime: 6, hitEndTime: 24, hitPeakADC: 77, hitPeakTime: 15, hitSumADC: 1037, hitFlags: 0, hitContinues: 0
, Hit Header: 
crate: 21, fibre: 2, wireIndex: 114, slot: 2, flags: 0, tstamp: 6148914691236518805, median: 0, accumulator: 0

Hit Payload: 
0 : hitStartTime: 6, hitEndTime: 24, hitPeakADC: 77, hitPeakTime: 15, hitSumADC: 1037, hitFlags: 0, hitContinues: 0
, Hit Header: 
crate: 21, fibre: 2, wireIndex: 118, slot: 2, flags: 0, tstamp: 6148914691236518805, median: 0, accumulator: 0

Hit Payload: 
0 : hitStartTime: 6, hitEndTime: 24, hitPeakADC: 77, hitPeakTime: 15, hitSumADC: 1037, hitFlags: 0, hitContinues: 0
, Hit Header: 
crate: 21, fibre: 2, wireIndex: 122, slot: 2, flags: 0, tstamp: 6148914691236518805, median: 0, accumulator: 0

Hit Payload: 
0 : hitStartTime: 6, hitEndTime: 24, hitPeakADC: 77, hitPeakTime: 15, hitSumADC: 1037, hitFlags: 0, hitContinues: 0
, Hit Header: 
crate: 21, fibre: 2, wireIndex: 126, slot: 2, flags: 0, tstamp: 6148914691236518805, median: 0, accumulator: 0

Hit Payload: 
0 : hitStartTime: 6, hitEndTime: 24, hitPeakADC: 77, hitPeakTime: 15, hitSumADC: 1037, hitFlags: 0, hitContinues: 0
, Hit Header: 
crate: 21, fibre: 2, wireIndex: 130, slot: 2, flags: 0, tstamp: 6148914691236518805, median: 0, accumulator: 0

Hit Payload: 
0 : hitStartTime: 6, hitEndTime: 24, hitPeakADC: 77, hitPeakTime: 15, hitSumADC: 1037, hitFlags: 0, hitContinues: 0
, Hit Header: 
crate: 21, fibre: 2, wireIndex: 134, slot: 2, flags: 0, tstamp: 6148914691236518805, median: 0, accumulator: 0

Hit Payload: 
0 : hitStartTime: 6, hitEndTime: 24, hitPeakADC: 77, hitPeakTime: 15, hitSumADC: 1037, hitFlags: 0, hitContinues: 0
, Hit Header: 
crate: 21, fibre: 2, wireIndex: 138, slot: 2, flags: 0, tstamp: 6148914691236518805, median: 0, accumulator: 0

Hit Payload: 
0 : hitStartTime: 6, hitEndTime: 24, hitPeakADC: 77, hitPeakTime: 15, hitSumADC: 1037, hitFlags: 0, hitContinues: 0
, Hit Header: 
crate: 21, fibre: 2, wireIndex: 142, slot: 2, flags: 0, tstamp: 6148914691236518805, median: 0, accumulator: 0

Hit Payload: 
0 : hitStartTime: 6, hitEndTime: 24, hitPeakADC: 77, hitPeakTime: 15, hitSumADC: 1037, hitFlags: 0, hitContinues: 0
, Hit Header: 
crate: 21, fibre: 2, wireIndex: 146, slot: 2, flags: 0, tstamp: 6148914691236518805, median: 0, accumulator: 0

Hit Payload: 
0 : hitStartTime: 6, hitEndTime: 24, hitPeakADC: 77, hitPeakTime: 15, hitSumADC: 1037, hitFlags: 0, hitContinues: 0
, Hit Header: 
crate: 21, fibre: 2, wireIndex: 150, slot: 2, flags: 0, tstamp: 6148914691236518805, median: 0, accumulator: 0

Hit Payload: 
0 : hitStartTime: 6, hitEndTime: 24, hitPeakADC: 77, hitPeakTime: 15, hitSumADC: 1037, hitFlags: 0, hitContinues: 0
, Hit Header: 
crate: 21, fibre: 2, wireIndex: 154, slot: 2, flags: 0, tstamp: 6148914691236518805, median: 0, accumulator: 0

Hit Payload: 
0 : hitStartTime: 6, hitEndTime: 24, hitPeakADC: 77, hitPeakTime: 15, hitSumADC: 1037, hitFlags: 0, hitContinues: 0
, Hit Header: 
crate: 21, fibre: 2, wireIndex: 158, slot: 2, flags: 0, tstamp: 6148914691236518805, median: 0, accumulator: 0

Hit Payload: 
0 : hitStartTime: 6, hitEndTime: 24, hitPeakADC: 77, hitPeakTime: 15, hitSumADC: 1037, hitFlags: 0, hitContinues: 0
, Hit Header: 
crate: 21, fibre: 2, wireIndex: 162, slot: 2, flags: 0, tstamp: 6148914691236518805, median: 0, accumulator: 0

Hit Payload: 
0 : hitStartTime: 6, hitEndTime: 24, hitPeakADC: 77, hitPeakTime: 15, hitSumADC: 1037, hitFlags: 0, hitContinues: 0
, Hit Header: 
crate: 21, fibre: 2, wireIndex: 166, slot: 2, flags: 0, tstamp: 6148914691236518805, median: 0, accumulator: 0

Hit Payload: 
0 : hitStartTime: 6, hitEndTime: 24, hitPeakADC: 77, hitPeakTime: 15, hitSumADC: 1037, hitFlags: 0, hitContinues: 0
, Hit Header: 
crate: 21, fibre: 2, wireIndex: 170, slot: 2, flags: 0, tstamp: 6148914691236518805, median: 0, accumulator: 0

Hit Payload: 
0 : hitStartTime: 6, hitEndTime: 24, hitPeakADC: 77, hitPeakTime: 15, hitSumADC: 1037, hitFlags: 0, hitContinues: 0
, Hit Header: 
crate: 21, fibre: 2, wireIndex: 174, slot: 2, flags: 0, tstamp: 6148914691236518805, median: 0, accumulator: 0

Hit Payload: 
0 : hitStartTime: 6, hitEndTime: 24, hitPeakADC: 77, hitPeakTime: 15, hitSumADC: 1037, hitFlags: 0, hitContinues: 0
, Hit Header: 
crate: 21, fibre: 2, wireIndex: 178, slot: 2, flags: 0, tstamp: 6148914691236518805, median: 0, accumulator: 0

Hit Payload: 
0 : hitStartTime: 6, hitEndTime: 24, hitPeakADC: 77, hitPeakTime: 15, hitSumADC: 1037, hitFlags: 0, hitContinues: 0
, Hit Header: 
crate: 21, fibre: 2, wireIndex: 182, slot: 2, flags: 0, tstamp: 6148914691236518805, median: 0, accumulator: 0

Hit Payload: 
0 : hitStartTime: 6, hitEndTime: 24, hitPeakADC: 77, hitPeakTime: 15, hitSumADC: 1037, hitFlags: 0, hitContinues: 0
, Hit Header: 
crate: 21, fibre: 2, wireIndex: 186, slot: 2, flags: 0, tstamp: 6148914691236518805, median: 0, accumulator: 0

Hit Payload: 
0 : hitStartTime: 6, hitEndTime: 24, hitPeakADC: 77, hitPeakTime: 15, hitSumADC: 1037, hitFlags: 0, hitContinues: 0
, Hit Header: 
crate: 21, fibre: 2, wireIndex: 190, slot: 2, flags: 0, tstamp: 6148914691236518805, median: 0, accumulator: 0

Hit Payload: 
0 : hitStartTime: 6, hitEndTime: 24, hitPeakADC: 77, hitPeakTime: 15, hitSumADC: 1037, hitFlags: 0, hitContinues: 0
, Hit Header: 
crate: 21, fibre: 2, wireIndex: 194, slot: 2, flags: 0, tstamp: 6148914691236518805, median: 0, accumulator: 0

Hit Payload: 
0 : hitStartTime: 6, hitEndTime: 24, hitPeakADC: 77, hitPeakTime: 15, hitSumADC: 1037, hitFlags: 0, hitContinues: 0
, Hit Header: 
crate: 21, fibre: 2, wireIndex: 198, slot: 2, flags: 0, tstamp: 6148914691236518805, median: 0, accumulator: 0

Hit Payload: 
0 : hitStartTime: 6, hitEndTime: 24, hitPeakADC: 77, hitPeakTime: 15, hitSumADC: 1037, hitFlags: 0, hitContinues: 0
, Hit Header: 
crate: 21, fibre: 2, wireIndex: 202, slot: 2, flags: 0, tstamp: 6148914691236518805, median: 0, accumulator: 0

Hit Payload: 
0 : hitStartTime: 6, hitEndTime: 24, hitPeakADC: 77, hitPeakTime: 15, hitSumADC: 1037, hitFlags: 0, hitContinues: 0
, Hit Header: 
crate: 21, fibre: 2, wireIndex: 206, slot: 2, flags: 0, tstamp: 6148914691236518805, median: 0, accumulator: 0

Hit Payload: 
0 : hitStartTime: 6, hitEndTime: 24, hitPeakADC: 77, hitPeakTime: 15, hitSumADC: 1037, hitFlags: 0, hitContinues: 0
, Hit Header: 
crate: 21, fibre: 2, wireIndex: 210, slot: 2, flags: 0, tstamp: 6148914691236518805, median: 0, accumulator: 0

Hit Payload: 
0 : hitStartTime: 6, hitEndTime: 24, hitPeakADC: 77, hitPeakTime: 15, hitSumADC: 1037, hitFlags: 0, hitContinues: 0
, Hit Header: 
crate: 21, fibre: 2, wireIndex: 214, slot: 2, flags: 0, tstamp: 6148914691236518805, median: 0, accumulator: 0

Hit Payload: 
0 : hitStartTime: 6, hitEndTime: 24, hitPeakADC: 77, hitPeakTime: 15, hitSumADC: 1037, hitFlags: 0, hitContinues: 0
, Hit Header: 
crate: 21, fibre: 2, wireIndex: 218, slot: 2, flags: 0, tstamp: 6148914691236518805, median: 0, accumulator: 0

Hit Payload: 
0 : hitStartTime: 6, hitEndTime: 24, hitPeakADC: 77, hitPeakTime: 15, hitSumADC: 1037, hitFlags: 0, hitContinues: 0
, Hit Header: 
crate: 21, fibre: 2, wireIndex: 222, slot: 2, flags: 0, tstamp: 6148914691236518805, median: 0, accumulator: 0

Hit Payload: 
0 : hitStartTime: 6, hitEndTime: 24, hitPeakADC: 77, hitPeakTime: 15, hitSumADC: 1037, hitFlags: 0, hitContinues: 0
, Hit Header: 
crate: 21, fibre: 2, wireIndex: 226, slot: 2, flags: 0, tstamp: 6148914691236518805, median: 0, accumulator: 0

Hit Payload: 
0 : hitStartTime: 6, hitEndTime: 24, hitPeakADC: 77, hitPeakTime: 15, hitSumADC: 1037, hitFlags: 0, hitContinues: 0
, Hit Header: 
crate: 21, fibre: 2, wireIndex: 230, slot: 2, flags: 0, tstamp: 6148914691236518805, median: 0, accumulator: 0

Hit Payload: 
0 : hitStartTime: 6, hitEndTime: 24, hitPeakADC: 77, hitPeakTime: 15, hitSumADC: 1037, hitFlags: 0, hitContinues: 0
, Hit Header: 
crate: 21, fibre: 2, wireIndex: 234, slot: 2, flags: 0, tstamp: 6148914691236518805, median: 0, accumulator: 0

Hit Payload: 
0 : hitStartTime: 6, hitEndTime: 24, hitPeakADC: 77, hitPeakTime: 15, hitSumADC: 1037, hitFlags: 0, hitContinues: 0
, Hit Header: 
crate: 21, fibre: 2, wireIndex: 238, slot: 2, flags: 0, tstamp: 6148914691236518805, median: 0, accumulator: 0

Hit Payload: 
0 : hitStartTime: 6, hitEndTime: 24, hitPeakADC: 77, hitPeakTime: 15, hitSumADC: 1037, hitFlags: 0, hitContinues: 0
, Hit Header: 
crate: 21, fibre: 2, wireIndex: 242, slot: 2, flags: 0, tstamp: 6148914691236518805, median: 0, accumulator: 0

Hit Payload: 
0 : hitStartTime: 6, hitEndTime: 24, hitPeakADC: 77, hitPeakTime: 15, hitSumADC: 1037, hitFlags: 0, hitContinues: 0
, Hit Header: 
crate: 21, fibre: 2, wireIndex: 246, slot: 2, flags: 0, tstamp: 6148914691236518805, median: 0, accumulator: 0

Hit Payload: 
0 : hitStartTime: 6, hitEndTime: 24, hitPeakADC: 77, hitPeakTime: 15, hitSumADC: 1037, hitFlags: 0, hitContinues: 0
, Hit Header: 
crate: 21, fibre: 2, wireIndex: 250, slot: 2, flags: 0, tstamp: 6148914691236518805, median: 0, accumulator: 0

Hit Payload: 
0 : hitStartTime: 6, hitEndTime: 24, hitPeakADC: 77, hitPeakTime: 15, hitSumADC: 1037, hitFlags: 0, hitContinues: 0
, Hit Header: 
crate: 21, fibre: 2, wireIndex: 254, slot: 2, flags: 0, tstamp: 6148914691236518805, median: 0, accumulator: 0

Hit Payload: 
0 : hitStartTime: 6, hitEndTime: 24, hitPeakADC: 77, hitPeakTime: 15, hitSumADC: 1037, hitFlags: 0, hitContinues: 0
]
