IRH axi4s infile ->  /home/ppd/lmo86446/private/test/22/UniqueHits_A_eop8_hf_eop_axi4s.1.txt
IRH glob ->  [u'/home/ppd/lmo86446/private/test/22/UniqueHits_A_eop8_hf_eop_axi4s.1.txt']
IRH axi4s filename ->  /home/ppd/lmo86446/private/test/22/UniqueHits_A_eop8_hf_eop_axi4s.1.txt
[Hit Header: 
crate: 21, fibre: 2, wireIndex: 1, slot: 2, flags: 0, tstamp: 6148914691236517205, median: 0, accumulator: 0

Hit Payload: 
0 : hitStartTime: 34, hitEndTime: 52, hitPeakADC: 78, hitPeakTime: 43, hitSumADC: 1052, hitFlags: 0, hitContinues: 0
, Hit Header: 
crate: 21, fibre: 2, wireIndex: 5, slot: 2, flags: 0, tstamp: 6148914691236517205, median: 0, accumulator: 0

Hit Payload: 

, Hit Header: 
crate: 21, fibre: 2, wireIndex: 9, slot: 2, flags: 0, tstamp: 6148914691236517205, median: 0, accumulator: 0

Hit Payload: 
0 : hitStartTime: 55, hitEndTime: 63, hitPeakADC: 88, hitPeakTime: 63, hitSumADC: 523, hitFlags: 0, hitContinues: 0
, Hit Header: 
crate: 21, fibre: 2, wireIndex: 13, slot: 2, flags: 0, tstamp: 6148914691236517205, median: 0, accumulator: 0

Hit Payload: 
0 : hitStartTime: 38, hitEndTime: 58, hitPeakADC: 98, hitPeakTime: 48, hitSumADC: 1366, hitFlags: 0, hitContinues: 0
, Hit Header: 
crate: 21, fibre: 2, wireIndex: 17, slot: 2, flags: 0, tstamp: 6148914691236517205, median: 0, accumulator: 0

Hit Payload: 
0 : hitStartTime: 47, hitEndTime: 63, hitPeakADC: 104, hitPeakTime: 57, hitSumADC: 1302, hitFlags: 0, hitContinues: 0
, Hit Header: 
crate: 21, fibre: 2, wireIndex: 21, slot: 2, flags: 0, tstamp: 6148914691236517205, median: 0, accumulator: 0

Hit Payload: 
0 : hitStartTime: 18, hitEndTime: 40, hitPeakADC: 113, hitPeakTime: 29, hitSumADC: 1636, hitFlags: 0, hitContinues: 0
, Hit Header: 
crate: 21, fibre: 2, wireIndex: 25, slot: 2, flags: 0, tstamp: 6148914691236517205, median: 0, accumulator: 0

Hit Payload: 
0 : hitStartTime: 25, hitEndTime: 45, hitPeakADC: 116, hitPeakTime: 35, hitSumADC: 1617, hitFlags: 0, hitContinues: 0
, Hit Header: 
crate: 21, fibre: 2, wireIndex: 29, slot: 2, flags: 0, tstamp: 6148914691236517205, median: 0, accumulator: 0

Hit Payload: 
0 : hitStartTime: 46, hitEndTime: 63, hitPeakADC: 123, hitPeakTime: 56, hitSumADC: 1587, hitFlags: 0, hitContinues: 0
, Hit Header: 
crate: 21, fibre: 2, wireIndex: 33, slot: 2, flags: 0, tstamp: 6148914691236517205, median: 0, accumulator: 0

Hit Payload: 
0 : hitStartTime: 11, hitEndTime: 29, hitPeakADC: 115, hitPeakTime: 20, hitSumADC: 1402, hitFlags: 0, hitContinues: 0
, Hit Header: 
crate: 21, fibre: 2, wireIndex: 37, slot: 2, flags: 0, tstamp: 6148914691236517205, median: 0, accumulator: 0

Hit Payload: 
0 : hitStartTime: 29, hitEndTime: 51, hitPeakADC: 136, hitPeakTime: 40, hitSumADC: 1957, hitFlags: 0, hitContinues: 0
, Hit Header: 
crate: 21, fibre: 2, wireIndex: 41, slot: 2, flags: 0, tstamp: 6148914691236517205, median: 0, accumulator: 0

Hit Payload: 
0 : hitStartTime: 28, hitEndTime: 50, hitPeakADC: 142, hitPeakTime: 39, hitSumADC: 2047, hitFlags: 0, hitContinues: 0
, Hit Header: 
crate: 21, fibre: 2, wireIndex: 45, slot: 2, flags: 0, tstamp: 6148914691236517205, median: 0, accumulator: 0

Hit Payload: 
0 : hitStartTime: 54, hitEndTime: 63, hitPeakADC: 137, hitPeakTime: 63, hitSumADC: 787, hitFlags: 0, hitContinues: 0
, Hit Header: 
crate: 21, fibre: 2, wireIndex: 49, slot: 2, flags: 0, tstamp: 6148914691236517205, median: 0, accumulator: 0

Hit Payload: 
0 : hitStartTime: 35, hitEndTime: 58, hitPeakADC: 155, hitPeakTime: 47, hitSumADC: 2268, hitFlags: 0, hitContinues: 0
, Hit Header: 
crate: 21, fibre: 2, wireIndex: 53, slot: 2, flags: 0, tstamp: 6148914691236517205, median: 0, accumulator: 0

Hit Payload: 
0 : hitStartTime: 30, hitEndTime: 54, hitPeakADC: 162, hitPeakTime: 42, hitSumADC: 2384, hitFlags: 0, hitContinues: 0
, Hit Header: 
crate: 21, fibre: 2, wireIndex: 57, slot: 2, flags: 0, tstamp: 6148914691236517205, median: 0, accumulator: 0

Hit Payload: 
0 : hitStartTime: 27, hitEndTime: 50, hitPeakADC: 168, hitPeakTime: 39, hitSumADC: 2454, hitFlags: 0, hitContinues: 0
, Hit Header: 
crate: 21, fibre: 2, wireIndex: 61, slot: 2, flags: 0, tstamp: 6148914691236517205, median: 0, accumulator: 0

Hit Payload: 
0 : hitStartTime: 11, hitEndTime: 30, hitPeakADC: 150, hitPeakTime: 19, hitSumADC: 1852, hitFlags: 0, hitContinues: 0
, Hit Header: 
crate: 21, fibre: 2, wireIndex: 65, slot: 2, flags: 0, tstamp: 6148914691236517205, median: 0, accumulator: 0

Hit Payload: 
0 : hitStartTime: 14, hitEndTime: 38, hitPeakADC: 183, hitPeakTime: 25, hitSumADC: 2700, hitFlags: 0, hitContinues: 0
, Hit Header: 
crate: 21, fibre: 2, wireIndex: 69, slot: 2, flags: 0, tstamp: 6148914691236517205, median: 0, accumulator: 0

Hit Payload: 

, Hit Header: 
crate: 21, fibre: 2, wireIndex: 73, slot: 2, flags: 0, tstamp: 6148914691236517205, median: 0, accumulator: 0

Hit Payload: 
0 : hitStartTime: 16, hitEndTime: 41, hitPeakADC: 196, hitPeakTime: 28, hitSumADC: 2942, hitFlags: 0, hitContinues: 0
, Hit Header: 
crate: 21, fibre: 2, wireIndex: 77, slot: 2, flags: 0, tstamp: 6148914691236517205, median: 0, accumulator: 0

Hit Payload: 
0 : hitStartTime: 11, hitEndTime: 31, hitPeakADC: 183, hitPeakTime: 20, hitSumADC: 2320, hitFlags: 0, hitContinues: 0
, Hit Header: 
crate: 21, fibre: 2, wireIndex: 81, slot: 2, flags: 0, tstamp: 6148914691236517205, median: 0, accumulator: 0

Hit Payload: 
0 : hitStartTime: 21, hitEndTime: 45, hitPeakADC: 206, hitPeakTime: 33, hitSumADC: 3025, hitFlags: 0, hitContinues: 0
, Hit Header: 
crate: 21, fibre: 2, wireIndex: 85, slot: 2, flags: 0, tstamp: 6148914691236517205, median: 0, accumulator: 0

Hit Payload: 
0 : hitStartTime: 16, hitEndTime: 41, hitPeakADC: 215, hitPeakTime: 28, hitSumADC: 3232, hitFlags: 0, hitContinues: 0
, Hit Header: 
crate: 21, fibre: 2, wireIndex: 89, slot: 2, flags: 0, tstamp: 6148914691236517205, median: 0, accumulator: 0

Hit Payload: 
0 : hitStartTime: 13, hitEndTime: 38, hitPeakADC: 222, hitPeakTime: 25, hitSumADC: 3301, hitFlags: 0, hitContinues: 0
, Hit Header: 
crate: 21, fibre: 2, wireIndex: 93, slot: 2, flags: 0, tstamp: 6148914691236517205, median: 0, accumulator: 0

Hit Payload: 
0 : hitStartTime: 49, hitEndTime: 63, hitPeakADC: 225, hitPeakTime: 61, hitSumADC: 2136, hitFlags: 0, hitContinues: 0
, Hit Header: 
crate: 21, fibre: 2, wireIndex: 97, slot: 2, flags: 0, tstamp: 6148914691236517205, median: 0, accumulator: 0

Hit Payload: 
0 : hitStartTime: 49, hitEndTime: 63, hitPeakADC: 232, hitPeakTime: 62, hitSumADC: 2026, hitFlags: 0, hitContinues: 0
, Hit Header: 
crate: 21, fibre: 2, wireIndex: 101, slot: 2, flags: 0, tstamp: 6148914691236517205, median: 0, accumulator: 0

Hit Payload: 
0 : hitStartTime: 41, hitEndTime: 63, hitPeakADC: 239, hitPeakTime: 54, hitSumADC: 3438, hitFlags: 0, hitContinues: 0
, Hit Header: 
crate: 21, fibre: 2, wireIndex: 105, slot: 2, flags: 0, tstamp: 6148914691236517205, median: 0, accumulator: 0

Hit Payload: 
0 : hitStartTime: 10, hitEndTime: 29, hitPeakADC: 183, hitPeakTime: 19, hitSumADC: 2172, hitFlags: 0, hitContinues: 0
, Hit Header: 
crate: 21, fibre: 2, wireIndex: 109, slot: 2, flags: 0, tstamp: 6148914691236517205, median: 0, accumulator: 0

Hit Payload: 
0 : hitStartTime: 11, hitEndTime: 36, hitPeakADC: 254, hitPeakTime: 23, hitSumADC: 3659, hitFlags: 0, hitContinues: 0
, Hit Header: 
crate: 21, fibre: 2, wireIndex: 113, slot: 2, flags: 0, tstamp: 6148914691236517205, median: 0, accumulator: 0

Hit Payload: 
0 : hitStartTime: 13, hitEndTime: 38, hitPeakADC: 260, hitPeakTime: 25, hitSumADC: 3863, hitFlags: 0, hitContinues: 0
, Hit Header: 
crate: 21, fibre: 2, wireIndex: 117, slot: 2, flags: 0, tstamp: 6148914691236517205, median: 0, accumulator: 0

Hit Payload: 

, Hit Header: 
crate: 21, fibre: 2, wireIndex: 121, slot: 2, flags: 0, tstamp: 6148914691236517205, median: 0, accumulator: 0

Hit Payload: 
0 : hitStartTime: 13, hitEndTime: 39, hitPeakADC: 273, hitPeakTime: 25, hitSumADC: 4094, hitFlags: 0, hitContinues: 0
, Hit Header: 
crate: 21, fibre: 2, wireIndex: 125, slot: 2, flags: 0, tstamp: 6148914691236517205, median: 0, accumulator: 0

Hit Payload: 
0 : hitStartTime: 11, hitEndTime: 36, hitPeakADC: 278, hitPeakTime: 22, hitSumADC: 3963, hitFlags: 0, hitContinues: 0
, Hit Header: 
crate: 21, fibre: 2, wireIndex: 129, slot: 2, flags: 0, tstamp: 6148914691236517205, median: 0, accumulator: 0

Hit Payload: 
0 : hitStartTime: 12, hitEndTime: 38, hitPeakADC: 286, hitPeakTime: 25, hitSumADC: 4247, hitFlags: 0, hitContinues: 0
, Hit Header: 
crate: 21, fibre: 2, wireIndex: 133, slot: 2, flags: 0, tstamp: 6148914691236517205, median: 0, accumulator: 0

Hit Payload: 
0 : hitStartTime: 54, hitEndTime: 63, hitPeakADC: 227, hitPeakTime: 63, hitSumADC: 1134, hitFlags: 0, hitContinues: 0
, Hit Header: 
crate: 21, fibre: 2, wireIndex: 137, slot: 2, flags: 0, tstamp: 6148914691236517205, median: 0, accumulator: 0

Hit Payload: 
0 : hitStartTime: 50, hitEndTime: 63, hitPeakADC: 296, hitPeakTime: 63, hitSumADC: 2267, hitFlags: 0, hitContinues: 0
, Hit Header: 
crate: 21, fibre: 2, wireIndex: 141, slot: 2, flags: 0, tstamp: 6148914691236517205, median: 0, accumulator: 0

Hit Payload: 
0 : hitStartTime: 60, hitEndTime: 63, hitPeakADC: 78, hitPeakTime: 63, hitSumADC: 207, hitFlags: 0, hitContinues: 0
, Hit Header: 
crate: 21, fibre: 2, wireIndex: 145, slot: 2, flags: 0, tstamp: 6148914691236517205, median: 0, accumulator: 0

Hit Payload: 
0 : hitStartTime: 34, hitEndTime: 61, hitPeakADC: 309, hitPeakTime: 47, hitSumADC: 4674, hitFlags: 0, hitContinues: 0
, Hit Header: 
crate: 21, fibre: 2, wireIndex: 149, slot: 2, flags: 0, tstamp: 6148914691236517205, median: 0, accumulator: 0

Hit Payload: 
0 : hitStartTime: 60, hitEndTime: 63, hitPeakADC: 72, hitPeakTime: 63, hitSumADC: 189, hitFlags: 0, hitContinues: 0
, Hit Header: 
crate: 21, fibre: 2, wireIndex: 153, slot: 2, flags: 0, tstamp: 6148914691236517205, median: 0, accumulator: 0

Hit Payload: 
0 : hitStartTime: 34, hitEndTime: 61, hitPeakADC: 323, hitPeakTime: 48, hitSumADC: 4874, hitFlags: 0, hitContinues: 0
, Hit Header: 
crate: 21, fibre: 2, wireIndex: 157, slot: 2, flags: 0, tstamp: 6148914691236517205, median: 0, accumulator: 0

Hit Payload: 
0 : hitStartTime: 10, hitEndTime: 35, hitPeakADC: 329, hitPeakTime: 22, hitSumADC: 4612, hitFlags: 0, hitContinues: 0
, Hit Header: 
crate: 21, fibre: 2, wireIndex: 161, slot: 2, flags: 0, tstamp: 6148914691236517205, median: 0, accumulator: 0

Hit Payload: 
0 : hitStartTime: 22, hitEndTime: 49, hitPeakADC: 335, hitPeakTime: 36, hitSumADC: 5037, hitFlags: 0, hitContinues: 0
, Hit Header: 
crate: 21, fibre: 2, wireIndex: 165, slot: 2, flags: 0, tstamp: 6148914691236517205, median: 0, accumulator: 0

Hit Payload: 
0 : hitStartTime: 21, hitEndTime: 48, hitPeakADC: 339, hitPeakTime: 34, hitSumADC: 5119, hitFlags: 0, hitContinues: 0
, Hit Header: 
crate: 21, fibre: 2, wireIndex: 169, slot: 2, flags: 0, tstamp: 6148914691236517205, median: 0, accumulator: 0

Hit Payload: 
0 : hitStartTime: 10, hitEndTime: 33, hitPeakADC: 320, hitPeakTime: 20, hitSumADC: 4188, hitFlags: 0, hitContinues: 0
, Hit Header: 
crate: 21, fibre: 2, wireIndex: 173, slot: 2, flags: 0, tstamp: 6148914691236517205, median: 0, accumulator: 0

Hit Payload: 
0 : hitStartTime: 31, hitEndTime: 58, hitPeakADC: 355, hitPeakTime: 45, hitSumADC: 5357, hitFlags: 0, hitContinues: 0
, Hit Header: 
crate: 21, fibre: 2, wireIndex: 177, slot: 2, flags: 0, tstamp: 6148914691236517205, median: 0, accumulator: 0

Hit Payload: 
0 : hitStartTime: 35, hitEndTime: 63, hitPeakADC: 361, hitPeakTime: 49, hitSumADC: 5480, hitFlags: 0, hitContinues: 0
, Hit Header: 
crate: 21, fibre: 2, wireIndex: 181, slot: 2, flags: 0, tstamp: 6148914691236517205, median: 0, accumulator: 0

Hit Payload: 
0 : hitStartTime: 57, hitEndTime: 63, hitPeakADC: 142, hitPeakTime: 63, hitSumADC: 499, hitFlags: 0, hitContinues: 0
, Hit Header: 
crate: 21, fibre: 2, wireIndex: 185, slot: 2, flags: 0, tstamp: 6148914691236517205, median: 0, accumulator: 0

Hit Payload: 
0 : hitStartTime: 36, hitEndTime: 63, hitPeakADC: 374, hitPeakTime: 50, hitSumADC: 5654, hitFlags: 0, hitContinues: 0
, Hit Header: 
crate: 21, fibre: 2, wireIndex: 189, slot: 2, flags: 0, tstamp: 6148914691236517205, median: 0, accumulator: 0

Hit Payload: 
0 : hitStartTime: 49, hitEndTime: 63, hitPeakADC: 380, hitPeakTime: 63, hitSumADC: 3029, hitFlags: 0, hitContinues: 0
, Hit Header: 
crate: 21, fibre: 2, wireIndex: 193, slot: 2, flags: 0, tstamp: 6148914691236517205, median: 0, accumulator: 0

Hit Payload: 

, Hit Header: 
crate: 21, fibre: 2, wireIndex: 197, slot: 2, flags: 0, tstamp: 6148914691236517205, median: 0, accumulator: 0

Hit Payload: 
0 : hitStartTime: 40, hitEndTime: 63, hitPeakADC: 392, hitPeakTime: 54, hitSumADC: 5619, hitFlags: 0, hitContinues: 0
, Hit Header: 
crate: 21, fibre: 2, wireIndex: 201, slot: 2, flags: 0, tstamp: 6148914691236517205, median: 0, accumulator: 0

Hit Payload: 
0 : hitStartTime: 16, hitEndTime: 44, hitPeakADC: 402, hitPeakTime: 30, hitSumADC: 6139, hitFlags: 0, hitContinues: 0
, Hit Header: 
crate: 21, fibre: 2, wireIndex: 205, slot: 2, flags: 0, tstamp: 6148914691236517205, median: 0, accumulator: 0

Hit Payload: 
0 : hitStartTime: 29, hitEndTime: 57, hitPeakADC: 406, hitPeakTime: 43, hitSumADC: 6162, hitFlags: 0, hitContinues: 0
, Hit Header: 
crate: 21, fibre: 2, wireIndex: 209, slot: 2, flags: 0, tstamp: 6148914691236517205, median: 0, accumulator: 0

Hit Payload: 
0 : hitStartTime: 10, hitEndTime: 36, hitPeakADC: 412, hitPeakTime: 22, hitSumADC: 5846, hitFlags: 0, hitContinues: 0
, Hit Header: 
crate: 21, fibre: 2, wireIndex: 213, slot: 2, flags: 0, tstamp: 6148914691236517205, median: 0, accumulator: 0

Hit Payload: 
0 : hitStartTime: 9, hitEndTime: 33, hitPeakADC: 380, hitPeakTime: 20, hitSumADC: 4952, hitFlags: 0, hitContinues: 0
, Hit Header: 
crate: 21, fibre: 2, wireIndex: 217, slot: 2, flags: 0, tstamp: 6148914691236517205, median: 0, accumulator: 0

Hit Payload: 
0 : hitStartTime: 23, hitEndTime: 51, hitPeakADC: 425, hitPeakTime: 37, hitSumADC: 6434, hitFlags: 0, hitContinues: 0
, Hit Header: 
crate: 21, fibre: 2, wireIndex: 221, slot: 2, flags: 0, tstamp: 6148914691236517205, median: 0, accumulator: 0

Hit Payload: 
0 : hitStartTime: 35, hitEndTime: 63, hitPeakADC: 432, hitPeakTime: 49, hitSumADC: 6559, hitFlags: 0, hitContinues: 0
, Hit Header: 
crate: 21, fibre: 2, wireIndex: 225, slot: 2, flags: 0, tstamp: 6148914691236517205, median: 0, accumulator: 0

Hit Payload: 
0 : hitStartTime: 58, hitEndTime: 63, hitPeakADC: 127, hitPeakTime: 63, hitSumADC: 402, hitFlags: 0, hitContinues: 0
, Hit Header: 
crate: 21, fibre: 2, wireIndex: 229, slot: 2, flags: 0, tstamp: 6148914691236517205, median: 0, accumulator: 0

Hit Payload: 
0 : hitStartTime: 41, hitEndTime: 63, hitPeakADC: 445, hitPeakTime: 56, hitSumADC: 6118, hitFlags: 0, hitContinues: 0
, Hit Header: 
crate: 21, fibre: 2, wireIndex: 233, slot: 2, flags: 0, tstamp: 6148914691236517205, median: 0, accumulator: 0

Hit Payload: 
0 : hitStartTime: 9, hitEndTime: 32, hitPeakADC: 380, hitPeakTime: 19, hitSumADC: 4810, hitFlags: 0, hitContinues: 0
, Hit Header: 
crate: 21, fibre: 2, wireIndex: 237, slot: 2, flags: 0, tstamp: 6148914691236517205, median: 0, accumulator: 0

Hit Payload: 
0 : hitStartTime: 10, hitEndTime: 34, hitPeakADC: 436, hitPeakTime: 21, hitSumADC: 5830, hitFlags: 0, hitContinues: 0
, Hit Header: 
crate: 21, fibre: 2, wireIndex: 241, slot: 2, flags: 0, tstamp: 6148914691236517205, median: 0, accumulator: 0

Hit Payload: 
0 : hitStartTime: 45, hitEndTime: 63, hitPeakADC: 463, hitPeakTime: 59, hitSumADC: 5356, hitFlags: 0, hitContinues: 0
, Hit Header: 
crate: 21, fibre: 2, wireIndex: 245, slot: 2, flags: 0, tstamp: 6148914691236517205, median: 0, accumulator: 0

Hit Payload: 
0 : hitStartTime: 32, hitEndTime: 60, hitPeakADC: 471, hitPeakTime: 46, hitSumADC: 7152, hitFlags: 0, hitContinues: 0
, Hit Header: 
crate: 21, fibre: 2, wireIndex: 249, slot: 2, flags: 0, tstamp: 6148914691236517205, median: 0, accumulator: 0

Hit Payload: 
0 : hitStartTime: 15, hitEndTime: 44, hitPeakADC: 479, hitPeakTime: 29, hitSumADC: 7341, hitFlags: 0, hitContinues: 0
, Hit Header: 
crate: 21, fibre: 2, wireIndex: 253, slot: 2, flags: 0, tstamp: 6148914691236517205, median: 0, accumulator: 0

Hit Payload: 
0 : hitStartTime: 34, hitEndTime: 63, hitPeakADC: 483, hitPeakTime: 48, hitSumADC: 7367, hitFlags: 0, hitContinues: 0
]
