IRH axi4s infile ->  /home/ppd/lmo86446/private/test/22/UniqueHits_A_eop8_hf_eop_axi4s.2.txt
IRH glob ->  [u'/home/ppd/lmo86446/private/test/22/UniqueHits_A_eop8_hf_eop_axi4s.2.txt']
IRH axi4s filename ->  /home/ppd/lmo86446/private/test/22/UniqueHits_A_eop8_hf_eop_axi4s.2.txt
[Hit Header: 
crate: 21, fibre: 2, wireIndex: 2, slot: 2, flags: 0, tstamp: 6148914691236517205, median: 0, accumulator: 0

Hit Payload: 
0 : hitStartTime: 41, hitEndTime: 60, hitPeakADC: 80, hitPeakTime: 50, hitSumADC: 1099, hitFlags: 0, hitContinues: 0
, Hit Header: 
crate: 21, fibre: 2, wireIndex: 6, slot: 2, flags: 0, tstamp: 6148914691236517205, median: 0, accumulator: 0

Hit Payload: 
0 : hitStartTime: 13, hitEndTime: 30, hitPeakADC: 86, hitPeakTime: 21, hitSumADC: 1070, hitFlags: 0, hitContinues: 0
, Hit Header: 
crate: 21, fibre: 2, wireIndex: 10, slot: 2, flags: 0, tstamp: 6148914691236517205, median: 0, accumulator: 0

Hit Payload: 
0 : hitStartTime: 17, hitEndTime: 37, hitPeakADC: 95, hitPeakTime: 27, hitSumADC: 1341, hitFlags: 0, hitContinues: 0
, Hit Header: 
crate: 21, fibre: 2, wireIndex: 14, slot: 2, flags: 0, tstamp: 6148914691236517205, median: 0, accumulator: 0

Hit Payload: 
0 : hitStartTime: 59, hitEndTime: 63, hitPeakADC: 55, hitPeakTime: 63, hitSumADC: 185, hitFlags: 0, hitContinues: 0
, Hit Header: 
crate: 21, fibre: 2, wireIndex: 18, slot: 2, flags: 0, tstamp: 6148914691236517205, median: 0, accumulator: 0

Hit Payload: 
0 : hitStartTime: 13, hitEndTime: 32, hitPeakADC: 107, hitPeakTime: 22, hitSumADC: 1420, hitFlags: 0, hitContinues: 0
, Hit Header: 
crate: 21, fibre: 2, wireIndex: 22, slot: 2, flags: 0, tstamp: 6148914691236517205, median: 0, accumulator: 0

Hit Payload: 
0 : hitStartTime: 38, hitEndTime: 59, hitPeakADC: 112, hitPeakTime: 48, hitSumADC: 1593, hitFlags: 0, hitContinues: 0
, Hit Header: 
crate: 21, fibre: 2, wireIndex: 26, slot: 2, flags: 0, tstamp: 6148914691236517205, median: 0, accumulator: 0

Hit Payload: 
0 : hitStartTime: 32, hitEndTime: 53, hitPeakADC: 118, hitPeakTime: 42, hitSumADC: 1687, hitFlags: 0, hitContinues: 0
, Hit Header: 
crate: 21, fibre: 2, wireIndex: 30, slot: 2, flags: 0, tstamp: 6148914691236517205, median: 0, accumulator: 0

Hit Payload: 
0 : hitStartTime: 23, hitEndTime: 44, hitPeakADC: 124, hitPeakTime: 34, hitSumADC: 1753, hitFlags: 0, hitContinues: 0
, Hit Header: 
crate: 21, fibre: 2, wireIndex: 34, slot: 2, flags: 0, tstamp: 6148914691236517205, median: 0, accumulator: 0

Hit Payload: 
0 : hitStartTime: 34, hitEndTime: 56, hitPeakADC: 131, hitPeakTime: 44, hitSumADC: 1893, hitFlags: 0, hitContinues: 0
, Hit Header: 
crate: 21, fibre: 2, wireIndex: 38, slot: 2, flags: 0, tstamp: 6148914691236517205, median: 0, accumulator: 0

Hit Payload: 
0 : hitStartTime: 39, hitEndTime: 61, hitPeakADC: 138, hitPeakTime: 50, hitSumADC: 1989, hitFlags: 0, hitContinues: 0
, Hit Header: 
crate: 21, fibre: 2, wireIndex: 42, slot: 2, flags: 0, tstamp: 6148914691236517205, median: 0, accumulator: 0

Hit Payload: 
0 : hitStartTime: 13, hitEndTime: 34, hitPeakADC: 146, hitPeakTime: 23, hitSumADC: 2032, hitFlags: 0, hitContinues: 0
, Hit Header: 
crate: 21, fibre: 2, wireIndex: 46, slot: 2, flags: 0, tstamp: 6148914691236517205, median: 0, accumulator: 0

Hit Payload: 
0 : hitStartTime: 12, hitEndTime: 34, hitPeakADC: 152, hitPeakTime: 23, hitSumADC: 2133, hitFlags: 0, hitContinues: 0
, Hit Header: 
crate: 21, fibre: 2, wireIndex: 50, slot: 2, flags: 0, tstamp: 6148914691236517205, median: 0, accumulator: 0

Hit Payload: 
0 : hitStartTime: 47, hitEndTime: 63, hitPeakADC: 157, hitPeakTime: 59, hitSumADC: 1840, hitFlags: 0, hitContinues: 0
, Hit Header: 
crate: 21, fibre: 2, wireIndex: 54, slot: 2, flags: 0, tstamp: 6148914691236517205, median: 0, accumulator: 0

Hit Payload: 
0 : hitStartTime: 12, hitEndTime: 33, hitPeakADC: 164, hitPeakTime: 22, hitSumADC: 2225, hitFlags: 0, hitContinues: 0
, Hit Header: 
crate: 21, fibre: 2, wireIndex: 58, slot: 2, flags: 0, tstamp: 6148914691236517205, median: 0, accumulator: 0

Hit Payload: 

, Hit Header: 
crate: 21, fibre: 2, wireIndex: 62, slot: 2, flags: 0, tstamp: 6148914691236517205, median: 0, accumulator: 0

Hit Payload: 
0 : hitStartTime: 39, hitEndTime: 63, hitPeakADC: 177, hitPeakTime: 51, hitSumADC: 2600, hitFlags: 0, hitContinues: 0
, Hit Header: 
crate: 21, fibre: 2, wireIndex: 66, slot: 2, flags: 0, tstamp: 6148914691236517205, median: 0, accumulator: 0

Hit Payload: 
0 : hitStartTime: 38, hitEndTime: 62, hitPeakADC: 182, hitPeakTime: 50, hitSumADC: 2699, hitFlags: 0, hitContinues: 0
, Hit Header: 
crate: 21, fibre: 2, wireIndex: 70, slot: 2, flags: 0, tstamp: 6148914691236517205, median: 0, accumulator: 0

Hit Payload: 
0 : hitStartTime: 15, hitEndTime: 40, hitPeakADC: 191, hitPeakTime: 27, hitSumADC: 2861, hitFlags: 0, hitContinues: 0
, Hit Header: 
crate: 21, fibre: 2, wireIndex: 74, slot: 2, flags: 0, tstamp: 6148914691236517205, median: 0, accumulator: 0

Hit Payload: 
0 : hitStartTime: 39, hitEndTime: 63, hitPeakADC: 196, hitPeakTime: 52, hitSumADC: 2892, hitFlags: 0, hitContinues: 0
, Hit Header: 
crate: 21, fibre: 2, wireIndex: 78, slot: 2, flags: 0, tstamp: 6148914691236517205, median: 0, accumulator: 0

Hit Payload: 
0 : hitStartTime: 35, hitEndTime: 60, hitPeakADC: 201, hitPeakTime: 47, hitSumADC: 3004, hitFlags: 0, hitContinues: 0
, Hit Header: 
crate: 21, fibre: 2, wireIndex: 82, slot: 2, flags: 0, tstamp: 6148914691236517205, median: 0, accumulator: 0

Hit Payload: 
0 : hitStartTime: 20, hitEndTime: 44, hitPeakADC: 207, hitPeakTime: 32, hitSumADC: 3034, hitFlags: 0, hitContinues: 0
, Hit Header: 
crate: 21, fibre: 2, wireIndex: 86, slot: 2, flags: 0, tstamp: 6148914691236517205, median: 0, accumulator: 0

Hit Payload: 
0 : hitStartTime: 45, hitEndTime: 63, hitPeakADC: 214, hitPeakTime: 57, hitSumADC: 2725, hitFlags: 0, hitContinues: 0
, Hit Header: 
crate: 21, fibre: 2, wireIndex: 90, slot: 2, flags: 0, tstamp: 6148914691236517205, median: 0, accumulator: 0

Hit Payload: 
0 : hitStartTime: 16, hitEndTime: 41, hitPeakADC: 223, hitPeakTime: 28, hitSumADC: 3347, hitFlags: 0, hitContinues: 0
, Hit Header: 
crate: 21, fibre: 2, wireIndex: 94, slot: 2, flags: 0, tstamp: 6148914691236517205, median: 0, accumulator: 0

Hit Payload: 
0 : hitStartTime: 17, hitEndTime: 43, hitPeakADC: 230, hitPeakTime: 30, hitSumADC: 3470, hitFlags: 0, hitContinues: 0
, Hit Header: 
crate: 21, fibre: 2, wireIndex: 98, slot: 2, flags: 0, tstamp: 6148914691236517205, median: 0, accumulator: 0

Hit Payload: 
0 : hitStartTime: 46, hitEndTime: 63, hitPeakADC: 234, hitPeakTime: 58, hitSumADC: 2813, hitFlags: 0, hitContinues: 0
, Hit Header: 
crate: 21, fibre: 2, wireIndex: 102, slot: 2, flags: 0, tstamp: 6148914691236517205, median: 0, accumulator: 0

Hit Payload: 
0 : hitStartTime: 30, hitEndTime: 56, hitPeakADC: 241, hitPeakTime: 43, hitSumADC: 3604, hitFlags: 0, hitContinues: 0
, Hit Header: 
crate: 21, fibre: 2, wireIndex: 106, slot: 2, flags: 0, tstamp: 6148914691236517205, median: 0, accumulator: 0

Hit Payload: 
0 : hitStartTime: 13, hitEndTime: 39, hitPeakADC: 249, hitPeakTime: 26, hitSumADC: 3734, hitFlags: 0, hitContinues: 0
, Hit Header: 
crate: 21, fibre: 2, wireIndex: 110, slot: 2, flags: 0, tstamp: 6148914691236517205, median: 0, accumulator: 0

Hit Payload: 
0 : hitStartTime: 42, hitEndTime: 63, hitPeakADC: 253, hitPeakTime: 55, hitSumADC: 3570, hitFlags: 0, hitContinues: 0
, Hit Header: 
crate: 21, fibre: 2, wireIndex: 114, slot: 2, flags: 0, tstamp: 6148914691236517205, median: 0, accumulator: 0

Hit Payload: 
0 : hitStartTime: 15, hitEndTime: 41, hitPeakADC: 263, hitPeakTime: 28, hitSumADC: 3961, hitFlags: 0, hitContinues: 0
, Hit Header: 
crate: 21, fibre: 2, wireIndex: 118, slot: 2, flags: 0, tstamp: 6148914691236517205, median: 0, accumulator: 0

Hit Payload: 
0 : hitStartTime: 56, hitEndTime: 63, hitPeakADC: 148, hitPeakTime: 63, hitSumADC: 599, hitFlags: 0, hitContinues: 0
, Hit Header: 
crate: 21, fibre: 2, wireIndex: 122, slot: 2, flags: 0, tstamp: 6148914691236517205, median: 0, accumulator: 0

Hit Payload: 
0 : hitStartTime: 47, hitEndTime: 63, hitPeakADC: 273, hitPeakTime: 60, hitSumADC: 2958, hitFlags: 0, hitContinues: 0
, Hit Header: 
crate: 21, fibre: 2, wireIndex: 126, slot: 2, flags: 0, tstamp: 6148914691236517205, median: 0, accumulator: 0

Hit Payload: 
0 : hitStartTime: 36, hitEndTime: 62, hitPeakADC: 279, hitPeakTime: 49, hitSumADC: 4187, hitFlags: 0, hitContinues: 0
, Hit Header: 
crate: 21, fibre: 2, wireIndex: 130, slot: 2, flags: 0, tstamp: 6148914691236517205, median: 0, accumulator: 0

Hit Payload: 
0 : hitStartTime: 44, hitEndTime: 63, hitPeakADC: 286, hitPeakTime: 57, hitSumADC: 3709, hitFlags: 0, hitContinues: 0
, Hit Header: 
crate: 21, fibre: 2, wireIndex: 134, slot: 2, flags: 0, tstamp: 6148914691236517205, median: 0, accumulator: 0

Hit Payload: 
0 : hitStartTime: 44, hitEndTime: 63, hitPeakADC: 292, hitPeakTime: 58, hitSumADC: 3681, hitFlags: 0, hitContinues: 0
, Hit Header: 
crate: 21, fibre: 2, wireIndex: 138, slot: 2, flags: 0, tstamp: 6148914691236517205, median: 0, accumulator: 0

Hit Payload: 
0 : hitStartTime: 33, hitEndTime: 60, hitPeakADC: 298, hitPeakTime: 47, hitSumADC: 4501, hitFlags: 0, hitContinues: 0
, Hit Header: 
crate: 21, fibre: 2, wireIndex: 142, slot: 2, flags: 0, tstamp: 6148914691236517205, median: 0, accumulator: 0

Hit Payload: 
0 : hitStartTime: 49, hitEndTime: 63, hitPeakADC: 305, hitPeakTime: 63, hitSumADC: 2560, hitFlags: 0, hitContinues: 0
, Hit Header: 
crate: 21, fibre: 2, wireIndex: 146, slot: 2, flags: 0, tstamp: 6148914691236517205, median: 0, accumulator: 0

Hit Payload: 
0 : hitStartTime: 26, hitEndTime: 52, hitPeakADC: 311, hitPeakTime: 39, hitSumADC: 4655, hitFlags: 0, hitContinues: 0
, Hit Header: 
crate: 21, fibre: 2, wireIndex: 150, slot: 2, flags: 0, tstamp: 6148914691236517205, median: 0, accumulator: 0

Hit Payload: 
0 : hitStartTime: 51, hitEndTime: 63, hitPeakADC: 305, hitPeakTime: 63, hitSumADC: 2017, hitFlags: 0, hitContinues: 0
, Hit Header: 
crate: 21, fibre: 2, wireIndex: 154, slot: 2, flags: 0, tstamp: 6148914691236517205, median: 0, accumulator: 0

Hit Payload: 
0 : hitStartTime: 43, hitEndTime: 63, hitPeakADC: 324, hitPeakTime: 57, hitSumADC: 4212, hitFlags: 0, hitContinues: 0
, Hit Header: 
crate: 21, fibre: 2, wireIndex: 158, slot: 2, flags: 0, tstamp: 6148914691236517205, median: 0, accumulator: 0

Hit Payload: 
0 : hitStartTime: 52, hitEndTime: 63, hitPeakADC: 296, hitPeakTime: 63, hitSumADC: 1725, hitFlags: 0, hitContinues: 0
, Hit Header: 
crate: 21, fibre: 2, wireIndex: 162, slot: 2, flags: 0, tstamp: 6148914691236517205, median: 0, accumulator: 0

Hit Payload: 
0 : hitStartTime: 46, hitEndTime: 63, hitPeakADC: 336, hitPeakTime: 59, hitSumADC: 3802, hitFlags: 0, hitContinues: 0
, Hit Header: 
crate: 21, fibre: 2, wireIndex: 166, slot: 2, flags: 0, tstamp: 6148914691236517205, median: 0, accumulator: 0

Hit Payload: 
0 : hitStartTime: 59, hitEndTime: 63, hitPeakADC: 94, hitPeakTime: 63, hitSumADC: 276, hitFlags: 0, hitContinues: 0
, Hit Header: 
crate: 21, fibre: 2, wireIndex: 170, slot: 2, flags: 0, tstamp: 6148914691236517205, median: 0, accumulator: 0

Hit Payload: 
0 : hitStartTime: 44, hitEndTime: 63, hitPeakADC: 349, hitPeakTime: 58, hitSumADC: 4457, hitFlags: 0, hitContinues: 0
, Hit Header: 
crate: 21, fibre: 2, wireIndex: 174, slot: 2, flags: 0, tstamp: 6148914691236517205, median: 0, accumulator: 0

Hit Payload: 
0 : hitStartTime: 53, hitEndTime: 63, hitPeakADC: 296, hitPeakTime: 63, hitSumADC: 1582, hitFlags: 0, hitContinues: 0
, Hit Header: 
crate: 21, fibre: 2, wireIndex: 178, slot: 2, flags: 0, tstamp: 6148914691236517205, median: 0, accumulator: 0

Hit Payload: 
0 : hitStartTime: 62, hitEndTime: 63, hitPeakADC: 34, hitPeakTime: 63, hitSumADC: 56, hitFlags: 0, hitContinues: 0
, Hit Header: 
crate: 21, fibre: 2, wireIndex: 182, slot: 2, flags: 0, tstamp: 6148914691236517205, median: 0, accumulator: 0

Hit Payload: 
0 : hitStartTime: 54, hitEndTime: 63, hitPeakADC: 262, hitPeakTime: 63, hitSumADC: 1241, hitFlags: 0, hitContinues: 0
, Hit Header: 
crate: 21, fibre: 2, wireIndex: 186, slot: 2, flags: 0, tstamp: 6148914691236517205, median: 0, accumulator: 0

Hit Payload: 
0 : hitStartTime: 28, hitEndTime: 56, hitPeakADC: 375, hitPeakTime: 42, hitSumADC: 5699, hitFlags: 0, hitContinues: 0
, Hit Header: 
crate: 21, fibre: 2, wireIndex: 190, slot: 2, flags: 0, tstamp: 6148914691236517205, median: 0, accumulator: 0

Hit Payload: 
0 : hitStartTime: 36, hitEndTime: 63, hitPeakADC: 382, hitPeakTime: 50, hitSumADC: 5776, hitFlags: 0, hitContinues: 0
, Hit Header: 
crate: 21, fibre: 2, wireIndex: 194, slot: 2, flags: 0, tstamp: 6148914691236517205, median: 0, accumulator: 0

Hit Payload: 
0 : hitStartTime: 58, hitEndTime: 63, hitPeakADC: 127, hitPeakTime: 63, hitSumADC: 413, hitFlags: 0, hitContinues: 0
, Hit Header: 
crate: 21, fibre: 2, wireIndex: 198, slot: 2, flags: 0, tstamp: 6148914691236517205, median: 0, accumulator: 0

Hit Payload: 
0 : hitStartTime: 43, hitEndTime: 63, hitPeakADC: 394, hitPeakTime: 57, hitSumADC: 5094, hitFlags: 0, hitContinues: 0
, Hit Header: 
crate: 21, fibre: 2, wireIndex: 202, slot: 2, flags: 0, tstamp: 6148914691236517205, median: 0, accumulator: 0

Hit Payload: 
0 : hitStartTime: 55, hitEndTime: 63, hitPeakADC: 224, hitPeakTime: 63, hitSumADC: 926, hitFlags: 0, hitContinues: 0
, Hit Header: 
crate: 21, fibre: 2, wireIndex: 206, slot: 2, flags: 0, tstamp: 6148914691236517205, median: 0, accumulator: 0

Hit Payload: 
0 : hitStartTime: 33, hitEndTime: 62, hitPeakADC: 407, hitPeakTime: 48, hitSumADC: 6208, hitFlags: 0, hitContinues: 0
, Hit Header: 
crate: 21, fibre: 2, wireIndex: 210, slot: 2, flags: 0, tstamp: 6148914691236517205, median: 0, accumulator: 0

Hit Payload: 
0 : hitStartTime: 51, hitEndTime: 63, hitPeakADC: 383, hitPeakTime: 63, hitSumADC: 2357, hitFlags: 0, hitContinues: 0
, Hit Header: 
crate: 21, fibre: 2, wireIndex: 214, slot: 2, flags: 0, tstamp: 6148914691236517205, median: 0, accumulator: 0

Hit Payload: 
0 : hitStartTime: 12, hitEndTime: 40, hitPeakADC: 423, hitPeakTime: 25, hitSumADC: 6375, hitFlags: 0, hitContinues: 0
, Hit Header: 
crate: 21, fibre: 2, wireIndex: 218, slot: 2, flags: 0, tstamp: 6148914691236517205, median: 0, accumulator: 0

Hit Payload: 
0 : hitStartTime: 9, hitEndTime: 31, hitPeakADC: 328, hitPeakTime: 19, hitSumADC: 4007, hitFlags: 0, hitContinues: 0
, Hit Header: 
crate: 21, fibre: 2, wireIndex: 222, slot: 2, flags: 0, tstamp: 6148914691236517205, median: 0, accumulator: 0

Hit Payload: 
0 : hitStartTime: 53, hitEndTime: 63, hitPeakADC: 328, hitPeakTime: 63, hitSumADC: 1636, hitFlags: 0, hitContinues: 0
, Hit Header: 
crate: 21, fibre: 2, wireIndex: 226, slot: 2, flags: 0, tstamp: 6148914691236517205, median: 0, accumulator: 0

Hit Payload: 
0 : hitStartTime: 11, hitEndTime: 38, hitPeakADC: 442, hitPeakTime: 24, hitSumADC: 6519, hitFlags: 0, hitContinues: 0
, Hit Header: 
crate: 21, fibre: 2, wireIndex: 230, slot: 2, flags: 0, tstamp: 6148914691236517205, median: 0, accumulator: 0

Hit Payload: 
0 : hitStartTime: 51, hitEndTime: 63, hitPeakADC: 412, hitPeakTime: 63, hitSumADC: 2536, hitFlags: 0, hitContinues: 0
, Hit Header: 
crate: 21, fibre: 2, wireIndex: 234, slot: 2, flags: 0, tstamp: 6148914691236517205, median: 0, accumulator: 0

Hit Payload: 
0 : hitStartTime: 60, hitEndTime: 63, hitPeakADC: 67, hitPeakTime: 63, hitSumADC: 167, hitFlags: 0, hitContinues: 0
, Hit Header: 
crate: 21, fibre: 2, wireIndex: 238, slot: 2, flags: 0, tstamp: 6148914691236517205, median: 0, accumulator: 0

Hit Payload: 
0 : hitStartTime: 21, hitEndTime: 49, hitPeakADC: 458, hitPeakTime: 35, hitSumADC: 6940, hitFlags: 0, hitContinues: 0
, Hit Header: 
crate: 21, fibre: 2, wireIndex: 242, slot: 2, flags: 0, tstamp: 6148914691236517205, median: 0, accumulator: 0

Hit Payload: 
0 : hitStartTime: 14, hitEndTime: 43, hitPeakADC: 468, hitPeakTime: 29, hitSumADC: 7166, hitFlags: 0, hitContinues: 0
, Hit Header: 
crate: 21, fibre: 2, wireIndex: 246, slot: 2, flags: 0, tstamp: 6148914691236517205, median: 0, accumulator: 0

Hit Payload: 
0 : hitStartTime: 24, hitEndTime: 53, hitPeakADC: 471, hitPeakTime: 39, hitSumADC: 7172, hitFlags: 0, hitContinues: 0
, Hit Header: 
crate: 21, fibre: 2, wireIndex: 250, slot: 2, flags: 0, tstamp: 6148914691236517205, median: 0, accumulator: 0

Hit Payload: 
0 : hitStartTime: 42, hitEndTime: 63, hitPeakADC: 478, hitPeakTime: 56, hitSumADC: 6472, hitFlags: 0, hitContinues: 0
, Hit Header: 
crate: 21, fibre: 2, wireIndex: 254, slot: 2, flags: 0, tstamp: 6148914691236517205, median: 0, accumulator: 0

Hit Payload: 
0 : hitStartTime: 30, hitEndTime: 59, hitPeakADC: 485, hitPeakTime: 45, hitSumADC: 7400, hitFlags: 0, hitContinues: 0
]
